-0.34611,-0.30122,-0.46824
-0.34611,0.30122,-0.46824
-0.30122,-0.34611,-0.46824
-0.30122,0.34611,-0.46824
-0.27247,-0.22753,-0.46817
-0.27247,0.22753,-0.46817
-0.22753,-0.27247,-0.46817
-0.22753,0.27247,-0.46817
-0.19878,-0.15389,-0.46824
-0.19878,0.15389,-0.46824
-0.15389,-0.19878,-0.46824
-0.15389,0.19878,-0.46824
0.15389,-0.19878,-0.46824
0.15389,0.19878,-0.46824
0.19878,-0.15389,-0.46824
0.19878,0.15389,-0.46824
0.22753,-0.27247,-0.46817
0.22753,0.27247,-0.46817
0.27247,-0.22753,-0.46817
0.27247,0.22753,-0.46817
0.30122,-0.34611,-0.46824
0.30122,0.34611,-0.46824
0.34611,-0.30122,-0.46824
0.34611,0.30122,-0.46824
-0.46824,-0.34611,-0.30122
-0.46824,-0.34611,0.30122
-0.46824,-0.30122,-0.34611
-0.46824,-0.30122,0.34611
-0.46824,-0.19878,-0.15389
-0.46824,-0.19878,0.15389
-0.46824,-0.15389,-0.19878
-0.46824,-0.15389,0.19878
-0.46824,0.15389,-0.19878
-0.46824,0.15389,0.19878
-0.46824,0.19878,-0.15389
-0.46824,0.19878,0.15389
-0.46824,0.30122,-0.34611
-0.46824,0.30122,0.34611
-0.46824,0.34611,-0.30122
-0.46824,0.34611,0.30122
-0.46817,-0.27247,-0.22753
-0.46817,-0.27247,0.22753
-0.46817,-0.22753,-0.27247
-0.46817,-0.22753,0.27247
-0.46817,0.22753,-0.27247
-0.46817,0.22753,0.27247
-0.46817,0.27247,-0.22753
-0.46817,0.27247,0.22753
-0.34611,-0.46824,-0.30122
-0.34611,-0.46824,0.30122
-0.30122,-0.46824,-0.34611
-0.30122,-0.46824,0.34611
-0.27247,-0.46817,-0.22753
-0.27247,-0.46817,0.22753
-0.22753,-0.46817,-0.27247
-0.22753,-0.46817,0.27247
-0.19878,-0.46824,-0.15389
-0.19878,-0.46824,0.15389
-0.15389,-0.46824,-0.19878
-0.15389,-0.46824,0.19878
0.15389,-0.46824,-0.19878
0.15389,-0.46824,0.19878
0.19878,-0.46824,-0.15389
0.19878,-0.46824,0.15389
0.22753,-0.46817,-0.27247
0.22753,-0.46817,0.27247
0.27247,-0.46817,-0.22753
0.27247,-0.46817,0.22753
0.30122,-0.46824,-0.34611
0.30122,-0.46824,0.34611
0.34611,-0.46824,-0.30122
0.34611,-0.46824,0.30122
-0.43175,-0.30936,-0.26446
-0.43175,-0.30936,0.26446
-0.43175,-0.26446,-0.30936
-0.43175,-0.26446,0.30936
-0.43175,-0.23554,-0.19064
-0.43175,-0.23554,0.19064
-0.43175,-0.19064,-0.23554
-0.43175,-0.19064,0.23554
-0.43175,0.19064,-0.23554
-0.43175,0.19064,0.23554
-0.43175,0.23554,-0.19064
-0.43175,0.23554,0.19064
-0.43175,0.26446,-0.30936
-0.43175,0.26446,0.30936
-0.43175,0.30936,-0.26446
-0.43175,0.30936,0.26446
-0.42133,-0.37642,-0.33152
-0.42133,-0.37642,0.33152
-0.42133,-0.33152,-0.37642
-0.42133,-0.33152,0.37642
-0.42133,-0.16848,-0.12358
-0.42133,-0.16848,0.12358
-0.42133,-0.12358,-0.16848
-0.42133,-0.12358,0.16848
-0.42133,0.12358,-0.16848
-0.42133,0.12358,0.16848
-0.42133,0.16848,-0.12358
-0.42133,0.16848,0.12358
-0.42133,0.33152,-0.37642
-0.42133,0.33152,0.37642
-0.42133,0.37642,-0.33152
-0.42133,0.37642,0.33152
-0.38475,-0.33973,-0.29479
-0.38475,-0.33973,0.29479
-0.38475,-0.29479,-0.33973
-0.38475,-0.29479,0.33973
-0.38475,-0.20521,-0.16027
-0.38475,-0.20521,0.16027
-0.38475,-0.16027,-0.20521
-0.38475,-0.16027,0.20521
-0.38475,0.16027,-0.20521
-0.38475,0.16027,0.20521
-0.38475,0.20521,-0.16027
-0.38475,0.20521,0.16027
-0.38475,0.29479,-0.33973
-0.38475,0.29479,0.33973
-0.38475,0.33973,-0.29479
-0.38475,0.33973,0.29479
-0.37642,-0.42133,-0.33152
-0.37642,-0.42133,0.33152
-0.37642,-0.33152,-0.42133
-0.37642,-0.33152,0.42133
-0.37642,-0.16848,-0.07867
-0.37642,-0.16848,0.07867
-0.37642,-0.07867,-0.16848
-0.37642,-0.07867,0.16848
-0.37642,0.07867,-0.16848
-0.37642,0.07867,0.16848
-0.37642,0.16848,-0.07867
-0.37642,0.16848,0.07867
-0.37642,0.33152,-0.42133
-0.37642,0.33152,0.42133
-0.37642,0.42133,-0.33152
-0.37642,0.42133,0.33152
-0.34611,-0.30122,0.46824
-0.34611,-0.19878,-0.03176
-0.34611,-0.19878,0.03176
-0.34611,-0.03176,-0.19878
-0.34611,-0.03176,0.19878
-0.34611,0.03176,-0.19878
-0.34611,0.03176,0.19878
-0.34611,0.19878,-0.03176
-0.34611,0.19878,0.03176
-0.34611,0.30122,0.46824
-0.34611,0.46824,-0.30122
-0.34611,0.46824,0.30122
-0.33973,-0.38475,-0.29479
-0.33973,-0.38475,0.29479
-0.33973,-0.29479,-0.38475
-0.33973,-0.29479,0.38475
-0.33973,-0.20521,-0.11525
-0.33973,-0.20521,0.11525
-0.33973,-0.11525,-0.20521
-0.33973,-0.11525,0.20521
-0.33973,0.11525,-0.20521
-0.33973,0.11525,0.20521
-0.33973,0.20521,-0.11525
-0.33973,0.20521,0.11525
-0.33973,0.29479,-0.38475
-0.33973,0.29479,0.38475
-0.33973,0.38475,-0.29479
-0.33973,0.38475,0.29479
-0.33152,-0.42133,-0.37642
-0.33152,-0.42133,0.37642
-0.33152,-0.37642,-0.42133
-0.33152,-0.37642,0.42133
-0.33152,-0.12358,-0.07867
-0.33152,-0.12358,0.07867
-0.33152,-0.07867,-0.12358
-0.33152,-0.07867,0.12358
-0.33152,0.07867,-0.12358
-0.33152,0.07867,0.12358
-0.33152,0.12358,-0.07867
-0.33152,0.12358,0.07867
-0.33152,0.37642,-0.42133
-0.33152,0.37642,0.42133
-0.33152,0.42133,-0.37642
-0.33152,0.42133,0.37642
-0.30936,-0.43175,-0.26446
-0.30936,-0.43175,0.26446
-0.30936,-0.26446,-0.43175
-0.30936,-0.26446,0.43175
-0.30936,-0.23554,-0.06825
-0.30936,-0.23554,0.06825
-0.30936,-0.06825,-0.23554
-0.30936,-0.06825,0.23554
-0.30936,0.06825,-0.23554
-0.30936,0.06825,0.23554
-0.30936,0.23554,-0.06825
-0.30936,0.23554,0.06825
-0.30936,0.26446,-0.43175
-0.30936,0.26446,0.43175
-0.30936,0.43175,-0.26446
-0.30936,0.43175,0.26446
-0.30122,-0.34611,0.46824
-0.30122,-0.15389,-0.03176
-0.30122,-0.15389,0.03176
-0.30122,-0.03176,-0.15389
-0.30122,-0.03176,0.15389
-0.30122,0.03176,-0.15389
-0.30122,0.03176,0.15389
-0.30122,0.15389,-0.03176
-0.30122,0.15389,0.03176
-0.30122,0.34611,0.46824
-0.30122,0.46824,-0.34611
-0.30122,0.46824,0.34611
-0.29479,-0.38475,-0.33973
-0.29479,-0.38475,0.33973
-0.29479,-0.33973,-0.38475
-0.29479,-0.33973,0.38475
-0.29479,-0.16027,-0.11525
-0.29479,-0.16027,0.11525
-0.29479,-0.11525,-0.16027
-0.29479,-0.11525,0.16027
-0.29479,0.11525,-0.16027
-0.29479,0.11525,0.16027
-0.29479,0.16027,-0.11525
-0.29479,0.16027,0.11525
-0.29479,0.33973,-0.38475
-0.29479,0.33973,0.38475
-0.29479,0.38475,-0.33973
-0.29479,0.38475,0.33973
-0.27247,-0.27247,-0.03183
-0.27247,-0.27247,0.03183
-0.27247,-0.22753,0.46817
-0.27247,-0.03183,-0.27247
-0.27247,-0.03183,0.27247
-0.27247,0.03183,-0.27247
-0.27247,0.03183,0.27247
-0.27247,0.22753,0.46817
-0.27247,0.27247,-0.03183
-0.27247,0.27247,0.03183
-0.27247,0.46817,-0.22753
-0.27247,0.46817,0.22753
-0.26446,-0.43175,-0.30936
-0.26446,-0.43175,0.30936
-0.26446,-0.30936,-0.43175
-0.26446,-0.30936,0.43175
-0.26446,-0.19064,-0.06825
-0.26446,-0.19064,0.06825
-0.26446,-0.06825,-0.19064
-0.26446,-0.06825,0.19064
-0.26446,0.06825,-0.19064
-0.26446,0.06825,0.19064
-0.26446,0.19064,-0.06825
-0.26446,0.19064,0.06825
-0.26446,0.30936,-0.43175
-0.26446,0.30936,0.43175
-0.26446,0.43175,-0.30936
-0.26446,0.43175,0.30936
-0.23554,-0.43175,-0.19064
-0.23554,-0.43175,0.19064
-0.23554,-0.30936,-0.06825
-0.23554,-0.30936,0.06825
-0.23554,-0.19064,-0.43175
-0.23554,-0.19064,0.43175
-0.23554,-0.06825,-0.30936
-0.23554,-0.06825,0.30936
-0.23554,0.06825,-0.30936
-0.23554,0.06825,0.30936
-0.23554,0.19064,-0.43175
-0.23554,0.19064,0.43175
-0.23554,0.30936,-0.06825
-0.23554,0.30936,0.06825
-0.23554,0.43175,-0.19064
-0.23554,0.43175,0.19064
-0.22753,-0.27247,0.46817
-0.22753,-0.22753,-0.03183
-0.22753,-0.22753,0.03183
-0.22753,-0.03183,-0.22753
-0.22753,-0.03183,0.22753
-0.22753,0.03183,-0.22753
-0.22753,0.03183,0.22753
-0.22753,0.22753,-0.03183
-0.22753,0.22753,0.03183
-0.22753,0.27247,0.46817
-0.22753,0.46817,-0.27247
-0.22753,0.46817,0.27247
-0.20521,-0.38475,-0.16027
-0.20521,-0.38475,0.16027
-0.20521,-0.33973,-0.11525
-0.20521,-0.33973,0.11525
-0.20521,-0.16027,-0.38475
-0.20521,-0.16027,0.38475
-0.20521,-0.11525,-0.33973
-0.20521,-0.11525,0.33973
-0.20521,0.11525,-0.33973
-0.20521,0.11525,0.33973
-0.20521,0.16027,-0.38475
-0.20521,0.16027,0.38475
-0.20521,0.33973,-0.11525
-0.20521,0.33973,0.11525
-0.20521,0.38475,-0.16027
-0.20521,0.38475,0.16027
-0.19878,-0.34611,-0.03176
-0.19878,-0.34611,0.03176
-0.19878,-0.15389,0.46824
-0.19878,-0.03176,-0.34611
-0.19878,-0.03176,0.34611
-0.19878,0.03176,-0.34611
-0.19878,0.03176,0.34611
-0.19878,0.15389,0.46824
-0.19878,0.34611,-0.03176
-0.19878,0.34611,0.03176
-0.19878,0.46824,-0.15389
-0.19878,0.46824,0.15389
-0.19064,-0.43175,-0.23554
-0.19064,-0.43175,0.23554
-0.19064,-0.26446,-0.06825
-0.19064,-0.26446,0.06825
-0.19064,-0.23554,-0.43175
-0.19064,-0.23554,0.43175
-0.19064,-0.06825,-0.26446
-0.19064,-0.06825,0.26446
-0.19064,0.06825,-0.26446
-0.19064,0.06825,0.26446
-0.19064,0.23554,-0.43175
-0.19064,0.23554,0.43175
-0.19064,0.26446,-0.06825
-0.19064,0.26446,0.06825
-0.19064,0.43175,-0.23554
-0.19064,0.43175,0.23554
-0.16848,-0.42133,-0.12358
-0.16848,-0.42133,0.12358
-0.16848,-0.37642,-0.07867
-0.16848,-0.37642,0.07867
-0.16848,-0.12358,-0.42133
-0.16848,-0.12358,0.42133
-0.16848,-0.07867,-0.37642
-0.16848,-0.07867,0.37642
-0.16848,0.07867,-0.37642
-0.16848,0.07867,0.37642
-0.16848,0.12358,-0.42133
-0.16848,0.12358,0.42133
-0.16848,0.37642,-0.07867
-0.16848,0.37642,0.07867
-0.16848,0.42133,-0.12358
-0.16848,0.42133,0.12358
-0.16027,-0.38475,-0.20521
-0.16027,-0.38475,0.20521
-0.16027,-0.29479,-0.11525
-0.16027,-0.29479,0.11525
-0.16027,-0.20521,-0.38475
-0.16027,-0.20521,0.38475
-0.16027,-0.11525,-0.29479
-0.16027,-0.11525,0.29479
-0.16027,0.11525,-0.29479
-0.16027,0.11525,0.29479
-0.16027,0.20521,-0.38475
-0.16027,0.20521,0.38475
-0.16027,0.29479,-0.11525
-0.16027,0.29479,0.11525
-0.16027,0.38475,-0.20521
-0.16027,0.38475,0.20521
-0.15389,-0.30122,-0.03176
-0.15389,-0.30122,0.03176
-0.15389,-0.19878,0.46824
-0.15389,-0.03176,-0.30122
-0.15389,-0.03176,0.30122
-0.15389,0.03176,-0.30122
-0.15389,0.03176,0.30122
-0.15389,0.19878,0.46824
-0.15389,0.30122,-0.03176
-0.15389,0.30122,0.03176
-0.15389,0.46824,-0.19878
-0.15389,0.46824,0.19878
-0.12358,-0.42133,-0.16848
-0.12358,-0.42133,0.16848
-0.12358,-0.33152,-0.07867
-0.12358,-0.33152,0.07867
-0.12358,-0.16848,-0.42133
-0.12358,-0.16848,0.42133
-0.12358,-0.07867,-0.33152
-0.12358,-0.07867,0.33152
-0.12358,0.07867,-0.33152
-0.12358,0.07867,0.33152
-0.12358,0.16848,-0.42133
-0.12358,0.16848,0.42133
-0.12358,0.33152,-0.07867
-0.12358,0.33152,0.07867
-0.12358,0.42133,-0.16848
-0.12358,0.42133,0.16848
-0.11525,-0.33973,-0.20521
-0.11525,-0.33973,0.20521
-0.11525,-0.29479,-0.16027
-0.11525,-0.29479,0.16027
-0.11525,-0.20521,-0.33973
-0.11525,-0.20521,0.33973
-0.11525,-0.16027,-0.29479
-0.11525,-0.16027,0.29479
-0.11525,0.16027,-0.29479
-0.11525,0.16027,0.29479
-0.11525,0.20521,-0.33973
-0.11525,0.20521,0.33973
-0.11525,0.29479,-0.16027
-0.11525,0.29479,0.16027
-0.11525,0.33973,-0.20521
-0.11525,0.33973,0.20521
-0.07867,-0.37642,-0.16848
-0.07867,-0.37642,0.16848
-0.07867,-0.33152,-0.12358
-0.07867,-0.33152,0.12358
-0.07867,-0.16848,-0.37642
-0.07867,-0.16848,0.37642
-0.07867,-0.12358,-0.33152
-0.07867,-0.12358,0.33152
-0.07867,0.12358,-0.33152
-0.07867,0.12358,0.33152
-0.07867,0.16848,-0.37642
-0.07867,0.16848,0.37642
-0.07867,0.33152,-0.12358
-0.07867,0.33152,0.12358
-0.07867,0.37642,-0.16848
-0.07867,0.37642,0.16848
-0.06825,-0.30936,-0.23554
-0.06825,-0.30936,0.23554
-0.06825,-0.26446,-0.19064
-0.06825,-0.26446,0.19064
-0.06825,-0.23554,-0.30936
-0.06825,-0.23554,0.30936
-0.06825,-0.19064,-0.26446
-0.06825,-0.19064,0.26446
-0.06825,0.19064,-0.26446
-0.06825,0.19064,0.26446
-0.06825,0.23554,-0.30936
-0.06825,0.23554,0.30936
-0.06825,0.26446,-0.19064
-0.06825,0.26446,0.19064
-0.06825,0.30936,-0.23554
-0.06825,0.30936,0.23554
-0.03183,-0.27247,-0.27247
-0.03183,-0.27247,0.27247
-0.03183,-0.22753,-0.22753
-0.03183,-0.22753,0.22753
-0.03183,0.22753,-0.22753
-0.03183,0.22753,0.22753
-0.03183,0.27247,-0.27247
-0.03183,0.27247,0.27247
-0.03176,-0.34611,-0.19878
-0.03176,-0.34611,0.19878
-0.03176,-0.30122,-0.15389
-0.03176,-0.30122,0.15389
-0.03176,-0.19878,-0.34611
-0.03176,-0.19878,0.34611
-0.03176,-0.15389,-0.30122
-0.03176,-0.15389,0.30122
-0.03176,0.15389,-0.30122
-0.03176,0.15389,0.30122
-0.03176,0.19878,-0.34611
-0.03176,0.19878,0.34611
-0.03176,0.30122,-0.15389
-0.03176,0.30122,0.15389
-0.03176,0.34611,-0.19878
-0.03176,0.34611,0.19878
0.03176,-0.34611,-0.19878
0.03176,-0.34611,0.19878
0.03176,-0.30122,-0.15389
0.03176,-0.30122,0.15389
0.03176,-0.19878,-0.34611
0.03176,-0.19878,0.34611
0.03176,-0.15389,-0.30122
0.03176,-0.15389,0.30122
0.03176,0.15389,-0.30122
0.03176,0.15389,0.30122
0.03176,0.19878,-0.34611
0.03176,0.19878,0.34611
0.03176,0.30122,-0.15389
0.03176,0.30122,0.15389
0.03176,0.34611,-0.19878
0.03176,0.34611,0.19878
0.03183,-0.27247,-0.27247
0.03183,-0.27247,0.27247
0.03183,-0.22753,-0.22753
0.03183,-0.22753,0.22753
0.03183,0.22753,-0.22753
0.03183,0.22753,0.22753
0.03183,0.27247,-0.27247
0.03183,0.27247,0.27247
0.06825,-0.30936,-0.23554
0.06825,-0.30936,0.23554
0.06825,-0.26446,-0.19064
0.06825,-0.26446,0.19064
0.06825,-0.23554,-0.30936
0.06825,-0.23554,0.30936
0.06825,-0.19064,-0.26446
0.06825,-0.19064,0.26446
0.06825,0.19064,-0.26446
0.06825,0.19064,0.26446
0.06825,0.23554,-0.30936
0.06825,0.23554,0.30936
0.06825,0.26446,-0.19064
0.06825,0.26446,0.19064
0.06825,0.30936,-0.23554
0.06825,0.30936,0.23554
0.07867,-0.37642,-0.16848
0.07867,-0.37642,0.16848
0.07867,-0.33152,-0.12358
0.07867,-0.33152,0.12358
0.07867,-0.16848,-0.37642
0.07867,-0.16848,0.37642
0.07867,-0.12358,-0.33152
0.07867,-0.12358,0.33152
0.07867,0.12358,-0.33152
0.07867,0.12358,0.33152
0.07867,0.16848,-0.37642
0.07867,0.16848,0.37642
0.07867,0.33152,-0.12358
0.07867,0.33152,0.12358
0.07867,0.37642,-0.16848
0.07867,0.37642,0.16848
0.11525,-0.33973,-0.20521
0.11525,-0.33973,0.20521
0.11525,-0.29479,-0.16027
0.11525,-0.29479,0.16027
0.11525,-0.20521,-0.33973
0.11525,-0.20521,0.33973
0.11525,-0.16027,-0.29479
0.11525,-0.16027,0.29479
0.11525,0.16027,-0.29479
0.11525,0.16027,0.29479
0.11525,0.20521,-0.33973
0.11525,0.20521,0.33973
0.11525,0.29479,-0.16027
0.11525,0.29479,0.16027
0.11525,0.33973,-0.20521
0.11525,0.33973,0.20521
0.12358,-0.42133,-0.16848
0.12358,-0.42133,0.16848
0.12358,-0.33152,-0.07867
0.12358,-0.33152,0.07867
0.12358,-0.16848,-0.42133
0.12358,-0.16848,0.42133
0.12358,-0.07867,-0.33152
0.12358,-0.07867,0.33152
0.12358,0.07867,-0.33152
0.12358,0.07867,0.33152
0.12358,0.16848,-0.42133
0.12358,0.16848,0.42133
0.12358,0.33152,-0.07867
0.12358,0.33152,0.07867
0.12358,0.42133,-0.16848
0.12358,0.42133,0.16848
0.15389,-0.30122,-0.03176
0.15389,-0.30122,0.03176
0.15389,-0.19878,0.46824
0.15389,-0.03176,-0.30122
0.15389,-0.03176,0.30122
0.15389,0.03176,-0.30122
0.15389,0.03176,0.30122
0.15389,0.19878,0.46824
0.15389,0.30122,-0.03176
0.15389,0.30122,0.03176
0.15389,0.46824,-0.19878
0.15389,0.46824,0.19878
0.16027,-0.38475,-0.20521
0.16027,-0.38475,0.20521
0.16027,-0.29479,-0.11525
0.16027,-0.29479,0.11525
0.16027,-0.20521,-0.38475
0.16027,-0.20521,0.38475
0.16027,-0.11525,-0.29479
0.16027,-0.11525,0.29479
0.16027,0.11525,-0.29479
0.16027,0.11525,0.29479
0.16027,0.20521,-0.38475
0.16027,0.20521,0.38475
0.16027,0.29479,-0.11525
0.16027,0.29479,0.11525
0.16027,0.38475,-0.20521
0.16027,0.38475,0.20521
0.16848,-0.42133,-0.12358
0.16848,-0.42133,0.12358
0.16848,-0.37642,-0.07867
0.16848,-0.37642,0.07867
0.16848,-0.12358,-0.42133
0.16848,-0.12358,0.42133
0.16848,-0.07867,-0.37642
0.16848,-0.07867,0.37642
0.16848,0.07867,-0.37642
0.16848,0.07867,0.37642
0.16848,0.12358,-0.42133
0.16848,0.12358,0.42133
0.16848,0.37642,-0.07867
0.16848,0.37642,0.07867
0.16848,0.42133,-0.12358
0.16848,0.42133,0.12358
0.19064,-0.43175,-0.23554
0.19064,-0.43175,0.23554
0.19064,-0.26446,-0.06825
0.19064,-0.26446,0.06825
0.19064,-0.23554,-0.43175
0.19064,-0.23554,0.43175
0.19064,-0.06825,-0.26446
0.19064,-0.06825,0.26446
0.19064,0.06825,-0.26446
0.19064,0.06825,0.26446
0.19064,0.23554,-0.43175
0.19064,0.23554,0.43175
0.19064,0.26446,-0.06825
0.19064,0.26446,0.06825
0.19064,0.43175,-0.23554
0.19064,0.43175,0.23554
0.19878,-0.34611,-0.03176
0.19878,-0.34611,0.03176
0.19878,-0.15389,0.46824
0.19878,-0.03176,-0.34611
0.19878,-0.03176,0.34611
0.19878,0.03176,-0.34611
0.19878,0.03176,0.34611
0.19878,0.15389,0.46824
0.19878,0.34611,-0.03176
0.19878,0.34611,0.03176
0.19878,0.46824,-0.15389
0.19878,0.46824,0.15389
0.20521,-0.38475,-0.16027
0.20521,-0.38475,0.16027
0.20521,-0.33973,-0.11525
0.20521,-0.33973,0.11525
0.20521,-0.16027,-0.38475
0.20521,-0.16027,0.38475
0.20521,-0.11525,-0.33973
0.20521,-0.11525,0.33973
0.20521,0.11525,-0.33973
0.20521,0.11525,0.33973
0.20521,0.16027,-0.38475
0.20521,0.16027,0.38475
0.20521,0.33973,-0.11525
0.20521,0.33973,0.11525
0.20521,0.38475,-0.16027
0.20521,0.38475,0.16027
0.22753,-0.27247,0.46817
0.22753,-0.22753,-0.03183
0.22753,-0.22753,0.03183
0.22753,-0.03183,-0.22753
0.22753,-0.03183,0.22753
0.22753,0.03183,-0.22753
0.22753,0.03183,0.22753
0.22753,0.22753,-0.03183
0.22753,0.22753,0.03183
0.22753,0.27247,0.46817
0.22753,0.46817,-0.27247
0.22753,0.46817,0.27247
0.23554,-0.43175,-0.19064
0.23554,-0.43175,0.19064
0.23554,-0.30936,-0.06825
0.23554,-0.30936,0.06825
0.23554,-0.19064,-0.43175
0.23554,-0.19064,0.43175
0.23554,-0.06825,-0.30936
0.23554,-0.06825,0.30936
0.23554,0.06825,-0.30936
0.23554,0.06825,0.30936
0.23554,0.19064,-0.43175
0.23554,0.19064,0.43175
0.23554,0.30936,-0.06825
0.23554,0.30936,0.06825
0.23554,0.43175,-0.19064
0.23554,0.43175,0.19064
0.26446,-0.43175,-0.30936
0.26446,-0.43175,0.30936
0.26446,-0.30936,-0.43175
0.26446,-0.30936,0.43175
0.26446,-0.19064,-0.06825
0.26446,-0.19064,0.06825
0.26446,-0.06825,-0.19064
0.26446,-0.06825,0.19064
0.26446,0.06825,-0.19064
0.26446,0.06825,0.19064
0.26446,0.19064,-0.06825
0.26446,0.19064,0.06825
0.26446,0.30936,-0.43175
0.26446,0.30936,0.43175
0.26446,0.43175,-0.30936
0.26446,0.43175,0.30936
0.27247,-0.27247,-0.03183
0.27247,-0.27247,0.03183
0.27247,-0.22753,0.46817
0.27247,-0.03183,-0.27247
0.27247,-0.03183,0.27247
0.27247,0.03183,-0.27247
0.27247,0.03183,0.27247
0.27247,0.22753,0.46817
0.27247,0.27247,-0.03183
0.27247,0.27247,0.03183
0.27247,0.46817,-0.22753
0.27247,0.46817,0.22753
0.29479,-0.38475,-0.33973
0.29479,-0.38475,0.33973
0.29479,-0.33973,-0.38475
0.29479,-0.33973,0.38475
0.29479,-0.16027,-0.11525
0.29479,-0.16027,0.11525
0.29479,-0.11525,-0.16027
0.29479,-0.11525,0.16027
0.29479,0.11525,-0.16027
0.29479,0.11525,0.16027
0.29479,0.16027,-0.11525
0.29479,0.16027,0.11525
0.29479,0.33973,-0.38475
0.29479,0.33973,0.38475
0.29479,0.38475,-0.33973
0.29479,0.38475,0.33973
0.30122,-0.34611,0.46824
0.30122,-0.15389,-0.03176
0.30122,-0.15389,0.03176
0.30122,-0.03176,-0.15389
0.30122,-0.03176,0.15389
0.30122,0.03176,-0.15389
0.30122,0.03176,0.15389
0.30122,0.15389,-0.03176
0.30122,0.15389,0.03176
0.30122,0.34611,0.46824
0.30122,0.46824,-0.34611
0.30122,0.46824,0.34611
0.30936,-0.43175,-0.26446
0.30936,-0.43175,0.26446
0.30936,-0.26446,-0.43175
0.30936,-0.26446,0.43175
0.30936,-0.23554,-0.06825
0.30936,-0.23554,0.06825
0.30936,-0.06825,-0.23554
0.30936,-0.06825,0.23554
0.30936,0.06825,-0.23554
0.30936,0.06825,0.23554
0.30936,0.23554,-0.06825
0.30936,0.23554,0.06825
0.30936,0.26446,-0.43175
0.30936,0.26446,0.43175
0.30936,0.43175,-0.26446
0.30936,0.43175,0.26446
0.33152,-0.42133,-0.37642
0.33152,-0.42133,0.37642
0.33152,-0.37642,-0.42133
0.33152,-0.37642,0.42133
0.33152,-0.12358,-0.07867
0.33152,-0.12358,0.07867
0.33152,-0.07867,-0.12358
0.33152,-0.07867,0.12358
0.33152,0.07867,-0.12358
0.33152,0.07867,0.12358
0.33152,0.12358,-0.07867
0.33152,0.12358,0.07867
0.33152,0.37642,-0.42133
0.33152,0.37642,0.42133
0.33152,0.42133,-0.37642
0.33152,0.42133,0.37642
0.33973,-0.38475,-0.29479
0.33973,-0.38475,0.29479
0.33973,-0.29479,-0.38475
0.33973,-0.29479,0.38475
0.33973,-0.20521,-0.11525
0.33973,-0.20521,0.11525
0.33973,-0.11525,-0.20521
0.33973,-0.11525,0.20521
0.33973,0.11525,-0.20521
0.33973,0.11525,0.20521
0.33973,0.20521,-0.11525
0.33973,0.20521,0.11525
0.33973,0.29479,-0.38475
0.33973,0.29479,0.38475
0.33973,0.38475,-0.29479
0.33973,0.38475,0.29479
0.34611,-0.30122,0.46824
0.34611,-0.19878,-0.03176
0.34611,-0.19878,0.03176
0.34611,-0.03176,-0.19878
0.34611,-0.03176,0.19878
0.34611,0.03176,-0.19878
0.34611,0.03176,0.19878
0.34611,0.19878,-0.03176
0.34611,0.19878,0.03176
0.34611,0.30122,0.46824
0.34611,0.46824,-0.30122
0.34611,0.46824,0.30122
0.37642,-0.42133,-0.33152
0.37642,-0.42133,0.33152
0.37642,-0.33152,-0.42133
0.37642,-0.33152,0.42133
0.37642,-0.16848,-0.07867
0.37642,-0.16848,0.07867
0.37642,-0.07867,-0.16848
0.37642,-0.07867,0.16848
0.37642,0.07867,-0.16848
0.37642,0.07867,0.16848
0.37642,0.16848,-0.07867
0.37642,0.16848,0.07867
0.37642,0.33152,-0.42133
0.37642,0.33152,0.42133
0.37642,0.42133,-0.33152
0.37642,0.42133,0.33152
0.38475,-0.33973,-0.29479
0.38475,-0.33973,0.29479
0.38475,-0.29479,-0.33973
0.38475,-0.29479,0.33973
0.38475,-0.20521,-0.16027
0.38475,-0.20521,0.16027
0.38475,-0.16027,-0.20521
0.38475,-0.16027,0.20521
0.38475,0.16027,-0.20521
0.38475,0.16027,0.20521
0.38475,0.20521,-0.16027
0.38475,0.20521,0.16027
0.38475,0.29479,-0.33973
0.38475,0.29479,0.33973
0.38475,0.33973,-0.29479
0.38475,0.33973,0.29479
0.42133,-0.37642,-0.33152
0.42133,-0.37642,0.33152
0.42133,-0.33152,-0.37642
0.42133,-0.33152,0.37642
0.42133,-0.16848,-0.12358
0.42133,-0.16848,0.12358
0.42133,-0.12358,-0.16848
0.42133,-0.12358,0.16848
0.42133,0.12358,-0.16848
0.42133,0.12358,0.16848
0.42133,0.16848,-0.12358
0.42133,0.16848,0.12358
0.42133,0.33152,-0.37642
0.42133,0.33152,0.37642
0.42133,0.37642,-0.33152
0.42133,0.37642,0.33152
0.43175,-0.30936,-0.26446
0.43175,-0.30936,0.26446
0.43175,-0.26446,-0.30936
0.43175,-0.26446,0.30936
0.43175,-0.23554,-0.19064
0.43175,-0.23554,0.19064
0.43175,-0.19064,-0.23554
0.43175,-0.19064,0.23554
0.43175,0.19064,-0.23554
0.43175,0.19064,0.23554
0.43175,0.23554,-0.19064
0.43175,0.23554,0.19064
0.43175,0.26446,-0.30936
0.43175,0.26446,0.30936
0.43175,0.30936,-0.26446
0.43175,0.30936,0.26446
0.46817,-0.27247,-0.22753
0.46817,-0.27247,0.22753
0.46817,-0.22753,-0.27247
0.46817,-0.22753,0.27247
0.46817,0.22753,-0.27247
0.46817,0.22753,0.27247
0.46817,0.27247,-0.22753
0.46817,0.27247,0.22753
0.46824,-0.34611,-0.30122
0.46824,-0.34611,0.30122
0.46824,-0.30122,-0.34611
0.46824,-0.30122,0.34611
0.46824,-0.19878,-0.15389
0.46824,-0.19878,0.15389
0.46824,-0.15389,-0.19878
0.46824,-0.15389,0.19878
0.46824,0.15389,-0.19878
0.46824,0.15389,0.19878
0.46824,0.19878,-0.15389
0.46824,0.19878,0.15389
0.46824,0.30122,-0.34611
0.46824,0.30122,0.34611
0.46824,0.34611,-0.30122
0.46824,0.34611,0.30122
-0.27247,-0.22753,-0.5
-0.22753,-0.27247,-0.5
-0.27247,0.22753,-0.5
0.22753,-0.27247,-0.5
-0.22753,0.27247,-0.5
0.27247,-0.22753,-0.5
0.22753,0.27247,-0.5
0.27247,0.22753,-0.5
-0.34611,-0.30122,-0.5
-0.30122,-0.34611,-0.5
-0.19878,-0.15389,-0.5
-0.15389,-0.19878,-0.5
-0.19878,0.15389,-0.5
0.15389,-0.19878,-0.5
-0.15389,0.19878,-0.5
0.19878,-0.15389,-0.5
-0.34611,0.30122,-0.5
0.30122,-0.34611,-0.5
-0.30122,0.34611,-0.5
0.34611,-0.30122,-0.5
0.15389,0.19878,-0.5
0.19878,0.15389,-0.5
0.30122,0.34611,-0.5
0.34611,0.30122,-0.5
-0.5,-0.27247,-0.22753
-0.5,-0.22753,-0.27247
-0.5,-0.27247,0.22753
-0.5,0.22753,-0.27247
-0.5,-0.22753,0.27247
-0.5,0.27247,-0.22753
-0.5,0.22753,0.27247
-0.5,0.27247,0.22753
-0.5,-0.34611,-0.30122
-0.5,-0.30122,-0.34611
-0.5,-0.19878,-0.15389
-0.5,-0.15389,-0.19878
-0.5,-0.19878,0.15389
-0.5,0.15389,-0.19878
-0.5,-0.15389,0.19878
-0.5,0.19878,-0.15389
-0.5,-0.34611,0.30122
-0.5,0.30122,-0.34611
-0.5,-0.30122,0.34611
-0.5,0.34611,-0.30122
-0.5,0.15389,0.19878
-0.5,0.19878,0.15389
-0.5,0.30122,0.34611
-0.5,0.34611,0.30122
-0.27247,-0.5,-0.22753
-0.22753,-0.5,-0.27247
-0.27247,-0.5,0.22753
0.22753,-0.5,-0.27247
-0.22753,-0.5,0.27247
0.27247,-0.5,-0.22753
0.22753,-0.5,0.27247
0.27247,-0.5,0.22753
-0.34611,-0.5,-0.30122
-0.30122,-0.5,-0.34611
-0.19878,-0.5,-0.15389
-0.15389,-0.5,-0.19878
-0.19878,-0.5,0.15389
0.15389,-0.5,-0.19878
-0.15389,-0.5,0.19878
0.19878,-0.5,-0.15389
-0.34611,-0.5,0.30122
0.30122,-0.5,-0.34611
-0.30122,-0.5,0.34611
0.34611,-0.5,-0.30122
0.15389,-0.5,0.19878
0.19878,-0.5,0.15389
0.30122,-0.5,0.34611
0.34611,-0.5,0.30122
-0.27247,-0.22753,0.5
-0.27247,0.5,-0.22753
-0.22753,-0.27247,0.5
-0.22753,0.5,-0.27247
0.5,-0.27247,-0.22753
0.5,-0.22753,-0.27247
-0.27247,0.22753,0.5
-0.27247,0.5,0.22753
0.22753,-0.27247,0.5
0.22753,0.5,-0.27247
0.5,-0.27247,0.22753
0.5,0.22753,-0.27247
-0.22753,0.27247,0.5
-0.22753,0.5,0.27247
0.27247,-0.22753,0.5
0.27247,0.5,-0.22753
0.5,-0.22753,0.27247
0.5,0.27247,-0.22753
0.22753,0.27247,0.5
0.22753,0.5,0.27247
0.27247,0.22753,0.5
0.27247,0.5,0.22753
0.5,0.22753,0.27247
0.5,0.27247,0.22753
-0.34611,-0.30122,0.5
-0.34611,0.5,-0.30122
-0.30122,-0.34611,0.5
-0.30122,0.5,-0.34611
0.5,-0.34611,-0.30122
0.5,-0.30122,-0.34611
-0.19878,-0.15389,0.5
-0.19878,0.5,-0.15389
-0.15389,-0.19878,0.5
-0.15389,0.5,-0.19878
0.5,-0.19878,-0.15389
0.5,-0.15389,-0.19878
-0.19878,0.15389,0.5
-0.19878,0.5,0.15389
0.15389,-0.19878,0.5
0.15389,0.5,-0.19878
0.5,-0.19878,0.15389
0.5,0.15389,-0.19878
-0.15389,0.19878,0.5
-0.15389,0.5,0.19878
0.19878,-0.15389,0.5
0.19878,0.5,-0.15389
0.5,-0.15389,0.19878
0.5,0.19878,-0.15389
-0.34611,0.30122,0.5
-0.34611,0.5,0.30122
0.30122,-0.34611,0.5
0.30122,0.5,-0.34611
0.5,-0.34611,0.30122
0.5,0.30122,-0.34611
-0.30122,0.34611,0.5
-0.30122,0.5,0.34611
0.34611,-0.30122,0.5
0.34611,0.5,-0.30122
0.5,-0.30122,0.34611
0.5,0.34611,-0.30122
0.15389,0.19878,0.5
0.15389,0.5,0.19878
0.19878,0.15389,0.5
0.19878,0.5,0.15389
0.5,0.15389,0.19878
0.5,0.19878,0.15389
0.30122,0.34611,0.5
0.30122,0.5,0.34611
0.34611,0.30122,0.5
0.34611,0.5,0.30122
0.5,0.30122,0.34611
0.5,0.34611,0.30122
connectivity
24,26
48,50
0,2
28,30
56,58
8,10
137,197
139,199
296,356
299,359
440,442
444,446
138,198
141,201
297,357
301,361
456,458
460,462
29,31
32,34
57,59
9,11
60,62
12,14
25,27
36,38
49,51
1,3
68,70
20,22
140,200
143,203
441,443
448,450
544,604
547,607
142,202
144,204
457,459
464,466
545,605
549,609
33,35
61,63
13,15
300,360
304,364
445,447
452,454
705,765
707,767
136,196
146,206
848,850
302,362
305,365
461,463
468,470
706,766
709,769
298,358
306,366
852,854
449,451
453,455
548,608
552,612
708,768
711,771
465,467
469,471
550,610
553,613
710,770
712,772
37,39
69,71
21,23
303,363
307,367
546,606
554,614
853,855
856,858
145,205
147,207
704,764
714,774
849,851
860,862
551,611
555,615
857,859
713,773
715,775
861,863
72,104
74,106
148,180
150,182
208,236
210,238
76,108
78,110
252,280
256,284
308,340
312,344
152,184
154,186
254,282
258,286
384,416
388,420
212,240
214,242
310,342
314,346
386,418
390,422
153,185
156,188
255,283
260,288
480,512
484,516
213,241
216,244
311,343
316,348
482,514
486,518
77,109
80,112
253,281
262,290
556,588
560,592
73,105
84,116
149,181
160,192
660,688
662,690
79,111
82,114
309,341
318,350
616,644
620,648
215,243
218,246
387,419
392,424
558,590
562,594
155,187
158,190
385,417
394,426
618,646
622,650
75,107
86,118
209,237
220,248
716,748
718,750
151,183
162,194
211,239
222,250
792,824
794,826
217,245
219,247
483,515
488,520
559,591
564,596
315,347
320,352
391,423
396,428
664,692
666,694
157,189
159,191
481,513
490,522
619,647
624,652
259,287
264,292
389,421
398,430
720,752
722,754
81,113
83,115
557,589
566,598
617,645
626,654
257,285
266,294
313,345
322,354
796,828
798,830
317,349
321,353
487,519
492,524
665,693
668,696
261,289
265,293
485,517
494,526
721,753
724,756
393,425
397,429
563,595
568,600
667,695
670,698
85,117
87,119
661,689
672,700
717,749
728,760
263,291
267,295
561,593
570,602
797,829
800,832
395,427
399,431
623,651
628,656
723,755
726,758
489,521
493,525
565,597
569,601
669,697
671,699
319,351
323,355
621,649
630,658
799,831
802,834
161,193
163,195
663,691
674,702
793,825
804,836
491,523
495,527
625,653
629,657
725,757
727,759
221,249
223,251
719,751
730,762
795,827
806,838
567,599
571,603
627,655
631,659
801,833
803,835
673,701
675,703
729,761
731,763
805,837
807,839
40,72
42,74
52,180
4,182
54,236
6,238
40,76
42,78
52,252
4,256
54,308
6,312
184,224
186,227
224,254
227,258
416,432
420,432
240,269
242,271
269,310
271,314
418,434
422,434
185,225
225,255
188,229
229,260
472,480
472,484
241,270
270,311
244,273
273,316
474,482
474,486
41,77
44,80
53,253
5,262
64,588
16,592
41,73
44,84
53,181
5,192
64,660
16,662
43,79
46,82
55,309
7,318
66,644
18,648
43,75
46,86
55,237
7,248
66,716
18,718
243,272
246,275
419,435
424,436
590,633
594,635
187,228
190,232
417,433
426,438
646,676
650,679
272,315
275,320
423,435
428,436
633,664
635,666
245,274
247,276
475,483
476,488
591,634
596,637
228,259
232,264
421,433
430,438
676,720
679,722
274,317
276,321
475,487
476,492
634,665
637,668
189,230
191,233
473,481
478,490
647,677
652,681
230,261
233,265
473,485
478,494
677,721
681,724
183,226
194,234
239,268
250,278
824,840
826,842
45,81
47,83
65,589
17,598
67,645
19,654
226,257
234,266
268,313
278,322
828,840
830,842
45,85
47,87
65,661
17,672
67,717
19,728
425,437
429,437
595,636
600,639
636,667
639,670
477,489
477,493
597,638
638,669
601,640
640,671
427,439
431,439
651,680
656,684
680,723
684,726
231,263
235,267
593,632
602,642
829,841
832,844
479,491
479,495
653,682
682,725
657,685
685,727
193,231
195,235
632,663
642,674
825,841
836,844
277,319
279,323
649,678
658,686
831,843
834,846
249,277
251,279
678,719
686,730
827,843
838,846
599,641
603,643
655,683
659,687
833,845
835,847
641,673
643,675
683,729
687,731
837,845
839,847
104,148
106,150
208,210
108,152
110,154
280,282
284,286
340,384
344,388
212,214
342,386
346,390
109,153
112,156
281,283
288,290
512,556
516,560
213,215
216,218
343,387
348,392
514,558
518,562
111,155
114,158
341,385
350,394
616,618
620,622
105,149
116,160
688,690
107,151
118,162
209,211
220,222
748,792
750,794
217,219
515,559
520,564
347,391
352,396
692,694
113,157
115,159
513,557
522,566
617,619
624,626
285,287
292,294
345,389
354,398
752,796
754,798
349,393
353,397
519,563
524,568
693,695
696,698
289,291
293,295
517,561
526,570
753,797
756,800
117,161
119,163
689,691
700,702
749,793
760,804
351,395
355,399
621,623
628,630
755,799
758,802
521,565
525,569
697,699
221,223
751,795
762,806
523,567
527,571
625,627
629,631
757,801
759,803
701,703
761,805
763,807
88,90
120,164
122,166
92,94
324,368
328,372
124,168
126,170
326,370
330,374
400,402
404,406
125,169
128,172
327,371
332,376
496,498
500,502
93,95
96,98
325,369
334,378
528,572
532,576
127,171
130,174
401,403
408,410
530,574
534,578
89,91
100,102
121,165
132,176
732,776
734,778
129,173
131,175
497,499
504,506
531,575
536,580
97,99
529,573
538,582
123,167
134,178
808,810
331,375
336,380
405,407
412,414
736,780
738,782
329,373
338,382
812,814
333,377
337,381
501,503
508,510
737,781
740,784
409,411
413,415
535,579
540,584
739,783
742,786
335,379
339,383
533,577
542,586
813,815
816,818
505,507
509,511
537,581
541,585
741,785
743,787
101,103
733,777
744,788
133,177
135,179
735,779
746,790
809,811
820,822
539,583
543,587
817,819
745,789
747,791
821,823
88,104
90,106
120,148
122,150
164,208
166,210
92,108
94,110
280,324
284,328
340,368
344,372
124,152
126,154
282,326
286,330
384,400
388,404
168,212
170,214
342,370
346,374
386,402
390,406
125,153
128,156
283,327
288,332
496,512
500,516
169,213
172,216
343,371
348,376
498,514
502,518
93,109
96,112
281,325
290,334
528,556
532,560
95,111
98,114
341,369
350,378
572,616
576,620
171,215
174,218
387,403
392,408
530,558
534,562
127,155
130,158
385,401
394,410
574,618
578,622
89,105
100,116
121,149
132,160
688,732
690,734
173,217
175,219
499,515
504,520
531,559
536,564
91,107
102,118
165,209
176,220
748,776
750,778
129,157
131,159
497,513
506,522
575,619
580,624
97,113
99,115
529,557
538,566
573,617
582,626
123,151
134,162
167,211
178,222
792,808
794,810
347,375
352,380
391,407
396,412
692,736
694,738
287,331
292,336
389,405
398,414
752,780
754,782
285,329
294,338
345,373
354,382
796,812
798,814
349,377
353,381
503,519
508,524
693,737
696,740
289,333
293,337
501,517
510,526
753,781
756,784
393,409
397,413
535,563
540,568
695,739
698,742
291,335
295,339
533,561
542,570
797,813
800,816
101,117
103,119
689,733
700,744
749,777
760,788
395,411
399,415
579,623
584,628
755,783
758,786
351,379
355,383
577,621
586,630
799,815
802,818
505,521
509,525
537,565
541,569
697,741
699,743
133,161
135,163
691,735
702,746
793,809
804,820
177,221
179,223
751,779
762,790
795,811
806,822
507,523
511,527
581,625
585,629
757,785
759,787
539,567
543,571
583,627
587,631
801,817
803,819
701,745
703,747
761,789
763,791
805,821
807,823
224,225
227,229
432,472
269,270
271,273
434,474
272,274
275,276
435,475
436,476
633,634
635,637
228,230
232,233
433,473
438,478
676,677
679,681
437,477
636,638
639,640
439,479
680,682
684,685
24,88
26,90
48,120
0,122
50,164
2,166
28,92
30,94
56,324
8,328
58,368
10,372
124,137
126,139
296,326
299,330
400,440
404,444
168,197
170,199
356,370
359,374
402,442
406,446
125,138
128,141
297,327
301,332
456,496
460,500
169,198
172,201
357,371
361,376
458,498
462,502
29,93
32,96
57,325
9,334
60,528
12,532
31,95
34,98
59,369
11,378
62,572
14,576
171,200
174,203
403,443
408,448
530,544
534,547
127,140
130,143
401,441
410,450
574,604
578,607
25,89
36,100
49,121
1,132
68,732
20,734
173,202
175,204
459,499
464,504
531,545
536,549
27,91
38,102
51,165
3,176
70,776
22,778
129,142
131,144
457,497
466,506
575,605
580,609
33,97
35,99
61,529
13,538
63,573
15,582
123,136
134,146
167,196
178,206
808,848
810,850
360,375
364,380
407,447
412,452
705,736
707,738
300,331
304,336
405,445
414,454
765,780
767,782
362,377
365,381
463,503
468,508
706,737
709,740
302,333
305,337
461,501
470,510
766,781
769,784
298,329
306,338
358,373
366,382
812,852
814,854
409,449
413,453
535,548
540,552
708,739
711,742
303,335
307,339
533,546
542,554
813,853
816,856
465,505
469,509
537,550
541,553
710,741
712,743
37,101
39,103
69,733
21,744
71,777
23,788
411,451
415,455
579,608
584,612
768,783
771,786
363,379
367,383
577,606
586,614
815,855
818,858
467,507
471,511
581,610
585,613
770,785
772,787
133,145
135,147
704,735
714,746
809,849
820,860
177,205
179,207
764,779
774,790
811,851
822,862
539,551
543,555
583,611
587,615
817,857
819,859
713,745
715,747
773,789
775,791
821,861
823,863
72,74
180,236
182,238
76,78
252,308
256,312
184,240
186,242
254,310
258,314
416,418
420,422
185,241
188,244
255,311
260,316
480,482
484,486
77,79
80,82
253,309
262,318
588,644
592,648
73,75
84,86
181,237
192,248
660,716
662,718
187,243
190,246
417,419
424,426
590,646
594,650
189,245
191,247
481,483
488,490
591,647
596,652
259,315
264,320
421,423
428,430
664,720
666,722
183,239
194,250
824,826
261,317
265,321
485,487
492,494
665,721
668,724
81,83
589,645
598,654
257,313
266,322
828,830
85,87
661,717
672,728
425,427
429,431
595,651
600,656
667,723
670,726
489,491
493,495
597,653
601,657
669,725
671,727
263,319
267,323
593,649
602,658
829,831
832,834
193,249
195,251
663,719
674,730
825,827
836,838
599,655
603,659
833,835
673,729
675,731
837,839
137,138
139,141
296,297
299,301
440,456
444,460
197,198
199,201
356,357
359,361
442,458
446,462
200,202
203,204
443,459
448,464
544,545
547,549
140,142
143,144
441,457
450,466
604,605
607,609
360,362
364,365
447,463
452,468
705,706
707,709
300,302
304,305
445,461
454,470
765,766
767,769
449,465
453,469
548,550
552,553
708,710
711,712
451,467
455,471
608,610
612,613
768,770
771,772
104,106
148,208
150,210
108,110
280,340
284,344
152,212
154,214
282,342
286,346
384,386
388,390
153,213
156,216
283,343
288,348
512,514
516,518
109,111
112,114
281,341
290,350
556,616
560,620
155,215
158,218
385,387
392,394
558,618
562,622
105,107
116,118
149,209
160,220
688,748
690,750
151,211
162,222
792,794
157,217
159,219
513,515
520,522
559,619
564,624
287,347
292,352
389,391
396,398
692,752
694,754
113,115
557,617
566,626
285,345
294,354
796,798
289,349
293,353
517,519
524,526
693,753
696,756
393,395
397,399
563,623
568,628
695,755
698,758
291,351
295,355
561,621
570,630
797,799
800,802
117,119
689,749
700,760
161,221
163,223
691,751
702,762
793,795
804,806
521,523
525,527
565,625
569,629
697,757
699,759
567,627
571,631
801,803
701,761
703,763
805,807
24,72
26,74
48,180
0,182
50,236
2,238
28,76
30,78
56,252
8,256
58,308
10,312
137,184
139,186
254,296
258,299
416,440
420,444
197,240
199,242
310,356
314,359
418,442
422,446
138,185
141,188
255,297
260,301
456,480
460,484
198,241
201,244
311,357
316,361
458,482
462,486
29,77
32,80
57,253
9,262
60,588
12,592
31,79
34,82
59,309
11,318
62,644
14,648
25,73
36,84
49,181
1,192
68,660
20,662
200,243
203,246
419,443
424,448
544,590
547,594
27,75
38,86
51,237
3,248
70,716
22,718
140,187
143,190
417,441
426,450
604,646
607,650
202,245
204,247
459,483
464,488
545,591
549,596
142,189
144,191
457,481
466,490
605,647
609,652
315,360
320,364
423,447
428,452
664,705
666,707
259,300
264,304
421,445
430,454
720,765
722,767
33,81
35,83
61,589
13,598
63,645
15,654
136,183
146,194
196,239
206,250
824,848
826,850
317,362
321,365
463,487
468,492
665,706
668,709
257,298
266,306
313,358
322,366
828,852
830,854
261,302
265,305
461,485
470,494
721,766
724,769
37,85
39,87
69,661
21,672
71,717
23,728
425,449
429,453
548,595
552,600
667,708
670,711
465,489
469,493
550,597
553,601
669,710
671,712
427,451
431,455
608,651
612,656
723,768
726,771
263,303
267,307
546,593
554,602
829,853
832,856
467,491
471,495
610,653
613,657
725,770
727,772
145,193
147,195
663,704
674,714
825,849
836,860
319,363
323,367
606,649
614,658
831,855
834,858
205,249
207,251
719,764
730,774
827,851
838,862
551,599
555,603
611,655
615,659
833,857
835,859
673,713
675,715
729,773
731,775
837,861
839,863
40,42
52,54
4,6
224,269
227,271
432,434
225,270
229,273
472,474
41,43
44,46
53,55
5,7
64,66
16,18
228,272
232,275
433,435
436,438
633,676
635,679
230,274
233,276
473,475
476,478
634,677
637,681
226,268
234,278
840,842
45,47
65,67
17,19
437,439
636,680
639,684
477,479
638,682
640,685
231,277
235,279
632,678
642,686
841,843
844,846
641,683
643,687
845,847
88,120
90,122
164,166
92,124
94,126
324,326
328,330
368,400
372,404
168,170
370,402
374,406
93,125
96,128
325,327
332,334
496,528
500,532
169,171
172,174
371,403
376,408
498,530
502,534
95,127
98,130
369,401
378,410
572,574
576,578
89,121
100,132
732,734
173,175
499,531
504,536
97,129
99,131
497,529
506,538
573,575
580,582
91,123
102,134
165,167
176,178
776,808
778,810
375,407
380,412
736,738
329,331
336,338
373,405
382,414
780,812
782,814
377,409
381,413
503,535
508,540
737,739
740,742
333,335
337,339
501,533
510,542
781,813
784,816
379,411
383,415
577,579
584,586
783,815
786,818
505,537
509,541
741,743
101,133
103,135
733,735
744,746
777,809
788,820
507,539
511,543
581,583
585,587
785,817
787,819
177,179
779,811
790,822
745,747
789,821
791,823
4,864
6,865
5,866
16,867
7,868
18,869
17,870
19,871
0,872
2,873
8,874
10,875
9,876
12,877
11,878
14,879
1,880
20,881
3,882
22,883
13,884
15,885
21,886
23,887
40,888
42,889
41,890
44,891
43,892
46,893
45,894
47,895
24,896
26,897
28,898
30,899
29,900
32,901
31,902
34,903
25,904
36,905
27,906
38,907
33,908
35,909
37,910
39,911
52,912
54,913
53,914
64,915
55,916
66,917
65,918
67,919
48,920
50,921
56,922
58,923
57,924
60,925
59,926
62,927
49,928
68,929
51,930
70,931
61,932
63,933
69,934
71,935
226,936
234,937
268,938
278,939
840,940
842,941
231,942
235,943
632,944
642,945
841,946
844,947
277,948
279,949
678,950
686,951
843,952
846,953
641,954
643,955
683,956
687,957
845,958
847,959
136,960
146,961
196,962
206,963
848,964
850,965
298,966
306,967
358,968
366,969
852,970
854,971
303,972
307,973
546,974
554,975
853,976
856,977
363,978
367,979
606,980
614,981
855,982
858,983
145,984
147,985
704,986
714,987
849,988
860,989
205,990
207,991
764,992
774,993
851,994
862,995
551,996
555,997
611,998
615,999
857,1000
859,1001
713,1002
715,1003
773,1004
775,1005
861,1006
863,1007