-0.477125,-0.0396207,-0.0728763
-0.522875,0.0396207,-0.0728763
-0.326525,0.0505153,-0.0728905
-0.369515,0.124976,-0.0728905
-0.173475,0.0505153,-0.0728905
-0.29299,0.257521,-0.0728905
-0.130485,0.124976,-0.0728905
-0.20701,0.257521,-0.0728905
0.20425,-0.433013,-0.0728763
-0.022875,-0.0396207,-0.0728763
0.29575,-0.433013,-0.0728763
0.022875,0.0396207,-0.0728763
0.20701,-0.257521,-0.0728905
0.130485,-0.124976,-0.0728905
0.29299,-0.257521,-0.0728905
0.173475,-0.0505153,-0.0728905
0.369515,-0.124976,-0.0728905
0.326525,-0.0505153,-0.0728905
-0.29575,0.433013,-0.0728763
-0.20425,0.433013,-0.0728763
0.522875,-0.0396207,-0.0728763
0.477125,0.0396207,-0.0728763
-0.477125,-0.0396207,0.0728763
-0.522875,0.0396207,0.0728763
0.20425,-0.433013,0.0728763
0.29575,-0.433013,0.0728763
-0.401095,0.00414826,-0.0458348
-0.401095,0.00414826,0.0458348
-0.44695,0.0835715,-0.0458348
-0.44695,0.0835715,0.0458348
-0.326525,0.0505153,0.0728905
-0.369515,0.124976,0.0728905
-0.295975,0.0679743,-0.0458895
-0.295975,0.0679743,0.0458895
-0.33912,0.142704,-0.0458895
-0.33912,0.142704,0.0458895
-0.204025,0.0679743,-0.0458895
-0.204025,0.0679743,0.0458895
-0.293145,0.222335,-0.0458895
-0.293145,0.222335,0.0458895
-0.173475,0.0505153,0.0728905
-0.29299,0.257521,0.0728905
-0.098895,0.00414826,-0.0458348
-0.098895,0.00414826,0.0458348
-0.29585,0.345284,-0.0458348
-0.29585,0.345284,0.0458348
-0.16088,0.142704,-0.0458895
-0.16088,0.142704,0.0458895
-0.206855,0.222335,-0.0458895
-0.206855,0.222335,0.0458895
-0.130485,0.124976,0.0728905
-0.20701,0.257521,0.0728905
-0.022875,-0.0396207,0.0728763
-0.29575,0.433013,0.0728763
-0.05304,0.0835715,-0.0458348
-0.05304,0.0835715,0.0458348
-0.20414,0.345284,-0.0458348
-0.20414,0.345284,0.0458348
0.20414,-0.345284,-0.0458348
0.20414,-0.345284,0.0458348
0.05304,-0.0835715,-0.0458348
0.05304,-0.0835715,0.0458348
0.022875,0.0396207,0.0728763
-0.20425,0.433013,0.0728763
0.20701,-0.257521,0.0728905
0.130485,-0.124976,0.0728905
0.206855,-0.222335,-0.0458895
0.206855,-0.222335,0.0458895
0.16088,-0.142704,-0.0458895
0.16088,-0.142704,0.0458895
0.29585,-0.345284,-0.0458348
0.29585,-0.345284,0.0458348
0.098895,-0.00414826,-0.0458348
0.098895,-0.00414826,0.0458348
0.29299,-0.257521,0.0728905
0.173475,-0.0505153,0.0728905
0.293145,-0.222335,-0.0458895
0.293145,-0.222335,0.0458895
0.204025,-0.0679743,-0.0458895
0.204025,-0.0679743,0.0458895
0.33912,-0.142704,-0.0458895
0.33912,-0.142704,0.0458895
0.295975,-0.0679743,-0.0458895
0.295975,-0.0679743,0.0458895
0.369515,-0.124976,0.0728905
0.326525,-0.0505153,0.0728905
0.44695,-0.0835715,-0.0458348
0.44695,-0.0835715,0.0458348
0.401095,-0.00414826,-0.0458348
0.401095,-0.00414826,0.0458348
0.522875,-0.0396207,0.0728763
0.477125,0.0396207,0.0728763
-0.477125,-0.0396207,-0.11878
0.20425,-0.433013,-0.11878
-0.522875,0.0396207,-0.11878
0.29575,-0.433013,-0.11878
-0.022875,-0.0396207,-0.11878
0.022875,0.0396207,-0.11878
-0.326525,0.0505153,-0.11878
0.20701,-0.257521,-0.11878
-0.173475,0.0505153,-0.11878
0.130485,-0.124976,-0.11878
-0.369515,0.124976,-0.11878
0.29299,-0.257521,-0.11878
-0.130485,0.124976,-0.11878
0.173475,-0.0505153,-0.11878
-0.29299,0.257521,-0.11878
0.369515,-0.124976,-0.11878
-0.20701,0.257521,-0.11878
0.326525,-0.0505153,-0.11878
-0.29575,0.433013,-0.11878
-0.20425,0.433013,-0.11878
0.522875,-0.0396207,-0.11878
0.477125,0.0396207,-0.11878
-0.477125,-0.0396207,0.11878
0.20425,-0.433013,0.11878
-0.522875,0.0396207,0.11878
0.29575,-0.433013,0.11878
-0.022875,-0.0396207,0.11878
0.022875,0.0396207,0.11878
-0.326525,0.0505153,0.11878
0.20701,-0.257521,0.11878
-0.173475,0.0505153,0.11878
0.130485,-0.124976,0.11878
-0.369515,0.124976,0.11878
0.29299,-0.257521,0.11878
-0.130485,0.124976,0.11878
0.173475,-0.0505153,0.11878
-0.29299,0.257521,0.11878
0.369515,-0.124976,0.11878
-0.20701,0.257521,0.11878
0.326525,-0.0505153,0.11878
-0.29575,0.433013,0.11878
-0.20425,0.433013,0.11878
0.522875,-0.0396207,0.11878
0.477125,0.0396207,0.11878
connectivity
0,26
8,58
1,28
10,70
22,27
24,59
23,29
25,71
9,42
9,60
11,54
11,72
43,52
52,61
18,44
20,86
55,62
62,73
19,56
21,88
45,53
87,90
57,63
89,91
2,3
12,14
4,6
13,15
5,7
16,17
30,31
64,74
40,50
65,75
41,51
84,85
32,33
66,67
36,37
68,69
34,35
76,77
46,47
78,79
38,39
80,81
48,49
82,83
2,26
12,58
3,28
14,70
4,42
13,60
6,54
15,72
27,30
59,64
5,44
16,86
29,31
71,74
7,56
17,88
40,43
61,65
50,55
73,75
41,45
84,87
51,57
85,89
0,1
8,10
22,23
24,25
9,11
52,62
26,27
58,59
28,29
70,71
42,43
60,61
54,55
72,73
44,45
86,87
56,57
88,89
26,28
58,70
42,54
60,72
27,29
59,71
43,55
61,73
44,56
86,88
45,57
87,89
32,34
66,76
36,46
68,78
38,48
80,82
33,35
67,77
37,47
69,79
39,49
81,83
2,34
12,76
4,46
13,78
3,32
14,66
6,36
15,68
7,38
17,80
5,48
16,82
31,33
67,74
37,50
69,75
30,35
64,77
40,47
65,79
39,51
81,85
41,49
83,84
32,36
66,68
34,38
76,80
46,48
78,82
33,37
67,69
35,39
77,81
47,49
79,83
18,19
53,63
20,21
90,91
0,92
8,93
1,94
10,95
9,96
11,97
2,98
12,99
4,100
13,101
3,102
14,103
6,104
15,105
5,106
16,107
7,108
17,109
18,110
19,111
20,112
21,113
22,114
24,115
23,116
25,117
52,118
62,119
30,120
64,121
40,122
65,123
31,124
74,125
50,126
75,127
41,128
84,129
51,130
85,131
53,132
63,133
90,134
91,135