-0.18413,0.189255,-0.36611
-0.180168,-0.302717,-0.43586
-0.00396248,0.302717,-0.43586
0,-0.189255,-0.36611
0.00396248,0.0757928,-0.43586
0.180168,-0.0757928,-0.43586
0.18413,0.189255,-0.36611
-0.18413,-0.189255,0.13389
-0.18413,-0.189255,0.36611
-0.18413,0.189255,-0.13389
-0.180168,-0.0757928,-0.06414
-0.180168,0.0757928,0.43586
-0.180168,0.302717,0.06414
-0.00396248,-0.302717,0.06414
-0.00396248,0.0757928,-0.06414
2.77556e-17,-0.189255,-0.13389
5.55112e-17,0.189255,0.13389
8.32667e-17,0.189255,0.36611
0.00396248,-0.302717,0.43586
0.180168,-0.302717,-0.06414
-0.00396248,-0.0757928,0.43586
0.00396248,-0.0757928,0.06414
0.00396248,0.302717,-0.06414
0.180168,0.0757928,0.06414
0.180168,0.302717,0.43586
0.18413,-0.189255,0.13389
0.18413,-0.189255,0.36611
0.18413,0.189255,-0.13389
-0.18413,-0.302717,-0.43862
-0.0960275,0.302717,-0.5
-0.0881025,-0.302717,-0.5
0.0960275,-0.302717,-0.5
0.18413,-0.302717,-0.43862
-0.0881025,0.0757928,-0.5
0.0881025,-0.0757928,-0.5
-0.0960275,-0.0757928,-0.5
-0.18413,-0.0757928,-0.43862
0.0881025,0.302717,-0.5
-0.181453,-0.265971,-0.5
0.00267725,-0.265971,-0.5
-0.181453,0.112539,-0.5
-0.00267725,-0.112539,-0.5
0.00267725,0.112539,-0.5
-0.00267725,0.265971,-0.5
0.181453,0.265971,-0.5
0.0960275,0.0757928,-0.5
0.18413,-0.0757928,-0.43862
0.181453,-0.112539,-0.5
-0.18413,-0.300325,-0.43439
-0.18413,-0.078185,-0.06561
-0.18413,-0.078185,-0.43439
-0.18413,-0.300325,-0.06561
-0.18413,0.300325,0.06561
-0.18413,0.078185,0.43439
-0.18413,0.078185,0.06561
-0.18413,0.300325,0.43439
-0.18413,-0.0757928,-0.06138
-0.18413,-0.302717,-0.06138
-0.18413,0.302717,0.06138
-0.18413,0.0757928,0.06138
-0.0960275,0.302717,0.5
-0.18413,0.302717,0.43862
-0.18413,-0.189255,-0.43586
-0.18413,-0.189255,-0.06414
-0.18413,0.189255,0.06414
-0.18413,0.189255,0.43586
-0.092065,-0.37851,-0.43586
-0.092065,-0.37851,0.06414
0.092065,-0.37851,-0.06414
0.092065,-0.37851,0.43586
0.18413,-0.300325,-0.43439
0.18413,-0.078185,-0.06561
0.18413,-0.078185,-0.43439
0.18413,-0.300325,-0.06561
0.18413,0.300325,0.06561
0.18413,0.078185,0.43439
0.18413,0.078185,0.06561
0.18413,0.300325,0.43439
0.18413,-0.0757928,-0.06138
-0.0881025,-0.302717,0.5
0.0960275,-0.302717,0.5
0.18413,-0.302717,-0.06138
-0.0881025,0.0757928,0.5
-0.18413,0.0757928,0.43862
0.18413,0.302717,0.06138
0.0881025,-0.0757928,0.5
-0.0960275,-0.0757928,0.5
0.18413,0.0757928,0.06138
0.0881025,0.302717,0.5
0.18413,0.302717,0.43862
-0.092065,0.37851,-0.43586
-0.092065,0.37851,0.06414
0.092065,0.37851,-0.06414
0.092065,0.37851,0.43586
0.18413,-0.189255,-0.43586
0.18413,-0.189255,-0.06414
0.18413,0.189255,0.06414
0.18413,0.189255,0.43586
-0.181453,-0.265971,0.5
0.00267725,-0.265971,0.5
-0.181453,0.112539,0.5
-0.00267725,-0.112539,0.5
0.00267725,0.112539,0.5
-0.00267725,0.265971,0.5
0.181453,0.265971,0.5
0.0960275,0.0757928,0.5
0.18413,0.0757928,0.43862
0.181453,-0.112539,0.5
connectivity
7,8
0,9
3,15
16,17
7,21
0,4
9,22
8,18
13,25
14,27
2,6
20,26
10,21
13,19
14,23
12,22
10,14
4,5
21,23
11,20
13,21
2,4
14,22
18,20
7,13
0,2
9,14
8,20
1,3
3,5
10,15
15,19
4,6
21,25
12,16
18,26
16,23
11,17
22,27
17,24
7,10
9,12
13,15
15,21
14,16
19,25
16,22
23,27
25,26
6,27
1,28
2,29
1,30
31,32
4,33
5,34
35,36
2,37
1,38
3,39
0,40
3,41
4,42
2,43
6,44
4,45
5,46
5,47
1,48
10,49
3,50
15,51
12,52
11,53
16,54
17,55
10,56
13,57
12,58
14,59
60,61
1,62
10,63
12,64
11,65
1,66
13,67
19,68
18,69
3,70
15,71
5,72
19,73
16,74
17,75
23,76
24,77
21,78
18,79
18,80
19,81
11,82
11,83
22,84
20,85
20,86
23,87
24,88
24,89
2,90
12,91
22,92
24,93
5,94
19,95
23,96
24,97
8,98
18,99
11,100
20,101
17,102
17,103
24,104
105,106
26,107