-0.5,0,-0.5
-0.5,0.5,-0.5
-2.22045e-16,-0.5,-0.5
-0.39851,0.40001,-0.32606
-0.30338,-0.01283,-0.49733
-0.25,-0.22872,-0.5
-0.25,0.27128,-0.5
-0.19662,0.48717,-0.49733
-0.10149,-0.09999,-0.32606
-2.22045e-16,0,-0.5
-1.11022e-16,0.5,-0.5
0.10149,-0.40001,-0.32606
0.19662,0.01283,-0.49733
0.25,-0.27128,-0.5
0.25,0.22872,-0.5
0.30338,-0.48717,-0.49733
0.39851,0.09999,-0.32606
0.5,-0.5,-0.5
0.5,0,-0.5
0.5,0.5,-0.5
-0.5,-0.5,5.55112e-17
-0.5,-0.5,0.5
-0.5,-0.25,-0.22872
-0.5,-0.25,0.27128
-0.5,0,5.55112e-17
-0.5,1.11022e-16,0.5
-0.5,0.25,-0.27128
-0.5,0.25,0.22872
-0.5,0.5,5.55112e-17
-0.49733,-0.30338,-0.01283
-0.49733,-0.19662,0.48717
-0.49733,0.19662,0.01283
-0.49733,0.30338,-0.48717
-0.32606,-0.39851,0.40001
-0.32606,-0.10149,-0.09999
-0.32606,0.10149,-0.40001
-0.32606,0.39851,0.09999
-0.5,0.5,0.5
-0.48717,-0.49733,0.30338
-0.40001,-0.32606,0.10149
-0.27128,-0.5,0.25
-0.22872,-0.5,-0.25
-0.09999,-0.32606,-0.10149
-0.01283,-0.49733,-0.30338
-2.22045e-16,-0.5,5.55112e-17
-1.11022e-16,-0.5,0.5
0.01283,-0.49733,0.19662
0.09999,-0.32606,0.39851
0.22872,-0.5,0.25
0.27128,-0.5,-0.25
0.40001,-0.32606,-0.39851
0.48717,-0.49733,-0.19662
0.5,-0.5,5.55112e-17
-0.48717,-0.00267,-0.19662
-0.48717,0.00267,-0.30338
-0.48717,0.49733,0.19662
-0.40001,-0.17394,-0.39851
-0.40001,0.17394,-0.10149
-0.40001,0.32606,0.39851
-0.39851,-0.40001,-0.17394
-0.39851,-0.09999,0.32606
-0.39851,0.09999,0.17394
-0.30338,-0.48717,0.00267
-0.30338,0.01283,-0.00267
-0.30338,0.48717,0.49733
-0.27128,0,-0.25
-0.27128,0.5,0.25
-0.25,-0.27128,5.55112e-17
-0.25,-0.25,-0.25
-0.25,-0.25,0.25
-0.25,-0.22872,0.5
-0.25,0.22872,5.55112e-17
-0.25,0.25,-0.25
-0.25,0.25,0.25
-0.25,0.27128,0.5
-0.22872,0,0.25
-0.22872,0.5,-0.25
-0.19662,-0.48717,-0.00267
-0.19662,-0.01283,0.49733
-0.19662,0.01283,0.00267
-0.17394,-0.39851,-0.40001
-0.17394,-0.10149,0.09999
-0.17394,0.10149,0.40001
-0.17394,0.39851,-0.09999
-0.10149,-0.40001,0.17394
-0.10149,0.09999,-0.17394
-0.10149,0.40001,0.32606
-0.09999,-0.17394,0.39851
-0.09999,0.17394,0.10149
-0.09999,0.32606,-0.39851
-0.01283,-0.00267,0.19662
-0.01283,0.00267,0.30338
-0.01283,0.49733,-0.19662
-0.00267,-0.30338,0.01283
-0.00267,-0.19662,-0.48717
-0.00267,0.19662,-0.01283
-0.00267,0.30338,0.48717
-2.22045e-16,-0.25,-0.27128
-2.22045e-16,-0.25,0.22872
-2.22045e-16,0,5.55112e-17
-1.11022e-16,1.11022e-16,0.5
-2.22045e-16,0.25,-0.22872
-2.22045e-16,0.25,0.27128
-1.11022e-16,0.5,5.55112e-17
0,0.5,0.5
0.00267,-0.30338,-0.48717
0.00267,-0.19662,0.01283
0.00267,0.19662,0.48717
0.00267,0.30338,-0.01283
0.01283,-0.00267,-0.30338
0.01283,0.00267,-0.19662
0.01283,0.49733,0.30338
0.09999,-0.17394,-0.10149
0.09999,0.17394,-0.39851
0.09999,0.32606,0.10149
0.10149,-0.09999,0.17394
0.10149,0.09999,0.32606
0.10149,0.40001,-0.17394
0.17394,-0.39851,0.09999
0.17394,-0.10149,-0.40001
0.17394,0.10149,-0.09999
0.17394,0.39851,0.40001
0.19662,-0.48717,0.49733
0.19662,-0.01283,-0.00267
0.19662,0.48717,0.00267
0.22872,0,-0.25
0.22872,0.5,0.25
0.25,-0.27128,0.5
0.25,-0.25,-0.25
0.25,-0.25,0.25
0.25,-0.22872,5.55112e-17
0.25,0.22872,0.5
0.25,0.25,-0.25
0.25,0.25,0.25
0.25,0.27128,5.55112e-17
0.27128,0,0.25
0.27128,0.5,-0.25
0.30338,-0.01283,0.00267
0.30338,0.01283,0.49733
0.30338,0.48717,-0.00267
0.32606,-0.39851,-0.09999
0.32606,-0.10149,0.40001
0.32606,0.10149,0.09999
0.32606,0.39851,-0.40001
0.39851,-0.40001,0.32606
0.39851,-0.09999,-0.17394
0.39851,0.40001,0.17394
0.40001,-0.17394,0.10149
0.40001,0.17394,0.39851
0.40001,0.32606,-0.10149
0.48717,-0.00267,0.30338
0.48717,0.00267,0.19662
0.48717,0.49733,-0.30338
0.49733,-0.30338,0.48717
0.49733,-0.19662,-0.01283
0.49733,0.19662,-0.48717
0.49733,0.30338,0.01283
0.5,-0.5,0.5
0.5,-0.25,-0.22872
0.5,-0.25,0.27128
0.5,0,5.55112e-17
0.5,1.11022e-16,0.5
0.5,0.25,-0.27128
0.5,0.25,0.22872
0.5,0.5,5.55112e-17
-0.30482,-0.01415,-0.5
-0.19518,-0.01415,-0.5
0.19518,0.01415,-0.5
0.19518,-0.48585,-0.5
0.30482,-0.48585,-0.5
-0.19518,0.48585,-0.5
0.30482,0.01415,-0.5
-0.30482,0.48585,-0.5
-0.5,-0.30482,-0.01415
-0.5,-0.19518,-0.01415
-0.5,0.19518,0.01415
-0.5,0.19518,-0.48585
-0.5,0.30482,-0.48585
-0.5,-0.19518,0.48585
-0.5,0.30482,0.01415
-0.5,-0.30482,0.48585
-0.01415,-0.5,-0.30482
-0.01415,-0.5,-0.19518
0.01415,-0.5,0.19518
-0.48585,-0.5,0.19518
-0.48585,-0.5,0.30482
0.48585,-0.5,-0.19518
0.01415,-0.5,0.30482
0.48585,-0.5,-0.30482
-0.30482,-0.01415,0.5
-0.01415,0.5,-0.30482
0.5,-0.30482,-0.01415
-0.19518,-0.01415,0.5
-0.01415,0.5,-0.19518
0.5,-0.19518,-0.01415
0.01415,0.5,0.19518
0.19518,0.01415,0.5
0.5,0.19518,0.01415
-0.48585,0.5,0.19518
0.19518,-0.48585,0.5
0.5,0.19518,-0.48585
-0.48585,0.5,0.30482
0.5,0.30482,-0.48585
0.30482,-0.48585,0.5
-0.19518,0.48585,0.5
0.5,-0.19518,0.48585
0.48585,0.5,-0.19518
0.01415,0.5,0.30482
0.30482,0.01415,0.5
0.5,0.30482,0.01415
-0.30482,0.48585,0.5
0.48585,0.5,-0.30482
0.5,-0.30482,0.48585
connectivity
20,59
20,39
0,56
0,35
2,80
2,11
24,34
24,57
24,61
42,44
44,84
44,118
8,9
9,119
9,113
81,99
85,99
99,112
88,99
99,115
99,120
1,3
21,33
17,50
25,60
10,89
52,140
83,103
87,100
145,160
28,36
45,47
16,18
82,100
103,117
147,160
103,114
100,116
142,160
37,58
19,143
144,157
86,104
141,161
149,164
104,121
146,164
148,161
22,29
4,5
41,43
26,32
38,40
13,15
23,30
6,7
49,51
27,31
46,48
12,14
54,65
62,67
97,105
53,65
67,77
94,97
63,71
93,98
109,125
71,79
98,106
110,125
75,90
75,91
95,101
101,108
123,130
130,137
70,78
76,92
154,158
102,107
96,102
124,134
134,139
135,151
135,150
55,66
122,127
155,162
111,126
131,138
156,163
64,74
136,152
153,159
4,56
29,59
43,80
35,54
39,62
11,105
34,53
42,77
8,94
57,63
84,93
109,119
79,88
106,115
110,120
81,90
85,95
112,123
3,32
33,38
15,50
31,61
46,118
12,113
30,60
7,89
51,140
83,92
78,87
145,154
82,91
108,117
137,147
36,55
47,122
16,155
114,124
107,116
142,151
58,64
143,152
144,153
86,96
141,150
139,149
111,121
138,148
146,156
56,68
59,68
68,80
34,68
8,68
42,68
39,69
35,72
11,128
57,72
69,84
119,128
69,81
72,85
112,128
33,69
60,69
69,87
3,72
72,89
72,83
50,128
128,140
128,145
61,73
113,132
118,129
73,88
115,129
120,132
36,73
73,82
58,73
73,86
47,129
129,147
129,144
129,141
16,132
117,132
132,143
132,149
114,133
116,133
133,142
121,133
133,146
133,148
22,68
5,68
41,68
26,72
40,69
13,128
23,69
6,72
49,128
27,73
48,129
14,132
65,68
67,68
68,97
65,72
67,69
97,128
69,98
69,75
69,70
71,72
72,101
72,76
125,128
128,130
128,158
71,73
98,129
125,132
73,75
101,132
129,130
73,102
66,73
73,74
129,135
127,129
129,159
132,134
132,162
132,136
102,133
133,134
133,135
126,133
131,133
133,163
20,29
20,62
0,4
0,54
2,43
2,105
24,53
24,63
24,31
44,77
44,93
44,46
9,94
9,109
9,12
79,99
99,106
99,110
1,32
21,38
15,17
90,99
95,99
99,123
25,30
7,10
51,52
91,100
103,108
137,160
78,100
92,103
154,160
28,55
45,122
18,155
100,107
103,124
151,160
96,104
139,164
150,161
104,111
138,161
156,164
37,64
19,152
153,157
54,56
59,62
80,105
53,57
77,84
94,119
61,63
93,118
109,113
79,85
81,106
110,112
88,90
95,120
115,123
83,108
87,91
137,145
82,107
117,124
147,151
96,121
139,146
148,150
4,165
8,166
12,167
11,168
15,169
7,170
16,171
3,172
29,173
34,174
31,175
35,176
32,177
30,178
36,179
33,180
43,181
42,182
46,183
39,184
38,185
51,186
47,187
50,188
60,189
89,190
140,191
78,192
92,193
154,194
114,195
116,196
142,197
55,198
122,199
155,200
58,201
143,202
144,203
86,204
141,205
149,206
111,207
138,208
156,209
64,210
152,211
153,212