-0.5,-0.5,-0.5
-0.5,0.25,-0.25
-0.5,0.5,-0.5
-0.25,0.25,-0.5
0.25,-0.5,-0.25
0.25,-0.25,-0.5
0.5,-0.5,-0.5
-0.44851,-0.19846,-0.44851
-0.30154,-0.05149,-0.44851
-0.19846,-0.44851,-0.44851
-0.05149,-0.30154,-0.44851
-2.22045e-16,-1.11022e-16,-0.5
-2.22045e-16,0.25,-0.25
0.25,-1.11022e-16,-0.25
0.25,0.5,-0.25
0.5,0.25,-0.25
0.5,0.5,-0.5
-0.5,-0.5,0.5
-0.5,-0.25,0.25
-0.25,-0.5,0.25
-0.5,-1.11022e-16,0
-0.5,0.5,0.5
-0.44851,-0.44851,-0.19846
-0.44851,-0.30154,-0.05149
-0.44851,-0.05149,-0.30154
-0.25,-1.11022e-16,0.25
-0.25,0.25,0
-0.25,0.25,0.5
-0.25,0.5,0.25
-0.30154,-0.44851,-0.05149
-0.05149,-0.44851,-0.30154
-2.22045e-16,-0.5,0
-2.22045e-16,-0.25,0.25
0.25,-0.25,0
0.25,-0.25,0.5
0.5,-0.5,0.5
0.5,-0.25,0.25
-0.25,-0.25,0.25
-0.25,0.25,-0.25
-0.25,0.25,0.25
-0.19846,-0.05149,-0.05149
-0.05149,-0.19846,-0.05149
-0.05149,-0.05149,-0.19846
-1.11022e-16,0,0.5
-1.11022e-16,0.5,0
0.05149,0.05149,0.19846
0.05149,0.19846,0.05149
0.05149,0.30154,0.44851
0.05149,0.44851,0.30154
0.19846,0.05149,0.05149
0.19846,0.44851,0.44851
0.25,-0.25,-0.25
0.25,-0.25,0.25
0.25,0.25,-0.25
0.30154,0.05149,0.44851
0.30154,0.44851,0.05149
0.44851,0.05149,0.30154
0.44851,0.19846,0.44851
0.44851,0.30154,0.05149
0.44851,0.44851,0.19846
0.5,-1.11022e-16,0
0.5,0.5,0.5
-0.4573,-0.20726,-0.5
-0.20726,-0.4573,-0.5
-0.29274,-0.0427,-0.5
-0.0427,-0.29274,-0.5
0.0427,0.29274,-0.5
0.29274,0.0427,-0.5
0.20726,0.4573,-0.5
0.4573,0.20726,-0.5
-0.5,-0.4573,-0.20726
-0.5,-0.20726,-0.4573
-0.5,-0.29274,-0.0427
-0.5,-0.0427,-0.29274
-0.5,0.0427,0.29274
-0.5,0.29274,0.0427
-0.5,0.20726,0.4573
-0.5,0.4573,0.20726
-0.4573,-0.5,-0.20726
-0.20726,-0.5,-0.4573
-0.29274,-0.5,-0.0427
-0.0427,-0.5,-0.29274
0.0427,-0.5,0.29274
0.29274,-0.5,0.0427
0.20726,-0.5,0.4573
0.4573,-0.5,0.20726
-0.4573,-0.20726,0.5
-0.4573,0.5,-0.20726
-0.20726,-0.4573,0.5
-0.20726,0.5,-0.4573
0.5,-0.4573,-0.20726
0.5,-0.20726,-0.4573
-0.29274,-0.0427,0.5
-0.29274,0.5,-0.0427
-0.0427,-0.29274,0.5
-0.0427,0.5,-0.29274
0.5,-0.29274,-0.0427
0.5,-0.0427,-0.29274
0.0427,0.29274,0.5
0.0427,0.5,0.29274
0.29274,0.0427,0.5
0.29274,0.5,0.0427
0.5,0.0427,0.29274
0.5,0.29274,0.0427
0.20726,0.4573,0.5
0.20726,0.5,0.4573
0.4573,0.20726,0.5
0.5,0.20726,0.4573
0.4573,0.5,0.20726
0.5,0.4573,0.20726
connectivity
18,23
1,24
19,29
3,8
4,30
5,10
25,40
26,40
32,41
33,41
12,42
13,42
25,45
26,46
32,45
12,46
33,49
13,49
27,47
28,48
34,54
14,55
36,56
15,58
18,20
1,20
20,25
20,26
19,31
4,31
31,32
31,33
3,11
5,11
11,12
11,13
17,18
1,2
17,19
2,3
4,6
5,6
25,43
26,44
32,43
12,44
33,60
13,60
18,37
1,38
19,37
3,38
4,51
5,51
25,37
32,37
26,38
12,38
33,51
13,51
25,39
26,39
32,52
12,53
33,52
13,53
27,39
28,39
34,52
36,52
14,53
15,53
0,22
0,7
0,9
20,23
20,24
20,40
29,31
30,31
31,41
8,11
10,11
11,42
43,45
44,46
49,60
43,47
44,48
43,54
44,55
56,60
58,60
50,61
57,61
59,61
28,44
14,44
21,28
14,16
36,60
15,60
35,36
15,16
27,43
34,43
21,27
34,35
7,62
9,63
8,64
10,65
12,66
13,67
14,68
15,69
22,70
7,71
23,72
24,73
25,74
26,75
27,76
28,77
22,78
9,79
29,80
30,81
32,82
33,83
34,84
36,85
18,86
1,87
19,88
3,89
4,90
5,91
25,92
26,93
32,94
12,95
33,96
13,97
47,98
48,99
54,100
55,101
56,102
58,103
50,104
50,105
57,106
57,107
59,108
59,109