-0.47826,0.02229,-0.389684
-0.02174,-0.47771,-0.389684
-0.35477,-0.35224,-0.470351
-0.14523,0.14776,-0.470351
0.02174,-0.02229,-0.389684
0.14523,0.35224,-0.470351
0.35477,-0.14776,-0.470351
0.47826,0.47771,-0.389684
-0.47826,-0.47771,0.389684
-0.39776,-0.39523,-0.267724
-0.47826,-0.02229,-0.102366
-0.39776,-0.10477,0.224326
-0.39776,0.10477,0.267724
-0.47826,0.47771,0.102366
-0.39776,0.39523,-0.224326
-0.10224,-0.39523,0.267724
0.02174,-0.47771,0.102366
0.10224,-0.39523,-0.224326
0.39776,-0.39523,0.224326
-0.35477,-0.14776,0.0216994
-0.35477,0.14776,0.470351
-0.35477,0.35224,-0.0216994
-0.27229,-0.27174,-0.143659
-0.27229,-0.22826,0.348391
-0.27229,0.22826,0.143659
-0.27229,0.27174,-0.348391
-0.22771,-0.27174,0.143659
-0.22771,-0.22826,-0.348391
-0.22771,0.22826,-0.143659
-0.22771,0.27174,0.348391
-0.14523,-0.35224,0.470351
-0.14523,-0.14776,-0.0216994
-0.14523,0.35224,0.0216994
-0.10224,-0.10477,-0.224326
-0.10224,0.10477,-0.267724
-0.10224,0.39523,0.224326
-0.02174,-0.02229,0.102366
-0.02174,0.02229,0.389684
-0.02174,0.47771,-0.102366
0.02174,0.02229,-0.102366
0.02174,0.47771,0.389684
0.10224,-0.10477,0.267724
0.10224,0.10477,0.224326
0.10224,0.39523,-0.267724
0.14523,-0.35224,-0.0216994
0.14523,-0.14776,0.470351
0.14523,0.14776,0.0216994
0.22771,-0.27174,-0.348391
0.22771,-0.22826,0.143659
0.22771,0.22826,0.348391
0.22771,0.27174,-0.143659
0.27229,-0.27174,0.348391
0.27229,-0.22826,-0.143659
0.27229,0.22826,-0.348391
0.27229,0.27174,0.143659
0.35477,-0.35224,0.0216994
0.35477,0.14776,-0.0216994
0.35477,0.35224,0.470351
0.39776,-0.10477,-0.267724
0.39776,0.10477,-0.224326
0.39776,0.39523,0.267724
0.47826,-0.47771,-0.102366
0.47826,-0.02229,0.389684
0.47826,0.02229,0.102366
-0.5,-1.11022e-16,-0.49205
0,-0.5,-0.49205
-0.25,-0.35224,-0.49205
-0.25,0.14776,-0.49205
0.25,-0.14776,-0.49205
0.25,0.35224,-0.49205
-0.37637,-0.37419,-0.49205
-0.12363,-0.37419,-0.49205
-0.12363,0.12581,-0.49205
-0.37637,0.12581,-0.49205
0.12363,-0.12581,-0.49205
0.37637,-0.12581,-0.49205
0.12363,0.37419,-0.49205
0.37637,0.37419,-0.49205
0,-1.11022e-16,-0.49205
0.5,0.5,-0.49205
-0.49999,-0.5,-0.36829
-0.5,-0.49999,0.368299
-0.5,1e-05,-0.368299
-0.49999,-0.5,-0.12376
-0.5,-0.49999,-0.123751
-0.5,-1e-05,-0.123751
-0.5,1e-05,0.123751
-0.49999,0.5,-0.36829
-0.5,0.49999,-0.368299
-0.5,-1e-05,0.368299
-0.5,-1.11022e-16,-2.77556e-16
-0.49999,0.5,-0.12376
-0.5,0.49999,0.123751
-0.5,0.5,-2.77556e-16
-0.39776,-0.5,-0.246025
0.10224,-0.5,-0.246025
-0.10224,-0.5,0.246025
0.39776,-0.5,0.246025
1e-05,-0.5,-0.36829
1e-05,-0.5,-0.12376
-1e-05,-0.5,0.12376
-1e-05,-0.5,0.36829
0.49999,-0.5,0.36829
0.5,-0.49999,0.368299
0,-0.5,-2.77556e-16
-0.39776,0.5,-0.246025
-0.25,-0.35224,0.49205
0.10224,0.5,-0.246025
-0.25,0.14776,0.49205
-0.10224,0.5,0.246025
0.25,-0.14776,0.49205
0.39776,0.5,0.246025
0.25,0.35224,0.49205
0.5,1e-05,-0.368299
0.5,-0.49999,-0.123751
1e-05,0.5,-0.36829
0.5,-1e-05,-0.123751
1e-05,0.5,-0.12376
0.49999,-0.5,0.12376
-1e-05,0.5,0.12376
0.5,1e-05,0.123751
0.5,0.49999,-0.368299
0.5,-1e-05,0.368299
-1e-05,0.5,0.36829
0.49999,0.5,0.36829
-0.37637,-0.37419,0.49205
-0.12363,-0.37419,0.49205
-0.12363,0.12581,0.49205
-0.37637,0.12581,0.49205
0.12363,-0.12581,0.49205
0.37637,-0.12581,0.49205
0.12363,0.37419,0.49205
0.37637,0.37419,0.49205
-0.5,-0.5,0.49205
0.5,-0.5,-2.77556e-16
1.11022e-16,0,0.49205
1.11022e-16,0.5,-2.77556e-16
0.5,-1.11022e-16,-2.77556e-16
0.5,0,0.49205
2.22045e-16,0.5,0.49205
0.49999,0.5,0.12376
0.5,0.49999,0.123751
connectivity
33,34
19,31
44,55
11,12
21,32
58,59
46,56
41,42
2,27
22,31
33,39
19,26
4,34
3,25
6,47
44,52
21,28
36,42
23,30
24,32
48,55
46,54
37,41
5,53
50,56
45,51
20,29
49,57
9,22
27,33
10,19
17,47
31,36
15,26
28,34
16,44
14,25
11,23
39,46
52,58
12,24
13,21
41,48
55,61
32,38
53,59
43,50
42,49
18,51
56,63
29,35
54,60
22,27
23,26
47,52
25,28
36,39
24,29
48,51
50,53
49,54
0,64
1,65
2,66
3,67
6,68
5,69
2,70
1,71
3,72
0,73
4,74
6,75
5,76
7,77
4,78
7,79
9,80
8,81
0,82
83,84
10,85
11,86
87,88
12,89
10,90
14,91
13,92
13,93
9,94
17,95
15,96
18,97
1,98
17,99
16,100
15,101
102,103
16,104
14,105
30,106
43,107
20,108
35,109
45,110
60,111
57,112
58,113
61,114
43,115
59,116
38,117
18,118
35,119
63,120
7,121
62,122
40,123
60,124
8,125
30,126
37,127
20,128
45,129
62,130
40,131
57,132
8,133
61,134
37,135
38,136
63,137
62,138
40,139
140,141