-0.24965,0.21341,-0.16363
5.55112e-17,-0.31468,2.77556e-17
-0.24965,-0.21341,-0.16363
0.24965,0.21341,-0.16363
1.11022e-16,0.31468,2.77556e-17
0.24965,-0.21341,-0.16363
-0.24965,0.21341,0.16363
-0.24965,-0.21341,0.16363
0.24965,0.21341,0.16363
0.24965,-0.21341,0.16363
5.55112e-17,-0.5,-0.16363
1.11022e-16,0.5,-0.16363
-0.24965,-0.5,-0.16363
5.55112e-17,-0.5,2.77556e-17
-0.24965,0.5,-0.16363
1.11022e-16,0.5,2.77556e-17
8.32667e-17,-0.5,0.16363
1.38778e-16,0.5,0.16363
0.24965,-0.5,-0.16363
0.24965,0.5,-0.16363
-0.24965,-0.5,0.16363
-0.24965,0.5,0.16363
0.24965,-0.5,0.16363
0.24965,0.5,0.16363
connectivity
0,8
0,2
2,6
0,7
0,4
1,7
1,5
4,8
5,7
3,5
5,8
3,9
6,7
8,9
1,10
4,11
2,12
1,13
0,14
4,15
1,16
4,17
5,18
3,19
7,20
6,21
9,22
8,23