-0.2604,-0.12664,-0.239884
-0.2604,0.12664,-0.239884
-0.2597,-0.04636,-0.28621
-0.2597,0.04636,-0.28621
-0.12664,-0.2604,-0.239884
-0.12664,0.2604,-0.239884
-0.04636,-0.2597,-0.28621
-0.04636,0.2597,-0.28621
0.04636,-0.2597,-0.28621
0.04636,0.2597,-0.28621
0.12664,-0.2604,-0.239884
0.12664,0.2604,-0.239884
0.2597,-0.04636,-0.28621
0.2597,0.04636,-0.28621
0.2604,-0.12664,-0.239884
0.2604,0.12664,-0.239884
-0.45364,-0.2403,-1.66533e-16
-0.45364,0.2403,-1.66533e-16
-0.2403,-0.45364,-1.66533e-16
0.2403,-0.45364,-1.66533e-16
-0.37336,-0.2396,-0.046326
-0.37336,-0.2396,0.046326
-0.37336,0.2396,-0.046326
-0.37336,0.2396,0.046326
-0.30363,-0.23811,-0.10738
-0.30363,-0.23811,0.10738
-0.30363,0.23811,-0.10738
-0.30363,0.23811,0.10738
-0.26189,-0.19637,-0.17883
-0.26189,-0.19637,0.17883
-0.26189,0.19637,-0.17883
-0.26189,0.19637,0.17883
-0.2604,-0.12664,0.239884
-0.2604,0.12664,0.239884
-0.2597,-0.04636,0.28621
-0.2597,0.04636,0.28621
-0.2403,0.45364,-1.66533e-16
-0.2396,-0.37336,-0.046326
-0.2396,-0.37336,0.046326
-0.2396,0.37336,-0.046326
-0.2396,0.37336,0.046326
-0.23811,-0.30363,-0.10738
-0.23811,-0.30363,0.10738
-0.23811,0.30363,-0.10738
-0.23811,0.30363,0.10738
-0.19637,-0.26189,-0.17883
-0.19637,-0.26189,0.17883
-0.19637,0.26189,-0.17883
-0.19637,0.26189,0.17883
-0.12664,-0.2604,0.239884
-0.12664,0.2604,0.239884
-0.04636,-0.2597,0.28621
-0.04636,0.2597,0.28621
0.04636,-0.2597,0.28621
0.04636,0.2597,0.28621
0.12664,-0.2604,0.239884
0.12664,0.2604,0.239884
0.19637,-0.26189,-0.17883
0.19637,-0.26189,0.17883
0.19637,0.26189,-0.17883
0.19637,0.26189,0.17883
0.23811,-0.30363,-0.10738
0.23811,-0.30363,0.10738
0.23811,0.30363,-0.10738
0.23811,0.30363,0.10738
0.2396,-0.37336,-0.046326
0.2396,-0.37336,0.046326
0.2396,0.37336,-0.046326
0.2396,0.37336,0.046326
0.2403,0.45364,-1.66533e-16
0.2597,-0.04636,0.28621
0.2597,0.04636,0.28621
0.2604,-0.12664,0.239884
0.2604,0.12664,0.239884
0.26189,-0.19637,-0.17883
0.26189,-0.19637,0.17883
0.26189,0.19637,-0.17883
0.26189,0.19637,0.17883
0.30363,-0.23811,-0.10738
0.30363,-0.23811,0.10738
0.30363,0.23811,-0.10738
0.30363,0.23811,0.10738
0.37336,-0.2396,-0.046326
0.37336,-0.2396,0.046326
0.37336,0.2396,-0.046326
0.37336,0.2396,0.046326
0.45364,-0.2403,-1.66533e-16
0.45364,0.2403,-1.66533e-16
-0.2604,-0.12664,-0.28621
-0.12664,-0.2604,-0.28621
-0.2604,0.12664,-0.28621
0.12664,-0.2604,-0.28621
-0.12664,0.2604,-0.28621
0.2604,-0.12664,-0.28621
0.12664,0.2604,-0.28621
0.2604,0.12664,-0.28621
-0.5,-0.2403,-1.66533e-16
-0.5,0.2403,-1.66533e-16
-0.2403,-0.5,-1.66533e-16
0.2403,-0.5,-1.66533e-16
-0.2403,0.5,-1.66533e-16
0.5,-0.2403,-1.66533e-16
0.2403,0.5,-1.66533e-16
0.5,0.2403,-1.66533e-16
-0.2604,-0.12664,0.28621
-0.12664,-0.2604,0.28621
-0.2604,0.12664,0.28621
0.12664,-0.2604,0.28621
-0.12664,0.2604,0.28621
0.2604,-0.12664,0.28621
0.12664,0.2604,0.28621
0.2604,0.12664,0.28621
connectivity
12,13
12,14
13,15
0,28
4,45
20,24
37,41
21,25
38,42
1,30
10,57
22,26
61,65
5,47
14,74
29,32
46,49
39,43
78,82
23,27
62,66
11,59
15,76
40,44
79,83
31,33
55,58
63,67
80,84
48,50
72,75
64,68
81,85
56,60
73,77
28,45
24,41
30,47
57,74
25,42
26,43
61,78
29,46
27,44
62,79
59,76
31,48
58,75
63,80
64,81
60,77
2,3
6,8
7,9
70,71
0,2
4,6
1,3
8,10
5,7
9,11
16,20
18,37
16,21
18,38
17,22
19,65
17,23
19,66
36,39
82,86
32,34
49,51
36,40
83,86
33,35
53,55
67,69
84,87
50,52
70,72
68,69
85,87
54,56
71,73
24,28
41,45
26,30
57,61
25,29
42,46
43,47
74,78
27,31
58,62
59,63
76,80
44,48
75,79
60,64
77,81
20,21
37,38
22,23
65,66
39,40
82,83
67,68
84,85
34,35
51,53
52,54
0,88
4,89
1,90
10,91
5,92
14,93
11,94
15,95
16,96
17,97
18,98
19,99
36,100
86,101
69,102
87,103
32,104
49,105
33,106
55,107
50,108
72,109
56,110
73,111