-0.25,0,-0.5
0.25,0,-0.5
-0.5,-0.25,0
-0.5,0.25,0
0,-0.5,-0.25
0,-0.5,0.25
-0.25,1.11022e-16,0.5
1.11022e-16,0.5,-0.25
1.11022e-16,0.5,0.25
0.25,1.11022e-16,0.5
0.5,-0.25,0
0.5,0.25,0
connectivity
0,2
2,4
2,5
2,6
0,4
0,3
0,7
1,4
4,10
3,6
3,7
3,8
5,6
5,10
5,9
1,7
1,10
1,11
7,11
6,8
8,11
8,9
9,10
9,11