-0.44371,-0.28207,-0.46203
-0.43767,0.21407,-0.48799
-0.41341,-0.13942,-0.48009
-0.40422,-0.35592,-0.47495
-0.36058,0.08659,-0.48009
-0.35592,0.40422,-0.47495
-0.28593,-0.06233,-0.48799
-0.28207,0.44371,-0.46203
-0.21793,0.05629,-0.46203
-0.21407,-0.43767,-0.48799
-0.14408,0.09578,-0.47495
-0.13942,0.41341,-0.48009
-0.09578,-0.14408,-0.47495
-0.08659,-0.36058,-0.48009
-0.06233,0.28593,-0.48799
-0.05629,-0.21793,-0.46203
0.05629,0.21793,-0.46203
0.06233,-0.28593,-0.48799
0.08659,0.36058,-0.48009
0.09578,0.14408,-0.47495
0.13942,-0.41341,-0.48009
0.14408,-0.09578,-0.47495
0.21407,0.43767,-0.48799
0.21793,-0.05629,-0.46203
0.28207,-0.44371,-0.46203
0.28593,0.06233,-0.48799
0.35592,-0.40422,-0.47495
0.36058,-0.08659,-0.48009
0.40422,0.35592,-0.47495
0.41341,0.13942,-0.48009
0.43767,-0.21407,-0.48799
0.44371,0.28207,-0.46203
-0.48799,-0.43767,0.21407
-0.48799,-0.28593,-0.06233
-0.48799,-0.21407,-0.43767
-0.48799,-0.06233,0.28593
-0.48799,0.06233,-0.28593
-0.48799,0.21407,0.43767
-0.48799,0.28593,0.06233
-0.48799,0.43767,-0.21407
-0.48009,-0.41341,-0.13942
-0.48009,-0.36058,0.08659
-0.48009,-0.13942,0.41341
-0.48009,-0.08659,-0.36058
-0.48009,0.08659,0.36058
-0.48009,0.13942,-0.41341
-0.48009,0.36058,-0.08659
-0.48009,0.41341,0.13942
-0.47495,-0.40422,-0.35592
-0.47495,-0.35592,0.40422
-0.47495,-0.14408,0.09578
-0.47495,-0.09578,-0.14408
-0.47495,0.09578,0.14408
-0.47495,0.14408,-0.09578
-0.47495,0.35592,-0.40422
-0.47495,0.40422,0.35592
-0.46203,-0.44371,-0.28207
-0.46203,-0.28207,0.44371
-0.46203,-0.21793,0.05629
-0.46203,-0.05629,-0.21793
-0.46203,0.05629,0.21793
-0.46203,0.21793,-0.05629
-0.46203,0.28207,-0.44371
-0.46203,0.44371,0.28207
-0.44371,-0.46203,0.28207
-0.43767,-0.48799,-0.21407
-0.41341,-0.48009,0.13942
-0.40422,-0.47495,0.35592
-0.36058,-0.48009,-0.08659
-0.35592,-0.47495,-0.40422
-0.28593,-0.48799,0.06233
-0.28207,-0.46203,-0.44371
-0.21793,-0.46203,-0.05629
-0.21407,-0.48799,0.43767
-0.14408,-0.47495,-0.09578
-0.13942,-0.48009,-0.41341
-0.09578,-0.47495,0.14408
-0.08659,-0.48009,0.36058
-0.06233,-0.48799,-0.28593
-0.05629,-0.46203,0.21793
0.05629,-0.46203,-0.21793
0.06233,-0.48799,0.28593
0.08659,-0.48009,-0.36058
0.09578,-0.47495,-0.14408
0.13942,-0.48009,0.41341
0.14408,-0.47495,0.09578
0.21407,-0.48799,-0.43767
0.21793,-0.46203,0.05629
0.28207,-0.46203,0.44371
0.28593,-0.48799,-0.06233
0.35592,-0.47495,0.40422
0.36058,-0.48009,0.08659
0.40422,-0.47495,-0.35592
0.41341,-0.48009,-0.13942
0.43767,-0.48799,0.21407
0.44371,-0.46203,-0.28207
-0.44371,-0.21793,-0.03797
-0.44371,-0.03797,0.21793
-0.44371,0.03797,-0.21793
-0.44371,0.21793,0.03797
-0.44371,0.28207,0.46203
-0.44371,0.46203,-0.28207
-0.43767,-0.28593,0.01201
-0.43767,-0.21407,0.48799
-0.43767,-0.01201,-0.28593
-0.43767,0.01201,0.28593
-0.43767,0.28593,-0.01201
-0.43767,0.48799,0.21407
-0.41731,-0.41731,-0.08269
-0.41731,-0.41731,0.08269
-0.41731,-0.08269,-0.41731
-0.41731,-0.08269,0.41731
-0.41731,0.08269,-0.41731
-0.41731,0.08269,0.41731
-0.41731,0.41731,-0.08269
-0.41731,0.41731,0.08269
-0.41341,-0.36058,-0.01991
-0.41341,-0.01991,0.36058
-0.41341,0.01991,-0.36058
-0.41341,0.13942,0.48009
-0.41341,0.36058,0.01991
-0.41341,0.48009,-0.13942
-0.41194,-0.41194,-0.41194
-0.41194,-0.41194,0.41194
-0.41194,-0.08806,-0.08806
-0.41194,-0.08806,0.08806
-0.41194,0.08806,-0.08806
-0.41194,0.08806,0.08806
-0.41194,0.41194,-0.41194
-0.41194,0.41194,0.41194
-0.40422,-0.14408,-0.02505
-0.40422,-0.02505,0.14408
-0.40422,0.02505,-0.14408
-0.40422,0.14408,0.02505
-0.40422,0.35592,0.47495
-0.40422,0.47495,-0.35592
-0.36058,-0.41341,0.01991
-0.36058,-0.08659,0.48009
-0.36058,-0.01991,-0.41341
-0.36058,0.01991,0.41341
-0.36058,0.41341,-0.01991
-0.36058,0.48009,0.08659
-0.35592,-0.40422,0.47495
-0.35592,-0.09578,0.02505
-0.35592,-0.02505,-0.09578
-0.35592,0.02505,0.09578
-0.35592,0.09578,-0.02505
-0.35592,0.47495,0.40422
-0.28593,-0.43767,-0.01201
-0.28593,-0.01201,0.43767
-0.28593,0.01201,-0.43767
-0.28593,0.06233,0.48799
-0.28593,0.43767,0.01201
-0.28593,0.48799,-0.06233
-0.28207,-0.44371,0.46203
-0.28207,-0.05629,0.03797
-0.28207,-0.03797,-0.05629
-0.28207,0.03797,0.05629
-0.28207,0.05629,-0.03797
-0.28207,0.46203,0.44371
-0.21793,-0.44371,0.03797
-0.21793,-0.05629,0.46203
-0.21793,-0.03797,-0.44371
-0.21793,0.03797,0.44371
-0.21793,0.44371,-0.03797
-0.21793,0.46203,0.05629
-0.21407,-0.06233,-0.01201
-0.21407,-0.01201,0.06233
-0.21407,0.01201,-0.06233
-0.21407,0.06233,0.01201
-0.21407,0.43767,0.48799
-0.21407,0.48799,-0.43767
-0.14408,-0.40422,0.02505
-0.14408,-0.09578,0.47495
-0.14408,-0.02505,-0.40422
-0.14408,0.02505,0.40422
-0.14408,0.40422,-0.02505
-0.14408,0.47495,0.09578
-0.13942,-0.41341,0.48009
-0.13942,-0.08659,0.01991
-0.13942,-0.01991,-0.08659
-0.13942,0.01991,0.08659
-0.13942,0.08659,-0.01991
-0.13942,0.48009,0.41341
-0.09578,-0.35592,-0.02505
-0.09578,-0.02505,0.35592
-0.09578,0.02505,-0.35592
-0.09578,0.14408,0.47495
-0.09578,0.35592,0.02505
-0.09578,0.47495,-0.14408
-0.08806,-0.41194,-0.08806
-0.08806,-0.41194,0.08806
-0.08806,-0.08806,-0.41194
-0.08806,-0.08806,0.41194
-0.08806,0.08806,-0.41194
-0.08806,0.08806,0.41194
-0.08806,0.41194,-0.08806
-0.08806,0.41194,0.08806
-0.08659,-0.13942,-0.01991
-0.08659,-0.01991,0.13942
-0.08659,0.01991,-0.13942
-0.08659,0.13942,0.01991
-0.08659,0.36058,0.48009
-0.08659,0.48009,-0.36058
-0.08269,-0.41731,-0.41731
-0.08269,-0.41731,0.41731
-0.08269,-0.08269,-0.08269
-0.08269,-0.08269,0.08269
-0.08269,0.08269,-0.08269
-0.08269,0.08269,0.08269
-0.08269,0.41731,-0.41731
-0.08269,0.41731,0.41731
-0.06233,-0.28593,0.48799
-0.06233,-0.21407,0.01201
-0.06233,-0.01201,-0.21407
-0.06233,0.01201,0.21407
-0.06233,0.21407,-0.01201
-0.06233,0.48799,0.28593
-0.05629,-0.28207,-0.03797
-0.05629,-0.03797,0.28207
-0.05629,0.03797,-0.28207
-0.05629,0.21793,0.46203
-0.05629,0.28207,0.03797
-0.05629,0.46203,-0.21793
-0.03797,-0.44371,-0.21793
-0.03797,-0.28207,0.05629
-0.03797,-0.21793,0.44371
-0.03797,-0.05629,-0.28207
-0.03797,0.05629,0.28207
-0.03797,0.21793,-0.44371
-0.03797,0.28207,-0.05629
-0.03797,0.44371,0.21793
-0.02505,-0.40422,-0.14408
-0.02505,-0.35592,0.09578
-0.02505,-0.14408,0.40422
-0.02505,-0.09578,-0.35592
-0.02505,0.09578,0.35592
-0.02505,0.14408,-0.40422
-0.02505,0.35592,-0.09578
-0.02505,0.40422,0.14408
-0.01991,-0.41341,-0.36058
-0.01991,-0.36058,0.41341
-0.01991,-0.13942,0.08659
-0.01991,-0.08659,-0.13942
-0.01991,0.08659,0.13942
-0.01991,0.13942,-0.08659
-0.01991,0.36058,-0.41341
-0.01991,0.41341,0.36058
-0.01201,-0.43767,0.28593
-0.01201,-0.28593,-0.43767
-0.01201,-0.21407,-0.06233
-0.01201,-0.06233,0.21407
-0.01201,0.06233,-0.21407
-0.01201,0.21407,0.06233
-0.01201,0.28593,0.43767
-0.01201,0.43767,-0.28593
0.01201,-0.43767,-0.28593
0.01201,-0.28593,0.43767
0.01201,-0.21407,0.06233
0.01201,-0.06233,-0.21407
0.01201,0.06233,0.21407
0.01201,0.21407,-0.06233
0.01201,0.28593,-0.43767
0.01201,0.43767,0.28593
0.01991,-0.41341,0.36058
0.01991,-0.36058,-0.41341
0.01991,-0.13942,-0.08659
0.01991,-0.08659,0.13942
0.01991,0.08659,-0.13942
0.01991,0.13942,0.08659
0.01991,0.36058,0.41341
0.01991,0.41341,-0.36058
0.02505,-0.40422,0.14408
0.02505,-0.35592,-0.09578
0.02505,-0.14408,-0.40422
0.02505,-0.09578,0.35592
0.02505,0.09578,-0.35592
0.02505,0.14408,0.40422
0.02505,0.35592,0.09578
0.02505,0.40422,-0.14408
0.03797,-0.44371,0.21793
0.03797,-0.28207,-0.05629
0.03797,-0.21793,-0.44371
0.03797,-0.05629,0.28207
0.03797,0.05629,-0.28207
0.03797,0.21793,0.44371
0.03797,0.28207,0.05629
0.03797,0.44371,-0.21793
0.05629,-0.28207,0.03797
0.05629,-0.21793,0.46203
0.05629,-0.03797,-0.28207
0.05629,0.03797,0.28207
0.05629,0.28207,-0.03797
0.05629,0.46203,0.21793
0.06233,-0.21407,-0.01201
0.06233,-0.01201,0.21407
0.06233,0.01201,-0.21407
0.06233,0.21407,0.01201
0.06233,0.28593,0.48799
0.06233,0.48799,-0.28593
0.08269,-0.41731,-0.41731
0.08269,-0.41731,0.41731
0.08269,-0.08269,-0.08269
0.08269,-0.08269,0.08269
0.08269,0.08269,-0.08269
0.08269,0.08269,0.08269
0.08269,0.41731,-0.41731
0.08269,0.41731,0.41731
0.08659,-0.36058,0.48009
0.08659,-0.13942,0.01991
0.08659,-0.01991,-0.13942
0.08659,0.01991,0.13942
0.08659,0.13942,-0.01991
0.08659,0.48009,0.36058
0.08806,-0.41194,-0.08806
0.08806,-0.41194,0.08806
0.08806,-0.08806,-0.41194
0.08806,-0.08806,0.41194
0.08806,0.08806,-0.41194
0.08806,0.08806,0.41194
0.08806,0.41194,-0.08806
0.08806,0.41194,0.08806
0.09578,-0.35592,0.02505
0.09578,-0.14408,0.47495
0.09578,-0.02505,-0.35592
0.09578,0.02505,0.35592
0.09578,0.35592,-0.02505
0.09578,0.47495,0.14408
0.13942,-0.08659,-0.01991
0.13942,-0.01991,0.08659
0.13942,0.01991,-0.08659
0.13942,0.08659,0.01991
0.13942,0.41341,0.48009
0.13942,0.48009,-0.41341
0.14408,-0.40422,-0.02505
0.14408,-0.02505,0.40422
0.14408,0.02505,-0.40422
0.14408,0.09578,0.47495
0.14408,0.40422,0.02505
0.14408,0.47495,-0.09578
0.21407,-0.43767,0.48799
0.21407,-0.06233,0.01201
0.21407,-0.01201,-0.06233
0.21407,0.01201,0.06233
0.21407,0.06233,-0.01201
0.21407,0.48799,0.43767
0.21793,-0.44371,-0.03797
0.21793,-0.03797,0.44371
0.21793,0.03797,-0.44371
0.21793,0.05629,0.46203
0.21793,0.44371,0.03797
0.21793,0.46203,-0.05629
0.28207,-0.05629,-0.03797
0.28207,-0.03797,0.05629
0.28207,0.03797,-0.05629
0.28207,0.05629,0.03797
0.28207,0.44371,0.46203
0.28207,0.46203,-0.44371
0.28593,-0.43767,0.01201
0.28593,-0.06233,0.48799
0.28593,-0.01201,-0.43767
0.28593,0.01201,0.43767
0.28593,0.43767,-0.01201
0.28593,0.48799,0.06233
0.35592,-0.09578,-0.02505
0.35592,-0.02505,0.09578
0.35592,0.02505,-0.09578
0.35592,0.09578,0.02505
0.35592,0.40422,0.47495
0.35592,0.47495,-0.40422
0.36058,-0.41341,-0.01991
0.36058,-0.01991,0.41341
0.36058,0.01991,-0.41341
0.36058,0.08659,0.48009
0.36058,0.41341,0.01991
0.36058,0.48009,-0.08659
0.40422,-0.35592,0.47495
0.40422,-0.14408,0.02505
0.40422,-0.02505,-0.14408
0.40422,0.02505,0.14408
0.40422,0.14408,-0.02505
0.40422,0.47495,0.35592
0.41194,-0.41194,-0.41194
0.41194,-0.41194,0.41194
0.41194,-0.08806,-0.08806
0.41194,-0.08806,0.08806
0.41194,0.08806,-0.08806
0.41194,0.08806,0.08806
0.41194,0.41194,-0.41194
0.41194,0.41194,0.41194
0.41341,-0.36058,0.01991
0.41341,-0.13942,0.48009
0.41341,-0.01991,-0.36058
0.41341,0.01991,0.36058
0.41341,0.36058,-0.01991
0.41341,0.48009,0.13942
0.41731,-0.41731,-0.08269
0.41731,-0.41731,0.08269
0.41731,-0.08269,-0.41731
0.41731,-0.08269,0.41731
0.41731,0.08269,-0.41731
0.41731,0.08269,0.41731
0.41731,0.41731,-0.08269
0.41731,0.41731,0.08269
0.43767,-0.28593,-0.01201
0.43767,-0.01201,0.28593
0.43767,0.01201,-0.28593
0.43767,0.21407,0.48799
0.43767,0.28593,0.01201
0.43767,0.48799,-0.21407
0.44371,-0.28207,0.46203
0.44371,-0.21793,0.03797
0.44371,-0.03797,-0.21793
0.44371,0.03797,0.21793
0.44371,0.21793,-0.03797
0.44371,0.46203,0.28207
0.46203,-0.44371,0.28207
0.46203,-0.28207,-0.44371
0.46203,-0.21793,-0.05629
0.46203,-0.05629,0.21793
0.46203,0.05629,-0.21793
0.46203,0.21793,0.05629
0.46203,0.28207,0.44371
0.46203,0.44371,-0.28207
0.47495,-0.40422,0.35592
0.47495,-0.35592,-0.40422
0.47495,-0.14408,-0.09578
0.47495,-0.09578,0.14408
0.47495,0.09578,-0.14408
0.47495,0.14408,0.09578
0.47495,0.35592,0.40422
0.47495,0.40422,-0.35592
0.48009,-0.41341,0.13942
0.48009,-0.36058,-0.08659
0.48009,-0.13942,-0.41341
0.48009,-0.08659,0.36058
0.48009,0.08659,-0.36058
0.48009,0.13942,0.41341
0.48009,0.36058,0.08659
0.48009,0.41341,-0.13942
0.48799,-0.43767,-0.21407
0.48799,-0.28593,0.06233
0.48799,-0.21407,0.43767
0.48799,-0.06233,-0.28593
0.48799,0.06233,0.28593
0.48799,0.21407,-0.43767
0.48799,0.28593,-0.06233
0.48799,0.43767,0.21407
-0.42854,-0.18598,-0.5
-0.18598,-0.42854,-0.5
-0.31402,-0.07146,-0.5
-0.07146,-0.31402,-0.5
0.07146,-0.31402,-0.5
-0.31402,0.07146,-0.5
-0.42854,0.18598,-0.5
0.18598,-0.42854,-0.5
0.31402,-0.07146,-0.5
-0.07146,0.31402,-0.5
0.07146,0.31402,-0.5
0.42854,-0.18598,-0.5
-0.18598,0.42854,-0.5
0.31402,0.07146,-0.5
0.18598,0.42854,-0.5
0.42854,0.18598,-0.5
-0.11301,-0.38699,-0.5
-0.38699,-0.11301,-0.5
0.11301,-0.38699,-0.5
-0.38699,0.11301,-0.5
-0.11301,0.38699,-0.5
0.38699,-0.11301,-0.5
0.38699,0.11301,-0.5
0.11301,0.38699,-0.5
-0.23041,-0.43912,-0.5
-0.43912,-0.23041,-0.5
-0.26959,-0.06088,-0.5
-0.06088,-0.26959,-0.5
0.06088,-0.26959,-0.5
-0.26959,0.06088,-0.5
0.23041,-0.43912,-0.5
-0.43912,0.23041,-0.5
-0.06088,0.26959,-0.5
0.26959,0.06088,-0.5
0.26959,-0.06088,-0.5
0.43912,-0.23041,-0.5
0.06088,0.26959,-0.5
-0.23041,0.43912,-0.5
0.43912,0.23041,-0.5
0.23041,0.43912,-0.5
-0.38007,-0.38007,-0.5
-0.11993,-0.11993,-0.5
0.11993,-0.11993,-0.5
-0.11993,0.11993,-0.5
-0.38007,0.38007,-0.5
0.11993,0.11993,-0.5
0.38007,-0.38007,-0.5
0.38007,0.38007,-0.5
-0.5,-0.42854,-0.18598
-0.5,-0.18598,-0.42854
-0.5,-0.31402,-0.07146
-0.5,-0.07146,-0.31402
-0.5,0.07146,-0.31402
-0.5,-0.31402,0.07146
-0.5,-0.42854,0.18598
-0.5,0.18598,-0.42854
-0.5,0.31402,-0.07146
-0.5,-0.07146,0.31402
-0.5,0.07146,0.31402
-0.5,0.42854,-0.18598
-0.5,-0.18598,0.42854
-0.5,0.31402,0.07146
-0.5,0.18598,0.42854
-0.5,0.42854,0.18598
-0.5,-0.11301,-0.38699
-0.5,-0.38699,-0.11301
-0.5,0.11301,-0.38699
-0.5,-0.38699,0.11301
-0.5,-0.11301,0.38699
-0.5,0.38699,-0.11301
-0.5,0.38699,0.11301
-0.5,0.11301,0.38699
-0.5,-0.23041,-0.43912
-0.5,-0.43912,-0.23041
-0.5,-0.26959,-0.06088
-0.5,-0.06088,-0.26959
-0.5,0.06088,-0.26959
-0.5,-0.26959,0.06088
-0.5,0.23041,-0.43912
-0.5,-0.43912,0.23041
-0.5,-0.06088,0.26959
-0.5,0.26959,0.06088
-0.5,0.26959,-0.06088
-0.5,0.43912,-0.23041
-0.5,0.06088,0.26959
-0.5,-0.23041,0.43912
-0.5,0.43912,0.23041
-0.5,0.23041,0.43912
-0.5,-0.38007,-0.38007
-0.5,-0.11993,-0.11993
-0.5,0.11993,-0.11993
-0.5,-0.11993,0.11993
-0.5,-0.38007,0.38007
-0.5,0.11993,0.11993
-0.5,0.38007,-0.38007
-0.5,0.38007,0.38007
-0.18598,-0.5,-0.42854
-0.42854,-0.5,-0.18598
-0.07146,-0.5,-0.31402
-0.31402,-0.5,-0.07146
-0.31402,-0.5,0.07146
0.07146,-0.5,-0.31402
0.18598,-0.5,-0.42854
-0.42854,-0.5,0.18598
-0.07146,-0.5,0.31402
0.31402,-0.5,-0.07146
0.31402,-0.5,0.07146
-0.18598,-0.5,0.42854
0.42854,-0.5,-0.18598
0.07146,-0.5,0.31402
0.42854,-0.5,0.18598
0.18598,-0.5,0.42854
-0.38699,-0.5,-0.11301
-0.11301,-0.5,-0.38699
-0.38699,-0.5,0.11301
0.11301,-0.5,-0.38699
0.38699,-0.5,-0.11301
-0.11301,-0.5,0.38699
0.11301,-0.5,0.38699
0.38699,-0.5,0.11301
-0.43912,-0.5,-0.23041
-0.23041,-0.5,-0.43912
-0.06088,-0.5,-0.26959
-0.26959,-0.5,-0.06088
-0.26959,-0.5,0.06088
0.06088,-0.5,-0.26959
-0.43912,-0.5,0.23041
0.23041,-0.5,-0.43912
0.26959,-0.5,-0.06088
0.06088,-0.5,0.26959
-0.06088,-0.5,0.26959
-0.23041,-0.5,0.43912
0.26959,-0.5,0.06088
0.43912,-0.5,-0.23041
0.23041,-0.5,0.43912
0.43912,-0.5,0.23041
-0.38007,-0.5,-0.38007
-0.11993,-0.5,-0.11993
-0.11993,-0.5,0.11993
0.11993,-0.5,-0.11993
0.38007,-0.5,-0.38007
0.11993,-0.5,0.11993
-0.38007,-0.5,0.38007
0.38007,-0.5,0.38007
-0.42854,-0.18598,0.5
-0.18598,0.5,-0.42854
0.5,-0.42854,-0.18598
-0.42854,0.5,-0.18598
-0.18598,-0.42854,0.5
0.5,-0.18598,-0.42854
-0.31402,-0.07146,0.5
-0.07146,0.5,-0.31402
0.5,-0.31402,-0.07146
-0.31402,0.5,-0.07146
-0.07146,-0.31402,0.5
0.5,-0.07146,-0.31402
-0.31402,0.5,0.07146
0.07146,-0.31402,0.5
0.5,0.07146,-0.31402
-0.31402,0.07146,0.5
0.07146,0.5,-0.31402
0.5,-0.31402,0.07146
-0.42854,0.18598,0.5
0.18598,0.5,-0.42854
0.5,-0.42854,0.18598
-0.42854,0.5,0.18598
0.18598,-0.42854,0.5
0.5,0.18598,-0.42854
-0.07146,0.5,0.31402
0.31402,-0.07146,0.5
0.5,0.31402,-0.07146
-0.07146,0.31402,0.5
0.31402,0.5,-0.07146
0.5,-0.07146,0.31402
0.07146,0.31402,0.5
0.31402,0.5,0.07146
0.5,0.07146,0.31402
-0.18598,0.5,0.42854
0.42854,-0.18598,0.5
0.5,0.42854,-0.18598
-0.18598,0.42854,0.5
0.42854,0.5,-0.18598
0.5,-0.18598,0.42854
0.07146,0.5,0.31402
0.31402,0.07146,0.5
0.5,0.31402,0.07146
0.18598,0.42854,0.5
0.42854,0.5,0.18598
0.5,0.18598,0.42854
0.18598,0.5,0.42854
0.42854,0.18598,0.5
0.5,0.42854,0.18598
-0.38699,0.5,-0.11301
-0.11301,-0.38699,0.5
0.5,-0.11301,-0.38699
-0.38699,-0.11301,0.5
-0.11301,0.5,-0.38699
0.5,-0.38699,-0.11301
-0.38699,0.5,0.11301
0.11301,-0.38699,0.5
0.5,0.11301,-0.38699
-0.38699,0.11301,0.5
0.11301,0.5,-0.38699
0.5,-0.38699,0.11301
-0.11301,0.38699,0.5
0.38699,0.5,-0.11301
0.5,-0.11301,0.38699
-0.11301,0.5,0.38699
0.38699,-0.11301,0.5
0.5,0.38699,-0.11301
0.11301,0.5,0.38699
0.38699,0.11301,0.5
0.5,0.38699,0.11301
0.11301,0.38699,0.5
0.38699,0.5,0.11301
0.5,0.11301,0.38699
-0.43912,0.5,-0.23041
-0.23041,-0.43912,0.5
0.5,-0.23041,-0.43912
-0.43912,-0.23041,0.5
-0.23041,0.5,-0.43912
0.5,-0.43912,-0.23041
-0.26959,-0.06088,0.5
-0.06088,0.5,-0.26959
0.5,-0.26959,-0.06088
-0.26959,0.5,-0.06088
-0.06088,-0.26959,0.5
0.5,-0.06088,-0.26959
-0.26959,0.5,0.06088
0.06088,-0.26959,0.5
0.5,0.06088,-0.26959
-0.26959,0.06088,0.5
0.06088,0.5,-0.26959
0.5,-0.26959,0.06088
-0.43912,0.5,0.23041
0.23041,-0.43912,0.5
0.5,0.23041,-0.43912
-0.43912,0.23041,0.5
0.23041,0.5,-0.43912
0.5,-0.43912,0.23041
-0.06088,0.26959,0.5
0.26959,0.5,-0.06088
0.5,-0.06088,0.26959
0.06088,0.5,0.26959
0.26959,0.06088,0.5
0.5,0.26959,0.06088
-0.06088,0.5,0.26959
0.26959,-0.06088,0.5
0.5,0.26959,-0.06088
-0.23041,0.5,0.43912
0.43912,-0.23041,0.5
0.5,0.43912,-0.23041
0.06088,0.26959,0.5
0.26959,0.5,0.06088
0.5,0.06088,0.26959
-0.23041,0.43912,0.5
0.43912,0.5,-0.23041
0.5,-0.23041,0.43912
0.23041,0.5,0.43912
0.43912,0.23041,0.5
0.5,0.43912,0.23041
0.23041,0.43912,0.5
0.43912,0.5,0.23041
0.5,0.23041,0.43912
-0.38007,0.5,-0.38007
-0.38007,-0.38007,0.5
0.5,-0.38007,-0.38007
-0.11993,-0.11993,0.5
-0.11993,0.5,-0.11993
0.5,-0.11993,-0.11993
-0.11993,0.5,0.11993
0.11993,-0.11993,0.5
0.5,0.11993,-0.11993
-0.11993,0.11993,0.5
0.11993,0.5,-0.11993
0.5,-0.11993,0.11993
-0.38007,0.38007,0.5
0.38007,0.5,-0.38007
0.5,-0.38007,0.38007
0.11993,0.5,0.11993
0.11993,0.11993,0.5
0.5,0.11993,0.11993
-0.38007,0.5,0.38007
0.38007,-0.38007,0.5
0.5,0.38007,-0.38007
0.38007,0.38007,0.5
0.38007,0.5,0.38007
0.5,0.38007,0.38007
connectivity
56,65
0,34
9,71
33,96
6,162
78,224
59,104
72,148
15,249
58,102
8,150
80,256
36,98
70,160
17,282
156,166
218,250
214,227
32,64
1,62
24,86
155,167
220,252
281,294
158,168
213,225
259,290
157,169
284,296
258,288
61,106
79,248
23,360
35,97
14,229
89,346
38,99
81,280
25,348
60,105
16,262
87,358
57,103
7,171
95,440
216,230
219,251
342,352
39,101
73,154
30,417
215,228
261,292
341,353
222,253
283,295
344,354
260,291
286,297
343,355
149,161
223,255
404,418
153,164
212,226
412,443
152,165
257,289
406,420
151,163
287,299
411,441
37,100
22,357
94,416
63,107
88,340
31,445
217,231
347,359
414,446
221,254
351,362
405,419
285,298
350,363
413,444
263,293
349,361
408,421
159,170
410,442
409,423
345,356
407,422
415,447
102,116
138,150
240,256
104,118
136,148
249,265
166,179
200,214
250,266
168,180
198,213
243,259
167,181
252,268
294,309
169,182
242,258
296,310
199,215
245,261
328,341
201,216
251,267
330,342
106,120
248,264
360,372
105,117
246,262
358,370
244,260
297,312
329,343
253,269
295,311
331,344
140,152
241,257
392,406
139,149
255,271
390,404
254,270
362,374
393,405
247,263
361,371
394,408
48,56
0,3
69,71
51,59
72,74
12,15
96,130
162,174
224,232
98,132
160,172
274,282
50,58
8,10
80,83
144,156
184,218
227,235
143,155
186,220
273,281
146,158
225,233
290,324
53,61
76,79
21,23
54,62
64,67
24,26
145,157
276,284
288,322
97,131
229,237
334,346
99,133
272,280
336,348
52,60
16,19
85,87
49,57
5,7
92,95
101,135
142,154
417,425
185,219
230,238
352,364
188,222
275,283
354,366
228,236
292,326
353,365
164,176
226,234
378,412
161,173
189,223
418,426
278,286
291,325
355,367
163,175
279,287
377,411
165,177
289,323
420,428
231,239
335,347
380,414
55,63
88,90
28,31
277,285
338,350
379,413
187,221
339,351
419,427
100,134
357,369
416,424
293,327
337,349
421,429
147,159
376,410
423,431
356,368
381,415
422,430
40,108
2,110
75,204
68,108
108,116
43,110
110,138
13,204
204,240
112,118
109,136
265,300
41,109
66,109
4,112
45,112
82,300
20,300
180,206
198,206
206,243
179,207
200,208
266,302
207,242
199,207
182,208
208,245
302,310
302,328
181,209
268,304
303,309
201,209
267,303
304,330
209,244
303,329
304,312
46,114
77,205
27,398
42,111
11,210
93,396
111,117
210,246
370,396
115,120
264,301
372,400
269,305
305,311
305,331
111,137
114,140
114,121
205,241
178,205
203,210
396,433
392,398
398,434
44,113
18,306
91,397
113,139
271,306
390,397
113,119
47,115
115,141
84,301
301,308
306,333
397,432
29,400
400,436
211,247
371,399
394,402
270,307
374,403
393,401
202,211
183,211
399,435
391,399
375,402
402,439
307,313
307,332
373,401
401,437
403,438
395,403
116,136
118,138
240,265
180,200
179,198
243,266
182,201
242,267
310,330
181,199
245,268
309,328
117,139
246,271
370,390
244,269
312,331
311,329
120,140
241,264
372,392
247,270
371,393
374,394
98,104
148,160
249,282
96,102
150,162
224,256
156,168
213,218
227,259
155,166
214,220
250,281
158,169
225,258
290,296
157,167
252,284
288,294
97,105
229,262
346,358
99,106
248,280
348,360
216,222
251,283
342,354
215,219
230,261
341,352
253,286
291,295
344,355
228,260
292,297
343,353
149,163
255,287
404,411
152,164
226,257
406,412
231,263
347,361
408,414
254,285
350,362
405,413
48,122
3,122
69,122
51,124
74,190
12,192
124,130
124,144
190,232
184,190
174,192
192,235
126,132
172,191
274,316
125,143
186,194
273,314
50,125
10,194
83,314
125,131
53,126
126,146
76,191
191,233
194,237
314,334
21,316
316,324
127,145
276,318
315,322
127,133
52,127
272,315
85,315
318,336
19,318
54,128
67,123
26,382
49,123
5,128
92,382
123,142
128,135
382,425
185,193
196,238
364,384
176,196
193,234
378,384
173,193
189,196
384,426
188,197
275,317
366,386
175,195
279,320
377,385
195,236
320,326
365,385
187,195
177,197
197,239
317,323
317,335
320,339
385,427
386,428
380,386
278,321
319,325
367,387
277,319
321,338
379,387
319,337
321,327
387,429
55,129
90,383
28,388
129,134
129,147
383,424
376,383
369,388
388,431
368,389
381,389
389,430
130,143
174,186
232,273
132,144
172,184
235,274
133,146
233,272
324,336
131,145
237,276
322,334
175,185
238,279
364,377
176,188
234,275
366,378
236,277
326,338
365,379
239,278
325,335
367,380
2,448
9,449
6,450
13,451
17,452
4,453
1,454
20,455
27,456
14,457
18,458
30,459
11,460
25,461
22,462
29,463
13,464
2,465
20,466
4,467
11,468
27,469
29,470
18,471
9,472
0,473
6,474
15,475
17,476
8,477
24,478
1,479
14,480
25,481
23,482
30,483
16,484
7,485
31,486
22,487
3,488
12,489
21,490
10,491
5,492
19,493
26,494
28,495
40,496
34,497
33,498
43,499
36,500
41,501
32,502
45,503
46,504
35,505
44,506
39,507
42,508
38,509
37,510
47,511
43,512
40,513
45,514
41,515
42,516
46,517
47,518
44,519
34,520
56,521
33,522
59,523
36,524
58,525
62,526
32,527
35,528
38,529
61,530
39,531
60,532
57,533
63,534
37,535
48,536
51,537
53,538
50,539
49,540
52,541
54,542
55,543
75,544
65,545
78,546
68,547
70,548
82,549
86,550
66,551
77,552
89,553
91,554
73,555
93,556
81,557
94,558
84,559
68,560
75,561
66,562
82,563
93,564
77,565
84,566
91,567
65,568
71,569
78,570
72,571
70,572
80,573
64,574
86,575
89,576
81,577
79,578
73,579
87,580
95,581
88,582
94,583
69,584
74,585
76,586
83,587
92,588
85,589
67,590
90,591
103,592
171,593
440,594
121,595
178,596
434,597
137,598
203,599
433,600
153,601
212,602
443,603
141,604
308,605
436,606
151,607
299,608
441,609
119,610
333,611
432,612
107,613
340,614
445,615
217,616
359,617
446,618
202,619
375,620
435,621
298,622
363,623
444,624
183,625
391,626
439,627
170,628
409,629
442,630
313,631
373,632
438,633
332,634
395,635
437,636
345,637
407,638
447,639
121,640
178,641
434,642
137,643
203,644
433,645
141,646
308,647
436,648
119,649
333,650
432,651
202,652
375,653
435,654
183,655
391,656
439,657
313,658
373,659
438,660
332,661
395,662
437,663
101,664
154,665
417,666
103,667
171,668
440,669
161,670
223,671
418,672
153,673
212,674
443,675
165,676
289,677
420,678
151,679
299,680
441,681
107,682
340,683
445,684
100,685
357,686
416,687
221,688
351,689
419,690
293,691
349,692
421,693
217,694
359,695
446,696
159,697
410,698
423,699
298,700
363,701
444,702
170,703
409,704
442,705
345,706
407,707
447,708
356,709
415,710
422,711
135,712
142,713
425,714
173,715
189,716
426,717
177,718
323,719
428,720
187,721
339,722
427,723
134,724
369,725
424,726
327,727
337,728
429,729
147,730
376,731
431,732
368,733
381,734
430,735