-0.40706,0.0155019,-0.153162
-0.0599,-0.36141,-0.17354
0.59294,-0.304183,-0.17354
-0.28304,-0.23258,-0.0224796
-0.5599,0.36141,-0.0224796
-0.440105,0.215943,-0.108199
-0.216965,-0.0560925,-0.108199
-0.283045,0.344773,-0.153162
0.059905,-0.215943,-0.0878209
-0.059895,0.0727375,-0.153162
0.216955,-0.344773,-0.0428578
-0.092945,0.27317,-0.108199
0.09294,-0.0155019,-0.0428578
0.407065,-0.27317,-0.0878209
0.09294,0.304183,-0.0224796
0.283045,0.0560925,-0.0878209
0.21696,0.23258,-0.17354
0.440105,-0.0727375,-0.0428578
-0.59294,0.304183,0.17354
-0.440105,0.0727375,0.0428578
-0.09294,-0.304183,0.0224796
0.283045,-0.344773,0.153162
0.5599,-0.36141,0.0224796
-0.21696,-0.23258,0.17354
-0.283045,-0.0560925,0.0878209
-0.407065,0.27317,0.0878209
-0.09294,0.0155019,0.0428578
0.092945,-0.27317,0.108199
-0.216955,0.344773,0.0428578
0.059895,-0.0727375,0.153162
-0.059905,0.215943,0.0878209
0.216965,0.0560925,0.108199
0.0599,0.36141,0.17354
0.440105,-0.215943,0.108199
0.40706,-0.0155019,0.153162
0.28304,0.23258,0.0224796
-0.5,-1.11022e-16,-0.19602
-0.0717,-0.433013,-0.189602
0.57642,-0.404399,-0.19602
-0.37187,-0.0048151,-0.19602
0.318235,-0.324456,-0.19602
0.059895,-0.113371,-0.19602
-0.318235,0.324456,-0.19602
-0.059895,0.113371,-0.19602
0.37187,0.0048151,-0.19602
-0.028755,-0.343422,-0.19602
-0.216955,-0.196614,-0.19602
0.561785,-0.286195,-0.19602
0.216955,0.196614,-0.19602
-0.561785,0.286195,-0.19602
0.028755,0.343422,-0.19602
-0.06369,-0.354845,-0.19602
-0.414285,0.0280159,-0.19602
-0.246575,-0.0560925,-0.19602
-0.06712,0.0602234,-0.19602
0.07814,-0.247527,-0.19602
-0.22454,-0.23258,-0.19602
0.58915,-0.310747,-0.19602
0.268595,-0.344773,-0.19602
0.06712,-0.0602234,-0.19602
-0.4253,0.241586,-0.19602
0.4253,-0.241586,-0.19602
-0.07814,0.247527,-0.19602
-0.268595,0.344773,-0.19602
0.246575,0.0560925,-0.19602
-0.58915,0.310747,-0.19602
0.22454,0.23258,-0.19602
0.414285,-0.0280159,-0.19602
0.06369,0.354845,-0.19602
-0.13843,-0.296995,-0.19602
-0.31201,-0.268381,-0.19602
-0.33915,-0.2786,-0.189602
-0.57642,0.404399,-0.19602
-0.5717,0.433013,-0.189602
0.13843,0.296995,-0.19602
-5.55112e-17,-1.11022e-16,-0.19602
-0.25,0.433013,-0.19602
0.66085,-0.2786,-0.189602
0.31201,0.268381,-0.19602
-0.34505,-0.268381,-0.09801
-0.65495,0.268381,0.09801
-0.48348,-0.0286135,-0.09801
-0.51652,0.0286135,0.09801
-0.33915,-0.2786,-0.00641769
-0.66085,0.2786,0.00641769
-0.5,-1.11022e-16,-2.498e-16
-0.0599,-0.433013,-0.09801
0.5599,-0.433013,0.09801
0.21696,-0.433013,-0.09801
0.28304,-0.433013,0.09801
-0.0717,-0.433013,-0.00641769
0.5717,-0.433013,0.00641769
0.57642,-0.404399,0.19602
0.5717,-0.433013,0.189602
0.25,-0.433013,-2.498e-16
-0.37187,-0.0048151,0.19602
0.65495,-0.268381,-0.09801
-0.5599,0.433013,-0.09801
0.318235,-0.324456,0.19602
0.059895,-0.113371,0.19602
-0.318235,0.324456,0.19602
-0.059895,0.113371,0.19602
0.34505,0.268381,0.09801
0.37187,0.0048151,0.19602
0.0599,0.433013,0.09801
-0.028755,-0.343422,0.19602
-0.216955,-0.196614,0.19602
-0.28304,0.433013,-0.09801
0.51652,-0.0286135,-0.09801
0.561785,-0.286195,0.19602
-0.21696,0.433013,0.09801
0.216955,0.196614,0.19602
-0.561785,0.286195,0.19602
0.48348,0.0286135,0.09801
0.028755,0.343422,0.19602
-0.06369,-0.354845,0.19602
-0.414285,0.0280159,0.19602
-0.246575,-0.0560925,0.19602
-0.06712,0.0602234,0.19602
0.07814,-0.247527,0.19602
-0.22454,-0.23258,0.19602
0.58915,-0.310747,0.19602
0.268595,-0.344773,0.19602
0.06712,-0.0602234,0.19602
-0.4253,0.241586,0.19602
0.4253,-0.241586,0.19602
-0.07814,0.247527,0.19602
-0.268595,0.344773,0.19602
0.246575,0.0560925,0.19602
-0.58915,0.310747,0.19602
0.22454,0.23258,0.19602
0.414285,-0.0280159,0.19602
0.06369,0.354845,0.19602
-0.13843,-0.296995,0.19602
-0.31201,-0.268381,0.19602
0.66085,-0.2786,-0.00641769
-0.5717,0.433013,-0.00641769
0.0717,0.433013,0.00641769
-0.57642,0.404399,0.19602
-0.66085,0.2786,0.189602
0.33915,0.2786,0.00641769
0.13843,0.296995,0.19602
0.0717,0.433013,0.189602
0.5,-1.11022e-16,-2.498e-16
0.25,-0.433013,0.19602
-5.55112e-17,-5.55112e-17,0.19602
-0.25,0.433013,-2.498e-16
0.5,-5.55112e-17,0.19602
0.31201,0.268381,0.19602
0.33915,0.2786,0.189602
connectivity
6,26
20,23
10,27
5,19
12,31
11,28
17,33
14,16
3,24
8,20
9,12
13,22
26,29
4,25
15,35
14,30
1,20
3,23
0,19
6,24
8,27
10,21
9,26
5,25
13,33
12,29
2,22
7,28
11,30
4,18
15,31
17,34
16,35
14,32
3,20
0,6
0,5
6,9
8,10
8,12
10,13
9,11
5,7
13,17
19,24
19,25
12,15
24,26
26,30
21,27
27,29
7,11
15,17
21,33
29,31
25,28
33,34
28,30
31,34
14,35
1,8
3,6
20,27
4,5
2,13
12,26
23,24
11,14
22,33
15,16
18,25
30,32
31,35
0,36
1,37
2,38
0,39
13,40
8,41
7,42
9,43
15,44
1,45
6,46
2,47
16,48
5,49
11,50
1,51
0,52
6,53
9,54
8,55
3,56
2,57
10,58
12,59
5,60
13,61
11,62
7,63
15,64
4,65
16,66
17,67
14,68
1,69
70,71
72,73
16,74
9,75
7,76
2,77
16,78
3,79
18,80
0,81
19,82
3,83
4,84
19,85
1,86
22,87
10,88
21,89
20,90
22,91
92,93
10,94
24,95
2,96
4,97
21,98
29,99
25,100
30,101
35,102
34,103
32,104
27,105
23,106
7,107
17,108
33,109
28,110
31,111
18,112
34,113
32,114
20,115
19,116
24,117
26,118
27,119
23,120
22,121
21,122
29,123
25,124
33,125
30,126
28,127
31,128
18,129
35,130
34,131
32,132
23,133
23,134
22,135
4,136
14,137
18,138
18,139
35,140
32,141
32,142
17,143
21,144
29,145
28,146
34,147
148,149