-0.39022,0.39022,-0.5
-0.36015,0.24101,-0.46987
-0.13985,0.25899,-0.46987
-0.10978,0.10978,-0.5
0.10978,-0.10978,-0.5
0.24101,-0.36015,-0.46987
0.25899,-0.13985,-0.46987
0.39022,-0.39022,-0.5
-0.5,-0.39022,0.39022
-0.5,-0.10978,0.10978
-0.5,0.10978,-0.10978
-0.5,0.39022,-0.39022
-0.46987,-0.36015,0.24101
-0.46987,-0.13985,0.25899
-0.46987,0.24101,-0.36015
-0.46987,0.25899,-0.13985
-0.39022,-0.5,0.39022
-0.36015,-0.46987,0.24101
-0.13985,-0.46987,0.25899
-0.10978,-0.5,0.10978
0.10978,-0.5,-0.10978
0.24101,-0.46987,-0.36015
0.25899,-0.46987,-0.13985
0.39022,-0.5,-0.39022
-0.39022,0,0.10978
-0.39022,0.10978,0
-0.39022,0.39022,0.5
-0.39022,0.5,0.39022
-0.36015,-0.03013,0.25899
-0.36015,0.25899,-0.03013
-0.25899,0.03013,0.36015
-0.25899,0.13985,0.46987
-0.25899,0.36015,0.03013
-0.25899,0.46987,0.13985
-0.24101,0.03013,0.13985
-0.24101,0.13985,0.03013
-0.24101,0.36015,0.46987
-0.24101,0.46987,0.36015
-0.13985,-0.03013,0.24101
-0.13985,0.24101,-0.03013
-0.10978,0,0.39022
-0.10978,0.10978,0.5
-0.10978,0.39022,0
-0.10978,0.5,0.10978
-0.03013,-0.36015,0.25899
-0.03013,-0.13985,0.24101
-0.03013,0.24101,-0.13985
-0.03013,0.25899,-0.36015
-1.11022e-16,-0.39022,0.10978
-1.11022e-16,-0.10978,0.39022
-1.11022e-16,0.10978,-0.39022
-1.11022e-16,0.39022,-0.10978
0.03013,-0.25899,0.36015
0.03013,-0.24101,0.13985
0.03013,0.13985,-0.24101
0.03013,0.36015,-0.25899
0.10978,-0.39022,0
0.10978,-0.10978,0.5
0.10978,0,-0.39022
0.10978,0.5,-0.10978
0.13985,-0.25899,0.46987
0.13985,-0.24101,0.03013
0.13985,0.03013,-0.24101
0.13985,0.46987,-0.25899
0.24101,-0.13985,-0.03013
0.24101,-0.03013,-0.13985
0.25899,-0.36015,-0.03013
0.25899,-0.03013,-0.36015
0.36015,-0.25899,0.03013
0.36015,-0.24101,0.46987
0.36015,0.03013,-0.25899
0.36015,0.46987,-0.24101
0.39022,-0.39022,0.5
0.39022,-0.10978,0
0.39022,0,-0.10978
0.39022,0.5,-0.39022
0.46987,-0.25899,0.13985
0.46987,-0.24101,0.36015
0.46987,0.13985,-0.25899
0.46987,0.36015,-0.24101
0.5,-0.39022,0.39022
0.5,-0.10978,0.10978
0.5,0.10978,-0.10978
0.5,0.39022,-0.39022
-0.30957,0.19043,-0.5
0.19043,-0.30957,-0.5
-0.19043,0.30957,-0.5
0.30957,-0.19043,-0.5
-0.5,-0.30957,0.19043
-0.5,0.19043,-0.30957
-0.5,-0.19043,0.30957
-0.5,0.30957,-0.19043
-0.30957,-0.5,0.19043
0.19043,-0.5,-0.30957
-0.19043,-0.5,0.30957
0.30957,-0.5,-0.19043
-0.30957,0.19043,0.5
-0.30957,0.5,0.19043
0.19043,-0.30957,0.5
0.19043,0.5,-0.30957
0.5,-0.30957,0.19043
0.5,0.19043,-0.30957
-0.19043,0.30957,0.5
-0.19043,0.5,0.30957
0.30957,-0.19043,0.5
0.30957,0.5,-0.19043
0.5,-0.19043,0.30957
0.5,0.30957,-0.19043
connectivity
9,24
10,25
19,48
3,50
20,56
4,58
8,16
0,11
7,23
24,25
48,56
50,58
40,49
40,41
42,51
42,43
49,57
51,59
73,74
73,81
74,82
34,38
35,39
45,53
46,54
61,64
62,65
28,30
29,32
44,52
47,55
66,68
67,70
9,13
10,15
18,19
2,3
20,22
4,6
8,12
11,14
16,17
0,1
21,23
5,7
24,34
24,28
25,35
25,29
48,53
44,48
50,54
47,50
56,61
56,66
58,62
58,67
38,40
39,42
45,49
46,51
64,73
65,74
30,40
32,42
49,52
51,55
68,73
70,74
31,41
33,43
57,60
59,63
76,81
78,82
26,36
27,37
69,72
71,75
77,80
79,83
12,17
1,14
5,21
13,28
15,29
18,44
2,47
22,66
6,67
34,35
53,61
54,62
38,45
39,46
64,65
30,31
32,33
52,60
55,63
68,76
70,78
36,37
69,77
71,79
26,27
75,83
72,80
1,84
5,85
2,86
6,87
12,88
14,89
13,90
15,91
17,92
21,93
18,94
22,95
31,96
33,97
60,98
63,99
76,100
78,101
36,102
37,103
69,104
71,105
77,106
79,107