-0.302868,-0.0741456,-0.49758
-0.286036,0.429791,-0.37219
0.286036,-0.429791,-0.37219
-0.286036,0.0456836,-0.37781
0.286036,-0.0456836,-0.37781
0.302868,0.0741456,-0.49758
-0.429791,0.189439,-0.12219
-0.41566,0.160853,-0.28722
-0.41566,0.314622,-0.46278
-0.401329,-0.302868,0.25242
-0.401329,-0.172607,-0.00242
-0.314622,0.0598148,-0.21278
-0.314622,0.41566,0.46278
-0.302868,-0.401329,-0.25242
-0.429791,0.286036,0.37219
-0.172607,-0.401329,0.00242
-0.0741456,-0.302868,0.49758
0.0456836,-0.286036,0.37781
0.0598148,-0.314622,0.21278
0.160853,-0.41566,0.28722
0.189439,-0.429791,0.12219
0.314622,-0.41566,0.46278
0.41566,-0.314622,-0.46278
-0.189439,0.0456836,0.12781
-0.189439,0.429791,0.12219
-0.172607,-0.0741456,0.24758
-0.160853,0.0598148,-0.03722
-0.160853,0.41566,0.28722
-0.0741456,-0.172607,-0.24758
-0.0598148,0.160853,0.03722
-0.0598148,0.314622,0.21278
-0.0456836,0.189439,-0.12781
-0.0456836,0.286036,0.37781
0.0456836,-0.189439,-0.12781
0.0598148,-0.160853,0.03722
0.0741456,0.172607,-0.24758
0.0741456,0.302868,0.49758
0.160853,-0.0598148,-0.03722
0.172607,0.0741456,0.24758
0.172607,0.401329,0.00242
0.189439,-0.0456836,0.12781
0.302868,0.401329,-0.25242
0.314622,-0.0598148,-0.21278
0.401329,0.172607,-0.00242
0.401329,0.302868,0.25242
0.41566,-0.160853,-0.28722
0.429791,-0.286036,0.37219
0.429791,-0.189439,-0.12219
-0.403593,-0.403593,-0.5
-0.33172,-0.475475,-0.42186
-0.306929,-0.0780825,-0.5
-0.33172,0.475475,-0.42186
0.241693,-0.475475,-0.39944
-0.0780825,-0.306929,-0.5
-0.241693,-0.475475,-0.39944
0.0780825,0.306929,-0.5
0.241693,0.475475,-0.39944
0.165855,-0.165855,-0.5
-0.165855,0.165855,-0.5
-0.241693,0.475475,-0.39944
0.33172,-0.475475,-0.42186
0.403593,0.403593,-0.5
0.33172,0.475475,-0.42186
0.306929,0.0780825,-0.5
-0.475475,0.143755,-0.17186
-0.475475,-0.143755,-0.17186
-0.403593,-0.403593,0.5
-0.475475,-0.33172,0.42186
-0.475475,-0.233782,-0.14944
-0.475475,0.233782,-0.14944
-0.306929,-0.0780825,0.5
-0.475475,-0.241693,0.39944
-0.475475,0.11129,-0.30896
-0.341172,-0.475475,-0.39223
-0.475475,-0.364185,-0.44104
-0.475475,0.134303,-0.14223
-0.475475,-0.11129,-0.30896
-0.475475,-0.134303,-0.14223
-0.364185,-0.475475,0.44104
-0.475475,-0.341172,0.39223
-0.475475,-0.336941,-0.40864
-0.475475,0.138534,-0.34136
-0.475475,-0.138534,-0.34136
-0.475475,0.336941,-0.40864
-0.475475,-0.137022,-0.06879
-0.475475,0.137022,-0.06879
-0.475475,-0.338453,0.31879
-0.475475,0.338453,0.31879
-0.475475,-0.252734,-0.47174
-0.475475,0.252734,-0.47174
-0.475475,-0.222741,-0.27826
-0.475475,0.222741,-0.27826
-0.475475,0.364185,-0.44104
-0.341172,0.475475,-0.39223
-0.475475,0.341172,0.39223
-0.364185,0.475475,0.44104
-0.143755,-0.475475,0.17186
0.143755,-0.475475,0.17186
-0.233782,-0.475475,0.14944
0.233782,-0.475475,0.14944
-0.134303,-0.475475,0.14223
0.134303,-0.475475,0.14223
-0.11129,-0.475475,0.30896
0.11129,-0.475475,0.30896
-0.138534,-0.475475,0.34136
-0.336941,-0.475475,0.40864
0.138534,-0.475475,0.34136
0.336941,-0.475475,0.40864
-0.338453,-0.475475,-0.31879
-0.137022,-0.475475,0.06879
0.137022,-0.475475,0.06879
0.338453,-0.475475,-0.31879
-0.222741,-0.475475,0.27826
-0.252734,-0.475475,0.47174
0.252734,-0.475475,0.47174
0.222741,-0.475475,0.27826
0.475475,0.143755,-0.17186
0.475475,-0.143755,-0.17186
-0.143755,0.475475,0.17186
-0.475475,0.33172,0.42186
0.143755,0.475475,0.17186
0.475475,-0.33172,0.42186
0.475475,-0.233782,-0.14944
-0.0780825,-0.306929,0.5
-0.233782,0.475475,0.14944
-0.475475,0.241693,0.39944
0.475475,0.233782,-0.14944
0.475475,-0.241693,0.39944
0.0780825,0.306929,0.5
0.233782,0.475475,0.14944
0.165855,-0.165855,0.5
-0.165855,0.165855,0.5
0.341172,-0.475475,-0.39223
0.475475,0.11129,-0.30896
0.475475,-0.364185,-0.44104
0.475475,0.134303,-0.14223
0.475475,-0.11129,-0.30896
0.475475,-0.134303,-0.14223
-0.134303,0.475475,0.14223
0.134303,0.475475,0.14223
-0.11129,0.475475,0.30896
0.11129,0.475475,0.30896
0.364185,-0.475475,0.44104
0.475475,-0.341172,0.39223
0.475475,-0.336941,-0.40864
0.475475,0.138534,-0.34136
0.475475,-0.138534,-0.34136
0.475475,0.336941,-0.40864
-0.138534,0.475475,0.34136
-0.336941,0.475475,0.40864
0.138534,0.475475,0.34136
0.336941,0.475475,0.40864
-0.338453,0.475475,-0.31879
0.475475,-0.137022,-0.06879
-0.137022,0.475475,0.06879
0.475475,0.137022,-0.06879
0.137022,0.475475,0.06879
0.338453,0.475475,-0.31879
0.475475,-0.338453,0.31879
0.475475,0.338453,0.31879
0.475475,-0.252734,-0.47174
0.475475,0.252734,-0.47174
0.475475,-0.222741,-0.27826
0.475475,0.222741,-0.27826
-0.222741,0.475475,0.27826
-0.252734,0.475475,0.47174
0.252734,0.475475,0.47174
0.222741,0.475475,0.27826
0.341172,0.475475,-0.39223
0.475475,0.364185,-0.44104
0.364185,0.475475,0.44104
0.475475,0.341172,0.39223
0.403593,0.403593,0.5
0.475475,0.33172,0.42186
0.306929,0.0780825,0.5
0.475475,0.241693,0.39944
connectivity
23,33
31,40
3,28
10,23
15,33
31,39
17,25
4,35
40,43
32,38
2,33
6,24
14,23
1,31
20,47
40,46
26,33
23,34
31,37
29,40
26,28
10,11
15,18
25,34
35,37
29,38
42,43
30,39
0,7
28,37
26,35
34,38
25,29
5,45
16,19
27,36
11,28
10,26
15,34
18,25
37,43
35,42
29,39
30,38
48,49
0,50
1,51
2,52
53,54
55,56
4,57
3,58
1,59
2,60
61,62
5,63
6,64
3,65
66,67
13,68
6,69
70,71
7,72
73,74
6,75
3,76
11,77
78,79
13,80
7,81
0,82
8,83
10,84
11,85
9,86
12,87
0,88
8,89
13,90
7,91
8,92
1,93
14,94
12,95
17,96
20,97
9,98
20,99
18,100
20,101
17,102
19,103
16,104
9,105
19,106
21,107
13,108
15,109
18,110
22,111
9,112
16,113
21,114
19,115
4,116
47,117
24,118
14,119
32,120
46,121
47,122
16,123
24,124
14,125
41,126
46,127
36,128
44,129
17,130
32,131
2,132
4,133
22,134
42,135
45,136
47,137
24,138
30,139
27,140
32,141
21,142
46,143
22,144
5,145
45,146
41,147
27,148
12,149
36,150
44,151
8,152
42,153
30,154
43,155
39,156
41,157
21,158
44,159
22,160
5,161
45,162
41,163
27,164
12,165
36,166
44,167
168,169
170,171
172,173
174,175