-0.221855,-0.0655537,-0.5
-0.221855,0.0655537,-0.5
-0.0655537,-0.221855,-0.5
0.0655537,-0.221855,-0.5
-0.143611,-0.143611,-0.43059
-0.0655537,0.221855,-0.5
0.0655537,0.221855,-0.5
0.221855,-0.0655537,-0.5
0.221855,0.0655537,-0.5
-0.143611,0.143611,-0.43059
-0.221855,-0.221855,-0.36138
-0.221855,-0.221855,-0.23038
-0.221855,-0.221855,0.23038
-0.221855,-0.221855,0.36138
-0.221855,-0.0655537,0.5
-0.221855,0.0655537,0.5
-0.221855,0.221855,-0.36138
-0.221855,0.221855,-0.23038
-0.221855,0.221855,0.23038
-0.221855,0.221855,0.36138
-0.156776,-0.156776,-0.13799
-0.156776,-0.156776,0.13799
-0.156776,0.156776,-0.13799
-0.156776,0.156776,0.13799
-0.156301,-2.77556e-17,0
-0.0655537,-0.221855,0.5
-5.55112e-17,-0.156301,0
0.0655537,-0.221855,0.5
0.156776,-0.156776,-0.13799
0.156776,-0.156776,0.13799
0.221855,-0.221855,-0.36138
0.221855,-0.221855,-0.23038
0.221855,-0.221855,0.23038
0.221855,-0.221855,0.36138
-0.143611,-0.143611,0.43059
-0.143611,0.143611,0.43059
-0.0782438,-0.0782438,-0.06941
-0.0782438,-0.0782438,0.06941
-0.0782438,0.0782438,-0.06941
-0.0782438,0.0782438,0.06941
-0.0655537,0.221855,0.5
-0.0650789,-0.0650789,-0.36201
-0.0650789,-0.0650789,0.36201
-0.0650789,0.0650789,-0.36201
-0.0650789,0.0650789,0.36201
-5.55112e-17,-2.77556e-17,-0.26962
-5.55112e-17,-2.77556e-17,-0.13862
-5.55112e-17,-2.77556e-17,0.13862
-2.77556e-17,0,0.26962
-2.77556e-17,0.156301,0
0.0650789,-0.0650789,-0.36201
0.0650789,-0.0650789,0.36201
0.0650789,0.0650789,-0.36201
0.0650789,0.0650789,0.36201
0.0655537,0.221855,0.5
0.0782438,-0.0782438,-0.06941
0.0782438,-0.0782438,0.06941
0.0782438,0.0782438,-0.06941
0.0782438,0.0782438,0.06941
0.143611,-0.143611,-0.43059
0.143611,-0.143611,0.43059
0.143611,0.143611,-0.43059
0.143611,0.143611,0.43059
0.156301,-2.77556e-17,0
0.156776,0.156776,-0.13799
0.156776,0.156776,0.13799
0.221855,-0.0655537,0.5
0.221855,0.0655537,0.5
0.221855,0.221855,-0.36138
0.221855,0.221855,-0.23038
0.221855,0.221855,0.23038
0.221855,0.221855,0.36138
-0.221855,-0.156776,-0.13799
-0.221855,-0.156776,0.13799
-0.221855,0.156776,-0.13799
-0.221855,0.156776,0.13799
-0.221855,-2.77556e-17,0
-0.156776,-0.221855,-0.13799
-0.156776,-0.221855,0.13799
0.156776,-0.221855,-0.13799
0.156776,-0.221855,0.13799
-5.55112e-17,-0.221855,0
-0.156776,0.221855,-0.13799
0.221855,-0.156776,-0.13799
-0.156776,0.221855,0.13799
0.221855,-0.156776,0.13799
0.156776,0.221855,-0.13799
0.221855,0.156776,-0.13799
0.156776,0.221855,0.13799
0.221855,0.156776,0.13799
-2.77556e-17,0.221855,0
0.221855,-2.77556e-17,0
connectivity
2,4
2,3
5,9
5,6
10,11
12,13
45,46
47,48
4,41
20,36
21,37
9,43
50,59
22,38
28,55
52,61
23,39
29,56
34,42
57,64
58,65
35,44
51,60
53,62
41,43
41,50
43,52
50,52
42,44
42,51
44,53
51,53
4,10
13,34
36,46
37,47
38,46
46,55
46,57
9,16
30,59
39,47
47,56
47,58
61,68
19,35
33,60
62,71
0,4
1,9
3,59
25,34
24,36
26,36
24,37
24,38
24,39
26,37
26,55
26,56
7,59
38,49
55,63
39,49
56,63
14,34
49,57
57,63
49,58
58,63
6,61
8,61
15,35
35,40
27,60
60,66
54,62
62,67
0,1
25,27
11,20
12,21
41,45
43,45
45,50
45,52
17,22
28,31
42,48
44,48
48,51
48,53
18,23
29,32
64,69
65,70
16,17
18,19
40,54
30,31
32,33
7,8
68,69
70,71
14,15
66,67
20,72
21,73
22,74
23,75
24,76
20,77
21,78
28,79
29,80
26,81
22,82
28,83
23,84
29,85
64,86
64,87
65,88
65,89
49,90
63,91