-0.0836558,-0.33333,-0.08365
-0.0836558,0.33333,-0.08365
-0.0836492,-0.16667,-0.08365
-0.0836492,0.16667,-0.08365
0.0836492,-0.16667,-0.08365
0.0836492,0.16667,-0.08365
0.0836558,-0.33333,-0.08365
0.0836558,0.33333,-0.08365
-0.0845994,-0.5,-0.08365
-0.0845994,0.5,-0.08365
0.0845994,-0.5,-0.08365
-0.0836558,-0.33333,0.08365
-0.0836558,0.33333,0.08365
-0.0836492,-0.16667,0.08365
-0.0836492,0.16667,0.08365
-0.0827056,0,-0.08365
0.0827056,0,-0.08365
0.0836492,-0.16667,0.08365
0.0836492,0.16667,0.08365
0.0836558,-0.33333,0.08365
0.0836558,0.33333,0.08365
0.0845994,0.5,-0.08365
-0.0845994,-0.5,0.08365
-0.0845994,0.5,0.08365
0.0845994,-0.5,0.08365
-0.0827056,0,0.08365
0.0827056,0,0.08365
0.0845994,0.5,0.08365
-0.167305,-0.16667,-0.08365
-0.167305,0.16667,-0.08365
-0.167305,-0.33333,-0.08365
-0.167305,0.33333,-0.08365
-0.167305,-0.5,-0.08365
-0.167305,0.5,-0.08365
0.167305,-0.16667,-0.08365
0.167305,0.16667,-0.08365
0.167305,-0.33333,-0.08365
0.167305,0.33333,-0.08365
0.167305,-0.5,-0.08365
0.167305,0.5,-0.08365
-0.167305,-0.16667,0.08365
-0.167305,0.16667,0.08365
-0.167305,-0.33333,0.08365
-0.167305,0.33333,0.08365
-0.167305,-0.5,0.08365
-0.167305,0.5,0.08365
0.167305,-0.16667,0.08365
0.167305,0.16667,0.08365
0.167305,-0.33333,0.08365
0.167305,0.33333,0.08365
0.167305,-0.5,0.08365
0.167305,0.5,0.08365
connectivity
0,11
2,13
3,14
6,19
4,17
1,12
5,18
7,20
0,2
1,3
4,6
5,7
0,8
6,10
2,15
3,15
4,16
1,9
5,16
7,21
0,6
1,7
2,4
3,5
15,16
11,13
12,14
17,19
18,20
11,22
19,24
13,25
14,25
17,26
12,23
18,26
20,27
11,19
12,20
13,17
14,18
25,26
2,28
3,29
0,30
1,31
8,32
9,33
4,34
5,35
6,36
7,37
10,38
21,39
13,40
14,41
11,42
12,43
22,44
23,45
17,46
18,47
19,48
20,49
24,50
27,51