-0.13711,-0.13711,-0.5
-0.13711,0.13711,-0.5
0.13711,-0.13711,-0.5
0.13711,0.13711,-0.5
-0.13711,-0.13711,0
-0.13711,-0.0956754,0.32115
-0.13711,5.55112e-17,0.25
-0.13711,0.0956754,0.32115
-0.13711,0.13711,0
-0.13711,-0.13711,0.5
-0.0956754,-0.13711,-0.32115
2.77556e-17,-0.13711,-0.25
0.0956754,-0.13711,-0.32115
0.13711,-0.13711,0
-0.13711,0.13711,0.5
-0.0956754,0.13711,-0.32115
-0.0414346,2.77556e-17,0.17885
2.77556e-17,-0.0414346,-0.17885
0,0,-0.5
2.77556e-17,2.77556e-17,0
2.77556e-17,0.0414346,-0.17885
5.55112e-17,0.13711,-0.25
0.0414346,2.77556e-17,0.17885
0.0956754,0.13711,-0.32115
0.13711,-0.0956754,0.32115
0.13711,5.55112e-17,0.25
0.13711,0.0956754,0.32115
0.13711,0.13711,0
0.13711,-0.13711,0.5
0.13711,0.13711,0.5
5.55112e-17,5.55112e-17,0.5
connectivity
0,18
4,19
1,18
2,18
3,18
8,19
13,19
19,27
0,10
5,9
2,12
7,14
17,19
19,20
16,19
19,22
10,17
5,16
12,17
7,16
15,20
20,23
22,24
22,26
10,11
11,12
11,17
5,6
6,7
6,16
20,21
22,25
1,15
3,23
15,21
21,23
24,28
26,29
24,25
25,26
9,30
14,30
28,30
29,30