-0.495065,-0.49986,-0.40395
-0.495065,0.49986,-0.40395
0.00493542,-0.49986,-0.40395
-0.247532,-0.24993,-0.201975
-0.247532,0.24993,-0.201975
0.00493542,0.49986,-0.40395
0.252468,-0.24993,-0.201975
0.252468,0.24993,-0.201975
0.504935,0.49986,-0.40395
-0.504935,-0.49986,0.40395
-0.5,-2.77556e-16,-1.66533e-16
-0.00493542,-0.49986,0.40395
0.495065,-0.49986,0.40395
-0.252468,-0.24993,0.201975
-0.252468,0.24993,0.201975
1.11022e-16,-2.77556e-16,-1.66533e-16
-0.00493542,0.49986,0.40395
0.247532,-0.24993,0.201975
0.247532,0.24993,0.201975
0.5,-2.77556e-16,-1.66533e-16
0.495065,0.49986,0.40395
-0.245065,-0.24993,-0.40395
0.254935,0.24993,-0.40395
-0.245065,0.24993,-0.40395
0.254935,-0.24993,-0.40395
-0.254935,-0.24993,0.40395
0.245065,0.24993,0.40395
-0.254935,0.24993,0.40395
0.245065,-0.24993,0.40395
connectivity
3,13
7,18
4,14
6,17
0,3
10,13
3,15
11,13
15,18
5,7
7,19
18,20
2,3
3,10
9,13
13,15
7,15
7,8
18,19
16,18
2,6
10,14
1,4
4,15
6,19
15,17
14,16
12,17
3,21
7,22
4,23
6,24
13,25
18,26
14,27
17,28