-0.25,0,-0.5
-0.24375,-0.42081,-0.5
-0.24375,0.42081,-0.5
-2.22045e-16,-0.25,-0.5
-2.22045e-16,0.25,-0.5
0.24375,-0.42081,-0.5
0.24375,0.42081,-0.5
0.25,0,-0.5
-0.5,-0.25,0
-0.5,-0.24375,-0.42081
-0.5,-0.24375,0.42081
-0.5,0,-0.25
-0.5,0,0.25
-0.5,0.24375,-0.42081
-0.5,0.24375,0.42081
-0.5,0.25,0
-0.42081,-0.5,-0.24375
-0.42081,-0.5,0.24375
-0.25,-0.5,0
-2.22045e-16,-0.5,-0.25
-2.22045e-16,-0.5,0.25
0.25,-0.5,0
0.42081,-0.5,-0.24375
0.42081,-0.5,0.24375
-0.42081,0.5,-0.24375
-0.42081,0.5,0.24375
-0.28954,-0.25,-0.21046
-0.28954,-0.25,0.21046
-0.28954,0.25,-0.21046
-0.28954,0.25,0.21046
-0.25625,0,-0.07919
-0.25625,0,0.07919
-0.25,-0.25,-0.25
-0.25,-0.25,0.25
-0.25,-0.21046,-0.28954
-0.25,-0.21046,0.28954
-0.25,1.11022e-16,0.5
-0.25,0.21046,-0.28954
-0.25,0.21046,0.28954
-0.25,0.25,-0.25
-0.25,0.25,0.25
-0.25,0.5,0
-0.24375,-0.42081,0.5
-0.24375,0.42081,0.5
-0.21046,-0.28954,-0.25
-0.21046,-0.28954,0.25
-0.21046,0.28954,-0.25
-0.21046,0.28954,0.25
-0.07919,-0.25625,0
-0.07919,0.25625,0
-1.11022e-16,-0.25,0.5
-2.22045e-16,-0.07919,-0.25625
-2.22045e-16,-0.07919,0.25625
-2.22045e-16,0.07919,-0.25625
-2.22045e-16,0.07919,0.25625
-1.11022e-16,0.25,0.5
-1.11022e-16,0.5,-0.25
-1.11022e-16,0.5,0.25
0.07919,-0.25625,0
0.07919,0.25625,0
0.21046,-0.28954,-0.25
0.21046,-0.28954,0.25
0.21046,0.28954,-0.25
0.21046,0.28954,0.25
0.24375,-0.42081,0.5
0.24375,0.42081,0.5
0.25,-0.25,-0.25
0.25,-0.25,0.25
0.25,-0.21046,-0.28954
0.25,-0.21046,0.28954
0.25,1.11022e-16,0.5
0.25,0.21046,-0.28954
0.25,0.21046,0.28954
0.25,0.25,-0.25
0.25,0.25,0.25
0.25,0.5,0
0.25625,0,-0.07919
0.25625,0,0.07919
0.28954,-0.25,-0.21046
0.28954,-0.25,0.21046
0.28954,0.25,-0.21046
0.28954,0.25,0.21046
0.42081,0.5,-0.24375
0.42081,0.5,0.24375
0.5,-0.25,0
0.5,-0.24375,-0.42081
0.5,-0.24375,0.42081
0.5,0,-0.25
0.5,0,0.25
0.5,0.24375,-0.42081
0.5,0.24375,0.42081
0.5,0.25,0
connectivity
9,26
16,44
1,34
13,28
17,45
5,68
10,27
2,37
22,60
14,29
6,71
23,61
26,48
30,34
44,51
30,37
27,48
51,60
31,35
31,38
46,53
53,62
58,78
58,79
28,49
45,52
68,76
35,42
24,46
78,85
29,49
52,61
71,76
47,54
54,63
59,80
59,81
69,77
72,77
38,43
62,82
79,86
25,47
64,69
80,89
63,83
65,72
81,90
11,32
11,39
18,32
18,33
3,32
3,66
12,33
12,40
4,39
4,73
21,66
21,67
33,50
39,41
66,87
40,41
40,55
50,67
67,88
73,87
73,75
55,74
74,75
74,88
8,26
8,27
0,34
0,37
19,44
19,60
15,28
15,29
20,45
20,61
7,68
7,71
35,36
46,56
78,84
36,38
56,62
79,84
47,57
69,70
80,91
57,63
70,72
81,91
9,11
16,18
1,3
11,13
11,30
17,18
18,48
3,5
3,51
10,12
12,14
12,31
2,4
4,6
4,53
21,22
21,23
21,58
41,49
50,52
76,87
54,55
59,75
77,88
24,41
25,41
75,82
75,83
85,87
87,89
86,88
88,90
42,50
50,64
43,55
55,65