-0.25,-0.06752,-0.43248
-0.25,0.25,-0.25
0,-0.25,-0.5
0,0.25,-0.5
0.25,-0.25,-0.25
0.25,0.06752,-0.43248
-0.5,0,-0.25
-0.5,0,0.25
-0.43248,-0.25,-0.06752
-0.43248,0.25,0.06752
-0.25,-0.25,0.25
-0.25,-0.5,0
-0.06752,-0.43248,-0.25
0.06752,-0.43248,0.25
0.25,-0.5,0
-0.25,-0.25,-0.25
-0.25,0.06752,0.43248
-0.25,0.25,0.25
-0.25,0.5,0
-0.06752,0.43248,0.25
1.11022e-16,-0.25,0.5
1.11022e-16,0.25,0.5
0.06752,0.43248,-0.25
0.25,-0.25,0.25
0.25,-0.06752,0.43248
0.25,0.25,-0.25
0.25,0.25,0.25
0.25,0.5,0
0.43248,-0.25,0.06752
0.43248,0.25,-0.06752
0.5,0,-0.25
0.5,0,0.25
-0.25,-0.10632,-0.5
-0.25,0.10632,-0.5
0.25,-0.10632,-0.5
0.25,0.10632,-0.5
-0.25,0,-0.5
0.25,0,-0.5
-0.5,-0.25,-0.10632
-0.5,-0.25,0.10632
-0.5,0.25,-0.10632
-0.5,0.25,0.10632
-0.5,-0.25,0
-0.5,0.25,0
-0.10632,-0.5,-0.25
0.10632,-0.5,-0.25
-0.10632,-0.5,0.25
0.10632,-0.5,0.25
0,-0.5,-0.25
0,-0.5,0.25
-0.25,-0.10632,0.5
-0.10632,0.5,-0.25
0.5,-0.25,-0.10632
-0.25,0.10632,0.5
0.10632,0.5,-0.25
0.5,-0.25,0.10632
-0.10632,0.5,0.25
0.25,-0.10632,0.5
0.5,0.25,-0.10632
0.10632,0.5,0.25
0.25,0.10632,0.5
0.5,0.25,0.10632
-0.25,1.11022e-16,0.5
1.11022e-16,0.5,-0.25
0.5,-0.25,0
1.11022e-16,0.5,0.25
0.25,1.11022e-16,0.5
0.5,0.25,0
connectivity
8,10
0,1
4,12
10,13
10,16
1,9
1,22
4,5
4,28
19,26
24,26
26,29
1,6
10,11
2,4
7,10
1,3
4,14
10,20
1,18
4,30
21,26
26,27
26,31
6,15
11,15
2,15
7,17
3,25
14,23
17,18
17,21
20,23
23,31
25,30
25,27
8,15
0,15
12,15
9,17
13,23
5,25
16,17
17,19
23,28
23,24
22,25
25,29
0,32
1,33
4,34
5,35
0,36
5,37
8,38
10,39
1,40
9,41
8,42
9,43
12,44
4,45
10,46
13,47
12,48
13,49
10,50
1,51
4,52
16,53
22,54
28,55
19,56
24,57
29,58
26,59
26,60
26,61
16,62
22,63
28,64
19,65
24,66
29,67