-0.0914,-0.0914,-0.5
-0.0914,0.0914,-0.5
0.0914,-0.0914,-0.5
0.0914,0.0914,-0.5
-0.5,-0.0914,-0.0914
-0.5,-0.0914,0.0914
-0.5,0.0914,-0.0914
-0.5,0.0914,0.0914
-0.0914,-0.5,-0.0914
-0.0914,-0.5,0.0914
0.0914,-0.5,-0.0914
0.0914,-0.5,0.0914
-0.31663,-0.09407,-0.09407
-0.31663,-0.09407,0.09407
-0.31663,0.09407,-0.09407
-0.31663,0.09407,0.09407
-0.20484,-0.20484,0
-0.20484,0,-0.20484
-0.20484,0,0.20484
-0.20484,0.20484,0
-0.17917,-0.17917,-0.17917
-0.17917,-0.17917,0.17917
-0.17917,0.17917,-0.17917
-0.17917,0.17917,0.17917
-0.09407,-0.31663,-0.09407
-0.09407,-0.31663,0.09407
-0.09407,-0.09407,-0.31663
-0.09407,-0.09407,0.31663
-0.09407,0.09407,-0.31663
-0.09407,0.09407,0.31663
-0.09407,0.31663,-0.09407
-0.09407,0.31663,0.09407
-0.0914,-0.0914,0.5
-0.0914,0.0914,0.5
-0.0914,0.5,-0.0914
-0.0914,0.5,0.0914
2.22045e-16,-0.20484,-0.20484
2.22045e-16,-0.20484,0.20484
2.22045e-16,0.20484,-0.20484
2.22045e-16,0.20484,0.20484
0.0914,-0.0914,0.5
0.0914,0.0914,0.5
0.0914,0.5,-0.0914
0.0914,0.5,0.0914
0.09407,-0.31663,-0.09407
0.09407,-0.31663,0.09407
0.09407,-0.09407,-0.31663
0.09407,-0.09407,0.31663
0.09407,0.09407,-0.31663
0.09407,0.09407,0.31663
0.09407,0.31663,-0.09407
0.09407,0.31663,0.09407
0.17917,-0.17917,-0.17917
0.17917,-0.17917,0.17917
0.17917,0.17917,-0.17917
0.17917,0.17917,0.17917
0.20484,-0.20484,0
0.20484,0,-0.20484
0.20484,0,0.20484
0.20484,0.20484,0
0.31663,-0.09407,-0.09407
0.31663,-0.09407,0.09407
0.31663,0.09407,-0.09407
0.31663,0.09407,0.09407
0.5,-0.0914,-0.0914
0.5,-0.0914,0.0914
0.5,0.0914,-0.0914
0.5,0.0914,0.0914
connectivity
12,20
20,24
20,26
13,21
14,22
21,25
22,28
44,52
46,52
21,27
22,30
52,60
15,23
45,53
48,54
23,29
23,31
47,53
53,61
50,54
54,62
49,55
51,55
55,63
16,20
17,20
20,36
16,21
17,22
36,52
18,21
21,37
19,22
22,38
52,56
52,57
18,23
19,23
37,53
38,54
53,56
54,57
23,39
53,58
54,59
39,55
55,58
55,59
12,16
12,17
16,24
24,36
17,26
26,36
13,16
16,25
14,17
17,28
36,44
36,46
13,18
14,19
25,37
28,38
44,56
46,57
15,18
15,19
37,45
45,56
38,48
48,57
18,27
18,29
19,30
19,31
27,37
37,47
30,38
38,50
56,60
56,61
57,60
57,62
29,39
31,39
47,58
50,59
58,61
59,62
39,49
39,51
49,58
58,63
51,59
59,63
4,12
8,24
0,26
5,13
6,14
9,25
1,28
10,44
2,46
7,15
11,45
3,48
27,32
30,34
60,64
29,33
31,35
40,47
42,50
61,65
62,66
41,49
43,51
63,67
4,5
4,6
8,9
8,10
0,1
0,2
5,7
6,7
9,11
1,3
10,11
2,3
34,35
34,42
35,43
42,43
64,65
64,66
65,67
66,67
32,33
32,40
33,41
40,41