-0.20651,-0.45667,-0.222323
0.20667,-0.45651,-0.221235
-0.29349,0.04333,-0.222323
-0.20667,-0.04349,-0.221235
0.20651,-0.04333,-0.222323
0.29333,0.04349,-0.221235
0.29349,0.45667,-0.222323
-0.29333,0.45651,-0.221235
-0.41459,-0.33564,0.22185
-0.41459,-0.16436,-0.0738553
-0.41459,0.16436,-0.22185
-0.41459,0.33564,0.0738553
-0.41436,-0.33541,-0.0739972
-0.41436,-0.16459,0.221708
-0.41436,0.16459,0.0739972
-0.41436,0.33541,-0.221708
-0.29333,-0.45651,-0.0744703
-0.20667,-0.45651,0.0744703
0.20651,-0.45667,0.0733822
0.29333,-0.45651,0.221235
0.29349,-0.45667,-0.0733822
-0.29349,-0.45667,0.222323
-0.29349,-0.04333,-0.0733822
-0.29349,0.45667,0.0733822
-0.29333,-0.04349,0.221235
-0.29333,0.04349,0.0744703
-0.20667,0.04349,-0.0744703
-0.20667,0.45651,0.221235
-0.20651,-0.04333,0.0733822
-0.20651,0.04333,0.222323
-0.20651,0.45667,-0.0733822
-0.08564,-0.33541,0.0739972
-0.08564,-0.16459,-0.221708
-0.08564,0.16459,-0.0739972
-0.08564,0.33541,0.221708
-0.08541,-0.33564,-0.22185
-0.08541,-0.16436,0.0738553
-0.08541,0.16436,0.22185
-0.08541,0.33564,-0.0738553
0.08541,-0.33564,0.0738553
0.08541,-0.16436,-0.22185
0.08541,0.16436,-0.0738553
0.08541,0.33564,0.22185
0.08564,-0.33541,-0.221708
0.08564,-0.16459,0.0739972
0.08564,0.16459,0.221708
0.08564,0.33541,-0.0739972
0.20651,0.04333,-0.0733822
0.20651,0.45667,0.222323
0.20667,-0.04349,0.0744703
0.20667,0.04349,0.221235
0.20667,0.45651,-0.0744703
0.29333,-0.04349,-0.0744703
0.29333,0.45651,0.0744703
0.29349,-0.04333,0.222323
0.29349,0.04333,0.0733822
0.41436,-0.33541,0.221708
0.41436,-0.16459,-0.0739972
0.41436,0.16459,-0.221708
0.41436,0.33541,0.0739972
0.41459,-0.33564,-0.0738553
0.41459,-0.16436,0.22185
0.41459,0.16436,0.0738553
0.41459,0.33564,-0.22185
-0.20659,-0.49976,-0.295705
0.20659,-0.5,-0.295297
-0.29341,-0.49976,-0.295705
-0.29341,-0.5,-0.295297
-0.29341,0.00024,-0.295705
-0.20659,0.00024,-0.295705
0.20659,-0.00024,-0.295705
0.29341,-0.00024,-0.295705
0.20659,0.49976,-0.295705
0.20659,0.5,-0.295297
-0.25,-0.45667,-0.295705
-0.25,0.04333,-0.295705
0.25,-0.04333,-0.295705
0.25,0.45667,-0.295705
-0.29341,0.5,-0.295297
0.29341,0.49976,-0.295705
-0.5,-0.33553,-0.0739262
-0.5,-0.16447,-0.0739262
-0.5,0.16447,-0.221779
-0.5,0.33553,-0.221779
-0.5,-0.33553,0.221779
-0.5,0.16447,0.0739263
-0.5,-0.16447,0.221779
-0.5,0.33553,0.0739263
-0.20659,-0.5,0.000408073
-0.29341,-0.5,-0.000408073
0.20659,-0.5,-0.000408073
-0.20659,-0.49976,0.295705
-0.20659,-0.5,0.295297
0.29341,-0.5,0.000408073
-0.29333,-0.5,-0.147852
0.20667,-0.5,-0.147852
-0.20667,-0.5,0.147853
0.29333,-0.5,0.147853
-0.29341,-0.49976,0.295705
-0.29341,0.00024,0.295705
-0.20659,0.5,0.000408073
-0.20659,0.00024,0.295705
-0.29341,0.5,-0.000408073
0.29341,-0.5,0.295297
0.20659,0.5,-0.000408073
0.20659,-0.00024,0.295705
0.29341,-0.00024,0.295705
-0.20659,0.5,0.295297
0.29341,0.5,0.000408073
0.20659,0.49976,0.295705
0.5,-0.33553,-0.0739262
0.5,-0.16447,-0.0739262
0.5,0.16447,-0.221779
0.5,0.33553,-0.221779
0.5,-0.33553,0.221779
0.5,0.16447,0.0739263
0.5,-0.16447,0.221779
0.5,0.33553,0.0739263
-0.25,-0.45667,0.295705
-0.29333,0.5,-0.147852
-0.25,0.04333,0.295705
0.20667,0.5,-0.147852
0.25,-0.04333,0.295705
-0.20667,0.5,0.147853
0.29333,0.5,0.147853
0.25,0.45667,0.295705
0.29341,0.49976,0.295705
0.29341,0.5,0.295297
connectivity
0,16
3,22
2,26
22,25
17,21
1,20
26,28
24,28
4,52
25,29
18,19
5,47
47,49
7,30
52,55
49,54
50,55
23,27
6,51
48,53
9,12
32,35
35,43
32,40
40,43
10,15
31,36
31,39
36,44
33,41
33,38
39,44
8,13
11,14
41,46
57,60
38,46
58,63
37,45
34,37
42,45
56,61
34,42
59,62
0,35
12,16
9,22
3,32
2,10
1,43
4,40
17,31
26,33
28,36
7,15
14,25
18,39
20,60
8,21
44,49
13,24
41,47
5,58
52,57
30,38
11,23
29,37
46,51
55,62
19,56
45,50
6,63
54,61
27,34
42,48
53,59
3,26
22,28
24,25
18,20
47,55
5,52
49,50
23,30
0,64
1,65
66,67
2,68
3,69
4,70
5,71
72,73
0,74
2,75
4,76
6,77
7,78
6,79
12,80
9,81
10,82
15,83
8,84
14,85
13,86
11,87
17,88
16,89
18,90
91,92
20,93
16,94
1,95
17,96
19,97
21,98
24,99
30,100
29,101
23,102
19,103
51,104
50,105
54,106
27,107
53,108
48,109
60,110
57,111
58,112
63,113
56,114
62,115
61,116
59,117
21,118
7,119
29,120
51,121
54,122
27,123
53,124
48,125
126,127