-0.5,-0.5,-0.432295
-0.5,0.5,-0.432295
-0.25,0.24614,-0.432295
1.66533e-16,-0.5,-0.432295
-0.5,0,-0.432295
-0.25,-0.25386,-0.432295
1.66533e-16,0,-0.432295
2.77556e-16,0.5,-0.432295
0.25,-0.24614,-0.432295
0.25,0.25386,-0.432295
0.5,0.5,-0.432295
0.5,0,-0.432295
-0.5,-0.5,0.432295
-0.49614,-0.5,-0.216148
-0.5,-0.5,-5.55112e-17
-0.5,-0.25,-0.108074
-0.5,-0.25,0.324221
-0.5,0,-5.55112e-17
-0.5,0.25,-0.324221
-0.5,0.25,0.108074
-0.49614,0,0.216147
-0.49614,0.5,-0.216148
-0.47841,-0.28933,-0.422542
-0.47841,-0.21067,0.00975258
-0.47841,0.21067,0.422542
-0.47841,0.28933,-0.00975258
-0.46067,-0.27159,-0.2259
-0.46067,-0.22841,0.206395
-0.46067,0.22841,0.2259
-0.46067,0.27159,-0.206395
-0.25,-0.24614,-5.55112e-17
-0.25,0.24614,0.432295
-0.25,0.25386,-5.55112e-17
-0.5,0.5,-5.55112e-17
-0.00386,-0.5,0.216147
1.66533e-16,-0.5,-5.55112e-17
1.66533e-16,-0.5,0.432295
0.00386,-0.5,-0.216148
0.49614,-0.5,0.216147
0.5,-0.5,0.432295
-0.5,0,0.432295
-0.25,-0.25386,0.432295
-0.25,-0.25,-0.216148
-0.25,-0.25,0.216147
-0.25,0.25,-0.216148
-0.25,0.25,0.216147
-0.03933,-0.27159,0.2259
-0.03933,-0.22841,-0.206395
-0.03933,0.22841,-0.2259
-0.03933,0.27159,0.206395
-0.02159,-0.28933,0.422542
-0.02159,-0.21067,-0.00975258
-0.02159,0.21067,-0.422542
-0.02159,0.28933,0.00975258
-0.00386,0,-0.216148
-0.00386,0.5,0.216147
1.66533e-16,-0.25,-0.324221
1.66533e-16,-0.25,0.108074
1.66533e-16,0,-5.55112e-17
1.66533e-16,0,0.432295
1.66533e-16,0.25,-0.108074
1.66533e-16,0.25,0.324221
2.77556e-16,0.5,-5.55112e-17
2.77556e-16,0.5,0.432295
0.00386,0,0.216147
0.00386,0.5,-0.216148
0.02159,-0.28933,-0.00975258
0.02159,-0.21067,0.422542
0.02159,0.21067,0.00975258
0.02159,0.28933,-0.422542
0.03933,-0.27159,-0.206395
0.03933,-0.22841,0.2259
0.03933,0.22841,0.206395
0.03933,0.27159,-0.2259
0.25,-0.25386,-5.55112e-17
0.25,-0.25,-0.216148
0.25,-0.25,0.216147
0.25,-0.24614,0.432295
0.25,0.24614,-5.55112e-17
0.25,0.25,-0.216148
0.25,0.25,0.216147
0.25,0.25386,0.432295
0.46067,-0.27159,0.206395
0.46067,-0.22841,-0.2259
0.46067,0.22841,-0.206395
0.46067,0.27159,0.2259
0.47841,-0.28933,0.00975258
0.47841,-0.21067,-0.422542
0.47841,0.21067,-0.00975258
0.47841,0.28933,0.422542
0.49614,0,-0.216148
0.49614,0.5,0.216147
0.5,-0.5,-5.55112e-17
0.5,-0.25,-0.108074
0.5,-0.25,0.324221
0.5,0,-5.55112e-17
0.5,0.25,-0.324221
0.5,0.25,0.108074
0.5,0.5,0.432295
0.5,0.5,-5.55112e-17
0.5,0,0.432295
-0.5,-0.2859,-0.423321
-0.5,-0.47573,0.215274
-0.5,-0.2141,0.00897444
-0.5,-0.2141,-0.423321
-0.5,-0.47573,-0.217021
-0.5,-0.2859,0.00897444
-0.5,-0.02427,-0.217021
-0.5,0.02427,-0.215274
-0.5,0.2859,-0.00897444
-0.5,-0.02427,0.215274
-0.5,0.47573,-0.215274
-0.5,0.2141,-0.00897444
-0.5,0.02427,0.217021
-0.5,0.2859,0.423321
-0.5,-0.23226,-0.352856
-0.5,-0.26774,-0.352856
-0.5,-0.26774,0.0794385
-0.5,-0.23226,0.0794385
-0.5,0.26774,-0.0794385
-0.5,0.23226,-0.0794385
-0.5,0.23226,0.352856
-0.5,0.26774,0.352856
-0.5,0.47573,0.217021
0.5,-0.2859,-0.423321
0.5,-0.47573,0.215274
0.5,-0.2141,0.00897444
0.5,-0.2141,-0.423321
0.5,-0.47573,-0.217021
0.5,-0.2859,0.00897444
0.5,-0.02427,-0.217021
0.5,0.02427,-0.215274
0.5,0.2859,-0.00897444
-0.5,0.2141,0.423321
0.5,-0.02427,0.215274
0.5,0.47573,-0.215274
0.5,0.2141,-0.00897444
0.5,0.02427,0.217021
0.5,0.2859,0.423321
0.5,-0.23226,-0.352856
0.5,-0.26774,-0.352856
0.5,-0.26774,0.0794385
0.5,-0.23226,0.0794385
0.5,0.26774,-0.0794385
0.5,0.23226,-0.0794385
0.5,0.23226,0.352856
0.5,0.26774,0.352856
0.5,0.47573,0.217021
0.5,0.2141,0.423321
connectivity
13,15
5,56
15,30
37,56
2,18
18,21
8,56
34,57
16,20
16,41
19,20
19,32
9,96
38,94
54,56
30,57
54,60
57,74
57,64
74,93
32,60
60,65
60,78
61,64
90,93
90,96
78,97
31,61
55,61
61,81
0,22
17,23
35,66
6,52
26,42
42,47
70,75
51,58
27,43
29,44
43,46
44,48
75,83
58,68
25,33
7,69
73,79
71,76
11,87
28,45
53,62
45,49
76,82
79,84
36,50
86,92
59,67
72,80
24,40
80,85
88,95
89,98
14,15
4,18
3,56
15,17
15,42
17,19
35,57
6,56
1,18
18,44
12,16
16,40
16,43
19,33
19,45
42,56
56,75
43,57
44,60
75,93
57,58
57,76
58,60
60,79
60,62
45,61
76,94
79,96
59,61
61,80
61,63
80,97
37,47
2,69
34,71
9,52
30,66
54,70
51,74
54,73
48,65
46,64
32,68
49,64
53,78
50,77
41,67
55,72
13,22
5,26
37,66
2,48
8,83
34,50
9,73
38,86
20,23
30,47
27,30
70,74
51,54
52,54
29,32
20,24
41,46
21,25
74,82
32,49
65,69
71,77
64,68
87,90
64,67
28,31
53,55
88,90
72,78
78,84
81,85
89,91
47,66
51,70
52,73
48,69
46,67
50,71
49,68
53,72
91,97
77,94
92,93
11,96
93,95
95,97
10,96
39,94
94,100
97,99
22,101
27,102
23,103
5,104
13,105
30,106
26,107
29,108
25,109
20,110
21,111
32,112
20,113
31,114
26,115
22,116
27,117
23,118
25,119
29,120
24,121
28,122
28,123
8,124
38,125
74,126
87,127
83,128
86,129
90,130
90,131
78,132
24,133
82,134
84,135
88,136
85,137
89,138
87,139
83,140
86,141
82,142
84,143
88,144
85,145
89,146
91,147
81,148