-0.255934,-0.230652,-0.375
-0.255934,0.480362,-0.375
-0.169954,0.110592,-0.48498
-0.102333,0.260208,-0.39426
-0.0682899,0.488922,-0.39426
-0.00066884,-0.360302,-0.48498
0.0853112,-0.0190579,-0.375
0.0853112,0.268768,-0.375
0.171291,-0.388828,-0.48498
0.238912,-0.239212,-0.39426
0.272955,-0.0104978,-0.39426
0.340576,0.139118,-0.48498
-0.340576,-0.110592,0.26502
-0.340576,0.360302,-0.01502
-0.340576,0.388828,-0.23498
-0.272955,-0.488922,-0.10574
-0.272955,-0.260208,0.35574
-0.272955,0.239212,-0.14426
-0.255934,-0.0190579,0.125
-0.255934,0.268768,0.125
-0.238912,-0.488922,0.35574
-0.238912,-0.260208,-0.10574
-0.238912,0.0104978,-0.14426
-0.238912,0.239212,0.39426
-0.169954,-0.388828,0.01502
-0.169954,-0.360302,0.23498
-0.00066884,-0.388828,-0.26502
0.0682899,-0.488922,0.39426
0.102333,-0.488922,-0.14426
0.171291,-0.360302,-0.26502
0.340576,-0.388828,0.23498
0.340576,-0.360302,0.01502
-0.340576,-0.139118,0.48498
-0.272955,0.0104978,0.39426
-0.171291,-0.139118,-0.23498
-0.171291,-0.110592,-0.01502
-0.171291,0.360302,0.26502
-0.171291,0.388828,0.48498
-0.169954,0.139118,-0.26502
-0.102333,-0.239212,0.10574
-0.102333,-0.0104978,-0.35574
-0.102333,0.488922,0.14426
-0.0853113,-0.480362,-0.125
-0.0853113,-0.268768,0.375
-0.0853113,0.0190579,0.375
-0.0853113,0.230652,-0.125
-0.0682899,-0.239212,-0.35574
-0.0682899,-0.0104978,0.10574
-0.0682899,0.260208,0.14426
-0.00066884,0.110592,0.23498
-0.00066884,0.139118,0.01502
0.00066884,-0.139118,-0.01502
0.00066884,-0.110592,-0.23498
0.00066884,0.360302,0.48498
0.00066884,0.388828,0.26502
0.0682899,-0.260208,-0.14426
0.0682899,0.0104978,-0.10574
0.0682899,0.239212,0.35574
0.0853112,-0.230652,0.125
0.0853113,0.480362,0.125
0.102333,-0.260208,0.39426
0.102333,0.0104978,0.35574
0.102333,0.239212,-0.10574
0.169954,-0.139118,0.26502
0.169954,-0.110592,0.48498
0.169954,0.360302,-0.23498
0.169954,0.388828,-0.01502
0.171291,0.110592,0.01502
0.171291,0.139118,0.23498
0.238912,-0.0104978,0.14426
0.238912,0.260208,0.10574
0.238912,0.488922,-0.35574
0.255934,-0.480362,0.375
0.255934,-0.268768,-0.125
0.255934,0.0190579,-0.125
0.255934,0.230652,0.375
0.272955,-0.239212,0.14426
0.272955,0.260208,-0.35574
0.272955,0.488922,0.10574
0.340576,0.110592,-0.26502
-0.182764,0.098146,-0.5
0.158481,-0.401274,-0.5
0.0121415,-0.347856,-0.5
-0.329104,0.151564,-0.5
-0.341245,0.139768,-0.48576
0.182764,-0.098146,-0.5
-0.158481,0.401274,-0.5
-0.0121415,0.347856,-0.5
-0.333335,0.123117,-0.5
-0.341245,0.13787,-0.48615
0.00791006,-0.376303,-0.5
0.162712,-0.372827,-0.5
-0.178533,0.126593,-0.5
0.178533,-0.126593,-0.5
-0.162712,0.372827,-0.5
-0.00791006,0.376303,-0.5
-0.00974596,-0.350483,-0.5
-0.331499,-0.148937,-0.5
-0.160877,0.100773,-0.5
0.180368,-0.398647,-0.5
0.160877,-0.100773,-0.5
-0.180368,0.398647,-0.5
0.00974596,0.350483,-0.5
0.331499,0.148937,-0.5
0.329104,-0.151564,-0.5
0.341245,0.139768,-0.48576
0.341245,0.13787,-0.48615
0.333335,-0.123117,-0.5
-0.341245,-0.359652,0.01424
-0.341245,-0.109942,0.26424
-0.341245,0.109942,-0.26424
-0.341245,-0.389478,0.23576
-0.341245,0.359652,-0.01424
-0.341245,0.389478,-0.23576
-0.341245,-0.234548,-0.38376
-0.341245,-0.264872,-0.11624
-0.341245,0.0151624,-0.13376
-0.341245,-0.0151624,0.13376
-0.341245,-0.484258,0.36624
-0.341245,0.264872,0.11624
-0.341245,0.484258,-0.36624
-0.341245,0.234548,0.38376
-0.341245,-0.36155,0.01385
-0.341245,-0.11184,0.26385
-0.341245,0.38758,-0.23615
-0.341245,0.11184,-0.26385
-0.341245,-0.38758,0.23615
-0.341245,0.36155,-0.01385
-0.277698,-0.49942,-0.09937
-0.0635466,-0.49942,-0.40063
0.107076,-0.49942,-0.15063
-0.234169,-0.49942,0.34937
-0.107076,-0.49942,0.15063
0.234169,-0.49942,-0.34937
0.0635466,-0.49942,0.40063
0.277698,-0.49942,0.09937
-0.278818,-0.49942,-0.11694
-0.0624274,-0.49942,-0.38306
-0.108195,-0.49942,0.13306
0.108195,-0.49942,-0.13306
0.0624274,-0.49942,0.38306
0.23305,-0.49942,-0.36694
-0.23305,-0.49942,0.36694
0.278818,-0.49942,0.11694
-0.182764,0.098146,0.5
-0.341245,-0.139768,0.48576
0.158481,-0.401274,0.5
0.0121415,-0.347856,0.5
0.341245,-0.359652,0.01424
-0.329104,0.151564,0.5
0.341245,-0.109942,0.26424
0.341245,0.109942,-0.26424
0.341245,-0.389478,0.23576
0.341245,0.359652,-0.01424
0.182764,-0.098146,0.5
0.341245,0.389478,-0.23576
-0.158481,0.401274,0.5
-0.0121415,0.347856,0.5
-0.277698,0.49942,-0.09937
-0.0635466,0.49942,-0.40063
0.107076,0.49942,-0.15063
-0.234169,0.49942,0.34937
-0.107076,0.49942,0.15063
0.234169,0.49942,-0.34937
0.0635466,0.49942,0.40063
0.277698,0.49942,0.09937
-0.278818,0.49942,-0.11694
-0.0624274,0.49942,-0.38306
-0.108195,0.49942,0.13306
0.108195,0.49942,-0.13306
0.0624274,0.49942,0.38306
0.23305,0.49942,-0.36694
-0.23305,0.49942,0.36694
0.278818,0.49942,0.11694
0.341245,-0.234548,-0.38376
0.341245,-0.264872,-0.11624
0.341245,0.0151624,-0.13376
0.341245,-0.0151624,0.13376
0.341245,-0.484258,0.36624
0.341245,0.264872,0.11624
0.341245,0.484258,-0.36624
0.341245,0.234548,0.38376
-0.333335,0.123117,0.5
-0.341245,-0.13787,0.48615
0.00791006,-0.376303,0.5
0.162712,-0.372827,0.5
0.341245,-0.36155,0.01385
0.341245,-0.11184,0.26385
-0.178533,0.126593,0.5
0.341245,0.38758,-0.23615
0.341245,0.11184,-0.26385
0.341245,-0.38758,0.23615
0.178533,-0.126593,0.5
-0.162712,0.372827,0.5
-0.00791006,0.376303,0.5
0.341245,0.36155,-0.01385
-0.00974596,-0.350483,0.5
-0.331499,-0.148937,0.5
-0.160877,0.100773,0.5
0.180368,-0.398647,0.5
0.160877,-0.100773,0.5
-0.180368,0.398647,0.5
0.00974596,0.350483,0.5
0.331499,0.148937,0.5
0.329104,-0.151564,0.5
0.341245,-0.139768,0.48576
0.333335,-0.123117,0.5
0.341245,-0.13787,0.48615
connectivity
15,24
34,46
26,28
40,52
35,47
17,38
29,55
39,51
16,25
56,67
50,62
36,48
49,61
63,76
65,77
57,68
41,54
66,78
21,35
26,46
22,34
24,39
38,40
2,3
52,55
8,9
51,56
14,17
12,16
47,50
10,11
32,33
62,66
48,49
67,70
61,63
60,64
30,76
23,37
68,69
77,79
54,57
21,34
5,46
2,40
22,35
52,56
3,38
51,55
25,39
9,29
13,17
12,33
47,49
16,32
48,50
10,79
62,65
67,69
60,63
31,76
23,36
11,77
61,64
68,70
53,57
0,46
15,42
28,42
6,40
55,73
39,58
18,47
6,10
17,45
3,7
56,74
16,43
45,62
58,76
43,60
1,4
19,48
7,77
33,44
27,72
44,61
41,59
57,75
59,78
21,24
46,52
34,40
26,55
22,38
35,39
28,29
47,51
20,25
50,56
62,67
48,54
49,57
63,69
65,71
36,41
61,68
66,70
0,34
26,42
24,42
18,35
6,52
38,45
51,58
25,43
12,18
29,73
45,50
58,63
1,14
31,73
13,19
19,36
7,65
44,49
67,74
74,79
68,75
30,72
59,66
54,59
2,80
8,81
5,82
83,84
10,85
4,86
3,87
88,89
5,90
8,91
2,92
9,93
3,94
4,95
5,96
0,97
2,98
8,99
6,100
1,101
7,102
11,103
9,104
11,105
11,106
10,107
21,108
12,109
22,110
20,111
13,112
14,113
0,114
21,115
22,116
18,117
20,118
19,119
1,120
23,121
15,122
12,123
14,124
17,125
16,126
13,127
15,128
5,129
28,130
20,131
25,132
29,133
27,134
31,135
15,136
26,137
24,138
28,139
27,140
8,141
20,142
30,143
33,144
32,145
27,146
60,147
31,148
23,149
69,150
79,151
30,152
70,153
64,154
71,155
37,156
53,157
13,158
4,159
65,160
36,161
41,162
71,163
53,164
78,165
14,166
4,167
41,168
66,169
54,170
71,171
37,172
78,173
9,174
73,175
74,176
69,177
72,178
70,179
71,180
75,181
33,182
32,183
27,184
60,185
31,186
76,187
23,188
77,189
79,190
30,191
64,192
37,193
53,194
78,195
43,196
32,197
44,198
72,199
64,200
37,201
53,202
75,203
204,205
206,207