-0.707613,0.335355,-0.222768
-0.207613,-0.359596,-0.222768
0.644232,-0.445134,-0.222768
0.144232,0.420892,-0.222768
0.292387,0.335355,-0.222768
-0.656418,0.246682,-0.0855253
-0.656418,0.246682,0.0855253
-0.521878,0.184606,5.55112e-17
-0.207613,-0.359596,0.222768
-0.707613,0.335355,0.222768
0.420812,-0.359657,5.55112e-17
0.541842,-0.445134,-0.0855253
0.541842,-0.445134,0.0855253
-0.156418,-0.270924,-0.0855253
-0.156418,-0.270924,0.0855253
-0.353723,0.152329,5.55112e-17
-0.169928,-0.12337,5.55112e-17
-0.226053,0.0383944,5.55112e-17
-0.021878,-0.208847,5.55112e-17
-0.191218,0.205927,5.55112e-17
0.146277,-0.17657,5.55112e-17
-0.079188,0.335415,5.55112e-17
0.308782,-0.230169,5.55112e-17
0.273947,-0.0626361,5.55112e-17
0.041842,0.420892,-0.0855253
0.041842,0.420892,0.0855253
0.644232,-0.445134,0.222768
0.330072,0.0991288,5.55112e-17
0.343582,0.246682,-0.0855253
0.343582,0.246682,0.0855253
0.144232,0.420892,0.222768
0.292387,0.335355,0.222768
-0.707613,0.335355,-0.308355
0.644232,-0.445134,-0.308355
-0.207613,-0.359596,-0.308355
0.144232,0.420892,-0.308355
0.292387,0.335355,-0.308355
-0.595903,0.141867,5.55112e-17
-0.281693,-0.402361,-0.222768
-0.281693,-0.402361,0.222768
0.420812,-0.445134,5.55112e-17
-0.207608,-0.445134,-0.222768
-0.207608,-0.445134,0.222768
-0.079188,0.420892,5.55112e-17
0.404097,0.141867,5.55112e-17
-0.707613,0.335355,0.308355
0.644232,-0.445134,0.308355
-0.207613,-0.359596,0.308355
-0.707608,0.420892,-0.222768
0.718307,-0.402361,-0.222768
-0.707608,0.420892,0.222768
0.718307,-0.402361,0.222768
0.144232,0.420892,0.308355
0.292387,0.335355,0.308355
connectivity
0,5
2,11
6,9
12,26
1,13
8,14
16,18
5,6
11,12
13,14
5,7
10,11
6,7
10,12
13,16
13,18
14,16
14,18
21,24
21,25
27,28
27,29
15,17
17,19
20,22
20,23
15,19
22,23
16,17
18,20
7,15
10,22
19,21
23,27
3,24
25,30
24,25
3,4
30,31
4,28
29,31
28,29
0,32
2,33
1,34
3,35
4,36
7,37
1,38
8,39
10,40
1,41
8,42
21,43
27,44
9,45
26,46
8,47
0,48
2,49
9,50
26,51
30,52
31,53