-0.5,0,-0.427385
0,-0.5,-0.427385
1.11022e-16,0.5,-0.427385
0.5,0,-0.427385
-0.5,-0.5,-0.427385
-0.5,-0.25882,-5.55112e-17
-0.5,0.25882,-5.55112e-17
-0.5,0.5,-0.427385
-0.25882,-0.5,-5.55112e-17
-0.5,0,-5.55112e-17
-0.5,0,0.427385
-0.25882,0.5,-5.55112e-17
0,-0.5,-5.55112e-17
0,-0.5,0.427385
0.25882,-0.5,-5.55112e-17
0.5,-0.5,-0.427385
0.5,-0.25882,-5.55112e-17
1.11022e-16,0.5,-5.55112e-17
1.11022e-16,0.5,0.427385
0.25882,0.5,-5.55112e-17
0.5,0.25882,-5.55112e-17
0.5,0.5,-0.427385
0.5,0,-5.55112e-17
0.5,0,0.427385
-0.5,-0.5,0.427385
-0.5,0.5,0.427385
0.5,-0.5,0.427385
0.5,0.5,0.427385
connectivity
0,4
1,4
0,7
1,15
0,9
1,12
9,10
12,13
5,9
8,12
6,9
12,14
5,8
6,11
14,16
2,7
2,21
2,17
17,18
11,17
17,19
19,20
3,15
3,21
3,22
22,23
16,22
20,22
10,24
13,24
10,25
13,26
18,25
18,27
23,26
23,27