-0.306844,0.237,-0.39408
0.103635,-0.306844,-0.39408
-0.033791,0.103635,-0.39408
0.237,-0.033791,-0.39408
-0.306844,0.103635,0.10592
-0.237,0.033791,0.39408
-0.103635,0.033791,-0.10592
-0.237,0.306844,-0.10592
-0.103635,0.306844,0.39408
0.033791,-0.237,-0.10592
0.033791,-0.103635,0.39408
0.237,-0.306844,0.10592
-0.033791,0.237,0.10592
0.103635,-0.033791,0.10592
0.306844,-0.237,0.39408
0.306844,-0.103635,-0.10592
-0.340635,0.340635,-0.5
-2.22045e-16,-0.340635,-0.5
-2.22045e-16,-2.77556e-16,-0.5
-0.135396,0.0687129,-0.5
-0.271922,0.135396,-0.5
0.0687129,-0.205239,-0.5
0.135396,-0.0687129,-0.5
0.205239,-0.271922,-0.5
0.271922,-0.135396,-0.5
-0.0687129,0.205239,-0.5
-0.205239,0.271922,-0.5
0.340635,-2.77556e-16,-0.5
-0.340635,-2.22045e-16,-1.11022e-16
-0.340635,0.17042,-0.39408
-0.340635,0.0864872,0.10592
-0.254148,-0.340635,-0.10592
-0.340635,-0.170215,-0.10592
-0.340635,-0.0864872,-0.10592
-0.340635,-0.17042,0.39408
-0.170215,-0.340635,0.39408
-0.340635,-0.254148,0.39408
-0.340635,0.340635,-1.11022e-16
-0.340635,0.254148,-0.39408
-0.340635,0.170215,0.10592
-0.254148,0.340635,-0.10592
-0.170215,0.340635,0.39408
-1.66533e-16,-0.340635,-1.11022e-16
0.0864872,-0.340635,-0.39408
-0.17042,-0.340635,-0.10592
0.17042,-0.340635,0.10592
-0.0864872,-0.340635,0.39408
0.340635,-0.340635,-1.11022e-16
-0.340635,-2.22045e-16,0.5
0.340635,-2.22045e-16,-1.11022e-16
-1.66533e-16,-2.22045e-16,0.5
-1.11022e-16,0.340635,-1.11022e-16
0.340635,-0.340635,0.5
-1.11022e-16,0.340635,0.5
-0.135396,0.0687129,0.5
-0.271922,0.135396,0.5
0.0687129,-0.205239,0.5
0.135396,-0.0687129,0.5
0.205239,-0.271922,0.5
0.271922,-0.135396,0.5
-0.0687129,0.205239,0.5
-0.205239,0.271922,0.5
0.170215,-0.340635,-0.39408
0.0864872,0.340635,-0.39408
0.340635,0.17042,-0.39408
0.340635,0.0864872,0.10592
-0.17042,0.340635,-0.10592
0.254148,-0.340635,0.10592
0.340635,-0.170215,-0.10592
0.340635,-0.0864872,-0.10592
0.17042,0.340635,0.10592
0.340635,-0.17042,0.39408
0.340635,-0.254148,0.39408
-0.0864872,0.340635,0.39408
0.170215,0.340635,-0.39408
0.340635,0.254148,-0.39408
0.254148,0.340635,0.10592
0.340635,0.170215,0.10592
connectivity
1,3
9,15
6,7
0,2
4,12
11,13
5,8
10,14
6,13
1,9
2,6
0,7
4,5
3,15
10,13
11,14
8,12
9,13
9,11
4,6
6,12
4,7
13,15
7,12
11,15
6,9
2,3
12,13
5,10
0,16
1,17
2,18
2,19
0,20
1,21
3,22
1,23
3,24
2,25
0,26
3,27
4,28
0,29
4,30
31,32
6,33
5,34
35,36
7,37
0,38
4,39
7,40
8,41
9,42
1,43
9,44
11,45
10,46
11,47
5,48
15,49
10,50
12,51
14,52
8,53
5,54
5,55
10,56
10,57
14,58
14,59
8,60
8,61
1,62
2,63
3,64
13,65
7,66
11,67
15,68
15,69
12,70
14,71
14,72
8,73
74,75
76,77