-0.35396,-0.14692,-0.35396
-0.35396,0.14692,-0.35396
-0.14692,-0.35396,-0.35396
-0.14692,0.35396,-0.35396
0.14692,-0.35396,-0.35396
0.14692,0.35396,-0.35396
0.35396,-0.14692,-0.35396
0.35396,0.14692,-0.35396
-0.35396,-0.35396,-0.14692
-0.35396,-0.35396,0.14692
-0.35396,-0.14692,0.35396
-0.35396,0.14692,0.35396
-0.35396,0.35396,-0.14692
-0.35396,0.35396,0.14692
-0.14692,-0.35396,0.35396
0.14692,-0.35396,0.35396
0.35396,-0.35396,-0.14692
0.35396,-0.35396,0.14692
-0.42118,-0.42118,-0.42118
-0.42118,-0.42118,0.42118
-0.42118,0.42118,-0.42118
-0.42118,0.42118,0.42118
-0.14692,0.35396,0.35396
0.14692,0.35396,0.35396
0.35396,-0.14692,0.35396
0.35396,0.14692,0.35396
0.35396,0.35396,-0.14692
0.35396,0.35396,0.14692
0.42118,-0.42118,-0.42118
0.42118,-0.42118,0.42118
0.42118,0.42118,-0.42118
0.42118,0.42118,0.42118
-0.35396,-0.14692,-0.5
-0.14692,-0.35396,-0.5
-0.35396,0.14692,-0.5
0.14692,-0.35396,-0.5
-0.14692,0.35396,-0.5
0.35396,-0.14692,-0.5
0.14692,0.35396,-0.5
0.35396,0.14692,-0.5
-0.5,-0.35396,-0.14692
-0.5,-0.14692,-0.35396
-0.5,-0.35396,0.14692
-0.5,0.14692,-0.35396
-0.5,-0.14692,0.35396
-0.5,0.35396,-0.14692
-0.5,0.14692,0.35396
-0.5,0.35396,0.14692
-0.35396,-0.5,-0.14692
-0.14692,-0.5,-0.35396
-0.35396,-0.5,0.14692
0.14692,-0.5,-0.35396
-0.14692,-0.5,0.35396
0.35396,-0.5,-0.14692
0.14692,-0.5,0.35396
0.35396,-0.5,0.14692
-0.35396,-0.14692,0.5
-0.35396,0.5,-0.14692
-0.14692,-0.35396,0.5
-0.14692,0.5,-0.35396
0.5,-0.35396,-0.14692
0.5,-0.14692,-0.35396
-0.35396,0.14692,0.5
-0.35396,0.5,0.14692
0.14692,-0.35396,0.5
0.14692,0.5,-0.35396
0.5,-0.35396,0.14692
0.5,0.14692,-0.35396
-0.14692,0.35396,0.5
-0.14692,0.5,0.35396
0.35396,-0.14692,0.5
0.5,-0.14692,0.35396
0.35396,0.5,-0.14692
0.5,0.35396,-0.14692
0.14692,0.35396,0.5
0.14692,0.5,0.35396
0.35396,0.14692,0.5
0.5,0.14692,0.35396
0.35396,0.5,0.14692
0.5,0.35396,0.14692
connectivity
8,9
0,1
2,4
10,11
12,13
14,15
3,5
16,17
6,7
22,23
24,25
26,27
8,18
0,18
2,18
9,19
1,20
4,28
10,19
14,19
12,20
3,20
16,28
6,28
11,21
13,21
15,29
5,30
17,29
7,30
21,22
24,29
26,30
23,31
25,31
27,31
0,8
2,8
0,2
9,10
9,14
1,12
1,3
4,16
4,6
10,14
3,12
6,16
11,13
11,22
13,22
15,17
15,24
5,7
5,26
17,24
7,26
23,25
23,27
25,27
0,32
2,33
1,34
4,35
3,36
6,37
5,38
7,39
8,40
0,41
9,42
1,43
10,44
12,45
11,46
13,47
8,48
2,49
9,50
4,51
14,52
16,53
15,54
17,55
10,56
12,57
14,58
3,59
16,60
6,61
11,62
13,63
15,64
5,65
17,66
7,67
22,68
22,69
24,70
24,71
26,72
26,73
23,74
23,75
25,76
25,77
27,78
27,79