-0.5,0,-0.5
0,-0.5,-0.5
-0.07939,-0.25,-0.42061
0,0,-0.5
1.11022e-16,0.5,-0.5
0.07939,0.25,-0.42061
0.5,0,-0.5
-0.5,-0.5,0
-0.5,0,0
-0.5,1.11022e-16,0.5
-0.5,0.5,0
-0.42061,-0.07939,-0.25
-0.42061,0.07939,0.25
-0.25,-0.42061,-0.07939
0,-0.5,0
1.11022e-16,-0.5,0.5
0.25,-0.42061,0.07939
0.5,-0.5,0
-0.25,-0.25,-0.25
-0.25,0.25,0.25
-0.25,0.42061,0.07939
-0.07939,0.25,0.42061
1.11022e-16,1.11022e-16,0.5
1.11022e-16,0.5,0
2.22045e-16,0.5,0.5
0.07939,-0.25,0.42061
0.25,-0.25,0.25
0.25,0.25,-0.25
0.25,0.42061,-0.07939
0.42061,-0.07939,0.25
0.42061,0.07939,-0.25
0.5,0,0
0.5,1.11022e-16,0.5
0.5,0.5,0
0,-0.25,-0.5
0,0.25,-0.5
-0.5,0,-0.25
-0.5,0,0.25
-0.25,-0.5,0
0.25,-0.5,0
-0.25,0.5,0
1.11022e-16,-0.25,0.5
0.5,0,-0.25
1.11022e-16,0.25,0.5
0.25,0.5,0
0.5,0,0.25
connectivity
7,13
0,11
1,2
8,11
8,12
13,14
14,16
2,3
3,5
9,12
4,5
16,17
10,20
20,23
15,25
22,25
6,30
30,31
21,22
21,24
23,28
28,33
29,31
29,32
11,18
13,18
2,18
12,19
5,27
16,26
19,20
19,21
25,26
26,29
27,30
27,28
2,34
5,35
11,36
12,37
13,38
16,39
20,40
25,41
30,42
21,43
28,44
29,45