-0.5,0,-0.5
5.55112e-17,-0.5,-0.5
-0.25,0,-0.5
5.55112e-17,-0.25,-0.5
5.55112e-17,0.25,-0.5
1.66533e-16,0.5,-0.5
0.25,0,-0.5
0.5,0,-0.5
-0.5,-0.5,0
-0.5,-0.25,0
-0.5,0,-0.25
-0.5,0,0.25
-0.5,1.11022e-16,0.5
-0.5,0.25,0
-0.5,0.5,0
-0.25,-0.5,0
5.55112e-17,-0.5,-0.25
5.55112e-17,-0.5,0.25
1.66533e-16,-0.5,0.5
0.25,-0.5,0
0.5,-0.5,0
-0.5,0,0
-0.37503,-0.37503,-0.17365
-0.37503,-0.17365,-0.37503
-0.37503,0.17365,0.37503
-0.37503,0.37503,0.17365
-0.25,1.11022e-16,0.5
-0.25,0.5,0
-0.20089,-0.20089,-0.20089
-0.20089,0.20089,0.20089
-0.17365,-0.37503,-0.37503
-0.17365,0.37503,0.37503
5.55112e-17,-0.5,0
1.66533e-16,-0.25,0.5
5.55112e-17,0,-0.5
1.66533e-16,0.25,0.5
1.66533e-16,0.5,-0.25
1.66533e-16,0.5,0.25
2.77556e-16,0.5,0.5
0.17365,-0.37503,0.37503
0.17365,0.37503,-0.37503
0.20089,-0.20089,0.20089
0.20089,0.20089,-0.20089
0.25,1.11022e-16,0.5
0.25,0.5,0
0.37503,-0.37503,0.17365
0.37503,-0.17365,0.37503
0.37503,0.17365,-0.37503
0.37503,0.37503,-0.17365
0.5,-0.25,0
0.5,0,-0.25
0.5,0,0.25
0.5,1.11022e-16,0.5
0.5,0.25,0
0.5,0.5,0
1.66533e-16,0.5,0
0.5,0,0
1.66533e-16,1.11022e-16,0.5
connectivity
8,22
0,23
1,30
12,24
14,25
18,39
5,40
20,45
7,47
31,38
46,52
48,54
8,9
8,15
0,10
0,2
1,16
1,3
11,12
13,14
17,18
4,5
19,20
6,7
9,22
10,23
15,22
2,23
16,30
3,30
11,24
13,25
17,39
4,40
19,45
6,47
24,26
25,27
33,39
36,40
45,49
47,50
31,35
31,37
43,46
46,51
44,48
48,53
9,21
10,21
15,32
2,34
16,32
3,34
11,21
13,21
17,32
19,32
4,34
6,34
22,28
23,28
28,30
24,29
25,29
29,31
39,41
41,45
41,46
40,42
42,47
42,48
14,27
5,36
37,38
44,54
27,55
36,55
37,55
44,55
20,49
7,50
51,52
53,54
49,56
50,56
51,56
53,56
12,26
18,33
35,38
43,52
26,57
33,57
35,57
43,57