-6.93889e-17,-0.111905,-0.5
-0.111905,-8.32667e-17,-0.5
-5.55112e-17,0.111905,-0.5
0.111905,-8.32667e-17,-0.5
-0.111905,-0.111905,1.11022e-16
-0.111905,0.111905,1.11022e-16
-0.0999401,0.0119649,0.35534
-0.0999401,0.0999401,0.14466
-0.0559525,-0.0848106,-0.25
-0.0559525,-0.0270944,-0.25
-0.0559525,0.0559525,-0.25
-0.0270944,-0.0559525,0.25
-0.0848106,-0.0559525,0.25
-1.38778e-17,-0.111905,0.5
0.0119649,-0.0999401,-0.35534
0.0559525,-0.0559525,0.25
0.0999401,-0.0999401,-0.14466
0.111905,-0.111905,1.11022e-16
-0.111905,-2.77556e-17,0.5
-0.0119649,0.0119649,0.14466
-0.0119649,0.0999401,0.35534
-4.16334e-17,-5.55112e-17,1.11022e-16
0,0.111905,0.5
0.0119649,-0.0119649,-0.14466
0.0270944,0.0559525,-0.25
0.0559525,0.0270944,0.25
0.0559525,0.0848106,0.25
0.0848106,0.0559525,-0.25
0.0999401,-0.0119649,-0.35534
0.111905,0.111905,1.11022e-16
0.111905,-2.77556e-17,0.5
-0.111905,-6.93889e-17,-0.33678
-0.111905,-2.77556e-17,0.33678
-0.111905,0.0559525,-0.25
-0.111905,-0.0559525,0.25
-0.111905,-0.0871069,-0.16322
-0.111905,-0.0247981,-0.33678
-0.111905,0.0871069,0.16322
-0.111905,0.0247981,0.33678
-0.111905,0.111905,-0.16322
-0.111905,0.111905,0.16322
-5.55112e-17,-0.111905,-0.33678
-1.38778e-17,-0.111905,0.33678
-0.0559525,-0.111905,-0.25
0.0559525,-0.111905,0.25
0.0871069,-0.111905,-0.16322
-0.0871069,-0.111905,0.16322
0.0247981,-0.111905,-0.33678
-0.0247981,-0.111905,0.33678
-4.16334e-17,0.111905,-0.33678
0.111905,-0.111905,-0.16322
0.111905,-6.93889e-17,-0.33678
0.111905,-0.111905,0.16322
0.111905,-2.77556e-17,0.33678
0,0.111905,0.33678
-0.0559525,0.111905,-0.25
0.111905,0.0559525,-0.25
0.111905,-0.0559525,0.25
0.0559525,0.111905,0.25
0.0871069,0.111905,-0.16322
0.111905,-0.0871069,-0.16322
0.111905,-0.0247981,-0.33678
-0.0871069,0.111905,0.16322
0.0247981,0.111905,-0.33678
0.111905,0.0871069,0.16322
-0.0247981,0.111905,0.33678
0.111905,0.0247981,0.33678
connectivity
10,23
15,19
4,21
0,1
21,29
8,10
12,15
10,27
15,26
8,23
9,14
23,27
12,19
6,11
19,26
24,28
20,25
0,14
21,23
19,21
16,17
6,18
3,28
5,7
20,22
2,3
13,18
22,30
10,31
6,32
10,33
11,34
9,35
8,36
7,37
6,38
10,39
7,40
14,41
15,42
9,43
15,44
16,45
11,46
14,47
12,48
10,49
16,50
28,51
15,52
15,53
20,54
10,55
24,56
15,57
25,58
24,59
16,60
28,61
7,62
27,63
25,64
20,65
26,66