-0.25186,-0.5,-0.249985
-0.25186,0,-0.249985
-0.25186,0.5,-0.249985
0.25186,-0.5,-0.249985
0.25186,0,-0.249985
0.25186,0.5,-0.249985
-0.25186,-0.5,0.249985
-0.25186,0,0.249985
-0.25186,0.5,0.249985
0.25186,-0.5,0.249985
0.25186,0,0.249985
0.25186,0.5,0.249985
connectivity
1,4
1,7
0,1
1,2
0,6
2,8
4,10
3,4
4,5
3,9
5,11
7,10
6,7
7,8
9,10
10,11