-0.242825,-0.242825,-0.5
-0.242825,0.242825,-0.5
0.242825,-0.242825,-0.5
0.242825,0.242825,-0.5
-0.242825,-0.242825,0.5
-0.242825,0.242825,0.5
-0.0973777,0,0.19545
0,-0.0973777,-0.19545
0.242825,-0.242825,0.5
2.77556e-17,0.0973777,-0.19545
0.0973777,0,0.19545
0.242825,0.242825,0.5
-0.242825,0,0.19545
0,-0.242825,-0.19545
2.77556e-17,0.242825,-0.19545
0.242825,0,0.19545
connectivity
0,1
0,2
0,7
2,7
4,6
5,6
1,9
3,9
8,10
10,11
6,7
7,10
6,9
9,10
1,3
2,3
4,5
4,8
5,11
8,11
6,12
7,13
9,14
10,15