-0.5,-0.08582,-0.1902
-0.5,1.11022e-16,-0.172234
-0.41518,1.11022e-16,5.55112e-17
-0.22523,-0.08507,-0.1902
-0.22523,0.08507,-0.1902
-0.08507,-0.22523,-0.1902
0,-0.5,-0.172234
0.08507,-0.22523,-0.1902
-0.5,-0.08582,0.1902
-0.5,0.08582,-0.1902
-0.5,0.08582,0.1902
-0.08582,-0.5,0.1902
-0.08507,0.22523,-0.1902
0,-0.41518,5.55112e-17
1.11022e-16,0.5,-0.172234
0.08507,0.22523,-0.1902
0.08582,-0.5,0.1902
0.22523,-0.08507,-0.1902
0.5,-0.08582,-0.1902
0.5,1.11022e-16,-0.172234
-0.08582,0.5,0.1902
1.11022e-16,0.41518,5.55112e-17
0.08582,0.5,0.1902
0.22523,0.08507,-0.1902
0.41518,1.11022e-16,5.55112e-17
0.5,-0.08582,0.1902
0.5,0.08582,-0.1902
0.5,0.08582,0.1902
-0.22523,-0.08507,0.1902
-0.22523,0.08507,0.1902
-0.08582,-0.5,-0.1902
-0.08507,-0.22523,0.1902
0.08507,-0.22523,0.1902
0.08582,-0.5,-0.1902
-0.5,1.11022e-16,0.172234
-0.08582,0.5,-0.1902
-0.08507,0.22523,0.1902
0,-0.5,0.172234
0.08507,0.22523,0.1902
0.08582,0.5,-0.1902
0.22523,-0.08507,0.1902
1.11022e-16,0.5,0.172234
0.22523,0.08507,0.1902
0.5,1.11022e-16,0.172234
-0.5,-0.02007,-0.0448644
0.5,-0.02007,-0.0448644
-0.49268,1.11022e-16,-0.1902
0,-0.49268,-0.1902
1.11022e-16,0.49268,-0.1902
0.49268,1.11022e-16,-0.1902
-0.5,-0.00387,-0.1902
-0.00387,-0.5,-0.1902
0.00387,-0.5,-0.1902
-0.5,0.00387,-0.1902
-0.5,0.00387,0.1902
-0.00387,0.5,-0.1902
0.00387,0.5,-0.1902
0.5,-0.00387,-0.1902
0.5,0.00387,-0.1902
0.5,0.00387,0.1902
-0.5,0.02007,-0.0448644
-0.5,-0.02007,0.0448644
-0.5,0.02007,0.0448644
-0.02007,-0.5,-0.0448644
0.02007,-0.5,-0.0448644
-0.02007,-0.5,0.0448644
0.02007,-0.5,0.0448644
-0.02007,0.5,-0.0448644
0.02007,0.5,-0.0448644
0.5,0.02007,-0.0448644
-0.02007,0.5,0.0448644
0.02007,0.5,0.0448644
0.5,-0.02007,0.0448644
0.5,0.02007,0.0448644
-0.49268,1.11022e-16,0.1902
0,-0.49268,0.1902
1.11022e-16,0.49268,0.1902
0.49268,1.11022e-16,0.1902
-0.5,-0.00387,0.1902
-0.00387,-0.5,0.1902
0.00387,-0.5,0.1902
-0.00387,0.5,0.1902
0.00387,0.5,0.1902
0.5,-0.00387,0.1902
connectivity
4,9
0,3
17,18
3,15
12,17
23,26
5,30
7,33
12,35
15,39
10,29
8,28
25,40
5,23
4,7
28,38
36,40
27,42
11,31
16,32
20,36
22,38
31,42
29,32
2,44
3,44
17,45
2,46
13,47
1,46
6,47
14,48
19,49
1,50
6,51
6,52
8,50
10,53
11,51
16,52
9,54
21,48
14,55
14,56
20,55
22,56
24,45
24,49
19,57
25,57
27,58
26,59
2,60
4,60
28,61
29,62
2,61
13,63
13,64
5,63
7,64
31,65
32,66
12,67
15,68
23,69
2,62
13,65
13,66
21,67
21,68
21,70
21,71
24,69
24,72
24,73
40,72
34,74
37,75
2,74
13,75
21,76
24,77
0,78
30,79
33,80
1,53
34,78
34,54
37,79
37,80
36,70
38,71
41,76
35,81
39,82
41,81
41,82
42,73
43,77
18,83
19,58
43,83
43,59