-0.5,0.25,-0.42542
0.25,-0.42542,-0.5
-0.46899,-0.28967,-0.4873
-0.28967,-0.4873,-0.46899
-0.28101,-0.2627,-0.46033
-0.25,-0.17542,-0.5
-0.25,-0.07458,-0.5
-0.25,0.32458,-0.5
-0.21899,0.2373,-0.46033
-0.21033,0.0127,-0.46899
-0.03101,0.21033,-0.4873
-1.11022e-16,-0.25,-0.42542
0.03101,0.28967,-0.4873
0.21033,0.4873,-0.46899
0.21899,0.2627,-0.46033
0.25,-0.32458,-0.5
0.25,0.07458,-0.5
0.25,0.17542,-0.5
0.28101,-0.2373,-0.46033
0.28967,-0.0127,-0.46899
0.5,0.25,-0.42542
-0.25,0.42542,-0.5
0.46899,-0.21033,-0.4873
-0.42542,-0.5,0.25
-0.5,-0.25,-0.17542
-0.5,-0.25,-0.07458
-0.5,-0.25,0.32458
-0.5,0.25,-0.32458
-0.5,0.25,0.07458
-0.5,0.25,0.17542
-0.4873,-0.46899,-0.28967
-0.4873,-0.03101,0.21033
-0.4873,0.03101,0.28967
-0.46899,-0.21033,0.0127
-0.46899,0.21033,0.4873
-0.46899,0.28967,-0.0127
-0.46033,-0.28101,-0.2627
-0.46033,-0.21899,0.2373
-0.46033,0.21899,0.2627
-0.46033,0.28101,-0.2373
-0.42542,-1.11022e-16,-0.25
-0.42542,0.5,0.25
-0.4873,0.46899,-0.21033
-0.32458,-0.5,0.25
-0.2627,-0.46033,-0.28101
-0.25,-0.42542,-1.11022e-16
-0.2373,-0.46033,0.28101
-0.17542,-0.5,-0.25
-0.07458,-0.5,-0.25
-0.0127,-0.46899,0.28967
0.0127,-0.46899,-0.21033
0.07458,-0.5,0.25
0.17542,-0.5,0.25
0.21033,-0.4873,-0.03101
0.2373,-0.46033,-0.21899
0.25,-0.42542,0.5
0.2627,-0.46033,0.21899
0.28967,-0.4873,0.03101
0.32458,-0.5,-0.25
0.4873,-0.46899,0.21033
-0.5,-0.25,0.42542
-0.42247,-0.42244,-0.35124
-0.42247,-0.07756,0.14876
-0.42247,0.07756,0.35124
-0.42247,0.42244,-0.14876
-0.42244,-0.35124,-0.42247
-0.42244,-0.14876,0.07753
-0.42244,0.14876,0.42247
-0.42244,0.35124,-0.07753
-0.39876,-0.32756,-0.32753
-0.39876,-0.17244,0.17247
-0.39876,0.17244,0.32753
-0.39876,0.32756,-0.17247
-0.35124,-0.42247,-0.42244
-0.35124,-0.07753,0.07756
-0.35124,0.07753,0.42244
-0.35124,0.42247,-0.07756
-0.32756,-0.32753,-0.39876
-0.32756,-0.17247,0.10124
-0.32756,0.17247,0.39876
-0.32756,0.32753,-0.10124
-0.32753,-0.39876,-0.32756
-0.32753,-0.10124,0.17244
-0.32753,0.10124,0.32756
-0.32753,0.39876,-0.17244
-0.32458,-1.11022e-16,-0.25
-0.32458,0.5,0.25
-0.28967,-0.0127,0.03101
-0.28967,0.0127,0.46899
-0.28967,0.4873,-0.03101
-0.28101,-0.2373,0.03967
-0.28101,0.2373,0.46033
-0.28101,0.2627,-0.03967
-0.2627,-0.03967,0.21899
-0.2627,0.03967,0.28101
-0.2627,0.46033,-0.21899
-0.25,-0.32458,-1.11022e-16
-0.25,-0.17542,0.5
-0.25,-0.07458,0.5
-0.25,0.07458,-1.11022e-16
-0.25,0.17542,-1.11022e-16
-0.25,0.32458,0.5
-0.2373,-0.03967,-0.21899
-0.2373,0.03967,-0.28101
-0.2373,0.46033,0.21899
-0.21899,-0.2627,0.46033
-0.21899,-0.2373,-0.03967
-0.21899,0.2627,0.03967
-0.21033,-0.4873,0.46899
-0.21033,-0.0127,-0.03101
-0.21033,0.4873,0.03101
-0.17542,-1.11022e-16,0.25
-0.17542,0.5,-0.25
-0.17247,-0.39876,0.32756
-0.17247,-0.10124,-0.17244
-0.17247,0.10124,-0.32756
-0.17247,0.39876,0.17244
-0.17244,-0.32753,0.39876
-0.17244,-0.17247,-0.10124
-0.17244,0.17247,-0.39876
-0.17244,0.32753,0.10124
-0.14876,-0.42247,0.42244
-0.14876,-0.07753,-0.07756
-0.14876,0.07753,-0.42244
-0.14876,0.42247,0.07756
-0.10124,-0.32756,0.32753
-0.10124,-0.17244,-0.17247
-0.10124,0.17244,-0.32753
-0.10124,0.32756,0.17247
-0.07756,-0.35124,0.42247
-0.07756,-0.14876,-0.07753
-0.07756,0.14876,-0.42247
-0.07756,0.35124,0.07753
-0.07753,-0.42244,0.35124
-0.07753,-0.07756,-0.14876
-0.07753,0.07756,-0.35124
-0.07753,0.42244,0.14876
-0.07458,-1.11022e-16,0.25
-0.07458,0.5,-0.25
-0.03967,-0.28101,0.2627
-0.03967,-0.21899,-0.2373
-0.03967,0.21899,-0.2627
-0.03967,0.28101,0.2373
-0.03101,-0.28967,0.4873
-0.03101,-0.21033,-0.0127
-0.03101,0.28967,0.0127
-0.0127,-0.03101,-0.21033
-0.0127,0.03101,-0.28967
-0.0127,0.46899,0.21033
-1.11022e-16,-0.25,-0.32458
-1.11022e-16,-0.25,0.07458
-1.11022e-16,-0.25,0.17542
-1.11022e-16,0.25,-0.17542
-1.11022e-16,0.25,-0.07458
-1.11022e-16,0.25,0.32458
0,0.25,0.42542
0.0127,-0.03101,0.28967
0.0127,0.03101,0.21033
0.0127,0.46899,-0.28967
0.03101,-0.28967,-0.0127
0.03101,-0.21033,0.4873
0.03101,0.21033,0.0127
0.03967,-0.28101,-0.2373
0.03967,-0.21899,0.2627
0.03967,0.21899,0.2373
0.03967,0.28101,-0.2627
0.07458,-1.11022e-16,-0.25
0.07458,0.5,0.25
0.07753,-0.42244,-0.14876
0.07753,-0.07756,0.35124
0.07753,0.07756,0.14876
0.07753,0.42244,-0.35124
0.07756,-0.35124,-0.07753
0.07756,-0.14876,0.42247
0.07756,0.14876,0.07753
0.07756,0.35124,-0.42247
0.10124,-0.32756,-0.17247
0.10124,-0.17244,0.32753
0.10124,0.17244,0.17247
0.10124,0.32756,-0.32753
0.14876,-0.42247,-0.07756
0.14876,-0.07753,0.42244
0.14876,0.07753,0.07756
0.14876,0.42247,-0.42244
0.17244,-0.32753,-0.10124
0.17244,-0.17247,0.39876
0.17244,0.17247,0.10124
0.17244,0.32753,-0.39876
0.17247,-0.39876,-0.17244
0.17247,-0.10124,0.32756
0.17247,0.10124,0.17244
0.17247,0.39876,-0.32756
0.17542,-1.11022e-16,-0.25
0.17542,0.5,0.25
0.21033,-0.0127,0.46899
0.21033,0.0127,0.03101
0.21899,-0.2627,-0.03967
0.21899,-0.2373,0.46033
0.21899,0.2373,0.03967
0.2373,-0.03967,0.28101
0.2373,0.03967,0.21899
0.2373,0.46033,-0.28101
0.25,-0.32458,0.5
0.25,-0.17542,-1.11022e-16
0.25,-0.07458,-1.11022e-16
0.25,0.07458,0.5
0.25,0.17542,0.5
0.25,0.32458,-1.11022e-16
0.25,0.42542,-1.11022e-16
0.2627,-0.03967,-0.28101
0.2627,0.03967,-0.21899
0.2627,0.46033,0.28101
0.28101,-0.2627,0.03967
0.28101,0.2373,-0.03967
0.28101,0.2627,0.46033
0.28967,0.0127,-0.03101
0.28967,0.4873,0.46899
0.32458,-1.11022e-16,0.25
0.32458,0.5,-0.25
0.32753,-0.39876,0.17244
0.32753,-0.10124,-0.32756
0.32753,0.10124,-0.17244
0.32753,0.39876,0.32756
0.32756,-0.32753,0.10124
0.32756,-0.17247,-0.39876
0.32756,0.17247,-0.10124
0.32756,0.32753,0.39876
0.35124,-0.42247,0.07756
0.35124,-0.07753,-0.42244
0.35124,0.07753,-0.07756
0.35124,0.42247,0.42244
0.39876,-0.32756,0.17247
0.39876,-0.17244,-0.32753
0.39876,0.17244,-0.17247
0.39876,0.32756,0.32753
0.42244,-0.35124,0.07753
0.42244,-0.14876,-0.42247
0.42244,0.14876,-0.07753
0.42244,0.35124,0.42247
0.42247,-0.42244,0.14876
0.42247,-0.07756,-0.35124
0.42247,0.07756,-0.14876
0.42247,0.42244,0.35124
0.42542,-0.5,-0.25
0.42542,-1.11022e-16,0.25
0.46033,-0.28101,0.2373
0.46033,-0.21899,-0.2627
0.46033,0.21899,-0.2373
0.46033,0.28101,0.2627
0.46899,-0.28967,0.0127
0.46899,0.21033,-0.0127
0.46899,0.28967,0.4873
0.4873,-0.03101,-0.28967
0.4873,0.03101,-0.21033
0.4873,0.46899,0.28967
0.5,-0.25,-0.17542
0.5,-0.25,-0.07458
0.5,-0.25,0.32458
0.5,0.25,-0.32458
0.5,0.25,0.07458
0.5,0.25,0.17542
-0.25,0.42542,0.5
0.42542,0.5,-0.25
0.5,-0.25,0.42542
-0.4735,-0.2839,-0.5
-0.0265,-0.2839,-0.5
0.0265,-0.2161,-0.5
-0.4735,0.2161,-0.5
-0.0265,0.2161,-0.5
0.0265,0.2839,-0.5
0.4735,0.2839,-0.5
-0.25,-0.4873,-0.5
-0.25,-0.2627,-0.5
-0.25,0.0127,-0.5
0.25,-0.2373,-0.5
-0.25,0.2373,-0.5
0.25,-0.0127,-0.5
0.25,0.2627,-0.5
0.25,0.4873,-0.5
0.4735,-0.2161,-0.5
-0.5,-0.4735,-0.2839
-0.5,-0.0265,-0.2839
-0.5,0.0265,-0.2161
-0.5,-0.4735,0.2161
-0.5,-0.0265,0.2161
-0.5,0.0265,0.2839
-0.5,0.4735,0.2839
-0.5,-0.25,-0.4873
-0.5,-0.25,-0.2627
-0.5,-0.25,0.0127
-0.5,0.25,-0.2373
-0.5,-0.25,0.2373
-0.5,0.25,-0.0127
-0.5,0.25,0.2627
-0.5,0.25,0.4873
-0.5,0.4735,-0.2161
-0.2839,-0.5,-0.4735
-0.2839,-0.5,-0.0265
-0.2161,-0.5,0.0265
0.2161,-0.5,-0.4735
0.2161,-0.5,-0.0265
0.2839,-0.5,0.0265
0.2839,-0.5,0.4735
-0.4873,-0.5,-0.25
-0.2627,-0.5,-0.25
0.0127,-0.5,-0.25
-0.2373,-0.5,0.25
0.2373,-0.5,-0.25
-0.0127,-0.5,0.25
0.2627,-0.5,0.25
0.4873,-0.5,0.25
-0.4735,-0.2839,0.5
-0.2839,0.5,-0.4735
0.5,-0.4735,-0.2839
-0.2161,-0.5,0.4735
-0.2839,0.5,-0.0265
-0.0265,-0.2839,0.5
0.5,-0.0265,-0.2839
-0.2161,0.5,0.0265
0.0265,-0.2161,0.5
0.5,0.0265,-0.2161
-0.4735,0.2161,0.5
0.2161,0.5,-0.4735
0.5,-0.4735,0.2161
-0.0265,0.2161,0.5
0.0265,0.2839,0.5
0.2161,0.5,-0.0265
0.2839,0.5,0.0265
0.5,-0.0265,0.2161
0.5,0.0265,0.2839
0.2839,0.5,0.4735
0.4735,0.2839,0.5
0.5,0.4735,0.2839
-0.4873,0.5,-0.25
-0.25,-0.4873,0.5
0.5,-0.25,-0.4873
-0.2627,0.5,-0.25
-0.25,-0.2627,0.5
0.5,-0.25,-0.2627
-0.25,0.0127,0.5
0.0127,0.5,-0.25
0.5,-0.25,0.0127
-0.2373,0.5,0.25
0.25,-0.2373,0.5
0.5,0.25,-0.2373
-0.25,0.2373,0.5
0.2373,0.5,-0.25
0.5,-0.25,0.2373
-0.0127,0.5,0.25
0.25,-0.0127,0.5
0.5,0.25,-0.0127
0.2627,0.5,0.25
0.25,0.2627,0.5
0.5,0.25,0.2627
0.25,0.4873,0.5
0.5,0.25,0.4873
0.4873,0.5,0.25
0.5,0.4735,-0.2161
-0.2161,0.5,0.4735
0.4735,-0.2161,0.5
connectivity
24,25
5,6
47,48
0,27
23,43
1,15
26,60
7,21
58,243
28,29
51,52
16,17
40,85
45,96
11,149
99,100
150,151
166,192
111,137
152,153
203,204
154,155
207,208
217,244
61,69
65,77
73,81
114,122
118,130
126,134
66,78
115,123
168,176
74,82
127,135
172,184
62,70
119,131
180,188
64,72
113,121
224,236
68,80
125,133
220,228
76,84
117,129
232,240
63,71
175,187
219,227
75,83
171,179
223,235
170,178
174,186
182,190
120,132
169,177
221,229
67,79
183,191
231,239
128,136
181,189
225,237
116,124
173,185
233,241
222,230
226,238
234,242
61,81
65,69
73,77
114,134
118,122
126,130
66,70
119,123
168,188
74,78
115,135
172,176
62,82
127,131
180,184
68,72
113,133
224,228
76,80
125,129
220,240
64,84
117,121
232,236
63,83
175,179
223,227
170,190
174,178
182,186
67,71
183,187
219,239
120,124
173,177
221,241
75,79
171,191
231,235
128,132
169,189
225,229
116,136
181,185
233,237
222,242
226,230
234,238
24,36
4,5
44,47
25,33
6,9
48,50
27,39
43,46
15,18
26,37
7,8
54,58
28,35
49,51
16,19
29,38
52,56
14,17
85,102
85,103
96,106
90,96
140,149
149,162
99,109
144,150
146,166
87,99
147,166
150,159
92,100
100,107
139,151
151,163
192,209
192,210
93,111
141,152
196,203
94,111
152,165
203,212
137,157
137,156
153,161
145,153
195,204
204,215
95,112
97,105
246,255
88,98
138,158
249,256
154,164
198,207
200,217
142,154
199,217
207,213
86,104
197,202
247,258
91,101
201,218
245,257
148,167
194,205
250,259
193,211
206,214
248,260
61,65
61,73
65,73
69,77
69,81
77,81
114,118
114,126
118,126
66,74
62,66
123,135
123,131
168,172
168,180
122,130
122,134
130,134
70,78
78,82
115,119
115,127
176,188
176,184
62,74
131,135
172,180
70,82
119,127
184,188
72,80
72,84
113,125
113,117
220,224
224,232
80,84
117,125
220,232
64,68
68,76
121,133
129,133
228,236
228,240
64,76
121,129
236,240
63,75
63,67
171,175
175,183
227,235
227,239
71,83
79,83
179,187
179,191
219,223
223,231
170,174
170,182
174,182
71,79
187,191
219,231
120,128
116,120
177,189
177,185
221,225
221,233
67,75
171,183
235,239
124,132
132,136
169,173
169,181
229,241
229,237
178,186
178,190
186,190
116,128
185,189
225,233
124,136
173,181
237,241
222,226
222,234
226,234
230,238
230,242
238,242
30,61
2,65
3,73
36,69
4,77
44,81
33,66
9,123
50,168
102,114
106,118
126,140
78,90
103,115
162,176
109,122
130,144
134,146
74,87
135,147
159,172
37,70
8,119
54,188
31,62
10,131
53,180
82,93
127,141
184,196
39,72
46,113
18,224
80,92
125,139
209,220
35,68
49,133
19,228
32,63
12,175
57,227
84,95
105,117
232,246
107,120
163,177
210,221
83,94
165,179
212,223
42,64
108,121
22,236
157,170
161,174
182,195
76,89
129,143
240,252
38,71
14,187
56,219
132,145
156,169
215,229
75,88
158,171
235,249
164,178
186,198
190,200
34,67
13,183
59,239
79,91
191,201
231,245
128,142
189,199
213,225
110,124
160,173
241,253
104,116
185,197
233,247
136,148
181,194
237,250
211,222
214,226
234,248
216,230
238,251
242,254
102,103
90,106
140,162
87,109
144,159
146,147
31,32
10,12
53,57
93,94
141,165
196,212
92,107
139,163
209,210
156,157
145,161
195,215
89,110
143,160
252,253
142,164
198,213
199,200
112,138
41,86
218,262
167,193
255,256
20,258
257,263
259,260
97,98
55,202
101,261
205,206
2,264
11,265
11,266
0,267
10,268
12,269
20,270
3,271
4,272
9,273
18,274
8,275
19,276
14,277
13,278
22,279
30,280
40,281
40,282
23,283
31,284
32,285
41,286
2,287
36,288
33,289
39,290
37,291
35,292
38,293
34,294
42,295
3,296
45,297
45,298
1,299
53,300
57,301
55,302
30,303
44,304
50,305
46,306
54,307
49,308
56,309
59,310
60,311
21,312
243,313
108,314
89,315
143,316
252,317
110,318
160,319
253,320
34,321
13,322
59,323
155,324
155,325
208,326
208,327
244,328
244,329
216,330
251,331
254,332
42,333
108,334
22,335
95,336
105,337
246,338
88,339
158,340
249,341
104,342
197,343
247,344
91,345
201,346
245,347
148,348
194,349
250,350
211,351
214,352
248,353
216,354
251,355
254,356
262,357
261,358
263,359