-0.376847,0.202375,-0.375
-0.40475,-0.40475,-0.5
0,-0.40475,-0.25
0.0974881,-0.202375,-0.375
0.246808,-0.178924,-0.46033
-0.40475,0.40475,-0.5
-0.246808,0.178924,-0.46033
0,0,-0.5
5.55112e-17,0.40475,-0.25
-0.0974881,0.202375,-0.375
0.40475,-0.40475,-0.5
0.376847,-0.202375,-0.375
0.40475,0.40475,-0.5
-0.40475,-0.40475,0
-0.40475,0,-0.25
-0.40475,5.55112e-17,0.25
-0.40475,0.40475,0
-0.202375,-0.307262,-0.125
-0.178924,-0.157942,-0.21033
-0.40475,-0.40475,0.5
-0.202375,-0.376847,0.375
0.157942,-0.178924,0.21033
0.307262,-0.202375,0.125
0.40475,-0.40475,0
-0.40475,0.40475,0.5
-0.307262,0.202375,0.125
-0.246808,0.225826,-0.28967
-0.225826,-0.246808,0.28967
-0.225826,-0.157942,-0.03967
-0.202375,-0.0974881,0.375
-0.202375,-0.0279035,-0.125
-0.178924,-0.246808,0.46033
-0.157942,0.178924,0.21033
-0.157942,0.225826,0.03967
-0.0279035,0.202375,0.125
5.55112e-17,-0.40475,0.25
5.55112e-17,5.55112e-17,0
5.55112e-17,5.55112e-17,0.5
0.0279035,-0.202375,0.125
0.157942,-0.225826,0.03967
0.178924,0.157942,-0.21033
0.178924,0.246808,0.46033
0.202375,0.0279035,-0.125
0.202375,0.0974881,0.375
0.202375,0.307262,-0.125
0.202375,0.376847,0.375
0.225826,0.157942,-0.03967
0.225826,0.246808,0.28967
0.246808,-0.225826,-0.28967
0.40475,0,-0.25
0.40475,5.55112e-17,0.25
0.40475,0.40475,0
1.11022e-16,0.40475,0.25
0.40475,-0.40475,0.5
0.40475,0.40475,0.5
-0.40475,0.207264,-0.39311
-0.40475,0.189666,-0.40529
0.236107,-0.240049,-0.5
0.149927,-0.31751,-0.5
-0.240049,-0.236107,-0.5
-0.40475,-0.207264,-0.39311
0.240049,0.236107,-0.5
0.40475,0.207264,-0.39311
-0.31751,-0.149927,-0.5
-0.40475,-0.189666,-0.40529
0.31751,0.149927,-0.5
0.40475,0.189666,-0.40529
-0.268438,0.15442,-0.5
-0.15442,-0.268438,-0.5
0.15442,0.268438,-0.5
-0.236107,0.240049,-0.5
-0.149927,0.31751,-0.5
0.40475,-0.207264,-0.39311
0.40475,-0.189666,-0.40529
0.268438,-0.15442,-0.5
-0.40475,-0.197486,-0.35689
-0.40475,0.197486,-0.35689
-0.40475,-0.215084,-0.34471
-0.40475,0.215084,-0.34471
-0.197486,-0.40475,0.35689
0.197486,-0.40475,0.35689
0.236107,-0.240049,0.5
0.207264,-0.40475,0.39311
-0.215084,-0.40475,0.34471
0.215084,-0.40475,0.34471
0.149927,-0.31751,0.5
0.189666,-0.40475,0.40529
-0.207264,-0.40475,0.39311
0.40475,-0.197486,-0.35689
-0.240049,-0.236107,0.5
0.40475,0.197486,-0.35689
-0.197486,0.40475,0.35689
0.240049,0.236107,0.5
0.197486,0.40475,0.35689
0.207264,0.40475,0.39311
-0.189666,-0.40475,0.40529
-0.215084,0.40475,0.34471
-0.31751,-0.149927,0.5
0.40475,-0.215084,-0.34471
0.40475,0.215084,-0.34471
0.31751,0.149927,0.5
0.215084,0.40475,0.34471
0.189666,0.40475,0.40529
-0.268438,0.15442,0.5
-0.15442,-0.268438,0.5
0.15442,0.268438,0.5
-0.236107,0.240049,0.5
-0.207264,0.40475,0.39311
-0.149927,0.31751,0.5
-0.189666,0.40475,0.40529
0.268438,-0.15442,0.5
connectivity
28,38
26,30
30,33
27,38
42,48
39,42
34,46
34,47
1,2
13,14
13,35
7,14
14,16
2,10
2,36
7,49
15,19
15,24
15,36
23,35
35,37
8,36
36,50
13,18
2,28
2,4
7,26
7,48
15,33
15,31
6,8
27,37
39,50
21,23
40,51
16,32
8,46
37,47
41,50
17,38
9,30
25,30
3,42
29,38
22,42
34,44
34,43
13,27
2,39
7,18
7,40
15,28
16,26
23,48
8,33
21,37
32,37
46,50
47,51
13,17
2,17
2,3
3,7
7,9
15,25
15,29
8,9
16,25
29,37
22,23
22,50
8,44
44,51
37,43
43,50
5,8
16,52
8,12
51,52
37,52
23,49
49,51
50,53
50,54
0,55
0,56
4,57
3,58
59,60
61,62
63,64
65,66
6,67
2,68
8,69
6,70
9,71
11,72
11,73
4,74
18,75
0,76
17,77
0,78
20,79
21,80
81,82
20,83
22,84
85,86
20,87
11,88
31,89
40,90
32,91
41,92
45,93
45,94
20,95
25,96
29,97
11,98
44,99
43,100
45,101
45,102
15,103
31,104
41,105
106,107
108,109
50,110