-0.32079,-0.175232,-0.106054
-0.562155,0.242825,-0.106054
0.17921,-0.402113,-0.0635642
0.32078,-0.402113,-0.0635642
-0.17922,-0.175232,-0.106054
-0.49137,0.365428,-0.106054
0.06215,-0.334528,-0.0212449
-0.008635,-0.211925,-0.0212449
-0.00864,-0.0767472,-0.0635642
0.062145,0.045856,-0.0635642
0.062145,0.242825,-0.106054
-0.00864,0.365428,-0.106054
0.43785,-0.334528,-0.0212449
0.179215,0.113441,-0.0212449
0.508635,-0.211925,-0.0212449
0.320785,0.113441,-0.0212449
0.50863,-0.0767472,-0.0635642
0.437845,0.045856,-0.0635642
-0.437845,-0.045856,0.0635642
-0.50863,0.0767472,0.0635642
-0.320785,-0.113441,0.0212449
-0.508635,0.211925,0.0212449
-0.179215,-0.113441,0.0212449
-0.43785,0.334528,0.0212449
0.00864,-0.365428,0.106054
-0.062145,-0.242825,0.106054
-0.062145,-0.045856,0.0635642
-0.32078,0.402113,0.0635642
0.00864,0.0767472,0.0635642
-0.17921,0.402113,0.0635642
0.008635,0.211925,0.0212449
-0.06215,0.334528,0.0212449
0.49137,-0.365428,0.106054
0.17922,0.175232,0.106054
0.562155,-0.242825,0.106054
0.32079,0.175232,0.106054
-0.379315,-0.209033,-0.127215
-0.620685,0.209033,-0.127215
0.17921,-0.433013,-0.127215
0.32079,-0.433013,-0.127215
-0.32079,-0.164943,-0.127215
-0.17922,-0.164943,-0.127215
-0.553245,0.237681,-0.127215
0.01755,-0.360284,-0.127215
-0.053235,-0.237681,-0.127215
-0.48246,0.360284,-0.127215
0.053235,0.237681,-0.127215
0.48246,-0.360284,-0.127215
-0.01755,0.360284,-0.127215
0.553245,-0.237681,-0.127215
0.17922,0.164943,-0.127215
0.32079,0.164943,-0.127215
-0.035395,-0.0613059,-0.127215
0.035395,0.0613059,-0.127215
-0.120685,-0.209033,-0.127215
0.120685,0.209033,-0.127215
-0.49137,0.433013,-0.127215
-0.00863,0.433013,-0.127215
0.535395,-0.0613059,-0.127215
0.464605,0.0613059,-0.127215
-0.464605,-0.0613059,1.11022e-16
-0.535395,0.0613059,1.11022e-16
0.17921,-0.433013,1.11022e-16
0.32079,-0.433013,1.11022e-16
-0.32079,-0.164943,0.127215
-0.17922,-0.164943,0.127215
-0.553245,0.237681,0.127215
0.01755,-0.360284,0.127215
-0.053235,-0.237681,0.127215
0.535395,-0.0613059,1.11022e-16
-0.48246,0.360284,0.127215
0.053235,0.237681,0.127215
0.464605,0.0613059,1.11022e-16
0.48246,-0.360284,0.127215
-0.01755,0.360284,0.127215
-0.32079,0.433013,1.11022e-16
0.553245,-0.237681,0.127215
-0.17921,0.433013,1.11022e-16
0.17922,0.164943,0.127215
0.32079,0.164943,0.127215
-0.464605,-0.0613059,0.127215
-0.535395,0.0613059,0.127215
-0.035395,-0.0613059,0.127215
0.035395,0.0613059,0.127215
-0.32079,0.433013,0.127215
-0.17921,0.433013,0.127215
0.00863,-0.433013,0.127215
-0.120685,-0.209033,0.127215
0.49137,-0.433013,0.127215
0.620685,-0.209033,0.127215
0.120685,0.209033,0.127215
0.379315,0.209033,0.127215
connectivity
8,26
9,28
0,20
4,22
6,24
7,25
1,21
12,32
5,23
14,34
10,30
13,33
11,31
15,35
0,4
2,3
6,7
8,9
20,22
1,5
12,14
18,19
21,23
26,28
24,25
10,11
13,15
16,17
30,31
32,34
27,29
33,35
2,6
7,8
3,12
18,20
22,26
9,13
19,21
14,16
23,27
28,30
15,17
29,31
0,36
1,37
2,38
3,39
0,40
4,41
1,42
6,43
7,44
5,45
10,46
12,47
11,48
14,49
13,50
15,51
8,52
9,53
4,54
10,55
5,56
11,57
16,58
17,59
18,60
19,61
2,62
3,63
20,64
22,65
21,66
24,67
25,68
16,69
23,70
30,71
17,72
32,73
31,74
27,75
34,76
29,77
33,78
35,79
18,80
19,81
26,82
28,83
27,84
29,85
24,86
25,87
32,88
34,89
33,90
35,91