5.55112e-17,-0.0868806,-0.41272
8.32667e-17,0.0868806,-0.41272
-0.150671,-0.0869711,-0.32458
-0.150671,-0.0869711,0.32458
-0.150671,0.0869711,-0.32458
-0.150671,0.0869711,0.32458
-0.0869711,-0.150671,-0.17542
-0.0869711,-0.150671,0.17542
0.0869711,-0.150671,-0.17542
0.0869711,-0.150671,0.17542
-0.0869711,0.150671,-0.17542
-0.0869711,0.150671,0.17542
-0.0868806,8.32667e-17,-0.08728
-0.0868806,8.32667e-17,0.08728
1.11022e-16,-0.0868806,0.41272
1.38778e-16,0.0868806,0.41272
0.0868806,8.32667e-17,-0.08728
0.0868806,8.32667e-17,0.08728
0.0869711,0.150671,-0.17542
0.0869711,0.150671,0.17542
0.150671,-0.0869711,-0.32458
0.150671,-0.0869711,0.32458
0.150671,0.0869711,-0.32458
0.150671,0.0869711,0.32458
5.55112e-17,-0.0868806,-0.5
8.32667e-17,0.0868806,-0.5
-0.23799,-0.0869711,-0.32458
-0.23799,0.0869711,-0.32458
-0.23799,-0.0869711,0.32458
-0.23799,0.0869711,0.32458
-0.0869711,-0.23799,-0.17542
-0.0869711,-0.23799,0.17542
0.0869711,-0.23799,-0.17542
0.0869711,-0.23799,0.17542
0.23799,-0.0869711,-0.32458
-0.0869711,0.23799,-0.17542
0.23799,0.0869711,-0.32458
-0.0869711,0.23799,0.17542
0.0869711,0.23799,-0.17542
0.23799,-0.0869711,0.32458
0.0869711,0.23799,0.17542
0.23799,0.0869711,0.32458
1.11022e-16,-0.0868806,0.5
1.38778e-16,0.0868806,0.5
connectivity
12,13
16,17
0,2
6,12
0,20
10,12
1,4
7,13
8,16
11,13
1,22
3,14
16,18
9,17
17,19
5,15
14,21
15,23
0,1
12,16
13,17
14,15
2,6
4,10
3,7
8,20
9,21
18,22
5,11
19,23
2,4
6,8
7,9
20,22
3,5
10,18
11,19
21,23
0,24
1,25
2,26
4,27
3,28
5,29
6,30
7,31
8,32
9,33
20,34
10,35
22,36
11,37
18,38
21,39
19,40
23,41
14,42
15,43