-0.41884,-0.04121,-0.47355
-0.39392,0.25337,-0.44866
-0.35608,-0.00337,-0.44866
-0.33116,0.29121,-0.47355
-0.24663,0.10608,-0.44866
-0.20879,0.16884,-0.47355
-0.19866,0.39392,-0.49663
-0.10608,0.30134,-0.49663
-0.05134,0.35608,-0.49663
-0.04121,-0.41884,-0.47355
-0.00337,-0.35608,-0.44866
0.08116,0.45879,-0.47355
0.10608,-0.24663,-0.44866
0.16884,-0.20879,-0.47355
0.25337,-0.39392,-0.44866
0.29121,-0.33116,-0.47355
0.30134,-0.10608,-0.49663
0.35608,-0.05134,-0.49663
0.39392,-0.19866,-0.49663
0.45879,0.08116,-0.47355
-0.14392,0.44866,-0.49663
0.14392,0.49663,-0.44866
0.44866,-0.14392,-0.49663
0.49663,0.14392,-0.44866
-0.49663,-0.19866,0.39392
-0.49663,-0.10608,0.30134
-0.49663,-0.05134,0.35608
-0.49663,0.30134,-0.10608
-0.49663,0.35608,-0.05134
-0.49663,0.39392,-0.19866
-0.47355,-0.41884,-0.04121
-0.47355,-0.33116,0.29121
-0.47355,-0.20879,0.16884
-0.47355,-0.04121,-0.41884
-0.47355,0.08116,0.45879
-0.47355,0.16884,-0.20879
-0.47355,0.29121,-0.33116
-0.47355,0.45879,0.08116
-0.44866,-0.39392,0.25337
-0.44866,-0.35608,-0.00337
-0.44866,-0.24663,0.10608
-0.44866,-0.00337,-0.35608
-0.44866,0.10608,-0.24663
-0.44866,0.25337,-0.39392
-0.49663,0.44866,-0.14392
-0.44866,0.49663,0.14392
-0.41884,-0.47355,-0.04121
-0.39392,-0.44866,0.25337
-0.35608,-0.44866,-0.00337
-0.33116,-0.47355,0.29121
-0.24663,-0.44866,0.10608
-0.20879,-0.47355,0.16884
-0.19866,-0.49663,0.39392
-0.10608,-0.49663,0.30134
-0.05134,-0.49663,0.35608
-0.04121,-0.47355,-0.41884
-0.00337,-0.44866,-0.35608
0.08116,-0.47355,0.45879
0.10608,-0.44866,-0.24663
0.16884,-0.47355,-0.20879
0.25337,-0.44866,-0.39392
0.29121,-0.47355,-0.33116
0.30134,-0.49663,-0.10608
0.35608,-0.49663,-0.05134
0.39392,-0.49663,-0.19866
0.45879,-0.47355,0.08116
-0.49663,-0.14392,0.44866
-0.45879,-0.22355,0.33116
-0.45879,-0.16884,0.27645
-0.45879,-0.08116,0.47355
-0.45879,-0.02645,0.41884
-0.45879,0.27645,-0.16884
-0.45879,0.33116,-0.22355
-0.45879,0.41884,-0.02645
-0.45879,0.47355,-0.08116
-0.44866,0.14392,0.49663
-0.41884,-0.27645,0.29121
-0.41884,-0.20879,0.22355
-0.41884,0.02645,0.45879
-0.41884,0.22355,-0.20879
-0.41884,0.29121,-0.27645
-0.41884,0.45879,0.02645
-0.39392,-0.30134,-0.00337
-0.39392,-0.24663,0.05134
-0.39392,-0.00337,-0.30134
-0.39392,0.05134,-0.24663
-0.39392,0.19866,0.49663
-0.39392,0.49663,0.19866
-0.35608,-0.30134,0.25337
-0.35608,-0.24663,0.19866
-0.35608,0.05134,0.49663
-0.35608,0.19866,-0.24663
-0.35608,0.25337,-0.30134
-0.35608,0.49663,0.05134
-0.33116,-0.27645,-0.04121
-0.33116,-0.20879,0.02645
-0.33116,-0.04121,-0.27645
-0.33116,0.02645,-0.20879
-0.33116,0.22355,0.45879
-0.33116,0.45879,0.22355
-0.30134,-0.39392,-0.00337
-0.30134,-0.35608,0.25337
-0.30134,-0.24663,0.14392
-0.30134,-0.00337,-0.39392
-0.30134,0.10608,0.49663
-0.30134,0.14392,-0.24663
-0.30134,0.25337,-0.35608
-0.30134,0.49663,0.10608
-0.29121,-0.22355,-0.08116
-0.29121,-0.16884,-0.02645
-0.29121,-0.08116,-0.22355
-0.29121,-0.02645,-0.16884
-0.29121,0.27645,0.41884
-0.29121,0.33116,0.47355
-0.29121,0.41884,0.27645
-0.29121,0.47355,0.33116
-0.27645,-0.41884,0.29121
-0.27645,-0.33116,-0.04121
-0.27645,-0.20879,0.08116
-0.27645,-0.04121,-0.33116
-0.27645,0.08116,-0.20879
-0.27645,0.16884,0.45879
-0.27645,0.29121,-0.41884
-0.27645,0.45879,0.16884
-0.25337,-0.19866,-0.14392
-0.25337,-0.14392,-0.19866
-0.25337,-0.10608,-0.05134
-0.25337,-0.05134,-0.10608
-0.25337,0.30134,0.35608
-0.25337,0.35608,0.30134
-0.25337,0.39392,0.44866
-0.25337,0.44866,0.39392
-0.24663,-0.39392,0.05134
-0.24663,-0.35608,0.19866
-0.24663,-0.30134,0.14392
-0.24663,0.05134,-0.39392
-0.24663,0.14392,-0.30134
-0.24663,0.19866,-0.35608
-0.22355,-0.45879,0.33116
-0.22355,-0.29121,-0.08116
-0.22355,-0.16884,0.04121
-0.22355,-0.08116,-0.29121
-0.22355,0.04121,-0.16884
-0.22355,0.20879,0.41884
-0.22355,0.33116,-0.45879
-0.22355,0.41884,0.20879
-0.20879,-0.41884,0.22355
-0.20879,-0.33116,0.02645
-0.20879,-0.27645,0.08116
-0.20879,0.02645,-0.33116
-0.20879,0.08116,-0.27645
-0.20879,0.22355,-0.41884
-0.19866,-0.25337,-0.14392
-0.19866,-0.14392,-0.25337
-0.19866,-0.10608,0.00337
-0.19866,0.00337,-0.10608
-0.19866,0.24663,0.35608
-0.19866,0.35608,0.24663
-0.16884,-0.45879,0.27645
-0.16884,-0.29121,-0.02645
-0.16884,-0.22355,0.04121
-0.16884,-0.02645,-0.29121
-0.16884,0.04121,-0.22355
-0.16884,0.20879,0.47355
-0.16884,0.27645,-0.45879
-0.16884,0.47355,0.20879
-0.14392,-0.49663,0.44866
-0.14392,-0.25337,-0.19866
-0.14392,-0.19866,-0.25337
-0.14392,-0.05134,0.00337
-0.14392,0.00337,-0.05134
-0.14392,0.24663,0.30134
-0.14392,0.30134,0.24663
-0.10608,-0.25337,-0.05134
-0.10608,-0.19866,0.00337
-0.10608,-0.05134,-0.25337
-0.10608,0.00337,-0.19866
-0.10608,0.24663,0.44866
-0.10608,0.44866,0.24663
-0.08116,-0.45879,0.47355
-0.08116,-0.29121,-0.22355
-0.08116,-0.22355,-0.29121
-0.08116,-0.02645,0.04121
-0.08116,0.04121,-0.02645
-0.08116,0.20879,0.27645
-0.08116,0.27645,0.20879
-0.08116,0.47355,-0.45879
-0.05134,-0.25337,-0.10608
-0.05134,-0.14392,0.00337
-0.05134,-0.10608,-0.25337
-0.05134,0.00337,-0.14392
-0.05134,0.24663,0.39392
-0.05134,0.39392,0.24663
-0.04121,-0.33116,-0.27645
-0.04121,-0.27645,-0.33116
-0.04121,0.02645,0.08116
-0.04121,0.08116,0.02645
-0.04121,0.16884,0.22355
-0.04121,0.22355,0.16884
-0.02645,-0.45879,0.41884
-0.02645,-0.29121,-0.16884
-0.02645,-0.16884,-0.29121
-0.02645,-0.08116,0.04121
-0.02645,0.04121,-0.08116
-0.02645,0.20879,0.33116
-0.02645,0.33116,0.20879
-0.02645,0.41884,-0.45879
-0.00337,-0.39392,-0.30134
-0.00337,-0.30134,-0.39392
-0.00337,0.05134,0.14392
-0.00337,0.10608,0.19866
-0.00337,0.14392,0.05134
-0.00337,0.19866,0.10608
0.00337,-0.19866,-0.10608
0.00337,-0.14392,-0.05134
0.00337,-0.10608,-0.19866
0.00337,-0.05134,-0.14392
0.00337,0.30134,0.39392
0.00337,0.35608,0.44866
0.00337,0.39392,0.30134
0.00337,0.44866,0.35608
0.02645,-0.41884,0.45879
0.02645,-0.33116,-0.20879
0.02645,-0.20879,-0.33116
0.02645,-0.04121,0.08116
0.02645,0.08116,-0.04121
0.02645,0.16884,0.29121
0.02645,0.29121,0.16884
0.02645,0.45879,-0.41884
0.04121,-0.22355,-0.16884
0.04121,-0.16884,-0.22355
0.04121,-0.08116,-0.02645
0.04121,-0.02645,-0.08116
0.04121,0.27645,0.33116
0.04121,0.33116,0.27645
0.04121,0.41884,0.47355
0.04121,0.47355,0.41884
0.05134,-0.39392,-0.24663
0.05134,-0.35608,0.49663
0.05134,-0.24663,-0.39392
0.05134,-0.00337,0.14392
0.05134,0.10608,0.25337
0.05134,0.14392,-0.00337
0.05134,0.25337,0.10608
0.05134,0.49663,-0.35608
0.08116,-0.27645,-0.20879
0.08116,-0.20879,-0.27645
0.08116,-0.04121,0.02645
0.08116,0.02645,-0.04121
0.08116,0.22355,0.29121
0.08116,0.29121,0.22355
0.10608,-0.30134,0.49663
0.10608,-0.00337,0.19866
0.10608,0.05134,0.25337
0.10608,0.19866,-0.00337
0.10608,0.25337,0.05134
0.10608,0.49663,-0.30134
0.14392,-0.44866,0.49663
0.14392,-0.30134,-0.24663
0.14392,-0.24663,-0.30134
0.14392,-0.00337,0.05134
0.14392,0.05134,-0.00337
0.14392,0.19866,0.25337
0.14392,0.25337,0.19866
0.16884,-0.27645,0.45879
0.16884,-0.04121,0.22355
0.16884,0.02645,0.29121
0.16884,0.22355,-0.04121
0.16884,0.29121,0.02645
0.16884,0.45879,-0.27645
0.19866,-0.39392,0.49663
0.19866,-0.35608,-0.24663
0.19866,-0.24663,-0.35608
0.19866,-0.00337,0.10608
0.19866,0.10608,-0.00337
0.19866,0.14392,0.25337
0.19866,0.25337,0.14392
0.19866,0.49663,-0.39392
0.20879,-0.22355,0.41884
0.20879,-0.16884,0.47355
0.20879,-0.08116,0.27645
0.20879,-0.02645,0.33116
0.20879,0.27645,-0.08116
0.20879,0.33116,-0.02645
0.20879,0.41884,-0.22355
0.20879,0.47355,-0.16884
0.22355,-0.41884,-0.20879
0.22355,-0.33116,0.45879
0.22355,-0.20879,-0.41884
0.22355,-0.04121,0.16884
0.22355,0.08116,0.29121
0.22355,0.16884,-0.04121
0.22355,0.29121,0.08116
0.22355,0.45879,-0.33116
0.24663,-0.19866,0.35608
0.24663,-0.14392,0.30134
0.24663,-0.10608,0.44866
0.24663,-0.05134,0.39392
0.24663,0.30134,-0.14392
0.24663,0.35608,-0.19866
0.24663,0.39392,-0.05134
0.24663,0.44866,-0.10608
0.25337,-0.35608,-0.30134
0.25337,-0.30134,-0.35608
0.25337,0.05134,0.10608
0.25337,0.10608,0.05134
0.25337,0.14392,0.19866
0.25337,0.19866,0.14392
0.27645,-0.45879,-0.16884
0.27645,-0.29121,0.41884
0.27645,-0.16884,-0.45879
0.27645,-0.08116,0.20879
0.27645,0.04121,0.33116
0.27645,0.20879,-0.08116
0.27645,0.33116,0.04121
0.27645,0.41884,-0.29121
0.29121,-0.41884,-0.27645
0.29121,-0.27645,-0.41884
0.29121,0.02645,0.16884
0.29121,0.08116,0.22355
0.29121,0.16884,0.02645
0.29121,0.22355,0.08116
0.30134,-0.25337,0.35608
0.30134,-0.14392,0.24663
0.30134,0.00337,0.39392
0.30134,0.24663,-0.14392
0.30134,0.35608,-0.25337
0.30134,0.39392,0.00337
0.33116,-0.45879,-0.22355
0.33116,-0.29121,0.47355
0.33116,-0.22355,-0.45879
0.33116,-0.02645,0.20879
0.33116,0.04121,0.27645
0.33116,0.20879,-0.02645
0.33116,0.27645,0.04121
0.33116,0.47355,-0.29121
0.35608,-0.25337,0.30134
0.35608,-0.19866,0.24663
0.35608,0.00337,0.44866
0.35608,0.24663,-0.19866
0.35608,0.30134,-0.25337
0.35608,0.44866,0.00337
0.39392,-0.25337,0.44866
0.39392,-0.05134,0.24663
0.39392,0.00337,0.30134
0.39392,0.24663,-0.05134
0.39392,0.30134,0.00337
0.39392,0.44866,-0.25337
0.41884,-0.45879,-0.02645
0.41884,-0.29121,0.27645
0.41884,-0.22355,0.20879
0.41884,-0.02645,-0.45879
0.41884,0.04121,0.47355
0.41884,0.20879,-0.22355
0.41884,0.27645,-0.29121
0.41884,0.47355,0.04121
0.44866,-0.49663,-0.14392
0.44866,-0.25337,0.39392
0.44866,-0.10608,0.24663
0.44866,0.00337,0.35608
0.44866,0.24663,-0.10608
0.44866,0.35608,0.00337
0.44866,0.39392,-0.25337
0.45879,-0.41884,0.02645
0.45879,-0.33116,0.22355
0.45879,-0.27645,0.16884
0.45879,0.02645,-0.41884
0.45879,0.16884,-0.27645
0.45879,0.22355,-0.33116
0.47355,-0.45879,-0.08116
0.47355,-0.29121,0.33116
0.47355,-0.16884,0.20879
0.47355,-0.08116,-0.45879
0.47355,0.04121,0.41884
0.47355,0.20879,-0.16884
0.47355,0.33116,-0.29121
0.47355,0.41884,0.04121
0.49663,-0.44866,0.14392
0.49663,-0.39392,0.19866
0.49663,-0.35608,0.05134
0.49663,-0.30134,0.10608
0.49663,0.05134,-0.35608
0.49663,0.10608,-0.30134
0.49663,0.19866,-0.39392
-0.43881,-0.06119,-0.5
-0.06119,-0.43881,-0.5
-0.18881,0.18881,-0.5
0.18881,-0.18881,-0.5
-0.31119,0.31119,-0.5
0.31119,-0.31119,-0.5
0.06119,0.43881,-0.5
0.43881,0.06119,-0.5
-0.35608,0.04797,-0.5
0.04797,-0.35608,-0.5
-0.29797,0.10608,-0.5
0.10608,-0.29797,-0.5
-0.45203,0.14392,-0.5
-0.5,0.14392,-0.45203
0.14392,-0.45203,-0.5
0.14392,-0.5,-0.45203
-0.39392,0.20203,-0.5
0.20203,-0.39392,-0.5
-0.10608,0.29797,-0.5
0.29797,-0.10608,-0.5
-0.20203,0.39392,-0.5
0.39392,-0.20203,-0.5
-0.04797,0.35608,-0.5
0.35608,-0.04797,-0.5
-0.14392,0.45203,-0.5
0.14392,0.5,-0.45203
0.45203,-0.14392,-0.5
0.5,0.14392,-0.45203
-0.5,-0.43881,-0.06119
-0.5,-0.06119,-0.43881
-0.5,-0.18881,0.18881
-0.5,0.18881,-0.18881
-0.5,-0.31119,0.31119
-0.5,0.31119,-0.31119
-0.5,0.06119,0.43881
-0.5,0.43881,0.06119
-0.5,-0.35608,0.04797
-0.5,0.04797,-0.35608
-0.5,-0.29797,0.10608
-0.5,0.10608,-0.29797
-0.45203,-0.5,0.14392
-0.5,-0.45203,0.14392
-0.5,-0.39392,0.20203
-0.5,0.20203,-0.39392
-0.5,-0.10608,0.29797
-0.5,0.29797,-0.10608
-0.5,-0.20203,0.39392
-0.5,0.39392,-0.20203
-0.5,-0.04797,0.35608
-0.5,0.35608,-0.04797
-0.5,0.45203,-0.14392
-0.45203,0.5,0.14392
-0.43881,-0.5,-0.06119
-0.06119,-0.5,-0.43881
-0.18881,-0.5,0.18881
0.18881,-0.5,-0.18881
-0.31119,-0.5,0.31119
0.31119,-0.5,-0.31119
0.06119,-0.5,0.43881
0.43881,-0.5,0.06119
-0.35608,-0.5,0.04797
0.04797,-0.5,-0.35608
-0.29797,-0.5,0.10608
0.10608,-0.5,-0.29797
-0.39392,-0.5,0.20203
0.20203,-0.5,-0.39392
-0.10608,-0.5,0.29797
0.29797,-0.5,-0.10608
-0.20203,-0.5,0.39392
0.39392,-0.5,-0.20203
-0.04797,-0.5,0.35608
0.35608,-0.5,-0.04797
-0.43881,-0.06119,0.5
-0.43881,0.5,-0.06119
-0.06119,-0.43881,0.5
-0.06119,0.5,-0.43881
0.5,-0.43881,-0.06119
0.5,-0.06119,-0.43881
-0.18881,0.18881,0.5
-0.18881,0.5,0.18881
0.18881,-0.18881,0.5
0.18881,0.5,-0.18881
0.5,-0.18881,0.18881
0.5,0.18881,-0.18881
-0.31119,0.31119,0.5
-0.31119,0.5,0.31119
0.31119,-0.31119,0.5
0.31119,0.5,-0.31119
0.5,-0.31119,0.31119
0.5,0.31119,-0.31119
0.06119,0.43881,0.5
0.06119,0.5,0.43881
0.43881,0.06119,0.5
0.43881,0.5,0.06119
0.5,0.06119,0.43881
0.5,0.43881,0.06119
-0.5,-0.14392,0.45203
-0.14392,-0.5,0.45203
0.45203,-0.5,-0.14392
-0.35608,0.04797,0.5
-0.35608,0.5,0.04797
0.04797,-0.35608,0.5
0.04797,0.5,-0.35608
0.5,-0.35608,0.04797
0.5,0.04797,-0.35608
-0.29797,0.10608,0.5
-0.29797,0.5,0.10608
0.10608,-0.29797,0.5
0.10608,0.5,-0.29797
0.5,-0.29797,0.10608
0.5,0.10608,-0.29797
-0.45203,0.14392,0.5
0.14392,-0.45203,0.5
0.5,-0.45203,0.14392
-0.39392,0.20203,0.5
-0.39392,0.5,0.20203
0.20203,-0.39392,0.5
0.20203,0.5,-0.39392
0.5,-0.39392,0.20203
0.5,0.20203,-0.39392
-0.10608,0.29797,0.5
-0.10608,0.5,0.29797
0.29797,-0.10608,0.5
0.29797,0.5,-0.10608
0.5,-0.10608,0.29797
0.5,0.29797,-0.10608
-0.20203,0.39392,0.5
-0.20203,0.5,0.39392
0.39392,-0.20203,0.5
0.39392,0.5,-0.20203
0.5,-0.20203,0.39392
0.5,0.39392,-0.20203
-0.04797,0.35608,0.5
-0.04797,0.5,0.35608
0.35608,-0.04797,0.5
0.35608,0.5,-0.04797
0.5,-0.04797,0.35608
0.5,0.35608,-0.04797
-0.14392,0.45203,0.5
-0.14392,0.5,0.45203
0.45203,0.5,-0.14392
0.5,0.45203,-0.14392
0.45203,-0.14392,0.5
0.5,-0.14392,0.45203
connectivity
30,46
0,33
9,55
94,117
96,119
193,194
108,109
110,111
139,159
141,161
180,200
181,201
95,118
97,120
147,148
149,150
222,245
223,246
140,160
142,162
229,230
32,77
35,79
51,146
5,151
59,286
13,288
31,76
36,80
49,116
3,122
61,316
15,317
182,202
183,203
231,232
67,68
71,72
138,158
144,164
308,328
310,330
195,196
224,247
225,248
69,70
73,74
179,199
186,206
348,369
351,372
197,198
265,289
267,291
34,78
37,81
57,221
11,228
65,363
19,366
184,204
185,205
280,281
282,283
311,331
313,333
226,249
227,250
266,290
268,292
318,319
320,321
98,121
99,123
264,287
269,293
364,365
367,368
143,163
145,165
278,279
284,285
350,371
353,374
112,113
114,115
309,329
315,335
349,370
354,375
233,234
312,332
314,334
235,236
352,373
355,376
39,82
41,84
48,100
2,103
56,207
10,208
124,125
152,167
153,168
40,83
42,85
50,132
4,135
58,237
12,239
126,127
173,187
175,189
154,169
155,170
174,188
176,190
213,214
215,216
89,102
91,105
133,134
136,137
258,271
259,272
38,47
1,43
14,60
88,101
92,106
302,303
25,26
27,28
53,54
7,8
62,63
16,17
24,66
29,44
52,166
6,20
64,356
18,22
209,210
211,212
240,252
242,254
260,273
261,274
241,253
243,255
304,305
90,104
93,107
238,251
244,256
379,380
381,382
156,171
157,172
294,295
298,299
323,337
325,339
75,86
45,87
257,270
21,277
377,378
23,383
128,129
322,336
326,340
262,275
263,276
306,307
177,191
178,192
296,297
300,301
343,358
345,360
217,218
219,220
324,338
327,341
344,359
346,361
130,131
342,357
347,362
94,108
96,110
117,139
119,141
180,193
181,194
95,109
97,111
147,159
149,161
200,222
201,223
118,140
120,142
148,160
150,162
229,245
230,246
68,77
71,79
146,158
151,164
286,308
288,310
67,76
72,80
116,138
122,144
316,328
317,330
182,195
183,196
202,224
203,225
231,247
232,248
70,78
73,81
199,221
206,228
348,363
351,366
184,197
185,198
265,280
267,282
289,311
291,313
204,226
205,227
266,281
268,283
318,331
320,333
121,143
123,145
264,278
269,284
350,365
353,367
98,112
99,114
287,309
293,315
349,364
354,368
233,249
234,250
290,312
292,314
319,332
321,334
30,39
33,41
46,48
0,2
55,56
9,10
108,124
110,125
139,152
141,153
167,180
168,181
82,94
84,96
100,117
103,119
193,207
194,208
109,126
111,127
159,173
161,175
187,200
189,201
83,95
85,97
132,147
135,149
222,237
223,239
32,40
35,42
50,51
4,5
58,59
12,13
102,118
105,120
134,148
136,150
245,258
246,259
140,154
142,155
160,174
162,176
213,229
215,230
77,89
79,91
133,146
137,151
271,286
272,288
31,38
36,43
47,49
1,3
60,61
14,15
169,182
170,183
188,202
190,203
214,231
216,232
76,88
80,92
101,116
106,122
302,316
303,317
25,68
27,71
53,158
7,164
62,308
16,310
24,67
29,72
52,138
6,144
64,328
18,330
195,209
196,211
224,240
225,242
247,260
248,261
26,70
28,73
54,199
8,206
63,348
17,351
66,69
44,74
166,179
20,186
356,369
22,372
197,210
198,212
252,265
254,267
273,289
274,291
78,90
81,93
221,238
228,244
363,379
366,381
226,241
227,243
253,266
255,268
304,318
305,320
34,75
37,45
57,257
11,21
65,377
19,23
171,184
172,185
280,295
282,298
311,323
313,325
143,156
145,157
278,294
284,299
337,350
339,353
104,121
107,123
251,264
256,269
365,380
367,382
191,204
192,205
281,297
283,300
331,343
333,345
112,128
114,129
309,322
315,326
336,349
340,354
249,262
250,263
275,290
276,292
306,319
307,321
86,98
87,99
270,287
277,293
364,378
368,383
163,177
165,178
279,296
285,301
358,371
360,374
217,233
219,234
312,324
314,327
332,344
334,346
113,130
115,131
329,342
335,347
357,370
362,375
218,235
220,236
338,352
341,355
359,373
361,376
124,152
125,153
167,168
82,83
84,85
100,132
103,135
207,237
208,239
126,154
127,155
173,174
175,176
187,213
189,215
102,134
105,136
258,259
88,89
91,92
101,133
106,137
271,302
272,303
169,170
188,214
190,216
209,240
211,242
260,261
210,241
212,243
252,253
254,255
273,304
274,305
171,172
295,323
298,325
128,156
129,157
294,322
299,326
336,337
339,340
262,263
275,306
276,307
191,217
192,219
297,324
300,327
343,344
345,346
0,384
9,385
5,386
13,387
3,388
15,389
11,390
19,391
2,392
10,393
4,394
12,395
396,397
398,399
1,400
14,401
7,402
16,403
6,404
18,405
8,406
17,407
20,408
21,409
22,410
23,411
30,412
33,413
32,414
35,415
31,416
36,417
34,418
37,419
39,420
41,421
40,422
42,423
424,425
38,426
43,427
25,428
27,429
24,430
29,431
26,432
28,433
44,434
45,435
46,436
55,437
51,438
59,439
49,440
61,441
57,442
65,443
48,444
56,445
50,446
58,447
47,448
60,449
53,450
62,451
52,452
64,453
54,454
63,455
69,456
74,457
179,458
186,459
369,460
372,461
163,462
165,463
279,464
285,465
371,466
374,467
113,468
115,469
329,470
335,471
370,472
375,473
235,474
236,475
352,476
355,477
373,478
376,479
66,480
166,481
356,482
90,483
93,484
238,485
244,486
379,487
381,488
104,489
107,490
251,491
256,492
380,493
382,494
75,495
257,496
377,497
86,498
87,499
270,500
277,501
378,502
383,503
177,504
178,505
296,506
301,507
358,508
360,509
130,510
131,511
342,512
347,513
357,514
362,515
218,516
220,517
338,518
341,519
359,520
361,521
522,523
524,525
526,527