-0.22934,-0.07727,-0.46416
-0.22934,0.07727,-0.46416
-0.17866,-0.12797,-0.46417
-0.17866,0.12797,-0.46417
-0.12797,-0.17866,-0.46417
-0.12797,0.17866,-0.46417
-0.07727,-0.22934,-0.46416
-0.07727,0.22934,-0.46416
0.07727,-0.22934,-0.46416
0.07727,0.22934,-0.46416
0.12797,-0.17866,-0.46417
0.12797,0.17866,-0.46417
0.17866,-0.12797,-0.46417
0.17866,0.12797,-0.46417
0.22934,-0.07727,-0.46416
0.22934,0.07727,-0.46416
-0.46417,-0.17866,-0.12797
-0.46417,-0.17866,0.12797
-0.46417,-0.12797,-0.17866
-0.46417,-0.12797,0.17866
-0.46417,0.12797,-0.17866
-0.46417,0.12797,0.17866
-0.46417,0.17866,-0.12797
-0.46417,0.17866,0.12797
-0.46416,-0.22934,-0.07727
-0.46416,-0.22934,0.07727
-0.46416,-0.07727,-0.22934
-0.46416,-0.07727,0.22934
-0.46416,0.07727,-0.22934
-0.46416,0.07727,0.22934
-0.46416,0.22934,-0.07727
-0.46416,0.22934,0.07727
-0.22934,-0.46416,-0.07727
-0.22934,-0.46416,0.07727
-0.17866,-0.46417,-0.12797
-0.17866,-0.46417,0.12797
-0.12797,-0.46417,-0.17866
-0.12797,-0.46417,0.17866
-0.07727,-0.46416,-0.22934
-0.07727,-0.46416,0.22934
0.07727,-0.46416,-0.22934
0.07727,-0.46416,0.22934
0.12797,-0.46417,-0.17866
0.12797,-0.46417,0.17866
0.17866,-0.46417,-0.12797
0.17866,-0.46417,0.12797
0.22934,-0.46416,-0.07727
0.22934,-0.46416,0.07727
-0.42273,-0.27066,-0.03584
-0.42273,-0.27066,0.03584
-0.42273,-0.03584,-0.27066
-0.42273,-0.03584,0.27066
-0.42273,0.03584,-0.27066
-0.42273,0.03584,0.27066
-0.42273,0.27066,-0.03584
-0.42273,0.27066,0.03584
-0.37203,-0.32134,-0.03583
-0.37203,-0.32134,0.03583
-0.37203,-0.03583,-0.32134
-0.37203,-0.03583,0.32134
-0.37203,0.03583,-0.32134
-0.37203,0.03583,0.32134
-0.37203,0.32134,-0.03583
-0.37203,0.32134,0.03583
-0.32134,-0.37203,-0.03583
-0.32134,-0.37203,0.03583
-0.32134,-0.03583,-0.37203
-0.32134,-0.03583,0.37203
-0.32134,0.03583,-0.37203
-0.32134,0.03583,0.37203
-0.32134,0.37203,-0.03583
-0.32134,0.37203,0.03583
-0.27066,-0.42273,-0.03584
-0.27066,-0.42273,0.03584
-0.27066,-0.03584,-0.42273
-0.27066,-0.03584,0.42273
-0.27066,0.03584,-0.42273
-0.27066,0.03584,0.42273
-0.27066,0.42273,-0.03584
-0.27066,0.42273,0.03584
-0.22934,-0.07727,0.46416
-0.22934,0.07727,0.46416
-0.22934,0.46416,-0.07727
-0.22934,0.46416,0.07727
-0.17866,-0.12797,0.46417
-0.17866,0.12797,0.46417
-0.17866,0.46417,-0.12797
-0.17866,0.46417,0.12797
-0.12797,-0.17866,0.46417
-0.12797,0.17866,0.46417
-0.12797,0.46417,-0.17866
-0.12797,0.46417,0.17866
-0.07727,-0.22934,0.46416
-0.07727,0.22934,0.46416
-0.07727,0.46416,-0.22934
-0.07727,0.46416,0.22934
-0.03584,-0.42273,-0.27066
-0.03584,-0.42273,0.27066
-0.03584,-0.27066,-0.42273
-0.03584,-0.27066,0.42273
-0.03584,0.27066,-0.42273
-0.03584,0.27066,0.42273
-0.03584,0.42273,-0.27066
-0.03584,0.42273,0.27066
-0.03583,-0.37203,-0.32134
-0.03583,-0.37203,0.32134
-0.03583,-0.32134,-0.37203
-0.03583,-0.32134,0.37203
-0.03583,0.32134,-0.37203
-0.03583,0.32134,0.37203
-0.03583,0.37203,-0.32134
-0.03583,0.37203,0.32134
0.03583,-0.37203,-0.32134
0.03583,-0.37203,0.32134
0.03583,-0.32134,-0.37203
0.03583,-0.32134,0.37203
0.03583,0.32134,-0.37203
0.03583,0.32134,0.37203
0.03583,0.37203,-0.32134
0.03583,0.37203,0.32134
0.03584,-0.42273,-0.27066
0.03584,-0.42273,0.27066
0.03584,-0.27066,-0.42273
0.03584,-0.27066,0.42273
0.03584,0.27066,-0.42273
0.03584,0.27066,0.42273
0.03584,0.42273,-0.27066
0.03584,0.42273,0.27066
0.07727,-0.22934,0.46416
0.07727,0.22934,0.46416
0.07727,0.46416,-0.22934
0.07727,0.46416,0.22934
0.12797,-0.17866,0.46417
0.12797,0.17866,0.46417
0.12797,0.46417,-0.17866
0.12797,0.46417,0.17866
0.17866,-0.12797,0.46417
0.17866,0.12797,0.46417
0.17866,0.46417,-0.12797
0.17866,0.46417,0.12797
0.22934,-0.07727,0.46416
0.22934,0.07727,0.46416
0.22934,0.46416,-0.07727
0.22934,0.46416,0.07727
0.27066,-0.42273,-0.03584
0.27066,-0.42273,0.03584
0.27066,-0.03584,-0.42273
0.27066,-0.03584,0.42273
0.27066,0.03584,-0.42273
0.27066,0.03584,0.42273
0.27066,0.42273,-0.03584
0.27066,0.42273,0.03584
0.32134,-0.37203,-0.03583
0.32134,-0.37203,0.03583
0.32134,-0.03583,-0.37203
0.32134,-0.03583,0.37203
0.32134,0.03583,-0.37203
0.32134,0.03583,0.37203
0.32134,0.37203,-0.03583
0.32134,0.37203,0.03583
0.37203,-0.32134,-0.03583
0.37203,-0.32134,0.03583
0.37203,-0.03583,-0.32134
0.37203,-0.03583,0.32134
0.37203,0.03583,-0.32134
0.37203,0.03583,0.32134
0.37203,0.32134,-0.03583
0.37203,0.32134,0.03583
0.42273,-0.27066,-0.03584
0.42273,-0.27066,0.03584
0.42273,-0.03584,-0.27066
0.42273,-0.03584,0.27066
0.42273,0.03584,-0.27066
0.42273,0.03584,0.27066
0.42273,0.27066,-0.03584
0.42273,0.27066,0.03584
0.46416,-0.22934,-0.07727
0.46416,-0.22934,0.07727
0.46416,-0.07727,-0.22934
0.46416,-0.07727,0.22934
0.46416,0.07727,-0.22934
0.46416,0.07727,0.22934
0.46416,0.22934,-0.07727
0.46416,0.22934,0.07727
0.46417,-0.17866,-0.12797
0.46417,-0.17866,0.12797
0.46417,-0.12797,-0.17866
0.46417,-0.12797,0.17866
0.46417,0.12797,-0.17866
0.46417,0.12797,0.17866
0.46417,0.17866,-0.12797
0.46417,0.17866,0.12797
-0.17866,-0.12797,-0.5
-0.12797,-0.17866,-0.5
-0.17866,0.12797,-0.5
0.12797,-0.17866,-0.5
-0.12797,0.17866,-0.5
0.17866,-0.12797,-0.5
0.12797,0.17866,-0.5
0.17866,0.12797,-0.5
-0.22934,-0.07727,-0.5
-0.07727,-0.22934,-0.5
-0.22934,0.07727,-0.5
0.07727,-0.22934,-0.5
-0.07727,0.22934,-0.5
0.22934,-0.07727,-0.5
0.07727,0.22934,-0.5
0.22934,0.07727,-0.5
-0.5,-0.17866,-0.12797
-0.5,-0.12797,-0.17866
-0.5,-0.17866,0.12797
-0.5,0.12797,-0.17866
-0.5,-0.12797,0.17866
-0.5,0.17866,-0.12797
-0.5,0.12797,0.17866
-0.5,0.17866,0.12797
-0.5,-0.22934,-0.07727
-0.5,-0.07727,-0.22934
-0.5,-0.22934,0.07727
-0.5,0.07727,-0.22934
-0.5,-0.07727,0.22934
-0.5,0.22934,-0.07727
-0.5,0.07727,0.22934
-0.5,0.22934,0.07727
-0.17866,-0.5,-0.12797
-0.12797,-0.5,-0.17866
-0.17866,-0.5,0.12797
0.12797,-0.5,-0.17866
-0.12797,-0.5,0.17866
0.17866,-0.5,-0.12797
0.12797,-0.5,0.17866
0.17866,-0.5,0.12797
-0.22934,-0.5,-0.07727
-0.07727,-0.5,-0.22934
-0.22934,-0.5,0.07727
0.07727,-0.5,-0.22934
-0.07727,-0.5,0.22934
0.22934,-0.5,-0.07727
0.07727,-0.5,0.22934
0.22934,-0.5,0.07727
-0.17866,-0.12797,0.5
-0.17866,0.5,-0.12797
-0.12797,-0.17866,0.5
-0.12797,0.5,-0.17866
0.5,-0.17866,-0.12797
0.5,-0.12797,-0.17866
-0.17866,0.12797,0.5
-0.17866,0.5,0.12797
0.12797,-0.17866,0.5
0.12797,0.5,-0.17866
0.5,-0.17866,0.12797
0.5,0.12797,-0.17866
-0.12797,0.17866,0.5
-0.12797,0.5,0.17866
0.17866,-0.12797,0.5
0.17866,0.5,-0.12797
0.5,-0.12797,0.17866
0.5,0.17866,-0.12797
0.12797,0.17866,0.5
0.12797,0.5,0.17866
0.17866,0.12797,0.5
0.17866,0.5,0.12797
0.5,0.12797,0.17866
0.5,0.17866,0.12797
-0.22934,-0.07727,0.5
-0.22934,0.5,-0.07727
-0.07727,-0.22934,0.5
-0.07727,0.5,-0.22934
0.5,-0.22934,-0.07727
0.5,-0.07727,-0.22934
-0.22934,0.07727,0.5
-0.22934,0.5,0.07727
0.07727,-0.22934,0.5
0.07727,0.5,-0.22934
0.5,-0.22934,0.07727
0.5,0.07727,-0.22934
-0.07727,0.22934,0.5
-0.07727,0.5,0.22934
0.22934,-0.07727,0.5
0.22934,0.5,-0.07727
0.5,-0.07727,0.22934
0.5,0.22934,-0.07727
0.07727,0.22934,0.5
0.07727,0.5,0.22934
0.22934,0.07727,0.5
0.22934,0.5,0.07727
0.5,0.07727,0.22934
0.5,0.22934,0.07727
connectivity
16,18
34,36
2,4
56,64
58,66
104,106
57,65
60,68
112,114
17,19
20,22
35,37
3,5
42,44
10,12
21,23
43,45
11,13
59,67
62,70
105,107
108,110
152,160
154,162
61,69
63,71
113,115
116,118
153,161
156,164
84,88
86,90
184,186
85,89
87,91
132,136
134,138
185,187
188,190
109,111
155,163
158,166
117,119
157,165
159,167
133,137
135,139
189,191
56,57
58,60
64,65
66,68
104,112
106,114
59,61
62,63
105,113
108,116
152,153
154,156
67,69
70,71
107,115
110,118
160,161
162,164
109,117
111,119
155,157
158,159
163,165
166,167
16,24
18,26
32,34
0,2
36,38
4,6
48,56
50,58
64,72
66,74
96,104
98,106
49,57
52,60
65,73
68,76
112,120
114,122
17,25
20,28
33,35
1,3
40,42
8,10
19,27
22,30
37,39
5,7
44,46
12,14
51,59
54,62
97,105
100,108
144,152
146,154
21,29
23,31
41,43
9,11
45,47
13,15
53,61
55,63
113,121
116,124
145,153
148,156
67,75
70,78
99,107
102,110
160,168
162,170
69,77
71,79
115,123
118,126
161,169
164,172
80,84
82,86
88,92
90,94
176,184
178,186
81,85
83,87
128,132
130,134
177,185
180,188
89,93
91,95
136,140
138,142
179,187
182,190
101,109
103,111
147,155
150,158
163,171
166,174
117,125
119,127
149,157
151,159
165,173
167,175
129,133
131,135
137,141
139,143
181,189
183,191
48,49
50,52
72,73
74,76
96,120
98,122
51,53
54,55
97,121
100,124
144,145
146,148
75,77
78,79
99,123
102,126
168,169
170,172
101,125
103,127
147,149
150,151
171,173
174,175
24,48
26,50
32,72
0,74
38,96
6,98
25,49
28,52
33,73
1,76
40,120
8,122
27,51
30,54
39,97
7,100
46,144
14,146
29,53
31,55
41,121
9,124
47,145
15,148
75,80
78,82
92,99
94,102
168,176
170,178
77,81
79,83
123,128
126,130
169,177
172,180
93,101
95,103
140,147
142,150
171,179
174,182
125,129
127,131
141,149
143,151
173,181
175,183
2,192
4,193
3,194
10,195
5,196
12,197
11,198
13,199
0,200
6,201
1,202
8,203
7,204
14,205
9,206
15,207
16,208
18,209
17,210
20,211
19,212
22,213
21,214
23,215
24,216
26,217
25,218
28,219
27,220
30,221
29,222
31,223
34,224
36,225
35,226
42,227
37,228
44,229
43,230
45,231
32,232
38,233
33,234
40,235
39,236
46,237
41,238
47,239
84,240
86,241
88,242
90,243
184,244
186,245
85,246
87,247
132,248
134,249
185,250
188,251
89,252
91,253
136,254
138,255
187,256
190,257
133,258
135,259
137,260
139,261
189,262
191,263
80,264
82,265
92,266
94,267
176,268
178,269
81,270
83,271
128,272
130,273
177,274
180,275
93,276
95,277
140,278
142,279
179,280
182,281
129,282
131,283
141,284
143,285
181,286
183,287