-0.437141,-0.0571388,-0.25
-0.429589,-0.443349,-0.37779
-0.312731,-0.24714,-0.375
-0.437141,-0.437141,-0.5
-1.11022e-16,-0.49428,-0.43975
-0.429589,-0.0509306,-0.37221
-0.205354,0.24714,-0.375
-5.55112e-17,0.49428,-0.43975
0.312731,0.24714,-0.375
0.429589,0.0509306,-0.37221
0.437141,0.437141,-0.5
0.205354,-0.24714,-0.375
0.429589,0.443349,-0.37779
0.437141,0.0571388,-0.25
-0.49428,-0.49428,-0.18975
-0.49428,-0.49428,0.18975
-0.49428,5.55112e-17,0.06025
-0.49428,5.55112e-17,0.43975
-0.49428,0.49428,-0.18975
-0.49428,0.49428,0.18975
-0.443349,-0.429589,0.37779
-0.443349,-0.0646914,-0.12779
-0.24714,-0.181549,-0.125
-0.24714,0.205354,0.375
-0.24714,0.288926,-0.125
-0.0571388,-0.0571388,0
-0.437141,-0.437141,0.5
-0.24714,-0.312731,0.375
-0.181549,-0.24714,0.125
-0.0646914,-0.443349,0.12779
-0.0509306,-0.429589,0.37221
-1.11022e-16,-0.49428,-0.06025
0.288926,-0.24714,0.125
0.49428,-0.49428,-0.18975
0.49428,-0.49428,0.18975
-0.288926,0.24714,0.125
-0.0646914,-0.0509306,0.12221
-0.0571388,-0.437141,0.25
-0.0509306,-0.0646914,-0.12221
-5.55112e-17,0,-0.31025
0,5.55112e-17,0.31025
-5.55112e-17,0.49428,-0.06025
0.0509306,0.0646914,-0.12221
0.0509306,0.429589,0.37221
0.0571388,0.0571388,0
0.0571388,0.437141,0.25
0.0646914,0.0509306,0.12221
0.0646914,0.443349,0.12779
0.181549,0.24714,0.125
0.24714,-0.288926,-0.125
0.24714,-0.205354,0.375
0.24714,0.181549,-0.125
0.24714,0.312731,0.375
0.437141,0.437141,0.5
0.443349,0.0646914,-0.12779
0.443349,0.429589,0.37779
0.49428,5.55112e-17,0.06025
0.49428,5.55112e-17,0.43975
0.49428,0.49428,-0.18975
0.49428,0.49428,0.18975
-0.49428,-0.114278,-0.3078
-0.49428,-0.491581,-0.42908
-0.430281,-0.404815,-0.5
0.304279,-0.304279,-0.5
0.49428,-0.114278,-0.3078
0.490652,-0.49428,-0.43195
0.49428,-0.491581,-0.42908
-0.337356,-0.183279,-0.5
-0.183279,-0.337356,-0.5
0.183279,0.337356,-0.5
0.337356,0.183279,-0.5
-0.404815,-0.430281,-0.5
-0.490652,-0.49428,-0.43195
0.404815,0.430281,-0.5
0.490652,0.49428,-0.43195
-0.400307,0.0803798,-0.5
-0.0803798,0.400307,-0.5
0.0803798,-0.400307,-0.5
-0.304279,0.304279,-0.5
-0.49428,0.114278,-0.3078
-0.490652,0.49428,-0.43195
-0.49428,0.491581,-0.42908
0.400307,-0.0803798,-0.5
0.49428,0.114278,-0.3078
0.430281,0.404815,-0.5
0.49428,0.491581,-0.42908
-0.430281,-0.404815,0.5
-0.49428,-0.490652,0.43195
-0.49428,0.380002,-0.4422
-0.49428,-0.380002,-0.4422
-0.49428,-0.00269877,-0.32092
-0.49428,0.00269877,-0.32092
-0.49428,0.00362802,-0.18195
-0.49428,-0.00362802,-0.18195
-0.49428,-0.103008,-0.12731
-0.49428,0.103008,-0.12731
-0.49428,-0.391272,0.37731
-0.49428,0.391272,0.37731
-0.380002,-0.49428,0.4422
0.304279,-0.304279,0.5
0.114278,-0.49428,0.3078
-0.00269877,-0.49428,0.32092
-0.00362802,-0.49428,0.18195
0.00269877,-0.49428,0.32092
0.00362802,-0.49428,0.18195
0.491581,-0.49428,0.42908
0.49428,-0.490652,0.43195
-0.391272,-0.49428,-0.37731
-0.103008,-0.49428,0.12731
0.103008,-0.49428,0.12731
0.391272,-0.49428,-0.37731
-0.337356,-0.183279,0.5
-0.183279,-0.337356,0.5
0.183279,0.337356,0.5
0.337356,0.183279,0.5
0.49428,0.380002,-0.4422
0.380002,-0.49428,0.4422
-0.114278,-0.49428,0.3078
0.49428,-0.380002,-0.4422
-0.380002,0.49428,0.4422
0.114278,0.49428,0.3078
-0.491581,-0.49428,0.42908
-0.404815,-0.430281,0.5
0.49428,-0.00269877,-0.32092
0.49428,0.00269877,-0.32092
0.49428,0.00362802,-0.18195
0.49428,-0.00362802,-0.18195
-0.00269877,0.49428,0.32092
-0.00362802,0.49428,0.18195
0.00269877,0.49428,0.32092
0.00362802,0.49428,0.18195
0.404815,0.430281,0.5
0.491581,0.49428,0.42908
-0.391272,0.49428,-0.37731
0.49428,-0.103008,-0.12731
-0.103008,0.49428,0.12731
0.49428,0.103008,-0.12731
0.49428,-0.391272,0.37731
0.103008,0.49428,0.12731
0.391272,0.49428,-0.37731
0.49428,0.391272,0.37731
-0.400307,0.0803798,0.5
-0.0803798,0.400307,0.5
0.0803798,-0.400307,0.5
0.380002,0.49428,0.4422
-0.304279,0.304279,0.5
-0.114278,0.49428,0.3078
-0.491581,0.49428,0.42908
-0.49428,0.490652,0.43195
0.400307,-0.0803798,0.5
0.430281,0.404815,0.5
0.49428,0.490652,0.43195
connectivity
14,22
15,28
2,4
22,31
31,32
1,22
2,38
22,29
21,28
20,28
8,42
27,36
46,52
47,51
12,51
48,54
48,55
0,45
13,37
22,46
38,48
28,42
36,51
16,28
17,27
2,39
8,39
27,40
40,52
41,51
51,58
7,8
48,56
48,59
52,57
5,6
38,49
9,11
24,42
35,36
30,50
32,46
23,43
2,3
8,10
0,2
0,22
22,25
25,28
28,37
27,37
26,27
44,51
44,48
13,51
8,13
45,48
45,52
52,53
16,24
6,18
19,23
39,49
24,39
11,33
49,56
35,40
35,41
32,40
34,50
0,60
1,61
2,62
63,64
65,66
5,67
2,68
8,69
9,70
71,72
73,74
6,75
7,76
4,77
78,79
80,81
11,82
13,83
8,84
12,85
86,87
25,88
3,89
5,90
22,91
21,92
2,93
21,94
24,95
20,96
23,97
26,98
99,100
30,101
27,102
28,103
29,104
105,106
1,107
29,108
32,109
11,110
27,111
30,112
43,113
52,114
10,115
25,116
37,117
44,118
44,119
45,120
20,121
27,122
51,123
9,124
8,125
54,126
48,127
47,128
43,129
52,130
52,131
55,132
6,133
49,134
35,135
54,136
50,137
47,138
12,139
55,140
17,141
23,142
50,143
53,144
145,146
147,148
57,149
150,151