-0.47364,-0.35047,-0.23728
-0.25,-0.25,-0.202611
-0.02636,-0.14953,-0.23728
0.14953,0.02636,-0.23728
0.25,0.25,-0.202611
0.35047,0.47364,-0.23728
-0.35047,-0.47364,0.23728
-0.47364,-0.14953,-0.0891652
-0.35047,-0.02636,0.0891652
-0.14953,-0.47364,0.0891652
-0.02636,-0.35047,-0.0891652
-0.25,-0.25,-0.123834
-0.25,-0.25,0.123834
-0.25,-0.25,0.202611
-0.14953,-0.02636,0.23728
0.02636,0.14953,0.23728
0.02636,0.35047,0.0891652
0.14953,0.47364,-0.0891652
0.25,0.25,-0.123834
0.25,0.25,0.123834
0.25,0.25,0.202611
0.35047,0.02636,-0.0891652
0.47364,0.14953,0.0891652
0.47364,0.35047,0.23728
-0.25,-0.25,-0.326445
0.25,0.25,-0.326445
-0.41206,-0.41206,-0.326445
-0.08794,-0.08794,-0.326445
0.08794,0.08794,-0.326445
0.41206,0.41206,-0.326445
-0.5,-0.37683,-0.23728
-0.37683,-0.5,0.23728
-0.5,-0.12317,-0.0891652
-0.5,0.12317,0.0891652
-0.37683,0.5,0.23728
-0.5,0.37683,0.23728
-0.12317,-0.5,0.0891652
0.12317,-0.5,-0.0891652
0.37683,-0.5,-0.23728
0.5,-0.37683,-0.23728
0.5,-0.12317,-0.0891652
-0.12317,0.5,0.0891652
0.12317,0.5,-0.0891652
0.37683,0.5,-0.23728
0.5,0.12317,0.0891652
0.5,0.37683,0.23728
-0.25,-0.25,0.326445
0.25,0.25,0.326445
-0.41206,-0.41206,0.326445
-0.08794,-0.08794,0.326445
0.08794,0.08794,0.326445
0.41206,0.41206,0.326445
connectivity
2,3
14,15
0,1
1,2
7,11
10,11
9,12
8,12
3,4
6,13
13,14
18,21
4,5
17,18
16,19
15,20
19,22
20,23
0,7
2,10
6,9
8,14
3,21
15,16
5,17
22,23
11,12
18,19
7,8
9,10
21,22
16,17
1,24
4,25
0,26
2,27
3,28
5,29
0,30
6,31
7,32
8,33
34,35
9,36
10,37
38,39
21,40
16,41
17,42
5,43
22,44
23,45
13,46
20,47
6,48
14,49
15,50
23,51