-0.31689,-0.17601,-0.5
-0.31689,0.17601,-0.5
-0.17601,-0.5,-0.31689
0,-0.18311,-0.32399
0,0.18311,-0.32399
0.17601,-0.5,-0.31689
0.31689,-0.17601,-0.5
0.31689,0.17601,-0.5
-0.17601,0.5,-0.31689
0.17601,0.5,-0.31689
-0.5,-0.31689,-0.17601
-0.5,-0.31689,0.17601
-0.5,0.31689,-0.17601
-0.5,0.31689,0.17601
-0.32399,0,-0.18311
-0.32399,0,0.18311
-0.18311,-0.32399,0
-0.17601,-0.5,0.31689
0.17601,-0.5,0.31689
0.18311,-0.32399,0
-0.31689,-0.17601,0.5
-0.31689,0.17601,0.5
-0.18311,0.32399,0
-0.17601,0.5,0.31689
0,-0.18311,0.32399
0,0.18311,0.32399
0.17601,0.5,0.31689
0.18311,0.32399,0
0.31689,-0.17601,0.5
0.31689,0.17601,0.5
0.32399,0,-0.18311
0.32399,0,0.18311
0.5,-0.31689,-0.17601
0.5,-0.31689,0.17601
0.5,0.31689,-0.17601
0.5,0.31689,0.17601
0,-0.18311,-0.5
0,0.18311,-0.5
-0.17601,-0.5,-0.5
0.17601,-0.5,-0.5
-0.17601,0.5,-0.5
0.17601,0.5,-0.5
-0.5,0,-0.18311
-0.5,0,0.18311
-0.5,-0.17601,-0.5
-0.5,0.17601,-0.5
-0.18311,-0.5,0
0.18311,-0.5,0
-0.5,-0.5,-0.17601
-0.5,-0.5,0.17601
-0.18311,0.5,0
1.11022e-16,-0.18311,0.5
0.5,0,-0.18311
1.11022e-16,0.18311,0.5
0.18311,0.5,0
0.5,0,0.18311
-0.5,0.5,-0.17601
-0.17601,-0.5,0.5
0.5,-0.17601,-0.5
-0.5,0.5,0.17601
0.17601,-0.5,0.5
0.5,0.17601,-0.5
-0.17601,0.5,0.5
0.17601,0.5,0.5
0.5,-0.5,-0.17601
0.5,-0.5,0.17601
0.5,0.5,-0.17601
0.5,0.5,0.17601
-0.5,-0.17601,0.5
-0.5,0.17601,0.5
0.5,-0.17601,0.5
0.5,0.17601,0.5
connectivity
10,14
10,16
0,14
0,3
2,16
2,3
11,16
11,15
1,14
1,4
3,5
5,19
12,14
12,22
16,17
17,24
3,6
6,30
13,15
13,22
18,19
18,24
4,7
7,30
15,20
15,21
4,8
4,9
19,32
19,33
8,22
22,23
20,24
24,28
30,32
30,34
21,25
23,25
25,26
25,29
9,27
27,34
26,27
27,35
31,33
28,31
29,31
31,35
10,11
0,1
2,5
12,13
17,18
6,7
14,15
16,19
3,4
22,27
24,25
30,31
8,9
23,26
32,33
34,35
20,21
28,29
3,36
4,37
2,38
5,39
8,40
9,41
14,42
15,43
0,44
1,45
16,46
19,47
10,48
11,49
22,50
24,51
30,52
25,53
27,54
31,55
12,56
17,57
6,58
13,59
18,60
7,61
23,62
26,63
32,64
33,65
34,66
35,67
20,68
21,69
28,70
29,71