-0.5,-0.5,-0.30088
-0.5,0.5,-0.30088
0.5,-0.5,-0.30088
0.5,0.5,-0.30088
-0.5,-0.5,0.30088
-0.5,0,-0.15044
-0.5,0,0.15044
-0.5,0.5,0.30088
0,-0.5,-0.15044
0,-0.5,0.15044
0.5,-0.5,0.30088
-0.25,-0.25,-0.15044
-0.25,-0.25,0.15044
-0.25,0.25,-0.15044
-0.25,0.25,0.15044
0,0,5.55112e-17
1.11022e-16,0.5,-0.15044
1.11022e-16,0.5,0.15044
0.25,-0.25,-0.15044
0.25,-0.25,0.15044
0.25,0.25,-0.15044
0.25,0.25,0.15044
0.5,0,-0.15044
0.5,0,0.15044
0.5,0.5,0.30088
connectivity
0,11
11,15
4,12
12,15
1,13
13,15
2,18
15,18
14,15
15,19
15,20
15,21
7,14
10,19
3,20
21,24
5,11
5,13
8,11
8,18
6,12
6,14
9,12
9,19
13,16
18,22
14,17
19,23
16,20
20,22
17,21
21,23