-0.32121,0,-0.415355
-0.21614,-0.21614,-0.415355
-0.21614,0.21614,-0.415355
-1.11022e-16,-0.32121,-0.415355
0.21614,-0.21614,-0.415355
0.21614,0.21614,-0.415355
-1.11022e-16,0.32121,-0.415355
0.32121,0,-0.415355
-0.5,-0.19841,-0.120112
-0.5,-0.19841,0.120112
-0.5,0,-0.255277
-0.5,0.19841,-0.120112
-0.5,0.19841,0.120112
-0.19841,-0.5,-0.120112
-0.19841,-0.5,0.120112
-1.11022e-16,-0.5,-0.255277
0.19841,-0.5,-0.120112
0.19841,-0.5,0.120112
-0.5,0,0.255277
-0.32121,0,0.415355
-0.3081,-0.3081,-0.213684
-0.3081,-0.3081,0.213684
-0.3081,0.3081,-0.213684
-0.3081,0.3081,0.213684
-0.21614,-0.21614,0.415355
-0.21614,0.21614,0.415355
-0.19841,0.5,-0.120112
-0.19841,0.5,0.120112
-1.11022e-16,-0.5,0.255277
-1.11022e-16,-0.32121,0.415355
0,0.5,-0.255277
0.19841,0.5,-0.120112
0.19841,0.5,0.120112
0.21614,-0.21614,0.415355
0.21614,0.21614,0.415355
0.3081,-0.3081,-0.213684
0.3081,-0.3081,0.213684
0.3081,0.3081,-0.213684
0.3081,0.3081,0.213684
0.5,-0.19841,-0.120112
0.5,-0.19841,0.120112
0.5,0,-0.255277
0.5,0.19841,-0.120112
0.5,0.19841,0.120112
-1.11022e-16,0.32121,0.415355
0,0.5,0.255277
0.32121,0,0.415355
0.5,0,0.255277
connectivity
0,10
3,15
18,19
28,29
6,30
7,41
0,1
1,3
0,2
3,4
2,6
4,7
5,6
5,7
8,10
13,15
10,11
15,16
9,18
14,28
12,18
17,28
1,20
2,22
4,35
5,37
21,24
23,25
33,36
34,38
8,9
13,14
11,12
16,17
8,20
13,20
9,21
14,21
11,22
16,35
12,23
17,36
22,26
35,39
23,27
36,40
31,37
37,42
32,38
38,43
44,45
26,30
30,31
27,45
32,45
26,27
31,32
46,47
39,41
41,42
40,47
43,47
39,40
42,43
19,24
24,29
19,25
29,33
25,44
33,46
34,44
34,46