-0.226221,-0.117817,-0.36396
-0.117817,0.226221,-0.36396
0.117817,-0.226221,-0.36396
0.226221,0.117817,-0.36396
-0.226221,-0.117817,0.36396
-0.226221,0.117817,-0.13604
-0.226221,0.117817,0.13604
-0.117817,-0.226221,-0.13604
-0.117817,-0.226221,0.13604
-0.117817,0.226221,0.36396
0.117817,-0.226221,0.36396
0.226221,-0.117817,-0.13604
0.226221,-0.117817,0.13604
0.117817,0.226221,-0.13604
0.117817,0.226221,0.13604
0.226221,0.117817,0.36396
-0.226221,-0.117817,-0.5
0.117817,-0.226221,-0.5
-0.117817,0.226221,-0.5
0.226221,0.117817,-0.5
-0.296365,-0.117817,-0.25
-0.296365,-0.117817,0.25
-0.296365,0.117817,-0.25
-0.296365,0.117817,0.25
-0.296365,-0.14839,-0.36396
-0.296365,-0.14839,-0.13604
-0.296365,-0.14839,0.36396
-0.296365,-0.14839,0.13604
-0.296365,0.14839,-0.36396
-0.296365,0.14839,-0.13604
-0.296365,0.14839,0.13604
-0.296365,0.14839,0.36396
-0.296365,0,-0.13604
-0.296365,5.55112e-17,0.13604
-0.296365,0,-0.36396
-0.296365,5.55112e-17,0.36396
-0.117817,-0.296365,-0.25
0.117817,-0.296365,-0.25
-0.117817,-0.296365,0.25
0.117817,-0.296365,0.25
-0.14839,-0.296365,-0.13604
-0.14839,-0.296365,-0.36396
-0.14839,-0.296365,0.13604
0.14839,-0.296365,-0.36396
0.14839,-0.296365,-0.13604
-0.14839,-0.296365,0.36396
0.14839,-0.296365,0.13604
0.14839,-0.296365,0.36396
0,-0.296365,-0.36396
0,-0.296365,-0.13604
5.55112e-17,-0.296365,0.36396
5.55112e-17,-0.296365,0.13604
-0.117817,0.296365,-0.25
0.296365,-0.117817,-0.25
0.296365,-0.117817,0.25
0.296365,0.117817,-0.25
0.117817,0.296365,-0.25
-0.117817,0.296365,0.25
0.117817,0.296365,0.25
0.296365,0.117817,0.25
0.296365,-0.14839,-0.36396
-0.14839,0.296365,-0.13604
-0.14839,0.296365,-0.36396
-0.14839,0.296365,0.13604
0.296365,-0.14839,-0.13604
0.296365,-0.14839,0.36396
0.296365,-0.14839,0.13604
0.14839,0.296365,-0.36396
0.296365,0.14839,-0.36396
0.296365,0.14839,-0.13604
0.14839,0.296365,-0.13604
-0.14839,0.296365,0.36396
0.296365,0.14839,0.13604
0.14839,0.296365,0.13604
0.14839,0.296365,0.36396
0.296365,0.14839,0.36396
-0.226221,-0.117817,0.5
0.117817,-0.226221,0.5
-0.117817,0.226221,0.5
0.226221,0.117817,0.5
5.55112e-17,0.296365,-0.36396
0.296365,0,-0.13604
0.296365,5.55112e-17,0.13604
0.296365,0,-0.36396
5.55112e-17,0.296365,-0.13604
1.11022e-16,0.296365,0.36396
1.11022e-16,0.296365,0.13604
0.296365,5.55112e-17,0.36396
connectivity
0,7
4,8
2,11
1,5
6,9
10,12
3,13
14,15
7,8
5,6
11,12
13,14
0,16
2,17
1,18
3,19
0,20
4,21
5,22
6,23
0,24
7,25
4,26
8,27
1,28
5,29
6,30
9,31
5,32
6,33
0,34
4,35
7,36
2,37
8,38
10,39
7,40
0,41
8,42
2,43
11,44
4,45
12,46
10,47
2,48
7,49
10,50
8,51
1,52
11,53
12,54
3,55
13,56
9,57
14,58
15,59
2,60
5,61
1,62
6,63
11,64
10,65
12,66
3,67
3,68
13,69
13,70
9,71
14,72
14,73
15,74
15,75
4,76
10,77
9,78
15,79
1,80
11,81
12,82
3,83
13,84
9,85
14,86
15,87