-0.435255,5.55112e-17,-0.5
-0.435255,0.435255,-0.5
-0.217628,-0.146211,-0.5
-0.217628,0.289044,-0.5
-3.88578e-16,-0.435255,-0.5
-3.88578e-16,5.55112e-17,-0.5
0.217627,-0.289044,-0.5
0.217627,0.146211,-0.5
0.435255,5.55112e-17,-0.5
-3.33067e-16,0.435255,-0.5
0.435255,-0.435255,-0.5
0.435255,0.435255,-0.5
-0.435255,-0.435255,0
-0.435255,-0.217627,-0.125
-0.435255,-0.217627,0.375
-0.435255,1.11022e-16,0
-0.435255,1.11022e-16,0.5
-0.435255,0.217628,-0.375
-0.435255,0.217628,0.125
-0.435255,0.435255,0
-0.435255,-0.435255,0.5
-0.363838,-0.435255,0.25
-0.0714166,-0.435255,-0.25
-3.33067e-16,-0.435255,0
0.0714166,-0.435255,0.25
0.363838,-0.435255,-0.25
0.435255,-0.435255,0
-0.435255,0.435255,0.5
-0.432861,-0.220021,0.125
-0.432861,-0.215234,-0.375
-0.432861,0.215234,-0.125
-0.432861,0.220021,0.375
-0.363838,5.55112e-17,-0.25
-0.363838,0.435255,0.25
-0.217628,-0.289044,0
-0.217628,-0.217627,-0.25
-0.217628,-0.217627,0.25
-0.217628,-0.146211,0.5
-0.217628,0.146211,0
-0.217628,0.217628,-0.25
-0.217628,0.217628,0.25
-0.217628,0.289044,0.5
-0.0714166,1.11022e-16,0.25
-0.0714166,0.435255,-0.25
-0.0023939,-0.220021,-0.125
-0.0023939,-0.215234,0.375
-0.0023939,0.215234,0.125
-0.0023939,0.220021,-0.375
-3.33067e-16,-0.435255,0.5
-3.88578e-16,-0.217627,-0.375
-3.33067e-16,-0.217627,0.125
-3.33067e-16,1.11022e-16,0
-3.33067e-16,1.11022e-16,0.5
-3.33067e-16,0.217628,-0.125
-2.77556e-16,0.217628,0.375
-2.77556e-16,0.435255,0
0.0023939,-0.220021,0.375
0.0023939,-0.215234,-0.125
0.0023939,0.215234,-0.375
0.0023939,0.220021,0.125
0.0714166,5.55112e-17,-0.25
0.0714166,0.435255,0.25
0.217627,-0.289044,0.5
0.217627,-0.217627,-0.25
0.217627,-0.217627,0.25
0.217627,-0.146211,0
0.217627,0.146211,0.5
0.217627,0.217628,-0.25
0.217627,0.217628,0.25
0.217627,0.289044,0
0.363838,1.11022e-16,0.25
0.363838,0.435255,-0.25
0.432861,-0.220021,-0.375
0.432861,-0.215234,0.125
0.432861,0.215234,0.375
0.432861,0.220021,-0.125
0.435255,-0.217627,-0.125
0.435255,-0.217627,0.375
0.435255,1.11022e-16,0
0.435255,1.11022e-16,0.5
0.435255,0.217628,-0.375
0.435255,0.217628,0.125
0.435255,0.435255,0
-2.77556e-16,0.435255,0.5
0.435255,-0.435255,0.5
connectivity
12,21
0,32
4,22
2,35
22,23
15,32
23,24
5,60
20,21
6,63
3,39
24,48
10,25
25,26
7,67
34,35
34,36
51,60
36,37
38,39
63,65
42,51
38,40
64,65
42,52
40,41
62,64
67,69
68,69
70,78
70,79
66,68
2,49
13,32
13,34
22,49
14,21
3,17
17,32
6,49
14,37
24,50
25,76
18,38
18,33
7,80
49,60
34,50
53,60
50,65
42,50
38,53
65,76
43,53
53,69
42,54
69,81
41,54
54,61
54,66
70,77
70,81
2,29
22,44
21,28
6,72
3,47
24,56
25,72
7,58
29,32
30,32
34,44
28,34
57,60
57,65
58,60
30,38
38,46
43,47
65,73
42,45
42,46
37,45
56,62
59,69
59,61
31,33
31,41
70,73
69,75
70,74
71,75
66,74
12,34
0,2
4,6
2,5
22,35
15,38
23,34
5,7
21,36
6,10
1,3
3,9
24,64
25,63
7,8
32,35
32,39
60,63
60,67
36,42
39,43
38,51
51,65
65,78
40,42
33,40
64,70
67,71
55,69
69,82
68,70
61,68
12,28
0,29
15,30
23,44
5,58
29,35
35,44
28,36
57,63
51,57
36,45
30,39
39,47
63,72
46,51
58,67
9,47
10,72
45,52
48,56
56,64
40,46
31,40
64,73
67,75
55,59
59,68
27,31
73,78
68,74
75,82
74,79
19,33
9,43
43,55
55,61
27,33
61,83
11,71
71,82
71,80
62,77
16,37
48,62
37,52
52,66
62,84
27,41
41,83
66,79