-0.31155,0,-0.220395
-0.15985,-0.15985,-0.220395
-0.15985,0.15985,-0.220395
-1.11022e-16,-0.31155,-0.220395
0.15985,-0.15985,-0.220395
0.15985,0.15985,-0.220395
-1.11022e-16,0.31155,-0.220395
0.31155,0,-0.220395
-0.5,-0.18845,8.32667e-17
-0.5,0,-0.110197
-0.5,0,0.110198
-0.5,0.18845,8.32667e-17
-0.34015,-0.34015,8.32667e-17
-0.18845,-0.5,8.32667e-17
-1.11022e-16,-0.5,-0.110197
-1.11022e-16,-0.5,0.110198
0.18845,-0.5,8.32667e-17
-0.35836,-0.14164,-0.110197
-0.35836,-0.14164,0.110198
-0.35836,0.14164,-0.110197
-0.35836,0.14164,0.110198
-0.34015,0.34015,8.32667e-17
-0.31155,0,0.220395
-0.25,-0.25,-0.110197
-0.25,-0.25,0.110198
-0.25,0.25,-0.110197
-0.25,0.25,0.110198
-0.18845,0.5,8.32667e-17
-0.15985,-0.15985,0.220395
-0.15985,0.15985,0.220395
-0.14164,-0.35836,-0.110197
-0.14164,-0.35836,0.110198
-0.14164,0.35836,-0.110197
-0.14164,0.35836,0.110198
-1.11022e-16,-0.31155,0.220395
0,0.5,-0.110197
0,0.5,0.110198
0.14164,-0.35836,-0.110197
0.14164,-0.35836,0.110198
0.14164,0.35836,-0.110197
0.14164,0.35836,0.110198
0.15985,-0.15985,0.220395
0.15985,0.15985,0.220395
0.18845,0.5,8.32667e-17
0.25,-0.25,-0.110197
0.25,-0.25,0.110198
0.25,0.25,-0.110197
0.25,0.25,0.110198
0.34015,-0.34015,8.32667e-17
0.34015,0.34015,8.32667e-17
0.35836,-0.14164,-0.110197
0.35836,-0.14164,0.110198
0.35836,0.14164,-0.110197
0.35836,0.14164,0.110198
0.5,-0.18845,8.32667e-17
0.5,0,-0.110197
0.5,0,0.110198
0.5,0.18845,8.32667e-17
-1.11022e-16,0.31155,0.220395
0.31155,0,0.220395
connectivity
8,12
8,9
8,10
1,17
1,30
2,19
2,32
4,37
4,50
5,39
5,52
12,17
12,30
12,18
12,31
19,21
37,48
18,28
28,31
21,32
48,50
20,21
21,33
38,48
48,51
20,29
38,41
39,49
49,52
29,33
41,51
40,49
49,53
40,42
42,53
0,1
1,3
0,2
3,4
12,13
2,6
4,7
11,21
16,48
5,6
5,7
21,27
48,54
43,49
49,57
1,23
2,25
4,44
5,46
12,23
12,24
24,28
21,25
44,48
21,26
45,48
26,29
41,45
46,49
47,49
42,47
0,9
3,14
9,11
13,14
14,16
13,15
10,11
15,16
10,22
15,34
6,35
7,55
54,55
54,56
17,23
23,30
19,25
37,44
18,24
24,31
25,32
44,50
20,26
38,45
26,33
45,51
39,46
46,52
40,47
47,53
9,17
9,19
14,30
14,37
10,18
10,20
15,31
15,38
32,35
50,55
35,39
52,55
33,36
51,56
36,40
53,56
27,35
35,43
27,36
36,43
36,58
55,57
56,57
56,59
22,28
28,34
22,29
34,41
29,58
41,59
42,58
42,59