-0.22706,-0.08682,-0.150797
-0.22706,0.08682,-0.150797
0.0813795,-0.41318,-0.150797
0.0813795,0.41318,-0.150797
-0.225203,-0.20643,-0.0248183
-0.225203,0.20643,-0.0248183
-0.0813795,-0.41318,0.150797
-0.0832375,-0.29357,0.0248183
-0.0832375,0.29357,0.0248183
-0.0813795,0.41318,0.150797
0.0832375,-0.29357,-0.0248183
0.0832375,0.29357,-0.0248183
0.225203,-0.20643,0.0248183
0.225203,0.20643,0.0248183
0.22706,-0.08682,0.150797
0.22706,0.08682,0.150797
-0.226617,-0.08682,-0.237632
-0.226617,0.08682,-0.237632
0.0818234,-0.41318,-0.237632
0.0818234,0.41318,-0.237632
-0.30844,-0.20643,-8.32667e-17
-0.30844,0.20643,-8.32667e-17
0.0813795,-0.5,-0.150797
-0.0813795,-0.5,0.150797
0.30844,-0.20643,-8.32667e-17
0.30844,0.20643,-8.32667e-17
0.0813795,0.5,-0.150797
-0.0813795,0.5,0.150797
-0.0818234,-0.41318,0.237632
-0.0818234,0.41318,0.237632
0.226617,-0.08682,0.237632
0.226617,0.08682,0.237632
connectivity
0,4
2,10
1,5
6,7
8,9
12,14
3,11
13,15
7,10
8,11
0,1
14,15
4,7
10,12
5,8
11,13
0,16
1,17
2,18
3,19
4,20
5,21
2,22
6,23
12,24
13,25
3,26
9,27
6,28
9,29
14,30
15,31