-0.40855,-2.22045e-16,-0.40855
-0.25,-2.22045e-16,-0.5
-2.22045e-16,-0.40855,-0.40855
-2.22045e-16,-0.25,-0.5
-2.22045e-16,0.25,-0.5
-1.11022e-16,0.40855,-0.40855
0.25,-2.22045e-16,-0.5
0.40855,-2.22045e-16,-0.40855
-0.5,-0.25,0
-0.5,-2.22045e-16,-0.25
-0.5,-2.22045e-16,0.25
-0.5,0.25,0
-0.40855,-0.40855,0
-0.40855,-1.11022e-16,0.40855
-0.40855,0.40855,0
-0.25,-0.5,0
-2.22045e-16,-0.5,-0.25
-2.22045e-16,-0.5,0.25
-1.11022e-16,-0.40855,0.40855
0.25,-0.5,0
0.40855,-0.40855,0
-0.5,-0.09145,-0.09145
-0.5,-0.09145,0.09145
-0.5,0.09145,-0.09145
-0.5,0.09145,0.09145
-0.25,-1.11022e-16,0.5
-0.25,0.5,0
-0.09145,-0.5,-0.09145
-0.09145,-0.5,0.09145
-0.09145,-0.09145,-0.5
-0.09145,0.09145,-0.5
-1.11022e-16,-0.25,0.5
-1.11022e-16,0.25,0.5
0,0.40855,0.40855
-1.11022e-16,0.5,-0.25
-1.11022e-16,0.5,0.25
0.09145,-0.5,-0.09145
0.09145,-0.5,0.09145
0.09145,-0.09145,-0.5
0.09145,0.09145,-0.5
0.25,-1.11022e-16,0.5
0.25,0.5,0
0.40855,-1.11022e-16,0.40855
0.40855,0.40855,0
0.5,-0.25,0
0.5,-2.22045e-16,-0.25
0.5,-2.22045e-16,0.25
0.5,0.25,0
-0.09145,0.5,-0.09145
-0.09145,0.5,0.09145
0.09145,0.5,-0.09145
0.09145,0.5,0.09145
0.5,-0.09145,-0.09145
0.5,-0.09145,0.09145
0.5,0.09145,-0.09145
0.5,0.09145,0.09145
-0.09145,-0.09145,0.5
-0.09145,0.09145,0.5
0.09145,-0.09145,0.5
0.09145,0.09145,0.5
-0.40855,-2.22045e-16,-0.5
-2.22045e-16,-0.40855,-0.5
-1.11022e-16,0.40855,-0.5
0.40855,-2.22045e-16,-0.5
-0.5,-0.40855,0
-0.5,-2.22045e-16,-0.40855
-0.5,-1.11022e-16,0.40855
-0.5,0.40855,0
-0.40855,-0.5,0
-2.22045e-16,-0.5,-0.40855
-1.11022e-16,-0.5,0.40855
0.40855,-0.5,0
-0.40855,-1.11022e-16,0.5
-0.40855,0.5,0
-1.11022e-16,-0.40855,0.5
-1.11022e-16,0.5,-0.40855
0.5,-0.40855,0
0.5,-2.22045e-16,-0.40855
0,0.40855,0.5
0,0.5,0.40855
0.40855,-1.11022e-16,0.5
0.5,-1.11022e-16,0.40855
0.40855,0.5,0
0.5,0.40855,0
connectivity
8,21
8,22
8,12
9,21
9,23
0,9
15,27
15,28
12,15
1,29
1,30
0,1
16,27
16,36
2,16
3,29
3,38
2,3
10,22
11,23
17,28
4,30
19,36
6,38
10,24
11,24
17,37
19,37
4,39
6,39
10,13
11,14
17,18
4,5
19,20
6,7
13,25
14,26
18,31
5,34
20,44
7,45
32,33
33,35
40,42
42,46
41,43
43,47
21,22
21,23
27,28
27,36
29,30
29,38
22,24
23,24
28,37
30,39
36,37
38,39
26,48
26,49
34,48
34,50
35,49
41,50
35,51
41,51
48,49
48,50
49,51
50,51
44,52
44,53
45,52
45,54
46,53
47,54
46,55
47,55
52,53
52,54
53,55
54,55
25,56
25,57
31,56
31,58
32,57
40,58
32,59
40,59
56,57
56,58
57,59
58,59
0,60
2,61
5,62
7,63
12,64
0,65
13,66
14,67
12,68
2,69
18,70
20,71
13,72
14,73
18,74
5,75
20,76
7,77
33,78
33,79
42,80
42,81
43,82
43,83