0.176155,-0.391452,-0.097355
-0.430855,0.239153,-0.097355
-0.24169,-0.0596865,-0.097355
-0.07747,0.253555,-0.097355
0.072915,0.0431714,-0.097355
0.50093,-0.0847319,-0.097355
-0.50093,0.0847319,0.097355
0.430855,-0.239153,0.097355
-0.250005,0.14434,0.097355
-0.072915,-0.0431714,0.097355
0.07747,-0.253555,0.097355
-0.176155,0.391452,0.097355
0.250005,-0.14434,-0.097355
0.24169,0.0596865,0.097355
0.25,-0.433013,-0.19471
0.12681,-0.322508,-0.19471
-0.4659,0.161947,-0.19471
-0.157305,-0.0514332,-0.19471
0.4659,-0.161947,-0.19471
0.157305,0.0514332,-0.19471
-0.12681,0.322508,-0.19471
0,0,-0.19471
0.5,0,-0.19471
-0.453635,-0.0803065,-0.097355
-0.546365,0.0803065,0.097355
-0.5,0,-5.55112e-17
0.15726,-0.433013,-0.097355
0.34274,-0.433013,0.097355
0.25,-0.433013,-5.55112e-17
0.12681,-0.322508,0.19471
-0.4659,0.161947,0.19471
-0.157305,-0.0514332,0.19471
0.4659,-0.161947,0.19471
0.157305,0.0514332,0.19471
-0.12681,0.322508,0.19471
-0.34274,0.433013,-0.097355
0.546365,-0.0803065,-0.097355
0.453635,0.0803065,0.097355
-0.15726,0.433013,0.097355
-0.5,5.55112e-17,0.19471
0,5.55112e-17,0.19471
0.5,0,-5.55112e-17
-0.25,0.433013,-5.55112e-17
-0.25,0.433013,0.19471
connectivity
0,10
2,9
1,6
4,13
3,11
5,7
3,4
9,10
4,9
0,12
4,12
5,12
6,8
8,9
8,11
0,14
0,15
1,16
2,17
5,18
4,19
3,20
4,21
5,22
2,23
6,24
6,25
0,26
7,27
0,28
10,29
6,30
9,31
7,32
13,33
11,34
1,35
5,36
13,37
11,38
6,39
9,40
5,41
11,42
11,43