-0.5,-0.12391,-0.37609
-0.37609,-0.12391,-0.5
-0.12391,-0.5,-0.37609
-0.12391,-0.37609,-0.5
-4.44089e-16,-0.5,-0.5
0.24925,-0.49925,-0.49925
-0.5,-2.22045e-16,-0.5
-0.49925,0.24925,-0.49925
-0.37391,0.37391,-0.5
-0.25075,0.00075,-0.49925
-0.25,0.25,-0.5
-0.25,0.37391,-0.37609
-0.12609,0.12609,-0.5
-0.12609,0.25,-0.37609
-0.12391,0.5,-0.37609
-4.44089e-16,0.37609,-0.37609
-3.33067e-16,0.5,-0.5
0.00075,-0.25075,-0.49925
0.12391,0.37609,-0.5
0.12609,-0.12609,-0.5
0.25,-0.25,-0.5
0.25,-0.12609,-0.37609
0.37391,-0.37391,-0.5
0.37391,-0.25,-0.37609
0.37609,-2.22045e-16,-0.37609
0.37609,0.12391,-0.5
0.5,-0.12391,-0.37609
0.5,-2.22045e-16,-0.5
-0.5,-0.5,0
-0.5,-0.37609,-0.12391
-0.49925,-0.49925,0.24925
-0.37609,-0.5,-0.12391
-0.5,-0.37391,0.37391
-0.5,-0.25,0.25
-0.5,-0.12609,0.12609
-0.5,0.12391,0.37609
-0.5,0.12609,-0.12609
-0.5,0.25,-0.25
-0.5,0.37391,-0.37391
-0.5,0.37609,0.12391
-0.5,0.5,0
-0.49925,-0.25075,0.00075
-0.49925,0.00075,-0.25075
-0.37609,-0.25,0.37391
-0.37609,-0.12609,0.25
-0.37609,-0.12391,0.5
-0.37609,-2.22045e-16,0.37609
-0.37609,0.25,-0.12609
-0.37609,0.37391,-0.25
-0.37609,0.37609,0
-0.37609,0.5,-0.12391
-0.37391,-0.5,0.37391
-0.25075,-0.49925,0.00075
-0.25,-0.5,0.25
-0.25,-0.37609,0.37391
-0.12609,-0.5,0.12609
-0.12609,-0.37609,0.25
-0.12391,-0.37609,0.5
-3.33067e-16,-0.5,0.5
-4.44089e-16,-0.37609,0.37609
0.00075,-0.49925,-0.25075
0.12391,-0.5,0.37609
0.12609,-0.5,-0.12609
0.25,-0.5,-0.25
0.25,-0.37609,-0.12609
0.37391,-0.5,-0.37391
0.37391,-0.37609,-0.25
0.37609,-0.5,0.12391
0.37609,-0.37609,0
0.5,-0.5,0
0.5,-0.37609,-0.12391
-0.5,-1.11022e-16,0.5
-0.37391,-0.25,-0.12391
-0.37391,-0.12609,0
-0.37391,-0.12391,-0.25
-0.37391,-2.22045e-16,-0.12609
-0.37391,0.25,0.37609
-0.37391,0.37391,0.5
-0.37391,0.37609,0.25
-0.37391,0.5,0.37391
-0.25075,-0.25075,0.24925
-0.25075,0.24925,-0.25075
-0.25,-0.37391,-0.12391
-0.25,-0.25,0
-0.25,-0.12609,0.12391
-0.25,-0.12391,-0.37391
-0.25,-2.22045e-16,-0.25
-0.25,0.12391,-0.12609
-0.25,0.12609,0.37609
-0.25,0.25,0.5
-0.25,0.37609,0.12609
-0.25,0.5,0.25
-0.24925,-0.24925,-0.24925
-0.24925,-0.00075,-0.00075
-0.24925,0.25075,0.25075
-0.24925,0.49925,0.49925
-0.12609,-0.37391,0
-0.12609,-0.25,0.12391
-0.12609,-2.22045e-16,-0.37391
-0.12609,0.12391,-0.25
-0.12609,0.12609,0.5
-0.12609,0.5,0.12609
-0.12391,-0.37391,-0.25
-0.12391,-0.25,-0.37391
-0.12391,-2.22045e-16,0.12391
-0.12391,0.12391,0
-0.12391,0.12609,0.25
-0.12391,0.25,0.12609
-0.00075,-0.24925,-0.00075
-0.00075,-0.00075,-0.24925
-0.00075,0.25075,0.49925
-0.00075,0.49925,0.25075
-4.44089e-16,-0.37391,-0.12609
-4.44089e-16,-0.25,-0.25
-4.44089e-16,-0.12609,-0.37391
-4.44089e-16,-0.12391,0.12391
-4.44089e-16,-2.22045e-16,0
-4.44089e-16,0.12391,-0.12391
-4.44089e-16,0.12609,0.37391
-4.44089e-16,0.25,0.25
-4.44089e-16,0.37391,0.12609
-2.22045e-16,0.5,0.5
0.00075,0.00075,0.24925
0.00075,0.24925,0.00075
0.12391,-0.25,-0.12609
0.12391,-0.12609,-0.25
0.12391,-0.12391,0
0.12391,-2.22045e-16,-0.12391
0.12391,0.25,0.37391
0.12391,0.37391,0.25
0.12391,0.37609,0.5
0.12391,0.5,0.37609
0.12609,-0.25,0.37609
0.12609,-0.12609,0.5
0.12609,-0.12391,0.25
0.12609,-2.22045e-16,0.37391
0.12609,0.25,-0.12391
0.12609,0.37391,0
0.12609,0.37609,-0.25
0.12609,0.5,-0.12609
0.24925,-0.25075,-0.25075
0.24925,0.00075,0.00075
0.24925,0.24925,0.24925
0.25,-0.37391,0.37609
0.25,-0.25,0.5
0.25,-0.12391,0.12609
0.25,-2.22045e-16,0.25
0.25,0.12391,0.37391
0.25,0.12609,-0.12391
0.25,0.25,0
0.25,0.37391,0.12391
0.25,0.37609,-0.37391
0.25,0.5,-0.25
0.25075,-0.24925,0.25075
0.25075,-0.00075,0.49925
0.25075,0.25075,-0.24925
0.25075,0.49925,-0.00075
0.37391,-0.37391,0.5
0.37391,-2.22045e-16,0.12609
0.37391,0.12391,0.25
0.37391,0.12609,0
0.37391,0.25,0.12391
0.37391,0.5,-0.37391
0.37609,-0.37391,0.25
0.37609,-0.25,0.12609
0.37609,0.12391,0.5
0.37609,0.12609,-0.25
0.37609,0.25,-0.37391
0.37609,0.5,0.12391
0.49925,-0.24925,0.49925
0.49925,-0.00075,0.25075
0.49925,0.25075,-0.00075
0.49925,0.49925,-0.24925
0.5,-0.37391,0.37391
0.5,-0.25,0.25
0.5,-0.12609,0.12609
0.5,0.12391,0.37609
0.5,0.12609,-0.12609
0.5,0.25,-0.25
0.5,0.37391,-0.37391
0.5,0.37609,0.12391
0.5,0.5,0
0.5,-1.11022e-16,0.5
0.2485,-0.49925,-0.5
-0.49925,0.2485,-0.5
-0.2515,0.00075,-0.5
0.00075,-0.2515,-0.5
-0.25075,0.0015,-0.5
0.0015,-0.25075,-0.5
-0.4985,0.24925,-0.5
0.24925,-0.4985,-0.5
-0.0015,0.25075,-0.5
-0.00075,0.2515,-0.5
0.25075,-0.0015,-0.5
0.2515,-0.00075,-0.5
-0.24925,0.4985,-0.5
-0.2485,0.49925,-0.5
0.4985,-0.24925,-0.5
0.49925,-0.2485,-0.5
-0.5,-0.49925,0.2485
-0.5,0.2485,-0.49925
-0.5,-0.2515,0.00075
-0.5,0.00075,-0.2515
-0.5,-0.25075,0.0015
-0.5,0.0015,-0.25075
-0.5,-0.4985,0.24925
-0.5,0.24925,-0.4985
-0.5,-0.0015,0.25075
-0.5,-0.00075,0.2515
-0.5,0.25075,-0.0015
-0.5,0.2515,-0.00075
-0.5,-0.24925,0.4985
-0.5,-0.2485,0.49925
-0.5,0.4985,-0.24925
-0.5,0.49925,-0.2485
-0.49925,-0.5,0.2485
0.2485,-0.5,-0.49925
-0.2515,-0.5,0.00075
0.00075,-0.5,-0.2515
-0.25075,-0.5,0.0015
0.0015,-0.5,-0.25075
-0.4985,-0.5,0.24925
0.24925,-0.5,-0.4985
-0.0015,-0.5,0.25075
-0.00075,-0.5,0.2515
0.25075,-0.5,-0.0015
0.2515,-0.5,-0.00075
-0.24925,-0.5,0.4985
-0.2485,-0.5,0.49925
0.4985,-0.5,-0.24925
0.49925,-0.5,-0.2485
0.2485,-0.49925,0.5
0.5,-0.49925,0.2485
-0.49925,0.2485,0.5
-0.49925,0.5,0.2485
0.2485,0.5,-0.49925
0.5,0.2485,-0.49925
-0.2515,0.00075,0.5
-0.2515,0.5,0.00075
0.00075,-0.2515,0.5
0.00075,0.5,-0.2515
0.5,-0.2515,0.00075
0.5,0.00075,-0.2515
-0.25075,0.0015,0.5
-0.25075,0.5,0.0015
0.0015,-0.25075,0.5
0.0015,0.5,-0.25075
0.5,-0.25075,0.0015
0.5,0.0015,-0.25075
-0.4985,0.24925,0.5
-0.4985,0.5,0.24925
0.24925,-0.4985,0.5
0.24925,0.5,-0.4985
0.5,-0.4985,0.24925
0.5,0.24925,-0.4985
-0.0015,0.25075,0.5
-0.00075,0.2515,0.5
-0.0015,0.5,0.25075
-0.00075,0.5,0.2515
0.25075,-0.0015,0.5
0.2515,-0.00075,0.5
0.25075,0.5,-0.0015
0.2515,0.5,-0.00075
0.5,-0.0015,0.25075
0.5,-0.00075,0.2515
0.5,0.25075,-0.0015
0.5,0.2515,-0.00075
-0.24925,0.4985,0.5
-0.24925,0.5,0.4985
-0.2485,0.49925,0.5
-0.2485,0.5,0.49925
0.4985,-0.24925,0.5
0.5,-0.24925,0.4985
0.49925,-0.2485,0.5
0.5,-0.2485,0.49925
0.4985,0.5,-0.24925
0.5,0.4985,-0.24925
0.49925,0.5,-0.2485
0.5,0.49925,-0.2485
connectivity
28,29
28,31
3,4
2,4
53,55
62,63
51,53
53,56
53,54
63,65
63,64
63,66
58,61
67,69
31,52
2,60
52,55
60,62
30,51
5,65
0,6
1,6
33,34
36,37
10,12
19,20
32,33
33,44
33,43
37,38
37,47
37,48
8,10
10,13
10,11
20,22
20,21
20,23
35,71
39,40
16,18
25,27
40,49
40,50
15,16
14,16
72,83
74,86
82,83
85,86
102,113
103,113
73,83
83,96
83,84
83,97
75,86
86,98
86,87
86,99
112,113
113,114
113,124
113,125
104,116
105,116
115,116
116,117
116,126
116,127
46,71
58,59
68,69
24,27
106,119
107,119
134,146
136,149
145,146
148,149
88,89
90,91
132,144
138,152
164,174
166,178
76,89
78,91
143,144
151,152
163,174
167,178
118,119
119,120
119,128
119,129
135,146
146,158
146,147
146,159
137,149
149,160
149,150
149,161
91,101
139,152
79,91
152,162
121,131
168,181
29,41
0,42
1,9
3,17
34,41
36,42
9,12
17,19
30,32
7,38
7,8
5,22
72,92
74,92
82,92
85,92
92,102
92,103
41,72
42,74
52,82
9,85
60,102
17,103
41,73
42,75
52,96
9,98
60,112
17,114
73,93
75,93
96,108
98,109
108,112
109,114
84,93
87,93
93,104
93,105
97,108
108,124
108,115
108,126
99,109
109,125
109,117
109,127
80,84
81,87
80,97
81,99
124,140
125,140
44,80
56,80
43,80
54,80
47,81
13,81
48,81
11,81
64,140
21,140
66,140
23,140
104,122
105,123
115,122
117,123
126,141
127,141
106,122
122,134
118,122
122,135
107,123
123,136
120,123
123,137
141,145
141,148
141,158
141,160
94,106
94,107
134,153
136,155
145,153
148,155
88,94
90,94
76,94
78,94
132,153
153,164
143,153
153,163
138,155
155,166
151,155
155,167
110,118
111,120
135,154
137,156
158,170
160,171
101,111
139,156
128,142
129,142
142,147
142,150
142,159
142,161
110,128
111,129
147,154
150,156
159,170
161,171
79,95
162,172
100,110
110,130
111,131
133,154
154,165
156,168
170,175
170,176
171,177
171,180
77,95
157,169
169,173
172,179
69,70
26,27
174,175
177,178
173,174
178,179
176,182
180,181
57,58
45,71
89,100
133,144
77,89
144,157
121,130
165,182
5,183
7,184
9,185
17,186
9,187
17,188
7,189
5,190
13,191
15,192
21,193
24,194
11,195
14,196
23,197
26,198
30,199
7,200
41,201
42,202
41,203
42,204
30,205
7,206
44,207
46,208
47,209
49,210
43,211
45,212
48,213
50,214
30,215
5,216
52,217
60,218
52,219
60,220
30,221
5,222
56,223
59,224
64,225
68,226
54,227
57,228
66,229
70,230
61,231
67,232
35,233
39,234
18,235
25,236
46,237
49,238
59,239
15,240
68,241
24,242
88,243
90,244
132,245
138,246
164,247
166,248
76,249
78,250
143,251
151,252
163,253
167,254
110,255
110,256
111,257
111,258
154,259
154,260
156,261
156,262
170,263
170,264
171,265
171,266
95,267
95,268
95,269
95,270
169,271
169,272
169,273
169,274
172,275
172,276
172,277
172,278