-0.47342,-0.47342,-0.5
-0.47342,0.47342,-0.5
-0.47342,-1.11022e-16,-0.5
-0.23671,-0.338429,-0.5
-0.23671,0.134991,-0.5
0,-0.47342,-0.5
5.55112e-17,-1.11022e-16,-0.5
0.23671,-0.134991,-0.5
0.23671,0.338429,-0.5
0.47342,0.47342,-0.5
5.55112e-17,0.47342,-0.5
0.47342,-1.11022e-16,-0.5
-0.47342,-0.47342,0.5
-0.47342,-0.47342,0
-0.47342,-5.55112e-17,0
-0.47342,0.47342,0
-0.371701,-0.47342,-0.25
-0.101719,-0.47342,0.25
5.55112e-17,-0.47342,0
0.101719,-0.47342,-0.25
0.371701,-0.47342,0.25
0.47342,-0.47342,0.5
-0.47342,-5.55112e-17,0.5
-0.460259,-0.249871,-0.375
-0.460259,-0.223549,0.125
-0.460259,0.223549,0.375
-0.460259,0.249871,-0.125
-0.371701,-5.55112e-17,0.25
-0.371701,0.47342,-0.25
-0.23671,-0.338429,0.5
-0.23671,-0.23671,-0.25
-0.23671,-0.23671,0.25
-0.23671,-0.134991,0
-0.23671,0.134991,0.5
-0.23671,0.23671,-0.25
-0.23671,0.23671,0.25
-0.23671,0.338429,0
-0.101719,-1.11022e-16,-0.25
-0.101719,0.47342,0.25
-0.0131611,-0.249871,0.375
-0.0131611,-0.223549,-0.125
-0.0131611,0.223549,-0.375
-0.0131611,0.249871,0.125
5.55112e-17,-0.47342,0.5
1.11022e-16,-5.55112e-17,0
1.11022e-16,-5.55112e-17,0.5
1.11022e-16,0.47342,0
0.0131611,-0.249871,-0.125
0.0131611,-0.223549,0.375
0.0131611,0.223549,0.125
0.0131611,0.249871,-0.375
0.101719,-5.55112e-17,0.25
0.101719,0.47342,-0.25
0.23671,-0.338429,0
0.23671,-0.23671,-0.25
0.23671,-0.23671,0.25
0.23671,-0.134991,0.5
0.23671,0.134991,0
0.23671,0.23671,-0.25
0.23671,0.23671,0.25
0.23671,0.338429,0.5
0.371701,-1.11022e-16,-0.25
0.371701,0.47342,0.25
0.460259,-0.249871,0.125
0.460259,-0.223549,-0.375
0.460259,0.223549,-0.125
0.460259,0.249871,0.375
0.47342,-0.47342,0
0.47342,-5.55112e-17,0
0.47342,0.47342,0.5
1.11022e-16,0.47342,0.5
0.47342,0.47342,0
0.47342,-5.55112e-17,0.5
connectivity
0,23
14,24
18,47
6,41
23,30
30,40
40,44
24,31
47,54
31,39
26,34
34,41
54,64
15,26
44,49
10,50
50,58
39,43
11,64
48,55
45,48
35,42
25,35
55,63
58,65
49,59
42,46
22,25
63,67
65,68
59,66
66,69
0,16
13,16
5,19
3,30
18,19
4,34
14,27
17,18
6,37
7,54
17,43
8,58
20,67
20,21
30,32
31,32
37,44
29,31
34,36
53,54
44,51
22,27
53,55
35,36
11,61
61,68
45,51
33,35
55,56
57,58
57,59
59,60
0,3
2,4
3,5
16,30
19,54
4,6
14,32
18,53
6,7
7,11
17,31
8,10
8,9
20,55
30,37
32,44
34,37
27,31
28,34
54,61
44,57
27,35
53,67
15,36
36,46
58,61
51,55
51,59
35,38
52,58
57,68
59,62
16,23
3,23
19,47
4,41
7,64
17,39
8,50
20,63
32,40
24,32
37,40
24,27
47,53
37,41
26,36
26,28
25,27
53,63
50,52
36,42
29,39
61,64
48,51
48,56
61,65
49,51
49,57
38,42
57,65
25,33
60,66
62,66
1,28
15,28
10,52
46,52
38,46
38,70
62,71
62,69
12,29
22,33
29,43
33,45
45,56
56,72
60,70
60,69