-0.35191,-1.11022e-16,-0.5
-0.35121,-0.35121,-0.5
-0.35121,0.35121,-0.5
-1.11022e-16,-0.35191,-0.5
0.35121,-0.35121,-0.5
-1.11022e-16,0.35191,-0.5
0.35121,0.35121,-0.5
0.35191,-1.11022e-16,-0.5
-0.5,-0.35191,-1.11022e-16
-0.5,-0.35121,-0.35121
-0.5,-0.35121,0.35121
-0.5,-1.11022e-16,-0.35191
-0.5,0.35121,-0.35121
-0.5,0.35121,0.35121
-0.5,0.35191,-1.11022e-16
-0.35191,-0.5,-1.11022e-16
-0.35121,-0.5,-0.35121
-0.35121,-0.5,0.35121
-1.11022e-16,-0.5,-0.35191
0.35121,-0.5,-0.35121
-0.5,-0.20196,-0.20196
-0.5,-0.20196,0.20196
-0.5,-0.14261,-1.11022e-16
-0.5,-1.11022e-16,-0.14261
-0.5,-1.11022e-16,0.14261
-0.5,-1.11022e-16,0.35191
-0.5,0.14261,-1.11022e-16
-0.5,0.20196,-0.20196
-0.5,0.20196,0.20196
-0.35191,0,0.5
-0.35191,0.5,-1.11022e-16
-0.35121,-0.35121,0.5
-0.35121,0.35121,0.5
-0.35121,0.5,-0.35121
-0.35121,0.5,0.35121
-0.20196,-0.5,-0.20196
-0.20196,-0.5,0.20196
-0.20196,-0.20196,-0.5
-0.20196,0.20196,-0.5
-0.14261,-0.5,-1.11022e-16
-0.14261,-1.11022e-16,-0.5
-1.11022e-16,-0.5,-0.14261
-1.11022e-16,-0.5,0.14261
-1.11022e-16,-0.5,0.35191
0,-0.35191,0.5
-1.11022e-16,-0.14261,-0.5
-1.11022e-16,0.14261,-0.5
0,0.5,-0.35191
0.14261,-0.5,-1.11022e-16
0.14261,-1.11022e-16,-0.5
0.20196,-0.5,-0.20196
0.20196,-0.5,0.20196
0.20196,-0.20196,-0.5
0.20196,0.20196,-0.5
0.35121,-0.5,0.35121
0.35121,-0.35121,0.5
0.35121,0.5,-0.35121
0.35191,-0.5,-1.11022e-16
0.5,-0.35191,-1.11022e-16
0.5,-0.35121,-0.35121
0.5,-0.35121,0.35121
0.5,-1.11022e-16,-0.35191
0.5,0.35121,-0.35121
-0.20196,0.5,-0.20196
-0.20196,0.5,0.20196
-0.14261,0.5,-1.11022e-16
0,0.35191,0.5
0,0.5,-0.14261
0,0.5,0.14261
0,0.5,0.35191
0.14261,0.5,-1.11022e-16
0.20196,0.5,-0.20196
0.20196,0.5,0.20196
0.35121,0.35121,0.5
0.35121,0.5,0.35121
0.35191,0.5,-1.11022e-16
0.5,0.35121,0.35121
0.5,0.35191,-1.11022e-16
0.35191,0,0.5
0.5,-0.20196,-0.20196
0.5,-0.20196,0.20196
0.5,-0.14261,-1.11022e-16
0.5,-1.11022e-16,-0.14261
0.5,-1.11022e-16,0.14261
0.5,-1.11022e-16,0.35191
0.5,0.14261,-1.11022e-16
0.5,0.20196,-0.20196
0.5,0.20196,0.20196
-0.20196,-0.20196,0.5
-0.20196,0.20196,0.5
-0.14261,0,0.5
0,-0.14261,0.5
0,0.14261,0.5
0.14261,0,0.5
0.20196,-0.20196,0.5
0.20196,0.20196,0.5
connectivity
8,22
11,23
15,39
0,40
18,41
3,45
24,25
14,26
42,43
5,46
48,57
7,49
8,15
0,11
3,18
25,29
14,30
43,44
5,47
57,58
7,61
9,20
16,35
1,37
10,21
12,27
17,36
2,38
19,50
4,52
13,28
51,54
6,53
20,22
20,23
35,39
35,41
37,40
37,45
21,22
23,27
36,39
38,40
41,50
45,52
21,24
26,27
36,42
38,46
48,50
49,52
24,28
26,28
42,51
46,53
48,51
49,53
9,16
1,9
1,16
10,17
10,31
2,12
12,33
17,31
2,33
4,19
19,59
4,59
13,32
13,34
54,55
54,60
6,56
6,62
30,65
47,67
68,69
70,75
66,69
75,77
33,63
34,64
56,71
72,74
63,65
63,67
64,65
67,71
64,68
70,71
68,72
70,72
32,34
56,62
73,74
74,76
58,81
61,82
83,84
77,85
78,84
59,79
60,80
62,86
76,87
79,81
79,82
80,81
82,86
80,83
85,86
83,87
85,87
55,60
73,76
29,90
44,91
66,92
78,93
31,88
32,89
55,94
73,95
88,90
88,91
89,90
91,94
89,92
93,94
92,95
93,95