-0.30636,-0.25006,-0.46018
-0.30636,0.25006,-0.46018
-0.25006,-0.30636,-0.46018
-0.25006,0.30636,-0.46018
-0.24994,-0.19364,-0.46018
-0.24994,0.19364,-0.46018
-0.19364,-0.24994,-0.46018
-0.19364,0.24994,-0.46018
0.19364,-0.24994,-0.46018
0.19364,0.24994,-0.46018
0.24994,-0.19364,-0.46018
0.24994,0.19364,-0.46018
0.25006,-0.30636,-0.46018
0.25006,0.30636,-0.46018
0.30636,-0.25006,-0.46018
0.30636,0.25006,-0.46018
-0.46018,-0.30636,-0.25006
-0.46018,-0.30636,0.25006
-0.46018,-0.25006,-0.30636
-0.46018,-0.25006,0.30636
-0.46018,-0.24994,-0.19364
-0.46018,-0.24994,0.19364
-0.46018,-0.19364,-0.24994
-0.46018,-0.19364,0.24994
-0.46018,0.19364,-0.24994
-0.46018,0.19364,0.24994
-0.46018,0.24994,-0.19364
-0.46018,0.24994,0.19364
-0.46018,0.25006,-0.30636
-0.46018,0.25006,0.30636
-0.46018,0.30636,-0.25006
-0.46018,0.30636,0.25006
-0.30636,-0.46018,-0.25006
-0.30636,-0.46018,0.25006
-0.25006,-0.46018,-0.30636
-0.25006,-0.46018,0.30636
-0.24994,-0.46018,-0.19364
-0.24994,-0.46018,0.19364
-0.19364,-0.46018,-0.24994
-0.19364,-0.46018,0.24994
0.19364,-0.46018,-0.24994
0.19364,-0.46018,0.24994
0.24994,-0.46018,-0.19364
0.24994,-0.46018,0.19364
0.25006,-0.46018,-0.30636
0.25006,-0.46018,0.30636
0.30636,-0.46018,-0.25006
0.30636,-0.46018,0.25006
-0.39523,-0.3389,-0.2174
-0.39523,-0.3389,0.2174
-0.39523,-0.2826,-0.1611
-0.39523,-0.2826,0.1611
-0.39523,-0.2174,-0.3389
-0.39523,-0.2174,0.3389
-0.39523,-0.1611,-0.2826
-0.39523,-0.1611,0.2826
-0.39523,0.1611,-0.2826
-0.39523,0.1611,0.2826
-0.39523,0.2174,-0.3389
-0.39523,0.2174,0.3389
-0.39523,0.2826,-0.1611
-0.39523,0.2826,0.1611
-0.39523,0.3389,-0.2174
-0.39523,0.3389,0.2174
-0.3389,-0.39523,-0.2174
-0.3389,-0.39523,0.2174
-0.3389,-0.2826,-0.10477
-0.3389,-0.2826,0.10477
-0.3389,-0.2174,-0.39523
-0.3389,-0.2174,0.39523
-0.3389,-0.10477,-0.2826
-0.3389,-0.10477,0.2826
-0.3389,0.10477,-0.2826
-0.3389,0.10477,0.2826
-0.3389,0.2174,-0.39523
-0.3389,0.2174,0.39523
-0.3389,0.2826,-0.10477
-0.3389,0.2826,0.10477
-0.3389,0.39523,-0.2174
-0.3389,0.39523,0.2174
-0.30636,-0.25006,0.46018
-0.30636,-0.24994,-0.03982
-0.30636,-0.24994,0.03982
-0.30636,-0.03982,-0.24994
-0.30636,-0.03982,0.24994
-0.30636,0.03982,-0.24994
-0.30636,0.03982,0.24994
-0.30636,0.24994,-0.03982
-0.30636,0.24994,0.03982
-0.30636,0.25006,0.46018
-0.30636,0.46018,-0.25006
-0.30636,0.46018,0.25006
-0.2826,-0.39523,-0.1611
-0.2826,-0.39523,0.1611
-0.2826,-0.3389,-0.10477
-0.2826,-0.3389,0.10477
-0.2826,-0.1611,-0.39523
-0.2826,-0.1611,0.39523
-0.2826,-0.10477,-0.3389
-0.2826,-0.10477,0.3389
-0.2826,0.10477,-0.3389
-0.2826,0.10477,0.3389
-0.2826,0.1611,-0.39523
-0.2826,0.1611,0.39523
-0.2826,0.3389,-0.10477
-0.2826,0.3389,0.10477
-0.2826,0.39523,-0.1611
-0.2826,0.39523,0.1611
-0.25006,-0.30636,0.46018
-0.25006,-0.19364,-0.03982
-0.25006,-0.19364,0.03982
-0.25006,-0.03982,-0.19364
-0.25006,-0.03982,0.19364
-0.25006,0.03982,-0.19364
-0.25006,0.03982,0.19364
-0.25006,0.19364,-0.03982
-0.25006,0.19364,0.03982
-0.25006,0.30636,0.46018
-0.25006,0.46018,-0.30636
-0.25006,0.46018,0.30636
-0.24994,-0.30636,-0.03982
-0.24994,-0.30636,0.03982
-0.24994,-0.19364,0.46018
-0.24994,-0.03982,-0.30636
-0.24994,-0.03982,0.30636
-0.24994,0.03982,-0.30636
-0.24994,0.03982,0.30636
-0.24994,0.19364,0.46018
-0.24994,0.30636,-0.03982
-0.24994,0.30636,0.03982
-0.24994,0.46018,-0.19364
-0.24994,0.46018,0.19364
-0.2174,-0.39523,-0.3389
-0.2174,-0.39523,0.3389
-0.2174,-0.3389,-0.39523
-0.2174,-0.3389,0.39523
-0.2174,-0.1611,-0.10477
-0.2174,-0.1611,0.10477
-0.2174,-0.10477,-0.1611
-0.2174,-0.10477,0.1611
-0.2174,0.10477,-0.1611
-0.2174,0.10477,0.1611
-0.2174,0.1611,-0.10477
-0.2174,0.1611,0.10477
-0.2174,0.3389,-0.39523
-0.2174,0.3389,0.39523
-0.2174,0.39523,-0.3389
-0.2174,0.39523,0.3389
-0.19364,-0.25006,-0.03982
-0.19364,-0.25006,0.03982
-0.19364,-0.24994,0.46018
-0.19364,-0.03982,-0.25006
-0.19364,-0.03982,0.25006
-0.19364,0.03982,-0.25006
-0.19364,0.03982,0.25006
-0.19364,0.24994,0.46018
-0.19364,0.25006,-0.03982
-0.19364,0.25006,0.03982
-0.19364,0.46018,-0.24994
-0.19364,0.46018,0.24994
-0.1611,-0.39523,-0.2826
-0.1611,-0.39523,0.2826
-0.1611,-0.2826,-0.39523
-0.1611,-0.2826,0.39523
-0.1611,-0.2174,-0.10477
-0.1611,-0.2174,0.10477
-0.1611,-0.10477,-0.2174
-0.1611,-0.10477,0.2174
-0.1611,0.10477,-0.2174
-0.1611,0.10477,0.2174
-0.1611,0.2174,-0.10477
-0.1611,0.2174,0.10477
-0.1611,0.2826,-0.39523
-0.1611,0.2826,0.39523
-0.1611,0.39523,-0.2826
-0.1611,0.39523,0.2826
-0.10477,-0.3389,-0.2826
-0.10477,-0.3389,0.2826
-0.10477,-0.2826,-0.3389
-0.10477,-0.2826,0.3389
-0.10477,-0.2174,-0.1611
-0.10477,-0.2174,0.1611
-0.10477,-0.1611,-0.2174
-0.10477,-0.1611,0.2174
-0.10477,0.1611,-0.2174
-0.10477,0.1611,0.2174
-0.10477,0.2174,-0.1611
-0.10477,0.2174,0.1611
-0.10477,0.2826,-0.3389
-0.10477,0.2826,0.3389
-0.10477,0.3389,-0.2826
-0.10477,0.3389,0.2826
-0.03982,-0.30636,-0.24994
-0.03982,-0.30636,0.24994
-0.03982,-0.25006,-0.19364
-0.03982,-0.25006,0.19364
-0.03982,-0.24994,-0.30636
-0.03982,-0.24994,0.30636
-0.03982,-0.19364,-0.25006
-0.03982,-0.19364,0.25006
-0.03982,0.19364,-0.25006
-0.03982,0.19364,0.25006
-0.03982,0.24994,-0.30636
-0.03982,0.24994,0.30636
-0.03982,0.25006,-0.19364
-0.03982,0.25006,0.19364
-0.03982,0.30636,-0.24994
-0.03982,0.30636,0.24994
0.03982,-0.30636,-0.24994
0.03982,-0.30636,0.24994
0.03982,-0.25006,-0.19364
0.03982,-0.25006,0.19364
0.03982,-0.24994,-0.30636
0.03982,-0.24994,0.30636
0.03982,-0.19364,-0.25006
0.03982,-0.19364,0.25006
0.03982,0.19364,-0.25006
0.03982,0.19364,0.25006
0.03982,0.24994,-0.30636
0.03982,0.24994,0.30636
0.03982,0.25006,-0.19364
0.03982,0.25006,0.19364
0.03982,0.30636,-0.24994
0.03982,0.30636,0.24994
0.10477,-0.3389,-0.2826
0.10477,-0.3389,0.2826
0.10477,-0.2826,-0.3389
0.10477,-0.2826,0.3389
0.10477,-0.2174,-0.1611
0.10477,-0.2174,0.1611
0.10477,-0.1611,-0.2174
0.10477,-0.1611,0.2174
0.10477,0.1611,-0.2174
0.10477,0.1611,0.2174
0.10477,0.2174,-0.1611
0.10477,0.2174,0.1611
0.10477,0.2826,-0.3389
0.10477,0.2826,0.3389
0.10477,0.3389,-0.2826
0.10477,0.3389,0.2826
0.1611,-0.39523,-0.2826
0.1611,-0.39523,0.2826
0.1611,-0.2826,-0.39523
0.1611,-0.2826,0.39523
0.1611,-0.2174,-0.10477
0.1611,-0.2174,0.10477
0.1611,-0.10477,-0.2174
0.1611,-0.10477,0.2174
0.1611,0.10477,-0.2174
0.1611,0.10477,0.2174
0.1611,0.2174,-0.10477
0.1611,0.2174,0.10477
0.1611,0.2826,-0.39523
0.1611,0.2826,0.39523
0.1611,0.39523,-0.2826
0.1611,0.39523,0.2826
0.19364,-0.25006,-0.03982
0.19364,-0.25006,0.03982
0.19364,-0.24994,0.46018
0.19364,-0.03982,-0.25006
0.19364,-0.03982,0.25006
0.19364,0.03982,-0.25006
0.19364,0.03982,0.25006
0.19364,0.24994,0.46018
0.19364,0.25006,-0.03982
0.19364,0.25006,0.03982
0.19364,0.46018,-0.24994
0.19364,0.46018,0.24994
0.2174,-0.39523,-0.3389
0.2174,-0.39523,0.3389
0.2174,-0.3389,-0.39523
0.2174,-0.3389,0.39523
0.2174,-0.1611,-0.10477
0.2174,-0.1611,0.10477
0.2174,-0.10477,-0.1611
0.2174,-0.10477,0.1611
0.2174,0.10477,-0.1611
0.2174,0.10477,0.1611
0.2174,0.1611,-0.10477
0.2174,0.1611,0.10477
0.2174,0.3389,-0.39523
0.2174,0.3389,0.39523
0.2174,0.39523,-0.3389
0.2174,0.39523,0.3389
0.24994,-0.30636,-0.03982
0.24994,-0.30636,0.03982
0.24994,-0.19364,0.46018
0.24994,-0.03982,-0.30636
0.24994,-0.03982,0.30636
0.24994,0.03982,-0.30636
0.24994,0.03982,0.30636
0.24994,0.19364,0.46018
0.24994,0.30636,-0.03982
0.24994,0.30636,0.03982
0.24994,0.46018,-0.19364
0.24994,0.46018,0.19364
0.25006,-0.30636,0.46018
0.25006,-0.19364,-0.03982
0.25006,-0.19364,0.03982
0.25006,-0.03982,-0.19364
0.25006,-0.03982,0.19364
0.25006,0.03982,-0.19364
0.25006,0.03982,0.19364
0.25006,0.19364,-0.03982
0.25006,0.19364,0.03982
0.25006,0.30636,0.46018
0.25006,0.46018,-0.30636
0.25006,0.46018,0.30636
0.2826,-0.39523,-0.1611
0.2826,-0.39523,0.1611
0.2826,-0.3389,-0.10477
0.2826,-0.3389,0.10477
0.2826,-0.1611,-0.39523
0.2826,-0.1611,0.39523
0.2826,-0.10477,-0.3389
0.2826,-0.10477,0.3389
0.2826,0.10477,-0.3389
0.2826,0.10477,0.3389
0.2826,0.1611,-0.39523
0.2826,0.1611,0.39523
0.2826,0.3389,-0.10477
0.2826,0.3389,0.10477
0.2826,0.39523,-0.1611
0.2826,0.39523,0.1611
0.30636,-0.25006,0.46018
0.30636,-0.24994,-0.03982
0.30636,-0.24994,0.03982
0.30636,-0.03982,-0.24994
0.30636,-0.03982,0.24994
0.30636,0.03982,-0.24994
0.30636,0.03982,0.24994
0.30636,0.24994,-0.03982
0.30636,0.24994,0.03982
0.30636,0.25006,0.46018
0.30636,0.46018,-0.25006
0.30636,0.46018,0.25006
0.3389,-0.39523,-0.2174
0.3389,-0.39523,0.2174
0.3389,-0.2826,-0.10477
0.3389,-0.2826,0.10477
0.3389,-0.2174,-0.39523
0.3389,-0.2174,0.39523
0.3389,-0.10477,-0.2826
0.3389,-0.10477,0.2826
0.3389,0.10477,-0.2826
0.3389,0.10477,0.2826
0.3389,0.2174,-0.39523
0.3389,0.2174,0.39523
0.3389,0.2826,-0.10477
0.3389,0.2826,0.10477
0.3389,0.39523,-0.2174
0.3389,0.39523,0.2174
0.39523,-0.3389,-0.2174
0.39523,-0.3389,0.2174
0.39523,-0.2826,-0.1611
0.39523,-0.2826,0.1611
0.39523,-0.2174,-0.3389
0.39523,-0.2174,0.3389
0.39523,-0.1611,-0.2826
0.39523,-0.1611,0.2826
0.39523,0.1611,-0.2826
0.39523,0.1611,0.2826
0.39523,0.2174,-0.3389
0.39523,0.2174,0.3389
0.39523,0.2826,-0.1611
0.39523,0.2826,0.1611
0.39523,0.3389,-0.2174
0.39523,0.3389,0.2174
0.46018,-0.30636,-0.25006
0.46018,-0.30636,0.25006
0.46018,-0.25006,-0.30636
0.46018,-0.25006,0.30636
0.46018,-0.24994,-0.19364
0.46018,-0.24994,0.19364
0.46018,-0.19364,-0.24994
0.46018,-0.19364,0.24994
0.46018,0.19364,-0.24994
0.46018,0.19364,0.24994
0.46018,0.24994,-0.19364
0.46018,0.24994,0.19364
0.46018,0.25006,-0.30636
0.46018,0.25006,0.30636
0.46018,0.30636,-0.25006
0.46018,0.30636,0.25006
-0.30636,-0.25006,-0.5
-0.25006,-0.30636,-0.5
-0.24994,-0.19364,-0.5
-0.19364,-0.24994,-0.5
-0.24994,0.19364,-0.5
0.19364,-0.24994,-0.5
-0.30636,0.25006,-0.5
0.25006,-0.30636,-0.5
-0.19364,0.24994,-0.5
0.24994,-0.19364,-0.5
-0.25006,0.30636,-0.5
0.30636,-0.25006,-0.5
0.19364,0.24994,-0.5
0.24994,0.19364,-0.5
0.25006,0.30636,-0.5
0.30636,0.25006,-0.5
-0.5,-0.30636,-0.25006
-0.5,-0.25006,-0.30636
-0.5,-0.24994,-0.19364
-0.5,-0.19364,-0.24994
-0.5,-0.24994,0.19364
-0.5,0.19364,-0.24994
-0.5,-0.30636,0.25006
-0.5,0.25006,-0.30636
-0.5,-0.19364,0.24994
-0.5,0.24994,-0.19364
-0.5,-0.25006,0.30636
-0.5,0.30636,-0.25006
-0.5,0.19364,0.24994
-0.5,0.24994,0.19364
-0.5,0.25006,0.30636
-0.5,0.30636,0.25006
-0.30636,-0.5,-0.25006
-0.25006,-0.5,-0.30636
-0.24994,-0.5,-0.19364
-0.19364,-0.5,-0.24994
-0.24994,-0.5,0.19364
0.19364,-0.5,-0.24994
-0.30636,-0.5,0.25006
0.25006,-0.5,-0.30636
-0.19364,-0.5,0.24994
0.24994,-0.5,-0.19364
-0.25006,-0.5,0.30636
0.30636,-0.5,-0.25006
0.19364,-0.5,0.24994
0.24994,-0.5,0.19364
0.25006,-0.5,0.30636
0.30636,-0.5,0.25006
-0.30636,-0.25006,0.5
-0.30636,0.5,-0.25006
-0.25006,-0.30636,0.5
-0.25006,0.5,-0.30636
0.5,-0.30636,-0.25006
0.5,-0.25006,-0.30636
-0.24994,-0.19364,0.5
-0.24994,0.5,-0.19364
-0.19364,-0.24994,0.5
-0.19364,0.5,-0.24994
0.5,-0.24994,-0.19364
0.5,-0.19364,-0.24994
-0.24994,0.19364,0.5
-0.24994,0.5,0.19364
0.19364,-0.24994,0.5
0.19364,0.5,-0.24994
0.5,-0.24994,0.19364
0.5,0.19364,-0.24994
-0.30636,0.25006,0.5
-0.30636,0.5,0.25006
0.25006,-0.30636,0.5
0.25006,0.5,-0.30636
0.5,-0.30636,0.25006
0.5,0.25006,-0.30636
-0.19364,0.24994,0.5
-0.19364,0.5,0.24994
0.24994,-0.19364,0.5
0.24994,0.5,-0.19364
0.5,-0.19364,0.24994
0.5,0.24994,-0.19364
-0.25006,0.30636,0.5
-0.25006,0.5,0.30636
0.30636,-0.25006,0.5
0.30636,0.5,-0.25006
0.5,-0.25006,0.30636
0.5,0.30636,-0.25006
0.19364,0.24994,0.5
0.19364,0.5,0.24994
0.24994,0.19364,0.5
0.24994,0.5,0.19364
0.5,0.19364,0.24994
0.5,0.24994,0.19364
0.25006,0.30636,0.5
0.25006,0.5,0.30636
0.30636,0.25006,0.5
0.30636,0.5,0.25006
0.5,0.25006,0.30636
0.5,0.30636,0.25006
connectivity
48,64
52,68
132,134
50,66
54,70
92,94
96,98
160,176
162,178
136,138
164,180
166,182
51,67
56,72
93,95
100,102
224,240
226,242
49,65
58,74
268,270
137,139
140,142
165,181
168,184
228,244
230,246
55,71
60,76
161,177
172,188
308,310
312,314
167,183
170,186
272,274
53,69
62,78
133,135
144,146
336,352
340,356
141,143
229,245
232,248
97,99
104,106
163,179
174,190
338,354
342,358
169,185
171,187
231,247
234,250
273,275
276,278
57,73
61,77
225,241
236,252
309,311
316,318
101,103
105,107
227,243
238,254
339,355
344,360
59,75
63,79
269,271
280,282
337,353
346,362
233,249
235,251
277,279
173,189
175,191
313,315
320,322
343,359
348,364
145,147
341,357
350,366
237,253
239,255
317,319
321,323
345,361
349,365
281,283
347,363
351,367
81,82
83,85
120,121
123,125
192,208
196,212
109,110
111,113
148,149
151,153
194,210
198,214
112,114
115,116
195,211
200,216
256,257
259,261
84,86
87,88
193,209
202,218
284,285
287,289
152,154
156,157
199,215
204,220
297,298
299,301
124,126
128,129
197,213
206,222
325,326
327,329
201,217
205,221
260,262
264,265
300,302
303,304
203,219
207,223
288,290
292,293
328,330
331,332
48,50
52,54
64,92
68,96
132,160
134,162
66,94
70,98
176,178
136,164
138,166
180,182
67,95
72,100
224,226
49,51
56,58
65,93
74,102
240,268
242,270
137,165
140,168
228,230
139,167
142,170
181,183
184,186
244,272
246,274
53,55
60,62
133,161
144,172
308,336
312,340
71,99
76,104
177,179
188,190
310,338
314,342
141,169
143,171
229,231
232,234
245,273
248,276
69,97
78,106
135,163
146,174
352,354
356,358
73,101
77,105
225,227
236,238
311,339
316,344
57,59
61,63
241,269
252,280
309,337
318,346
185,187
247,275
250,278
75,103
79,107
243,271
254,282
353,355
360,362
233,235
249,277
251,279
189,191
315,343
320,348
145,173
147,175
313,341
322,350
357,359
364,366
237,239
317,345
321,349
253,281
255,283
319,347
323,351
361,363
365,367
16,18
32,34
0,2
20,22
36,38
4,6
81,109
83,111
120,148
123,151
192,194
196,198
82,110
85,113
121,149
125,153
208,210
212,214
21,23
24,26
37,39
5,7
40,42
8,10
17,19
28,30
33,35
1,3
44,46
12,14
84,112
87,115
193,195
200,202
256,284
259,287
86,114
88,116
209,211
216,218
257,285
261,289
124,152
128,156
197,199
204,206
297,325
299,327
126,154
129,157
213,215
220,222
298,326
301,329
80,108
90,118
368,370
25,27
41,43
9,11
122,150
130,158
372,374
29,31
45,47
13,15
201,203
205,207
260,288
264,292
300,328
303,331
217,219
221,223
262,290
265,293
302,330
304,332
127,155
131,159
258,286
266,294
373,375
376,378
89,117
91,119
296,324
306,334
369,371
380,382
263,291
267,295
377,379
305,333
307,335
381,383
16,48
18,52
32,64
0,68
34,132
2,134
20,50
22,54
36,92
4,96
38,160
6,162
66,81
70,83
94,120
98,123
176,192
178,196
109,136
111,138
148,164
151,166
180,194
182,198
67,82
72,85
95,121
100,125
208,224
212,226
110,137
113,140
149,165
153,168
210,228
214,230
21,51
24,56
37,93
5,102
40,240
8,242
17,49
28,58
33,65
1,74
44,268
12,270
23,55
26,60
39,161
7,172
42,308
10,312
112,139
115,142
181,195
184,200
244,256
246,259
19,53
30,62
35,133
3,144
46,336
14,340
152,167
156,170
183,199
186,204
272,297
274,299
71,84
76,87
177,193
188,202
284,310
287,314
114,141
116,143
211,229
216,232
245,257
248,261
73,86
77,88
209,225
218,236
285,311
289,316
99,124
104,128
179,197
190,206
325,338
327,342
69,80
78,90
108,135
118,146
352,368
356,370
154,169
157,171
215,231
220,234
273,298
276,301
97,122
106,130
150,163
158,174
354,372
358,374
101,126
105,129
213,227
222,238
326,339
329,344
25,57
27,61
41,241
9,252
43,309
11,318
185,201
187,205
247,260
250,264
275,300
278,303
29,59
31,63
45,269
13,280
47,337
15,346
103,127
107,131
243,258
254,266
355,373
360,376
217,233
221,235
249,262
251,265
277,302
279,304
75,89
79,91
271,296
282,306
353,369
362,380
189,203
191,207
288,315
292,320
328,343
331,348
219,237
223,239
290,317
293,321
330,345
332,349
155,173
159,175
286,313
294,322
359,375
364,378
117,145
119,147
324,341
334,350
357,371
366,382
253,263
255,267
291,319
295,323
361,377
365,379
281,305
283,307
333,347
335,351
363,381
367,383
0,384
2,385
4,386
6,387
5,388
8,389
1,390
12,391
7,392
10,393
3,394
14,395
9,396
11,397
13,398
15,399
16,400
18,401
20,402
22,403
21,404
24,405
17,406
28,407
23,408
26,409
19,410
30,411
25,412
27,413
29,414
31,415
32,416
34,417
36,418
38,419
37,420
40,421
33,422
44,423
39,424
42,425
35,426
46,427
41,428
43,429
45,430
47,431
80,432
90,433
108,434
118,435
368,436
370,437
122,438
130,439
150,440
158,441
372,442
374,443
127,444
131,445
258,446
266,447
373,448
376,449
89,450
91,451
296,452
306,453
369,454
380,455
155,456
159,457
286,458
294,459
375,460
378,461
117,462
119,463
324,464
334,465
371,466
382,467
263,468
267,469
291,470
295,471
377,472
379,473
305,474
307,475
333,476
335,477
381,478
383,479