-0.5,-0.29239,-0.35357
-0.5,0.29239,-0.35357
-0.29239,-0.5,-0.35357
0.29239,-0.5,-0.35357
-0.29239,0.5,-0.35357
0.29239,0.5,-0.35357
0.5,-0.29239,-0.35357
0.5,0.29239,-0.35357
-0.5,-0.29239,0.35357
-0.5,0.29239,0.35357
-0.29239,-0.5,0.35357
0.29239,-0.5,0.35357
-0.35327,-0.14646,-0.146237
-0.35327,-0.14646,0.146237
-0.35327,0.14646,-0.146237
-0.35327,0.14646,0.146237
-0.29239,0.5,0.35357
-0.14646,-0.35327,-0.146237
-0.14646,-0.35327,0.146237
-0.14646,0.35327,-0.146237
-0.14646,0.35327,0.146237
0.14646,-0.35327,-0.146237
0.14646,-0.35327,0.146237
0.14646,0.35327,-0.146237
0.14646,0.35327,0.146237
0.29239,0.5,0.35357
0.35327,-0.14646,-0.146237
0.35327,-0.14646,0.146237
0.35327,0.14646,-0.146237
0.35327,0.14646,0.146237
0.5,-0.29239,0.35357
0.5,0.29239,0.35357
connectivity
0,12
2,17
1,14
3,21
8,13
10,18
9,15
11,22
4,19
6,26
5,23
7,28
16,20
27,30
24,25
29,31
0,2
1,4
3,6
12,17
14,19
21,26
13,18
15,20
22,27
23,28
24,29
12,13
17,18
14,15
21,22
19,20
26,27
23,24
28,29
12,14
17,21
13,15
18,22
19,23
26,28
20,24
27,29
5,7
8,10
9,16
11,30
25,31