-0.18261,-0.25,-0.5
-0.18261,0.25,-0.5
0.18261,-0.25,-0.5
0.18261,0.25,-0.5
-0.5,-0.18261,-0.25
-0.5,-0.18261,0.25
-0.5,0.18261,-0.25
-0.5,0.18261,0.25
-0.25,-0.5,-0.18261
-0.25,-0.5,0.18261
0.25,-0.5,-0.18261
0.25,-0.5,0.18261
-0.31739,0,-0.25
-0.31739,0,0.25
-0.25,-0.31739,0
-0.25,-0.25,-0.25
-0.25,-0.25,0.25
-0.25,0.25,-0.25
-0.25,0.25,0.25
-0.25,0.31739,0
-0.25,0.5,-0.18261
-0.25,0.5,0.18261
-0.18261,-0.25,0.5
-0.18261,0.25,0.5
0,-0.25,-0.31739
0,-0.25,0.31739
0,0.25,-0.31739
0,0.25,0.31739
0.18261,-0.25,0.5
0.18261,0.25,0.5
0.25,-0.31739,0
0.25,-0.25,-0.25
0.25,-0.25,0.25
0.25,0.25,-0.25
0.25,0.25,0.25
0.25,0.31739,0
0.25,0.5,-0.18261
0.25,0.5,0.18261
0.31739,0,-0.25
0.31739,0,0.25
0.5,-0.18261,-0.25
0.5,-0.18261,0.25
0.5,0.18261,-0.25
0.5,0.18261,0.25
connectivity
4,15
8,15
0,15
6,17
9,16
2,31
5,16
1,17
10,31
7,18
3,33
11,32
12,15
14,15
15,24
12,17
14,16
24,31
13,16
16,25
16,22
17,26
17,19
17,20
30,31
31,38
31,40
13,18
26,33
30,32
18,19
25,32
33,38
18,27
18,21
18,23
32,39
28,32
32,41
33,35
33,42
33,36
27,34
34,35
34,39
29,34
34,37
34,43
4,12
8,14
0,24
6,12
9,14
2,24
5,13
1,26
10,30
7,13
3,26
11,30
19,20
19,21
22,25
25,28
38,40
38,42
23,27
27,29
35,36
35,37
39,41
39,43