-0.30038,-0.42088,-0.301841
-0.30038,0.42088,-0.301841
-0.23599,-0.23599,-0.244898
-0.23599,0.23599,-0.244898
0.23599,-0.23599,-0.244898
0.23599,0.23599,-0.244898
0.30038,-0.42088,-0.301841
0.30038,0.42088,-0.301841
-0.42088,-0.30038,-0.187954
-0.42088,-0.30038,0.187954
-0.42088,0.30038,-0.187954
-0.42088,0.30038,0.187954
-0.30038,-0.42088,0.301841
-0.30038,0.42088,0.301841
-0.23599,-0.23599,0.244897
-0.23599,0.23599,0.244897
0.23599,-0.23599,0.244897
0.30038,-0.42088,0.301841
0.42088,-0.30038,-0.187954
0.42088,-0.30038,0.187954
0.23599,0.23599,0.244897
0.30038,0.42088,0.301841
0.42088,0.30038,-0.187954
0.42088,0.30038,0.187954
-0.23599,-0.23599,-0.489795
-0.23599,0.23599,-0.489795
0.23599,-0.23599,-0.489795
0.23599,0.23599,-0.489795
-0.30038,-0.42088,-0.489795
0.30038,-0.42088,-0.489795
-0.30038,0.42088,-0.489795
0.30038,0.42088,-0.489795
-0.5,-0.23599,-0.244898
-0.5,0.23599,-0.244898
-0.5,-0.23599,0.244897
-0.5,0.23599,0.244897
-0.5,-0.28553,-0.20108
-0.5,0.28553,-0.20108
-0.5,-0.28553,0.20108
-0.5,0.28553,0.20108
-0.5,-0.42088,-0.301841
-0.5,-0.42088,0.301841
-0.5,0.42088,-0.301841
-0.5,0.42088,0.301841
-0.23599,-0.5,-0.244898
0.23599,-0.5,-0.244898
-0.23599,-0.5,0.244897
0.23599,-0.5,0.244897
-0.28553,-0.5,-0.288715
0.28553,-0.5,-0.288715
-0.28553,-0.5,0.288715
0.28553,-0.5,0.288715
-0.42088,-0.5,-0.187954
-0.42088,-0.5,0.187954
0.42088,-0.5,-0.187954
0.42088,-0.5,0.187954
-0.23599,0.5,-0.244898
0.5,-0.23599,-0.244898
0.23599,0.5,-0.244898
0.5,0.23599,-0.244898
-0.23599,0.5,0.244897
0.5,-0.23599,0.244897
0.23599,0.5,0.244897
0.5,0.23599,0.244897
-0.23599,-0.23599,0.489795
-0.23599,0.23599,0.489795
0.23599,-0.23599,0.489795
0.23599,0.23599,0.489795
-0.28553,0.5,-0.288715
0.5,-0.28553,-0.20108
0.28553,0.5,-0.288715
0.5,0.28553,-0.20108
-0.28553,0.5,0.288715
0.5,-0.28553,0.20108
0.5,0.28553,0.20108
0.28553,0.5,0.288715
0.5,-0.42088,-0.301841
-0.42088,0.5,-0.187954
-0.42088,0.5,0.187954
0.5,-0.42088,0.301841
0.5,0.42088,-0.301841
0.42088,0.5,-0.187954
0.42088,0.5,0.187954
0.5,0.42088,0.301841
-0.30038,-0.42088,0.489795
0.30038,-0.42088,0.489795
-0.30038,0.42088,0.489795
0.30038,0.42088,0.489795
connectivity
2,3
2,4
3,5
4,5
14,15
14,16
15,20
16,20
2,14
3,15
4,16
5,20
8,9
10,11
18,19
22,23
2,24
3,25
4,26
5,27
0,28
6,29
1,30
7,31
2,32
3,33
14,34
15,35
8,36
2,36
10,37
9,38
14,38
3,37
11,39
15,39
0,40
12,41
1,42
13,43
2,44
4,45
14,46
16,47
0,48
2,48
6,49
12,50
4,49
14,50
17,51
16,51
8,52
9,53
18,54
19,55
3,56
4,57
5,58
5,59
15,60
16,61
20,62
20,63
14,64
15,65
16,66
20,67
3,68
4,69
1,68
18,69
5,70
5,71
15,72
16,73
19,73
7,70
13,72
22,71
20,74
20,75
23,74
21,75
6,76
10,77
11,78
17,79
7,80
22,81
23,82
21,83
12,84
17,85
13,86
21,87