-0.476915,0,-0.314705
-0.449159,-0.16592,-0.239849
-0.449159,0.41592,-0.232208
-0.266214,-0.16592,-0.232208
-0.266214,0.41592,-0.239849
-0.238458,-0.25,-0.314705
-0.238458,0.25,-0.314705
-0.126163,-0.375,-0.236029
-0.119229,-0.125,-0.23601
-0.112294,0.125,-0.236029
-1.66533e-16,0,-0.314705
0.0277565,-0.08408,-0.232208
0.0277565,0.33408,-0.239849
0.210701,-0.08408,-0.239849
0.210701,0.33408,-0.232208
0.238457,-0.25,-0.314705
0.238457,0.25,-0.314705
0.350752,0.125,-0.236029
0.357686,0.375,-0.23601
0.364621,-0.375,-0.236029
0.476915,0,-0.314705
-1.66533e-16,0.5,-0.314705
0.476915,-0.5,-0.314705
0.476915,0.5,-0.314705
-0.476915,-0.5,5.55112e-17
-0.476915,-0.25,-0.157352
-0.476915,-0.25,0.157353
-0.476915,0,5.55112e-17
-0.476915,0,0.314705
-0.476915,0.25,-0.157352
-0.476915,0.25,0.157353
-0.476915,0.5,5.55112e-17
-0.476915,-0.5,0.314705
-0.238458,-0.5,-0.157352
-0.238458,-0.5,0.157353
-2.22045e-16,-0.5,5.55112e-17
0.238457,-0.5,-0.157352
0.238457,-0.5,0.157353
0.476915,-0.5,5.55112e-17
-0.476915,0.5,0.314705
-0.449159,-0.08408,0.0824968
-0.449159,0.33408,0.0748557
-0.364621,-0.125,-0.0786762
-0.364621,0.375,0.236029
-0.357686,-0.375,-0.0786574
-0.357686,-0.375,0.23601
-0.357686,0.125,-0.0786951
-0.357686,0.125,0.236048
-0.350752,-0.125,0.236029
-0.350752,0.375,-0.0786762
-0.266214,-0.08408,0.0748557
-0.266214,0.33408,0.0824968
-0.238458,-0.25,5.55112e-17
-0.238458,-0.25,0.314705
-0.238458,0,-0.157352
-0.238458,0,0.157353
-0.238458,0.25,5.55112e-17
-0.238458,0.25,0.314705
-0.238458,0.5,-0.157352
-0.238458,0.5,0.157353
-0.210701,-0.41592,-0.0748557
-0.210701,-0.33408,0.232208
-0.210701,0.08408,0.239849
-0.210701,0.16592,-0.0824968
-0.126163,0.125,0.0786763
-0.119229,-0.125,0.0786574
-0.119229,0.375,-0.236048
-0.119229,0.375,0.0786951
-0.112294,-0.375,0.0786763
-0.0277565,-0.41592,-0.0824968
-0.0277565,-0.33408,0.239849
-0.0277565,0.08408,0.232208
-0.0277565,0.16592,-0.0748557
-1.66533e-16,-0.5,0.314705
-2.22045e-16,-0.25,-0.157352
-1.66533e-16,-0.25,0.157353
-1.66533e-16,0,5.55112e-17
-1.11022e-16,0,0.314705
-1.66533e-16,0.25,-0.157352
-1.11022e-16,0.25,0.157353
-1.66533e-16,0.5,5.55112e-17
0.0277565,-0.16592,0.0748557
0.0277565,0.41592,0.0824968
0.112294,-0.125,0.236029
0.112294,0.375,-0.0786762
0.119229,-0.375,-0.0786951
0.119229,-0.375,0.236048
0.119229,0.125,-0.0786574
0.119229,0.125,0.23601
0.126163,-0.125,-0.0786762
0.126163,0.375,0.236029
0.210701,-0.16592,0.0824968
0.210701,0.41592,0.0748557
0.238457,-0.25,5.55112e-17
0.238457,-0.25,0.314705
0.238457,0,-0.157352
0.238457,0,0.157353
0.238457,0.25,5.55112e-17
0.238457,0.25,0.314705
0.238457,0.5,-0.157352
0.238457,0.5,0.157353
0.266214,-0.41592,0.239849
0.266214,-0.33408,-0.0824968
0.266214,0.08408,-0.0748557
0.266214,0.16592,0.232208
0.350752,-0.375,0.0786763
0.357686,-0.125,-0.236048
0.357686,-0.125,0.0786951
0.357686,0.375,0.0786574
0.364621,0.125,0.0786763
0.449159,-0.41592,0.232208
0.449159,-0.33408,-0.0748557
0.449159,0.08408,-0.0824968
0.449159,0.16592,0.239849
0.476915,-0.25,-0.157352
0.476915,-0.25,0.157353
0.476915,0,5.55112e-17
0.476915,0,0.314705
0.476915,0.25,-0.157352
0.476915,0.25,0.157353
0.476915,0.5,5.55112e-17
-0.401181,-0.14597,-0.314705
-0.0757341,-0.35403,-0.314705
-0.162723,0.10403,-0.314705
0.162723,-0.10403,-0.314705
0.314192,-0.39597,-0.314705
-0.314192,0.39597,-0.314705
0.0757341,0.35403,-0.314705
0.401181,0.14597,-0.314705
-0.167426,-0.35502,-0.314705
-0.309489,-0.14498,-0.314705
0.0710317,-0.10502,-0.314705
-0.0710317,0.10502,-0.314705
-0.405883,0.39498,-0.314705
0.405883,-0.39498,-0.314705
0.309489,0.14498,-0.314705
0.167426,0.35502,-0.314705
-0.401181,-0.14597,0.314705
-0.0757341,-0.35403,0.314705
-0.162723,0.10403,0.314705
0.162723,-0.10403,0.314705
0.314192,-0.39597,0.314705
-0.314192,0.39597,0.314705
0.0757341,0.35403,0.314705
0.401181,0.14597,0.314705
-0.167426,-0.35502,0.314705
-0.309489,-0.14498,0.314705
0.0710317,-0.10502,0.314705
-0.0710317,0.10502,0.314705
-0.405883,0.39498,0.314705
0.405883,-0.39498,0.314705
0.309489,0.14498,0.314705
0.167426,0.35502,0.314705
connectivity
8,10
16,18
9,10
16,17
19,22
18,23
7,69
3,42
60,68
42,50
11,89
61,68
9,63
40,48
81,89
19,102
64,72
2,49
64,71
41,49
83,91
103,109
105,111
43,51
105,110
17,112
14,84
84,92
82,90
104,109
32,45
25,44
33,44
5,8
27,46
35,85
30,47
37,86
46,56
85,93
55,65
65,75
45,53
47,55
56,67
75,86
66,78
78,87
93,107
95,106
87,95
58,66
106,114
67,80
107,116
77,88
88,98
100,108
108,119
25,42
7,33
5,7
27,42
35,68
30,43
37,105
68,75
9,78
89,93
89,95
19,114
55,64
48,55
56,64
49,56
75,83
78,84
93,105
17,95
48,53
49,58
77,83
80,84
39,43
109,116
109,119
90,98
90,100
1,42
7,60
40,42
68,69
68,70
9,72
48,50
63,64
13,89
89,91
102,105
81,83
19,111
4,49
62,64
49,51
12,84
41,43
17,103
101,105
82,84
109,112
109,113
90,92
0,1
26,40
2,29
34,61
4,6
36,102
13,15
3,54
52,60
69,74
50,52
54,63
11,74
76,81
72,76
12,21
70,73
91,96
31,41
97,103
38,111
51,59
57,62
14,99
71,79
79,82
96,104
92,97
94,101
112,118
110,115
113,117
24,44
26,45
29,46
34,45
6,66
36,85
15,106
44,52
8,54
8,74
52,65
46,54
74,85
65,76
76,87
21,66
20,106
87,97
28,47
47,57
73,86
86,94
67,79
59,67
96,107
107,115
79,88
88,96
97,108
18,99
18,118
108,120
1,3
60,69
11,13
40,50
63,72
102,111
81,91
2,4
61,70
12,14
41,51
103,112
62,71
101,110
82,92
104,113
1,121
7,122
9,123
13,124
19,125
4,126
12,127
17,128
7,129
3,130
11,131
9,132
2,133
19,134
17,135
14,136
48,137
70,138
62,139
83,140
101,141
43,142
90,143
113,144
61,145
48,146
83,147
71,148
43,149
110,150
104,151
90,152