-0.251553,-0.0936472,-0.5
-0.359687,0.0936472,-0.5
0.0446755,-0.264675,-0.5
0.260944,-0.264675,-0.5
-0.0540672,-0.0936472,-0.5
-0.260944,0.264675,-0.5
0.0540672,0.0936472,-0.5
-0.0446755,0.264675,-0.5
0.359687,-0.0936472,-0.5
0.251553,0.0936472,-0.5
-0.15281,-0.264675,-0.25
-0.15281,-0.264675,0.25
-0.15281,-0.199438,0.16
-0.15281,-0.199438,0.34
-0.0963131,-0.232056,-0.34
-0.0963131,-0.232056,-0.16
-0.251553,-0.0936472,0
-0.251553,-0.0936472,0.5
-0.359687,0.0936472,0
-0.359687,0.0936472,0.5
-0.45843,0.264675,0.25
-0.303093,0.00145571,-0.30812
-0.303093,0.00145571,-0.19188
-0.21016,-0.124635,0.09992
-0.21016,-0.124635,0.40008
-0.365827,0.144989,0.09992
-0.365827,0.144989,0.40008
-0.401933,0.232056,0.16
-0.401933,0.232056,0.34
-0.246803,-0.0320521,-0.40345
-0.246803,-0.0320521,-0.09655
-0.30397,0.0669627,-0.40345
-0.30397,0.0669627,-0.09655
-0.210163,-0.0106399,0.25
-0.267106,0.0879885,0.25
-0.152807,-0.0886819,-0.43952
-0.152807,-0.0886819,-0.06048
-0.306011,0.176676,-0.43952
-0.306011,0.176676,-0.06048
-0.00285755,-0.244321,-0.40008
-0.00285755,-0.244321,-0.09992
0.0446755,-0.264675,0
0.0446755,-0.264675,0.5
-0.000397306,-0.176676,0.06048
-0.000397306,-0.176676,0.43952
0.0956438,-0.229764,0.09655
0.0956438,-0.229764,0.40345
0.0958669,-0.187326,-0.25
0.152807,-0.261758,0.19188
0.152807,-0.261758,0.30812
0.209976,-0.229764,0.09655
0.209976,-0.229764,0.40345
0.209753,-0.187326,-0.25
0.260944,-0.264675,0
0.260944,-0.264675,0.5
0.308478,-0.244321,-0.40008
0.308478,-0.244321,-0.09992
0.306011,-0.176676,0.06048
0.306011,-0.176676,0.43952
0.401933,-0.232056,-0.34
0.401933,-0.232056,-0.16
0.45843,-0.264675,-0.25
-0.15281,-0.0906881,0.19279
-0.15281,-0.0906881,0.30721
-0.307753,0.177681,0.19279
-0.307753,0.177681,0.30721
-0.209466,0.0555182,-0.34229
-0.209466,0.0555182,-0.15771
-0.0954604,-0.124635,0.09992
-0.0954604,-0.124635,0.40008
-0.308478,0.244321,0.09992
-0.308478,0.244321,0.40008
-0.0602071,-0.144989,-0.40008
-0.0602071,-0.144989,-0.09992
-0.0540672,-0.0936472,0
-0.0540672,-0.0936472,0.5
-0.260944,0.264675,0
-0.260944,0.264675,0.5
-0.00213323,-0.177681,-0.30721
-0.00213323,-0.177681,-0.19279
-0.152813,0.0882267,-0.25
-0.0954574,-0.0106399,0.25
-0.209753,0.187326,0.25
-0.0588166,-0.0320521,-0.40345
-0.0588166,-0.0320521,-0.09655
-0.209976,0.229764,-0.40345
-0.209976,0.229764,-0.09655
-0.0961603,0.0555182,-0.34229
-0.0961603,0.0555182,-0.15771
-0.152813,0.153644,-0.34229
-0.152813,0.153644,-0.15771
0.00165035,-0.0669627,0.09655
0.00165035,-0.0669627,0.40345
0.0385142,-0.0879885,-0.25
-0.00252136,0.00145571,-0.30812
-0.00252136,0.00145571,-0.19188
-0.152807,0.261758,-0.30812
-0.152807,0.261758,-0.19188
0.00252137,-0.00145571,0.19188
0.00252137,-0.00145571,0.30812
-0.0385142,0.0879885,0.25
-0.0958669,0.187326,0.25
-0.00165035,0.0669627,-0.40345
-0.00165035,0.0669627,-0.09655
-0.0956438,0.229764,-0.40345
-0.0956438,0.229764,-0.09655
0.152813,-0.153644,0.15771
0.152813,-0.153644,0.34229
0.0961603,-0.0555182,0.15771
0.0961603,-0.0555182,0.34229
0.0588166,0.0320521,0.09655
0.0588166,0.0320521,0.40345
0.0954574,0.0106399,-0.25
0.152813,-0.0882267,0.25
0.000397306,0.176676,-0.43952
0.000397306,0.176676,-0.06048
0.00213323,0.177681,0.19279
0.00213323,0.177681,0.30721
0.0540672,0.0936472,0
0.0540672,0.0936472,0.5
-0.0446755,0.264675,0
-0.0446755,0.264675,0.5
0.0602071,0.144989,0.09992
0.0602071,0.144989,0.40008
0.00285755,0.244321,0.09992
0.00285755,0.244321,0.40008
0.0954604,0.124635,-0.40008
0.0954604,0.124635,-0.09992
0.209466,-0.0555182,0.15771
0.209466,-0.0555182,0.34229
0.152807,0.0886819,0.06048
0.152807,0.0886819,0.43952
0.307753,-0.177681,-0.30721
0.307753,-0.177681,-0.19279
0.15281,0.0906881,-0.30721
0.15281,0.0906881,-0.19279
0.267106,-0.0879885,-0.25
0.210163,0.0106399,-0.25
0.0963131,0.232056,0.16
0.0963131,0.232056,0.34
0.30397,-0.0669627,0.09655
0.30397,-0.0669627,0.40345
0.246803,0.0320521,0.09655
0.246803,0.0320521,0.40345
0.15281,0.199438,-0.34
0.15281,0.199438,-0.16
0.365827,-0.144989,-0.40008
0.365827,-0.144989,-0.09992
0.21016,0.124635,-0.40008
0.21016,0.124635,-0.09992
0.303093,-0.00145571,0.19188
0.303093,-0.00145571,0.30812
0.359687,-0.0936472,0
0.359687,-0.0936472,0.5
0.251553,0.0936472,0
0.251553,0.0936472,0.5
0.15281,0.264675,-0.25
0.15281,0.264675,0.25
-0.115145,-0.264675,-0.34
-0.115145,-0.264675,-0.16
-0.171642,-0.232056,0.16
-0.171642,-0.232056,0.34
-0.245926,-0.103393,-0.40132
-0.245926,-0.103393,-0.09868
-0.245926,-0.103393,0.09868
-0.365314,0.103393,-0.40132
-0.365314,0.103393,0.09868
-0.365314,0.103393,-0.09868
-0.245926,-0.103393,0.40132
-0.365314,0.103393,0.40132
-0.228017,-0.134412,-0.40749
-0.228017,-0.134412,0.09251
-0.228017,-0.134412,-0.09251
-0.383223,0.134412,0.09251
-0.383223,0.134412,-0.40749
-0.228017,-0.134412,0.40749
-0.383223,0.134412,-0.09251
-0.383223,0.134412,0.40749
-0.304584,-0.00179449,-0.30601
-0.304584,-0.00179449,-0.19399
-0.306653,0.0017892,-0.30601
-0.306653,0.0017892,-0.19399
-0.304587,-0.0017892,0.19399
-0.306656,0.00179449,0.19399
-0.304587,-0.0017892,0.30601
-0.306656,0.00179449,0.30601
-0.171642,-0.232056,-0.34
-0.171642,-0.232056,-0.16
-0.420765,0.264675,-0.34
-0.439598,0.232056,-0.34
-0.420765,0.264675,-0.16
-0.439598,0.232056,-0.16
-0.439598,0.232056,0.16
-0.439598,0.232056,0.34
0.0334226,-0.264675,-0.40132
0.0334226,-0.264675,-0.09868
0.272197,-0.264675,-0.40132
0.0334226,-0.264675,0.09868
0.272197,-0.264675,-0.09868
0.0334226,-0.264675,0.40132
0.272197,-0.264675,0.09868
0.272197,-0.264675,0.40132
-0.00239606,-0.264675,-0.40749
-0.00239606,-0.264675,-0.09251
0.308016,-0.264675,-0.40749
0.308016,-0.264675,-0.09251
-0.00239606,-0.264675,0.09251
-0.00239606,-0.264675,0.40749
0.308016,-0.264675,0.09251
0.308016,-0.264675,0.40749
0.150744,-0.264675,-0.30601
0.154882,-0.264675,-0.30601
0.150744,-0.264675,-0.19399
0.154882,-0.264675,-0.19399
0.150738,-0.264675,0.19399
0.150738,-0.264675,0.30601
0.154876,-0.264675,0.19399
0.154876,-0.264675,0.30601
-0.115145,-0.264675,0.16
-0.115145,-0.264675,0.34
0.420765,-0.264675,-0.34
0.420765,-0.264675,-0.16
0.420765,-0.264675,0.16
0.439598,-0.232056,0.16
0.420765,-0.264675,0.34
0.439598,-0.232056,0.34
0.365314,-0.103393,-0.40132
-0.272197,0.264675,-0.40132
0.365314,-0.103393,-0.09868
-0.272197,0.264675,-0.09868
-0.0334226,0.264675,-0.40132
-0.272197,0.264675,0.09868
-0.0334226,0.264675,-0.09868
0.365314,-0.103393,0.09868
0.245926,0.103393,-0.40132
0.245926,0.103393,0.09868
0.245926,0.103393,-0.09868
-0.272197,0.264675,0.40132
-0.0334226,0.264675,0.09868
0.365314,-0.103393,0.40132
0.245926,0.103393,0.40132
-0.0334226,0.264675,0.40132
-0.308016,0.264675,-0.40749
-0.308016,0.264675,-0.09251
0.383223,-0.134412,-0.40749
0.383223,-0.134412,0.09251
0.383223,-0.134412,-0.09251
0.00239606,0.264675,-0.40749
0.00239606,0.264675,-0.09251
-0.308016,0.264675,0.09251
0.228017,0.134412,0.09251
0.228017,0.134412,-0.40749
0.383223,-0.134412,0.40749
0.228017,0.134412,-0.09251
-0.308016,0.264675,0.40749
0.00239606,0.264675,0.09251
0.228017,0.134412,0.40749
0.00239606,0.264675,0.40749
0.306656,-0.00179449,-0.30601
0.306656,-0.00179449,-0.19399
0.304587,0.0017892,-0.30601
0.304587,0.0017892,-0.19399
-0.154876,0.264675,-0.30601
-0.150738,0.264675,-0.30601
-0.154876,0.264675,-0.19399
-0.150738,0.264675,-0.19399
-0.154882,0.264675,0.19399
-0.154882,0.264675,0.30601
-0.150744,0.264675,0.19399
-0.150744,0.264675,0.30601
0.306653,-0.0017892,0.19399
0.304584,0.00179449,0.19399
0.306653,-0.0017892,0.30601
0.304584,0.00179449,0.30601
0.439598,-0.232056,-0.34
0.439598,-0.232056,-0.16
-0.420765,0.264675,0.16
-0.420765,0.264675,0.34
0.115145,0.264675,-0.34
0.171642,0.232056,-0.34
0.115145,0.264675,-0.16
0.171642,0.232056,-0.16
0.171642,0.232056,0.16
0.115145,0.264675,0.16
0.171642,0.232056,0.34
0.115145,0.264675,0.34
connectivity
72,83
73,84
68,91
102,126
103,127
69,92
110,122
111,123
2,39
3,55
4,72
16,23
40,41
18,25
53,56
6,126
73,74
68,74
17,24
69,75
8,146
147,152
118,127
118,122
70,76
19,26
9,148
149,154
71,77
120,124
119,123
121,125
29,35
35,83
30,36
36,84
31,37
43,45
43,91
32,38
102,114
37,85
50,57
103,115
38,86
44,46
44,92
57,140
110,130
104,114
51,58
105,115
130,142
111,131
58,141
131,143
21,29
21,31
83,94
22,30
22,32
84,95
94,102
45,48
95,103
91,98
48,50
46,49
49,51
98,110
85,96
92,99
99,111
86,97
96,104
97,105
140,150
142,150
141,151
143,151
0,35
1,37
4,35
16,36
41,43
18,38
53,57
6,114
36,74
43,74
5,37
38,76
42,44
44,75
57,152
7,114
115,118
118,130
115,120
130,154
54,58
58,153
119,131
131,155
47,52
93,112
33,34
136,137
81,100
82,101
35,72
36,73
43,68
44,69
114,126
115,127
122,130
123,131
21,66
22,67
87,94
88,95
48,106
89,96
90,97
49,107
98,108
99,109
128,150
129,151
39,72
40,73
23,68
55,146
56,147
24,69
25,70
126,148
127,149
26,71
122,124
123,125
29,66
83,87
30,67
31,66
84,88
32,67
87,102
45,106
88,103
91,108
50,106
85,89
89,104
86,90
90,105
108,110
46,107
51,107
92,109
128,140
128,142
109,111
129,141
129,143
21,22
94,95
48,49
98,99
96,97
150,151
78,79
62,63
132,133
134,135
64,65
116,117
47,93
52,136
112,137
33,81
34,82
100,101
93,94
93,95
94,112
95,112
81,98
81,99
98,100
99,100
66,87
66,89
67,88
67,90
87,89
88,90
106,108
106,128
108,128
107,109
107,129
109,129
29,31
83,102
30,32
84,103
45,50
91,110
46,51
85,104
92,111
86,105
140,142
141,143
66,80
67,80
80,87
80,88
80,89
80,90
106,113
108,113
107,113
113,128
109,113
113,129
47,78
78,93
47,79
79,93
52,132
52,133
33,62
62,81
132,136
112,134
112,135
33,63
63,81
133,136
34,64
34,65
134,137
135,137
64,82
100,116
100,117
65,82
101,116
101,117
14,39
14,72
15,40
15,73
12,23
12,68
55,59
13,24
13,69
56,60
59,146
25,27
60,147
126,144
127,145
27,70
26,28
144,148
122,138
28,71
145,149
124,138
123,139
125,139
0,29
1,31
4,83
16,30
41,45
18,32
50,53
6,102
74,84
74,91
103,118
42,46
5,85
110,118
75,92
76,86
7,104
51,54
105,120
140,152
111,119
142,154
141,153
143,155
10,14
10,15
11,12
11,13
59,61
60,61
20,27
20,28
144,156
145,156
138,157
139,157
39,78
72,78
40,79
73,79
23,62
62,68
55,132
56,133
132,146
24,63
63,69
133,147
25,64
126,134
134,148
64,70
127,135
135,149
26,65
65,71
116,122
116,124
117,123
117,125
14,78
15,79
12,62
13,63
59,132
60,133
134,144
27,64
135,145
28,65
116,138
117,139
14,158
15,159
12,160
13,161
29,162
30,163
23,164
31,165
25,166
32,167
24,168
26,169
35,170
23,171
36,172
25,173
37,174
24,175
38,176
26,177
21,178
22,179
21,180
22,181
33,182
34,183
33,184
34,185
14,186
15,187
188,189
190,191
27,192
28,193
39,194
40,195
55,196
45,197
56,198
46,199
50,200
51,201
39,202
40,203
55,204
56,205
43,206
44,207
57,208
58,209
47,210
52,211
47,212
52,213
48,214
49,215
48,216
49,217
12,218
13,219
59,220
60,221
222,223
224,225
146,226
85,227
147,228
86,229
104,230
70,231
105,232
140,233
148,234
142,235
149,236
71,237
124,238
141,239
143,240
125,241
37,242
38,243
146,244
57,245
147,246
114,247
115,248
70,249
130,250
148,251
58,252
149,253
71,254
124,255
131,256
125,257
136,258
136,259
137,260
137,261
96,262
96,263
97,264
97,265
82,266
82,267
101,268
101,269
150,270
150,271
151,272
151,273
59,274
60,275
27,276
28,277
144,278
144,279
145,280
145,281
138,282
138,283
139,284
139,285