-0.09107,-0.43616,-0.268997
0.06851,-0.44985,-0.229711
-0.40893,0.06384,-0.268997
-0.25,-0.45577,-0.307495
-0.25,0.04423,-0.307495
-0.06851,-0.05015,-0.229711
0.09107,-0.06384,-0.268997
0.25,-0.04423,-0.307495
0.25,0.45577,-0.307495
0.43149,0.05015,-0.229711
-0.43149,0.44985,-0.229711
0.40893,0.43616,-0.268997
-0.43149,-0.44985,-0.0777839
-0.43149,-0.05015,0.229711
-0.43149,0.05015,0.0777839
-0.40893,-0.43616,0.268997
-0.40893,-0.06384,-0.0384984
-0.40893,0.43616,0.0384984
-0.29423,-0.5,-0.153747
-0.20577,-0.5,0.153748
-0.06851,-0.44985,0.0777839
0.09107,-0.43616,0.0384984
0.20577,-0.5,-0.153747
0.29423,-0.5,0.153748
0.40893,-0.43616,-0.0384984
-0.31384,-0.34107,-0.115249
-0.31384,-0.15893,0.192246
-0.31384,0.15893,0.115249
-0.31384,0.34107,-0.192246
-0.30015,-0.31851,0.231531
-0.30015,-0.18149,-0.0759636
-0.30015,0.18149,-0.231531
-0.30015,0.31851,0.0759636
-0.29423,0,0.153748
-0.29423,0.5,-0.153747
-0.25,-0.45577,0.307495
-0.25,-0.04423,1.66533e-16
-0.25,0.04423,0.307495
-0.25,0.45577,1.66533e-16
-0.20577,0,-0.153747
-0.20577,0.5,0.153748
-0.19985,-0.31851,-0.231531
-0.19985,-0.18149,0.0759636
-0.19985,0.18149,0.231531
-0.19985,0.31851,-0.0759636
-0.18616,-0.34107,0.115249
-0.18616,-0.15893,-0.192246
-0.18616,0.15893,-0.115249
-0.18616,0.34107,0.192246
-0.09107,-0.06384,0.0384984
-0.09107,0.06384,0.268997
-0.09107,0.43616,-0.0384984
-0.06851,0.05015,-0.0777839
-0.06851,0.44985,0.229711
0.06851,-0.05015,0.0777839
0.06851,0.05015,0.229711
0.06851,0.44985,-0.0777839
0.09107,0.06384,-0.0384984
0.09107,0.43616,0.268997
0.18616,-0.34107,-0.192246
0.18616,-0.15893,0.115249
0.18616,0.15893,0.192246
0.18616,0.34107,-0.115249
0.19985,-0.31851,0.0759636
0.19985,-0.18149,-0.231531
0.19985,0.18149,-0.0759636
0.19985,0.31851,0.231531
0.20577,0,0.153748
0.20577,0.5,-0.153747
0.25,-0.45577,1.66533e-16
0.25,-0.04423,0.307495
0.25,0.04423,1.66533e-16
0.25,0.45577,0.307495
0.29423,0,-0.153747
0.29423,0.5,0.153748
0.30015,-0.31851,-0.0759636
0.30015,-0.18149,0.231531
0.30015,0.18149,0.0759636
0.30015,0.31851,-0.231531
0.31384,-0.34107,0.192246
0.31384,-0.15893,-0.115249
0.31384,0.15893,-0.192246
0.31384,0.34107,0.115249
0.40893,-0.06384,0.268997
0.40893,0.06384,0.0384984
0.43149,-0.44985,0.229711
0.43149,-0.05015,-0.0777839
0.43149,0.44985,0.0777839
-0.0836,-0.4739,-0.307495
0.07844,-0.5,-0.280872
-0.4164,-0.4739,-0.307495
-0.42156,-0.5,-0.280872
-0.4164,0.0261,-0.307495
-0.0836,0.0261,-0.307495
0.0836,-0.0261,-0.307495
0.4164,-0.0261,-0.307495
0.0836,0.4739,-0.307495
0.07844,0.5,-0.280872
-0.42156,0.5,-0.280872
0.4164,0.4739,-0.307495
-0.5,-0.44397,-0.0609209
-0.5,0.05603,-0.246574
-0.5,-0.05603,-0.0609209
-0.5,0.05603,0.0609209
-0.5,-0.44397,0.246574
-0.5,0.44397,-0.246574
-0.5,-0.05603,0.246574
-0.5,0.44397,0.0609209
-0.42156,-0.5,-0.0266229
-0.07844,-0.5,0.0266229
0.07844,-0.5,-0.0266229
-0.0836,-0.4739,0.307495
-0.07844,-0.5,0.280872
0.42156,-0.5,0.0266229
0.5,-0.44397,-0.0609209
0.5,0.05603,-0.246574
0.5,-0.05603,-0.0609209
0.5,0.05603,0.0609209
0.5,-0.44397,0.246574
0.5,0.44397,-0.246574
0.5,-0.05603,0.246574
0.5,0.44397,0.0609209
-0.4164,-0.4739,0.307495
-0.4164,0.0261,0.307495
-0.42156,0.5,-0.0266229
-0.07844,0.5,0.0266229
-0.0836,0.0261,0.307495
0.07844,0.5,-0.0266229
0.0836,-0.0261,0.307495
0.42156,-0.5,0.280872
-0.07844,0.5,0.280872
0.4164,-0.0261,0.307495
0.0836,0.4739,0.307495
0.42156,0.5,0.0266229
0.4164,0.4739,0.307495
0.42156,0.5,0.280872
connectivity
0,3
18,25
2,4
22,59
19,45
6,7
23,79
8,11
39,46
16,36
39,47
36,49
21,69
28,34
26,33
24,69
27,33
57,71
73,80
15,35
73,81
60,67
71,84
17,38
38,51
62,68
61,67
37,50
40,48
74,82
70,83
58,72
3,41
12,18
4,31
1,22
19,20
7,64
23,85
8,78
30,36
5,39
39,52
36,42
14,33
69,75
63,69
29,35
13,33
38,44
54,67
10,34
9,73
73,86
65,71
32,38
71,77
55,67
37,43
56,68
70,76
40,53
66,72
74,87
3,18
4,39
22,69
19,35
7,73
23,69
8,68
36,39
33,36
33,37
71,73
67,71
34,38
38,40
67,70
41,46
25,30
0,1
5,6
28,31
59,64
42,45
20,21
52,57
44,47
49,54
26,29
75,80
60,63
27,32
62,65
78,81
51,56
43,48
76,79
50,55
77,82
61,66
53,58
25,41
30,46
14,16
31,47
59,75
26,42
29,45
64,80
49,52
28,44
54,57
63,79
27,43
60,76
65,81
32,48
84,86
62,78
61,77
66,82
0,41
12,25
5,46
16,30
2,31
1,59
6,64
42,49
20,45
47,52
21,63
14,27
10,28
13,26
24,75
15,29
57,65
80,86
44,51
54,60
17,32
9,81
56,62
43,50
11,78
79,85
55,61
77,84
48,53
76,83
82,87
58,66
72,74
0,88
1,89
90,91
2,92
5,93
6,94
9,95
96,97
10,98
11,99
12,100
2,101
16,102
14,103
15,104
10,105
13,106
17,107
12,108
20,109
21,110
111,112
24,113
24,114
9,115
86,116
84,117
85,118
11,119
83,120
87,121
15,122
13,123
17,124
51,125
50,126
56,127
55,128
85,129
53,130
83,131
58,132
87,133
134,135