-0.252111,0.0893935,-0.4733
-0.154271,0.0192409,-0.4733
-0.142437,0.13905,-0.4733
0.0934768,-0.114186,-0.40663
0.19515,-0.178815,-0.40663
0.200283,-0.0584488,-0.40663
-0.154267,-0.253539,0.13996
-0.15076,-0.255192,-0.26003
-0.145623,-0.258158,0.26003
-0.142437,-0.260369,-0.13996
-0.491533,0.223569,-0.26003
-0.488347,0.22578,0.13996
-0.423361,0.139223,-0.31291
-0.4337,0.157922,0.05667
-0.359568,0.062726,0.35376
-0.338202,0.0623366,-0.27667
-0.359572,0.102395,-0.02042
-0.338205,0.102784,-0.39
0.223086,-0.261723,0.27667
0.234107,-0.280032,-0.35376
0.268462,-0.260201,0.02042
0.258116,-0.241502,0.39
0.332252,-0.29703,0.31291
0.353615,-0.296634,-0.05667
0.439383,-0.313895,0.26003
0.439705,-0.310031,-0.13996
-0.122824,-0.172284,0.05667
-0.252115,0.0757272,-0.19337
-0.252433,0.0795976,0.40663
-0.252437,0.085523,-0.0733
-0.1118,-0.153981,-0.31291
-0.0877904,-0.192511,-0.05667
-0.0774511,-0.173812,0.31291
-0.122821,-0.0620136,-0.39
-0.1118,-0.0803232,-0.02042
-0.150756,0.0208945,-0.0733
-0.145627,0.0238602,0.40663
-0.142434,0.026071,-0.19337
-0.0774477,-0.0604858,0.35376
-0.0877939,-0.0417869,-0.27667
-0.0136619,-0.136983,0.02042
0.00770498,-0.137373,0.39
-0.154271,0.145886,-0.19337
-0.0136584,-0.0973146,-0.35376
-0.15076,0.144226,0.40663
-0.145627,0.141266,-0.0733
0.00770844,-0.0969251,0.27667
-0.122824,0.227134,-0.27667
0.0937985,-0.123982,0.4733
0.0934734,-0.120112,0.0733
-0.111803,0.245444,0.35376
0.0937951,-0.110316,0.19337
-0.0877939,0.206914,-0.39
-0.0774477,0.225612,-0.02042
0.191639,-0.180474,0.19337
0.200283,-0.175855,0.0733
0.203473,-0.173638,0.4733
-0.0136584,0.262441,-0.31291
0.00770498,0.262046,0.05667
0.191639,-0.0538295,0.4733
0.195154,-0.0554831,0.0733
0.203476,-0.0606596,0.19337
0.223089,0.0274251,0.39
0.0937951,0.275442,0.13996
0.0934734,0.279307,-0.26003
0.23411,0.0457346,0.02042
0.258116,0.0071983,0.27667
0.268462,0.0258973,-0.35376
0.223086,0.137696,-0.05667
0.23411,0.119392,0.31291
0.191643,0.21895,-0.13996
0.19515,0.220604,0.26003
-0.152344,0.0202654,-0.5
-0.252181,0.0872126,-0.5
0.0937224,-0.121801,-0.5
0.201619,-0.174789,-0.5
-0.144284,0.1402,-0.5
0.193559,-0.054854,-0.5
-0.148017,-0.316861,-0.13996
-0.200401,-0.286617,0.13996
-0.200346,-0.286713,-0.26003
-0.148127,-0.316861,0.26003
-0.451217,0.147809,-1.11022e-16
-0.389258,0.0404922,-0.32289
-0.389258,0.0404922,0.32289
-0.494152,0.222173,-0.22368
-0.494152,0.222173,0.22368
-0.395405,0.0511388,-0.36566
-0.440017,0.128409,0.04713
-0.440017,0.128409,-0.04713
-0.395405,0.0511388,0.36566
-0.423361,0.0995607,-0.32721
-0.408639,0.0740616,-1.11022e-16
-0.423361,0.0995607,0.32721
-0.200401,-0.286617,-0.13996
-0.493927,0.282273,-0.13996
-0.499026,0.230615,-0.13996
-0.499026,0.230615,0.13996
-0.200346,-0.286713,0.26003
-0.496435,0.226128,-0.26003
-0.494037,0.282273,0.26003
-0.496435,0.226128,0.26003
0.353615,-0.316861,-1.11022e-16
0.229696,-0.316861,-0.32289
0.229696,-0.316861,0.32289
0.439484,-0.316861,-0.22368
0.439484,-0.316861,0.22368
0.24199,-0.316861,-0.36566
0.331214,-0.316861,-0.04713
0.331214,-0.316861,0.04713
0.24199,-0.316861,0.36566
0.268459,-0.316861,-1.11022e-16
0.297903,-0.316861,-0.32721
0.297903,-0.316861,0.32721
-0.148017,-0.316861,0.13996
0.449231,-0.316861,-0.13996
0.449231,-0.316861,0.13996
0.491419,-0.286617,0.13996
-0.148127,-0.316861,-0.26003
0.44405,-0.316861,-0.26003
0.491474,-0.286713,-0.26003
0.44405,-0.316861,0.26003
0.240603,0.147809,-1.11022e-16
0.00770498,0.282273,-1.11022e-16
-0.116214,0.282273,-0.32289
0.302562,0.0404922,-0.32289
0.302562,0.0404922,0.32289
-0.116214,0.282273,0.32289
-0.152344,0.0202654,0.5
-0.252181,0.0872126,0.5
0.0937224,-0.121801,0.5
0.201619,-0.174789,0.5
-0.144284,0.1402,0.5
0.193559,-0.054854,0.5
0.0935737,0.282273,-0.22368
0.197668,0.222173,-0.22368
0.0935737,0.282273,0.22368
0.197668,0.222173,0.22368
-0.10392,0.282273,-0.36566
0.296415,0.0511388,-0.36566
-0.0146962,0.282273,-0.04713
0.251803,0.128409,0.04713
0.251803,0.128409,-0.04713
-0.0146962,0.282273,0.04713
0.296415,0.0511388,0.36566
-0.10392,0.282273,0.36566
0.268459,0.0995607,-0.32721
-0.0774511,0.282273,-1.11022e-16
0.283181,0.0740616,-1.11022e-16
-0.0480073,0.282273,-0.32721
-0.0480073,0.282273,0.32721
0.268459,0.0995607,0.32721
0.491419,-0.286617,-0.13996
-0.493927,0.282273,0.13996
0.103321,0.282273,-0.13996
0.192794,0.230615,-0.13996
0.192794,0.230615,0.13996
0.103321,0.282273,0.13996
-0.494037,0.282273,-0.26003
0.491474,-0.286713,0.26003
0.195385,0.226128,-0.26003
0.0981397,0.282273,-0.26003
0.0981397,0.282273,0.26003
0.195385,0.226128,0.26003
connectivity
33,39
26,31
15,17
41,46
18,21
47,52
62,66
7,30
3,43
4,19
34,35
40,49
8,32
10,12
16,29
20,55
5,67
45,53
36,38
60,65
14,28
22,24
57,64
44,50
69,71
30,33
31,40
39,43
26,34
12,17
13,16
20,23
32,41
38,46
52,57
21,22
53,58
65,68
62,69
9,31
1,33
37,39
6,26
15,27
0,17
2,52
23,25
42,47
46,51
11,13
18,54
41,48
61,66
21,56
68,70
59,62
58,63
7,9
6,8
35,37
27,29
49,51
54,55
42,45
60,61
30,39
33,43
31,34
26,40
12,15
32,46
18,22
38,41
47,57
66,69
30,43
34,40
32,38
0,1
1,2
0,2
27,37
37,42
27,42
51,54
51,61
54,61
48,56
48,59
56,59
3,4
3,5
4,5
29,35
35,45
29,45
49,55
49,60
55,60
28,36
36,44
28,44
1,72
0,73
3,74
4,75
2,76
5,77
9,78
6,79
7,80
8,81
13,82
15,83
14,84
10,85
11,86
17,87
13,88
16,89
14,90
12,91
16,92
14,93
9,94
95,96
11,97
8,98
10,99
100,101
23,102
19,103
18,104
25,105
24,106
19,107
23,108
20,109
21,110
20,111
19,112
22,113
6,114
25,115
116,117
7,118
119,120
24,121
68,122
58,123
47,124
67,125
66,126
50,127
36,128
28,129
48,130
56,131
44,132
59,133
64,134
70,135
63,136
71,137
52,138
67,139
53,140
65,141
68,142
58,143
62,144
50,145
67,146
53,147
65,148
57,149
50,150
69,151
25,152
11,153
70,154
70,155
63,156
63,157
10,158
24,159
64,160
64,161
71,162
71,163