-0.483569,-0.029269,-0.384929
-0.384929,0.477951,-0.476349
-0.029269,-0.384929,-0.483569
0.477951,-0.476349,-0.384929
-0.252809,0.372191,-0.502809
-0.041489,0.035871,-0.464129
0.023651,-0.120689,-0.483569
0.035871,0.458511,-0.464129
0.247191,0.122191,-0.502809
0.379311,0.016431,-0.476349
-0.476349,-0.384929,0.477951
-0.384929,-0.483569,-0.029269
-0.502809,-0.252809,0.372191
-0.502809,0.247191,0.122191
-0.483569,0.023651,-0.120689
-0.476349,0.379311,0.016431
-0.464129,-0.041489,0.035871
-0.464129,0.035871,0.458511
-0.120689,-0.483569,0.023651
0.016431,-0.476349,0.379311
0.035871,-0.464129,-0.041489
0.122191,-0.502809,0.247191
0.372191,-0.502809,-0.252809
0.458511,-0.464129,0.035871
-0.377809,-0.00280899,-0.252809
-0.370689,-0.226349,0.266431
-0.370689,0.220731,0.227951
-0.291489,-0.291489,-0.291489
-0.291489,0.285871,-0.214129
-0.279269,-0.272049,0.129311
-0.279269,0.266431,0.365071
-0.272049,-0.134929,-0.226349
-0.272049,0.129311,-0.279269
-0.252809,-0.377809,-0.00280899
-0.252809,0.372191,0.497191
-0.233569,-0.134929,0.220731
-0.233569,0.129311,0.273651
-0.226349,-0.272049,-0.134929
-0.226349,0.266431,-0.370689
-0.214129,-0.291489,0.285871
-0.214129,0.285871,0.208511
-0.134929,-0.226349,-0.272049
-0.134929,0.220731,-0.233569
-0.127809,-0.00280899,0.247191
-0.120689,0.477951,0.470731
-0.041489,-0.041489,-0.041489
-0.029269,0.379311,-0.022049
-0.022049,-0.029269,0.379311
-0.022049,0.023651,0.115071
-0.00280899,-0.252809,-0.377809
-0.00280899,0.247191,-0.127809
0.016431,0.470731,0.115071
0.023651,0.115071,-0.022049
0.115071,-0.022049,0.023651
0.115071,0.016431,0.470731
0.122191,0.497191,0.247191
0.129311,-0.279269,-0.272049
0.129311,0.273651,-0.233569
0.208511,-0.214129,0.285871
0.208511,0.208511,0.208511
0.220731,-0.233569,-0.134929
0.220731,0.227951,-0.370689
0.227951,-0.370689,0.220731
0.227951,0.365071,0.273651
0.247191,-0.127809,-0.00280899
0.247191,0.122191,0.497191
0.266431,-0.370689,-0.226349
0.266431,0.365071,-0.279269
0.273651,-0.233569,0.129311
0.273651,0.227951,0.365071
0.285871,-0.214129,-0.291489
0.285871,0.208511,-0.214129
0.365071,-0.279269,0.266431
0.365071,0.273651,0.227951
0.372191,0.497191,-0.252809
0.379311,-0.022049,-0.029269
0.458511,0.458511,0.458511
0.470731,-0.120689,0.477951
0.470731,0.115071,0.016431
0.477951,0.470731,-0.120689
0.497191,-0.252809,0.372191
0.497191,0.247191,0.122191
-0.502809,-0.067759,-0.442659
-0.448519,0.470051,-0.502809
-0.067759,-0.442659,-0.502809
0.470051,-0.502809,-0.448519
-0.437859,-0.442659,-0.502809
-0.397759,-0.502809,-0.482759
-0.482759,-0.397759,-0.502809
-0.502809,-0.437859,-0.442659
-0.022859,-0.397759,-0.502809
0.017241,-0.107859,-0.502809
0.062141,-0.062959,-0.502809
0.432241,-0.062959,-0.502809
0.477141,-0.107859,-0.502809
0.497191,-0.067759,-0.442659
-0.468929,0.019781,-0.502809
-0.036689,0.019781,-0.502809
0.051481,0.024331,-0.502809
-0.057099,0.470051,-0.502809
0.463311,0.474601,-0.502809
0.470051,0.497191,-0.448519
-0.397759,0.497191,-0.482759
0.031071,0.474601,-0.502809
0.497191,-0.437859,-0.442659
0.442901,0.024331,-0.502809
-0.442659,-0.502809,-0.067759
-0.502809,-0.448519,0.470051
-0.442659,-0.502809,-0.437859
-0.502809,-0.482759,-0.397759
-0.502809,-0.022859,-0.397759
-0.502809,0.017241,-0.107859
-0.502809,0.062141,-0.062959
-0.502809,0.432241,-0.062959
-0.442659,0.497191,-0.067759
-0.502809,0.477141,-0.107859
-0.502809,-0.468929,0.019781
-0.502809,-0.036689,0.019781
-0.502809,0.051481,0.024331
-0.502809,-0.057099,0.470051
-0.448519,0.470051,0.497191
-0.502809,0.463311,0.474601
-0.442659,0.497191,-0.437859
-0.502809,0.442901,0.024331
-0.397759,-0.502809,-0.022859
-0.107859,-0.502809,0.017241
-0.062959,-0.502809,0.062141
-0.062959,-0.502809,0.432241
-0.067759,-0.442659,0.497191
-0.107859,-0.502809,0.477141
0.019781,-0.502809,-0.468929
0.019781,-0.502809,-0.036689
0.024331,-0.502809,0.051481
0.470051,-0.502809,-0.057099
0.474601,-0.502809,0.463311
0.497191,-0.448519,0.470051
-0.437859,-0.442659,0.497191
-0.482759,-0.397759,0.497191
0.497191,-0.482759,-0.397759
-0.397759,0.497191,-0.022859
-0.022859,-0.397759,0.497191
0.497191,-0.022859,-0.397759
-0.107859,0.497191,0.017241
0.017241,-0.107859,0.497191
0.497191,0.017241,-0.107859
-0.062959,0.497191,0.062141
0.062141,-0.062959,0.497191
0.497191,0.062141,-0.062959
-0.062959,0.497191,0.432241
-0.107859,0.497191,0.477141
0.432241,-0.062959,0.497191
0.477141,-0.107859,0.497191
0.497191,0.432241,-0.062959
0.497191,0.477141,-0.107859
0.024331,-0.502809,0.442901
-0.468929,0.019781,0.497191
-0.502809,0.031071,0.474601
0.019781,0.497191,-0.468929
0.474601,-0.502809,0.031071
0.497191,-0.468929,0.019781
0.019781,0.497191,-0.036689
-0.036689,0.019781,0.497191
0.497191,-0.036689,0.019781
0.024331,0.497191,0.051481
0.051481,0.024331,0.497191
0.497191,0.051481,0.024331
-0.057099,0.470051,0.497191
0.497191,-0.057099,0.470051
0.470051,0.497191,-0.057099
0.463311,0.474601,0.497191
0.474601,0.497191,0.463311
0.497191,0.463311,0.474601
0.031071,0.474601,0.497191
0.024331,0.497191,0.442901
0.474601,0.497191,0.031071
0.497191,0.442901,0.024331
0.442901,0.024331,0.497191
0.497191,0.031071,0.474601
connectivity
12,25
10,12
4,38
1,4
22,66
3,22
13,15
13,26
19,21
21,62
8,9
8,61
0,24
11,33
2,49
24,31
33,37
41,49
14,24
24,32
18,33
29,33
6,49
49,56
35,43
42,50
60,64
43,48
50,52
53,64
36,43
43,47
50,57
46,50
64,68
64,75
30,34
67,74
72,80
51,55
54,65
78,81
55,63
65,69
73,81
34,44
77,80
74,79
31,37
31,41
37,41
25,29
29,35
32,38
32,42
56,66
56,60
25,35
38,42
60,66
48,52
48,53
52,53
26,36
30,36
57,61
57,67
62,68
68,72
26,30
61,67
62,72
46,51
47,54
75,78
63,69
63,73
69,73
27,31
27,37
27,41
14,16
18,20
5,6
29,39
28,32
56,70
45,48
45,52
45,53
25,39
28,38
66,70
35,39
28,42
60,70
36,40
57,71
58,68
26,40
61,71
58,62
30,40
58,72
67,71
59,63
59,69
59,73
0,82
1,83
2,84
3,85
86,87
88,89
2,90
6,91
6,92
9,93
94,95
0,96
5,97
5,98
7,99
100,101
1,102
7,103
3,104
9,105
11,106
10,107
108,109
0,110
14,111
14,112
15,113
114,115
11,116
16,117
16,118
17,119
120,121
1,122
15,123
11,124
18,125
18,126
19,127
128,129
2,130
20,131
20,132
23,133
134,135
10,136
10,137
3,138
15,139
19,140
9,141
46,142
47,143
75,144
51,145
54,146
78,147
44,148
44,149
77,150
77,151
79,152
79,153
19,154
17,155
17,156
7,157
23,158
23,159
46,160
47,161
75,162
51,163
54,164
78,165
44,166
77,167
79,168
76,169
76,170
76,171
172,173
174,175
176,177