0.10859,-0.188083,-0.470086
-0.10859,0.188083,-0.470086
-0.21718,2.77556e-17,0.196584
1.38778e-17,-2.77556e-17,-0.136756
0.10859,-0.188083,0.529914
0.21718,2.77556e-17,0.196584
-0.10859,0.188083,0.529914
-0.10859,-0.188083,-0.136756
-0.162885,-0.0940417,-0.303416
-0.271475,0.0940417,-0.303416
-0.10859,-0.188083,-0.470086
-0.21718,-5.55112e-17,-0.470086
-0.21718,-2.77556e-17,-0.136756
-0.32577,0.188083,-0.470086
-1.38778e-17,-0.188083,0.0299141
0.21718,-0.188083,0.0299141
-0.10859,-0.188083,0.196584
0.10859,-0.188083,0.196584
0.10859,-0.188083,-0.136756
0.271475,-0.0940417,-0.303416
-0.21718,0.188083,0.0299141
0.162885,0.0940417,-0.303416
5.55112e-17,0.188083,0.0299141
0.32577,-0.188083,-0.470086
-0.32577,0.188083,0.196584
0.10859,0.188083,-0.136756
0.21718,-5.55112e-17,-0.470086
-0.10859,0.188083,0.196584
-0.10859,0.188083,-0.136756
0.21718,-2.77556e-17,-0.136756
0.10859,0.188083,-0.470086
0.32577,-0.188083,0.196584
0.10859,0.188083,0.196584
-0.10859,-0.188083,0.529914
-0.21718,5.55112e-17,0.529914
-0.32577,0.188083,0.529914
0.32577,-0.188083,0.529914
0.21718,5.55112e-17,0.529914
0.10859,0.188083,0.529914
connectivity
2,4
0,3
2,3
2,6
1,3
3,5
0,1
2,5
5,6
4,5
4,6
3,7
3,8
1,9
0,10
1,11
3,12
1,13
3,14
5,15
2,16
5,17
3,18
0,19
2,20
3,21
3,22
0,23
2,24
3,25
0,26
2,27
3,28
3,29
1,30
5,31
5,32
4,33
6,34
6,35
4,36
4,37
6,38