-0.475623,-0.024262,-0.39139
-0.274179,-0.225705,-0.35861
-0.36493,-0.359281,-0.42919
-0.225656,0.27413,-0.35861
-0.134905,0.140554,-0.42919
0.024212,0.024262,-0.39139
0.134905,0.359281,-0.42919
0.225656,0.225705,-0.35861
0.274179,-0.27413,-0.35861
0.36493,-0.140554,-0.42919
-0.024212,0.475573,-0.39139
0.475623,-0.475573,-0.39139
-0.475623,-0.475573,0.10861
-0.411784,-0.433907,0.4235
-0.390471,-0.384823,-0.32081
-0.315846,-0.337968,-0.1735
-0.274179,-0.27413,0.14139
-0.475623,0.024262,-0.10861
-0.411784,-0.0659282,-0.0765
-0.411784,0.0659282,-0.4235
-0.390471,-0.115012,0.17919
-0.390471,0.115012,0.32081
-0.315846,-0.161867,0.3265
-0.315846,0.161867,0.1735
-0.274179,0.225705,-0.14139
-0.475623,0.475573,0.39139
-0.411784,0.433907,0.0765
-0.390471,0.384823,-0.17919
-0.315846,0.337968,-0.3265
-0.225656,-0.27413,-0.14139
-0.183989,-0.337968,0.1735
-0.109364,-0.384823,0.32081
-0.0880509,-0.433907,-0.4235
-0.024212,-0.475573,-0.10861
0.024212,-0.475573,0.39139
0.0880509,-0.433907,0.0765
0.109364,-0.384823,-0.17919
0.183989,-0.337968,-0.3265
0.315846,-0.337968,0.3265
0.390471,-0.384823,0.17919
-0.36493,-0.140554,0.07081
-0.36493,0.140554,0.42919
-0.36493,0.359281,-0.07081
-0.274179,0.27413,0.35861
-0.225656,-0.225705,0.35861
-0.225656,0.225705,0.14139
-0.183989,-0.161867,-0.3265
-0.183989,0.161867,-0.1735
-0.183989,0.337968,0.3265
-0.134905,-0.359281,0.42919
-0.134905,-0.140554,-0.07081
-0.134905,0.359281,0.07081
-0.109364,-0.115012,-0.17919
-0.109364,0.115012,-0.32081
-0.109364,0.384823,0.17919
-0.0880509,-0.0659282,0.0765
-0.0880509,0.0659282,0.4235
-0.0880509,0.433907,-0.0765
-0.024212,-0.024262,0.39139
-0.024212,0.024262,0.10861
0.024212,-0.024262,-0.10861
0.024212,0.475573,0.10861
0.0880509,-0.0659282,-0.4235
0.0880509,0.0659282,-0.0765
0.0880509,0.433907,0.4235
0.109364,-0.115012,0.32081
0.109364,0.115012,0.17919
0.109364,0.384823,-0.32081
0.134905,-0.359281,-0.07081
0.134905,-0.140554,0.42919
0.134905,0.140554,0.07081
0.183989,-0.161867,0.1735
0.183989,0.161867,0.3265
0.183989,0.337968,-0.1735
0.225656,-0.27413,0.35861
0.225656,-0.225705,-0.14139
0.225656,0.27413,0.14139
0.274179,-0.225705,0.14139
0.274179,0.225705,0.35861
0.274179,0.27413,-0.14139
0.315846,-0.161867,-0.1735
0.315846,0.161867,-0.3265
0.315846,0.337968,0.1735
0.36493,-0.359281,0.07081
0.36493,0.140554,-0.07081
0.36493,0.359281,0.42919
0.390471,-0.115012,-0.32081
0.390471,0.115012,-0.17919
0.390471,0.384823,0.32081
0.411784,-0.433907,-0.0765
0.411784,-0.0659282,0.4235
0.411784,0.0659282,0.0765
0.411784,0.433907,-0.4235
0.475623,-0.024262,0.10861
0.475623,0.024262,0.39139
0.475623,0.475573,-0.10861
-0.499835,-3.99868e-05,-0.41561
-0.415493,-0.0843322,-0.5
-0.499795,-0.499835,-0.41566
-0.499835,-0.499795,-0.41561
-0.0843422,-0.0843322,-0.5
0.0843422,0.0843322,-0.5
0.0843422,-0.415503,-0.5
3.99868e-05,-0.499835,-0.41566
-0.415493,0.415503,-0.5
-0.499795,0.499835,-0.41566
0.415493,0.0843322,-0.5
0.499835,-3.99868e-05,-0.41561
-0.318455,-0.314706,-0.5
-0.18138,-0.314706,-0.5
-0.318455,0.185129,-0.5
0.318455,-0.185129,-0.5
-0.18138,0.185129,-0.5
0.18138,-0.185129,-0.5
0.18138,0.314706,-0.5
0.318455,0.314706,-0.5
-0.249917,-0.225705,-0.5
0.249918,-0.27413,-0.5
-0.249917,0.27413,-0.5
0.249918,0.225705,-0.5
-0.0843422,0.415503,-0.5
3.99868e-05,0.499835,-0.41566
0.499835,-0.499795,-0.41561
0.415493,-0.415503,-0.5
-0.499835,-0.499795,0.08439
-0.499795,-0.499835,-0.08434
-0.499835,-0.497216,0.11616
-0.496906,-0.499835,-0.11707
-0.499835,-0.498855,-0.14707
-0.498895,-0.499835,0.14558
-0.499835,-0.48506,-0.3777
-0.48371,-0.499835,0.38608
-0.499835,3.99868e-05,-0.08439
-0.499835,-3.99868e-05,0.08439
-0.415493,-0.0843322,0.5
-0.499835,3.99868e-05,0.41561
-0.499795,0.499835,-0.08434
-0.499835,0.499795,-0.08439
-0.499835,0.00261914,-0.11616
-0.496906,-0.499835,-0.38293
-0.499835,-0.497216,-0.38384
-0.499835,-0.00261914,-0.38384
-0.499835,-0.00261914,0.11616
-0.499835,0.00261914,0.38384
-0.496906,0.499835,-0.11707
-0.499835,0.497216,-0.11616
-0.499835,-0.000979677,-0.14707
-0.498895,-0.499835,0.35442
-0.499835,-0.498855,0.35293
-0.499835,0.000979677,-0.35293
-0.499835,0.000979677,0.14707
-0.499835,-0.000979677,0.35293
-0.498895,0.499835,0.14558
-0.499835,0.498855,0.14707
-0.499835,-0.0147751,-0.3777
-0.48371,-0.499835,0.11392
-0.499835,-0.48506,0.1223
-0.499835,0.0147751,-0.1223
-0.499835,-0.0147751,0.1223
-0.499835,0.0147751,0.3777
-0.48371,0.499835,0.38608
-0.499835,0.48506,0.3777
-0.496906,0.499835,-0.38293
-0.499835,0.497216,0.38384
-0.499835,0.498855,-0.35293
-0.498895,0.499835,0.35442
-0.499835,0.48506,-0.1223
-0.48371,0.499835,0.11392
0.499795,-0.499835,0.08434
0.499835,-0.499795,0.08439
3.99868e-05,-0.499835,-0.08434
-3.99868e-05,-0.499835,0.08434
0.00292903,-0.499835,-0.38293
0.00292903,-0.499835,-0.11707
-0.00292903,-0.499835,0.38293
-0.00292903,-0.499835,0.11707
0.496906,-0.499835,0.11707
0.499835,-0.497216,0.11616
-0.00093969,-0.499835,-0.14558
-0.00093969,-0.499835,-0.35442
0.00093969,-0.499835,0.35442
0.00093969,-0.499835,0.14558
0.498895,-0.499835,-0.14558
0.499835,-0.498855,-0.14707
-0.024212,-0.499835,-0.25
0.024212,-0.499835,0.25
-0.475623,-0.499835,0.25
0.475623,-0.499835,-0.25
-0.359471,-0.499835,-0.32317
-0.359471,-0.499835,-0.17683
0.140364,-0.499835,-0.32317
0.140364,-0.499835,-0.17683
-0.140364,-0.499835,0.17683
-0.140364,-0.499835,0.32317
0.359471,-0.499835,0.17683
0.359471,-0.499835,0.32317
-0.0161247,-0.499835,-0.38608
-0.0161247,-0.499835,-0.11392
0.0161247,-0.499835,0.11392
0.48371,-0.499835,-0.38608
0.499835,-0.48506,-0.3777
0.0161247,-0.499835,0.38608
-0.0843422,-0.0843322,0.5
-3.99868e-05,-0.499835,0.41566
0.499835,3.99868e-05,-0.08439
0.0843422,0.0843322,0.5
0.0843422,-0.415503,0.5
0.499795,0.499835,0.08434
-0.415493,0.415503,0.5
3.99868e-05,0.499835,-0.08434
0.499835,-3.99868e-05,0.08439
-3.99868e-05,0.499835,0.08434
-0.499835,0.499795,0.41561
0.415493,0.0843322,0.5
0.499835,3.99868e-05,0.41561
0.499835,0.499795,-0.08439
0.499835,0.00261914,-0.11616
0.499835,-0.497216,-0.38384
0.499835,-0.00261914,-0.38384
0.00292903,0.499835,-0.38293
0.00292903,0.499835,-0.11707
0.496906,-0.499835,0.38293
-0.00292903,0.499835,0.38293
0.499835,-0.00261914,0.11616
-0.00292903,0.499835,0.11707
0.496906,0.499835,0.11707
0.499835,0.00261914,0.38384
0.499835,0.497216,-0.11616
-0.318455,-0.314706,0.5
0.498895,-0.499835,-0.35442
0.499835,-0.000979677,-0.14707
-0.18138,-0.314706,0.5
-0.00093969,0.499835,-0.14558
-0.00093969,0.499835,-0.35442
0.499835,-0.498855,0.35293
0.499835,0.000979677,-0.35293
-0.318455,0.185129,0.5
0.318455,-0.185129,0.5
-0.18138,0.185129,0.5
0.18138,-0.185129,0.5
0.00093969,0.499835,0.35442
0.499835,0.000979677,0.14707
0.00093969,0.499835,0.14558
0.18138,0.314706,0.5
0.499835,-0.000979677,0.35293
0.498895,0.499835,-0.14558
0.499835,0.498855,0.14707
0.318455,0.314706,0.5
-0.249917,-0.225705,0.5
-0.024212,0.499835,-0.25
0.249918,-0.27413,0.5
-0.249917,0.27413,0.5
0.024212,0.499835,0.25
-0.475623,0.499835,0.25
0.249918,0.225705,0.5
0.475623,0.499835,-0.25
-0.359471,0.499835,-0.32317
-0.359471,0.499835,-0.17683
0.140364,0.499835,-0.32317
0.140364,0.499835,-0.17683
-0.140364,0.499835,0.17683
-0.140364,0.499835,0.32317
0.359471,0.499835,0.17683
0.359471,0.499835,0.32317
0.499835,-0.0147751,-0.3777
0.48371,-0.499835,-0.11392
-0.0161247,0.499835,-0.38608
-0.0161247,0.499835,-0.11392
0.499835,-0.48506,0.1223
0.499835,0.0147751,-0.1223
0.0161247,0.499835,0.11392
0.499835,-0.0147751,0.1223
0.48371,0.499835,-0.38608
0.499835,0.0147751,0.3777
0.0161247,0.499835,0.38608
0.499835,0.48506,0.3777
-0.0843422,0.415503,0.5
-3.99868e-05,0.499835,0.41566
0.496906,0.499835,0.38293
0.499835,0.497216,0.38384
0.498895,0.499835,-0.35442
0.499835,0.498855,-0.35293
0.48371,0.499835,-0.11392
0.499835,0.48506,-0.1223
0.415493,-0.415503,0.5
0.499795,-0.499835,0.41566
0.499795,0.499835,0.41566
0.499835,0.499795,0.41561
connectivity
1,33
0,29
12,44
3,17
16,58
5,79
8,60
45,60
10,24
59,75
11,75
43,59
25,45
34,77
7,95
74,93
76,94
61,78
0,1
29,33
12,16
17,24
5,7
60,75
8,11
3,10
45,59
44,58
34,74
77,93
79,95
25,43
61,76
78,94
1,32
5,46
18,29
3,19
16,55
8,62
47,60
35,77
24,57
75,89
63,79
13,44
59,71
26,45
7,92
58,72
74,90
43,56
76,91
64,78
29,40
5,52
16,50
53,60
68,77
24,51
75,83
59,65
42,45
70,79
58,66
76,84
0,17
16,29
5,60
24,45
75,77
58,59
76,79
93,94
2,32
46,53
4,19
18,50
47,52
40,55
9,62
68,89
20,23
35,83
21,22
63,84
13,49
80,87
42,57
81,86
66,71
70,91
6,92
65,72
26,51
41,56
69,90
64,85
2,46
15,50
52,63
30,40
9,37
53,62
4,28
68,80
42,47
55,66
22,49
23,51
71,83
6,81
70,82
56,65
73,84
41,48
38,69
72,85
0,96
1,97
98,99
5,100
7,101
102,103
104,105
106,107
2,108
1,109
3,110
9,111
4,112
8,113
6,114
7,115
1,116
8,117
3,118
7,119
3,120
10,121
11,122
8,123
12,124
16,125
12,126
15,127
14,128
12,129
14,130
13,131
17,132
24,133
134,135
136,137
17,138
139,140
0,141
23,142
22,143
144,145
17,146
147,148
0,149
21,150
20,151
152,153
19,154
155,156
18,157
20,158
21,159
160,161
28,162
25,163
27,164
25,165
27,166
26,167
168,169
33,170
29,171
37,172
33,173
34,174
30,175
176,177
33,178
36,179
34,180
31,181
182,183
33,184
34,185
12,186
11,187
14,188
15,189
37,190
36,191
30,192
31,193
39,194
38,195
32,196
36,197
35,198
199,200
31,201
44,202
34,203
77,204
58,205
74,206
79,207
43,208
76,209
93,210
61,211
25,212
78,213
94,214
95,215
80,216
11,217
81,218
10,219
73,220
38,221
48,222
93,223
61,224
82,225
94,226
95,227
44,228
11,229
86,230
49,231
67,232
10,233
39,234
87,235
41,236
74,237
43,238
69,239
54,240
93,241
61,242
78,243
94,244
95,245
88,246
85,247
44,248
10,249
74,250
43,251
61,252
25,253
78,254
95,255
28,256
27,257
67,258
73,259
54,260
48,261
82,262
88,263
86,264
89,265
67,266
57,267
39,268
87,269
54,270
91,271
92,272
90,273
64,274
88,275
276,277
278,279
280,281
282,283
284,285
286,287