-0.5,-0.5,-0.49995
-0.5,0,-0.49995
-0.5,0.5,-0.49995
-0.1217,-0.20644,-0.405269
-0.0958,-0.46528,-0.4992
0.25,-0.25,-0.249975
0.5,-0.5,-0.49995
-0.28472,0.1542,-0.250725
-0.25,-0.25,-0.249975
0.0958,-0.03472,-0.4992
0.1217,-0.29356,-0.405269
0.28472,0.3458,-0.250725
0.5,0,-0.49995
0.5,0.5,-0.49995
-0.5,-0.5,0.49995
-0.5,1.11022e-16,0.49995
-0.5,0.5,0.49995
-0.45644,-0.1283,0.344656
-0.45644,0.3717,-0.344656
-0.4042,-0.03472,-0.000749925
-0.3783,-0.29356,-0.0946805
-0.3783,0.20644,0.0946805
-0.25,0.25,0.249975
-0.21528,-0.1542,0.249225
-0.21528,0.3458,-0.249225
-0.4042,0.46528,0.000749925
-0.28472,-0.3458,0.250725
-0.04356,-0.3717,0.155294
-1.11022e-16,-0.5,5.55112e-16
0.21528,-0.3458,0.249225
0.5,-0.5,0.49995
-0.1217,0.29356,0.405269
-0.0958,0.03472,0.4992
-0.04356,0.1283,-0.155294
-1.11022e-16,0,5.55112e-16
0,0.5,5.55112e-16
0.04356,-0.1283,0.155294
0.04356,0.3717,-0.155294
0.0958,0.46528,0.4992
0.1217,0.20644,0.405269
0.21528,0.1542,-0.249225
0.25,0.25,0.249975
0.28472,-0.1542,0.250725
0.3783,-0.20644,-0.0946805
0.3783,0.29356,0.0946805
0.4042,-0.46528,-0.000749925
0.4042,0.03472,0.000749925
0.45644,-0.3717,0.344656
0.45644,0.1283,-0.344656
0.5,1.11022e-16,0.49995
0.5,0.5,0.49995
-1.11022e-16,-0.5,-0.49995
-0.09409,-0.46786,-0.49995
0.0728,-0.5,-0.490611
-1.11022e-16,0,-0.49995
-0.16658,-0.24481,-0.49995
0.16658,-0.25519,-0.49995
-0.16658,0.25519,-0.49995
0.16658,0.24481,-0.49995
-0.09409,0.03214,-0.49995
0.09409,-0.03214,-0.49995
0.09409,0.46786,-0.49995
0.0728,0.5,-0.490611
-0.5,-0.5,5.55112e-16
-0.5,0,5.55112e-16
-0.5,0.07734,-0.237156
-0.5,-0.07734,0.237156
-0.43388,-0.5,0.0739926
-0.5,-0.42266,0.237156
-0.5,-0.2793,-0.145525
-0.5,-0.2207,-0.145525
-0.5,0.2207,0.145525
-0.5,0.2793,0.145525
-0.5,0.34284,-0.331997
-0.4272,-0.5,-0.00933907
-0.5,-0.39013,-0.0412859
-0.5,-0.15716,0.331997
-0.5,0.15716,-0.331997
-0.5,-0.10987,-0.0412859
-0.5,-0.34284,0.331997
-0.5,0.10987,0.0412859
-0.5,0.42266,-0.237156
-0.43388,0.5,0.0739926
-0.4272,0.5,-0.00933907
-0.5,0.39013,0.0412859
-0.06612,-0.5,-0.425957
0.06612,-0.5,0.425957
-0.22853,-0.5,-0.249515
-0.27147,-0.5,0.250435
0.27147,-0.5,-0.250435
0.22853,-0.5,0.249515
-0.09409,-0.46786,0.49995
-0.0728,-0.5,0.490611
0.5,0,5.55112e-16
1.11022e-16,0.5,0.49995
0,1.11022e-16,0.49995
0.5,0.5,5.55112e-16
-0.16658,-0.24481,0.49995
0.43388,-0.5,-0.0739926
-0.06612,0.5,-0.425957
0.16658,-0.25519,0.49995
0.5,0.07734,-0.237156
0.5,-0.07734,0.237156
-0.16658,0.25519,0.49995
0.5,-0.42266,0.237156
0.16658,0.24481,0.49995
0.06612,0.5,0.425957
-0.22853,0.5,-0.249515
-0.27147,0.5,0.250435
0.27147,0.5,-0.250435
0.22853,0.5,0.249515
0.5,-0.2793,-0.145525
0.5,-0.2207,-0.145525
0.5,0.2207,0.145525
0.5,0.2793,0.145525
0.5,0.34284,-0.331997
0.5,-0.39013,-0.0412859
0.4272,-0.5,0.00933907
0.5,-0.15716,0.331997
0.5,0.15716,-0.331997
0.5,-0.10987,-0.0412859
-0.09409,0.03214,0.49995
0.09409,-0.03214,0.49995
0.5,-0.34284,0.331997
-0.0728,0.5,0.490611
0.5,0.10987,0.0412859
0.09409,0.46786,0.49995
0.43388,0.5,-0.0739926
0.5,0.42266,-0.237156
0.4272,0.5,0.00933907
0.5,0.39013,0.0412859
connectivity
15,28
2,34
30,34
20,23
9,33
21,24
32,36
40,44
29,43
0,4
28,45
7,8
19,34
9,12
5,40
34,46
22,23
25,35
41,42
15,32
38,50
1,18
28,36
8,10
3,5
27,34
33,35
34,37
14,17
22,39
13,48
31,41
47,49
7,37
26,36
27,42
11,33
0,8
1,8
8,28
5,28
8,34
5,6
5,12
5,34
22,34
34,41
15,22
16,22
22,35
35,41
41,49
41,50
12,35
5,51
4,52
3,53
8,54
3,55
10,56
7,57
11,58
10,59
9,60
61,62
8,63
22,64
19,65
17,66
67,68
20,69
8,70
21,71
22,72
18,73
74,75
17,76
24,77
20,78
23,79
19,80
18,81
25,82
25,83
21,84
4,85
27,86
8,87
26,88
5,89
29,90
91,92
5,93
22,94
41,95
41,96
26,97
45,98
37,99
42,100
48,101
46,102
31,103
47,104
39,105
38,106
24,107
22,108
11,109
41,110
5,111
43,112
41,113
44,114
40,115
43,116
45,117
29,118
48,119
46,120
32,121
31,122
47,123
39,124
44,125
38,126
127,128
129,130