-0.25,0,-0.353555
0,-0.25,-0.353555
0,0.25,-0.353555
0.25,0,-0.353555
-0.5,-0.25,0
-0.5,0.25,0
-0.25,-0.5,0
0.25,-0.5,0
-0.25,-0.25,-0.176778
-0.25,-0.25,0.176777
-0.25,0,0.353555
-0.25,0.25,-0.176778
-0.25,0.25,0.176777
-0.25,0.5,0
0,-0.25,0.353555
0,0.25,0.353555
0.25,-0.25,-0.176778
0.25,-0.25,0.176777
0.25,0,0.353555
0.25,0.25,-0.176778
0.25,0.25,0.176777
0.25,0.5,0
0.5,-0.25,0
0.5,0.25,0
connectivity
4,8
4,9
6,8
6,9
0,8
0,11
1,8
1,16
5,11
5,12
2,11
2,19
7,16
7,17
3,16
3,19
9,10
9,14
11,13
16,22
10,12
12,13
12,15
14,17
17,22
17,18
19,21
19,23
15,20
18,20
20,21
20,23