-0.3417,-0.14164,-0.315032
-0.3417,0.14164,-0.315032
-0.14164,-0.3417,-0.315032
-0.14164,0.3417,-0.315032
0.14164,-0.3417,-0.315032
0.14164,0.3417,-0.315032
0.3417,-0.14164,-0.315032
0.3417,0.14164,-0.315032
-0.5,-0.29995,-0.141703
-0.5,-0.29995,0.141703
-0.5,0.29995,-0.141703
-0.5,0.29995,0.141703
-0.29995,-0.5,-0.141703
-0.29995,-0.5,0.141703
0.29995,-0.5,-0.141703
0.29995,-0.5,0.141703
-0.3417,-0.14164,0.315032
-0.3417,0.14164,0.315032
-0.29995,0.5,-0.141703
-0.29995,0.5,0.141703
-0.14164,-0.3417,0.315032
-0.14164,0.3417,0.315032
0.14164,-0.3417,0.315032
0.14164,0.3417,0.315032
0.29995,0.5,-0.141703
0.29995,0.5,0.141703
0.3417,-0.14164,0.315032
0.3417,0.14164,0.315032
0.5,-0.29995,-0.141703
0.5,-0.29995,0.141703
0.5,0.29995,-0.141703
0.5,0.29995,0.141703
-0.3417,-0.14164,-0.45637
-0.14164,-0.3417,-0.45637
-0.3417,0.14164,-0.45637
0.14164,-0.3417,-0.45637
-0.14164,0.3417,-0.45637
0.3417,-0.14164,-0.45637
0.14164,0.3417,-0.45637
0.3417,0.14164,-0.45637
-0.3417,-0.14164,0.45637
-0.14164,-0.3417,0.45637
-0.3417,0.14164,0.45637
0.14164,-0.3417,0.45637
-0.14164,0.3417,0.45637
0.3417,-0.14164,0.45637
0.14164,0.3417,0.45637
0.3417,0.14164,0.45637
connectivity
0,1
2,4
3,5
6,7
16,17
20,22
21,23
26,27
8,12
9,13
10,18
14,28
11,19
15,29
0,2
1,3
4,6
16,20
5,7
17,21
22,26
23,27
0,8
2,12
9,16
13,20
1,10
4,14
11,17
15,22
3,18
6,28
5,24
7,30
19,21
26,29
23,25
27,31
8,9
12,13
10,11
14,15
24,30
25,31
18,19
24,25
28,29
30,31
0,32
2,33
1,34
4,35
3,36
6,37
5,38
7,39
16,40
20,41
17,42
22,43
21,44
26,45
23,46
27,47