-0.5,0,-0.5
-1.11022e-16,-0.5,-0.5
0,0.5,-0.5
0.5,0,-0.5
-0.5,-0.5,0
-0.5,0.5,0
-0.5,-0.26045,0
-0.5,-0.18332,-0.18332
-0.5,-0.18332,0.18332
-0.5,0,-0.26045
-0.5,0,0
-0.5,0,0.26045
-0.5,1.11022e-16,0.5
-0.5,0.18332,-0.18332
-0.5,0.18332,0.18332
-0.5,0.26045,0
-0.26045,-0.5,0
-0.26045,0,-0.5
-0.18332,-0.5,-0.18332
-0.18332,-0.5,0.18332
-0.18332,-0.18332,-0.5
-0.18332,0.18332,-0.5
-1.11022e-16,-0.5,-0.26045
-1.11022e-16,-0.5,0
-1.11022e-16,-0.5,0.26045
0,-0.5,0.5
-1.11022e-16,-0.26045,-0.5
-1.11022e-16,0,-0.5
-1.11022e-16,0.26045,-0.5
0.18332,-0.5,-0.18332
0.18332,-0.5,0.18332
0.18332,-0.18332,-0.5
0.18332,0.18332,-0.5
0.26045,-0.5,0
0.26045,0,-0.5
0.5,-0.5,0
-0.26045,0.5,0
-0.18332,0.5,-0.18332
-0.18332,0.5,0.18332
0,0.5,-0.26045
0,0.5,0
0,0.5,0.26045
1.11022e-16,0.5,0.5
0.18332,0.5,-0.18332
0.18332,0.5,0.18332
0.26045,0.5,0
0.5,0.5,0
0.5,-0.26045,0
0.5,-0.18332,-0.18332
0.5,-0.18332,0.18332
0.5,0,-0.26045
0.5,0,0
0.5,0,0.26045
0.5,1.11022e-16,0.5
0.5,0.18332,-0.18332
0.5,0.18332,0.18332
0.5,0.26045,0
-0.26045,1.11022e-16,0.5
-0.18332,-0.18332,0.5
-0.18332,0.18332,0.5
0,-0.26045,0.5
0,1.11022e-16,0.5
0,0.26045,0.5
0.18332,-0.18332,0.5
0.18332,0.18332,0.5
0.26045,1.11022e-16,0.5
connectivity
6,10
9,10
16,23
17,27
22,23
26,27
10,11
10,15
23,24
23,33
27,28
27,34
6,7
7,9
16,18
18,22
17,20
20,26
6,8
9,13
16,19
17,21
22,29
26,31
8,11
13,15
19,24
21,28
29,33
31,34
11,14
14,15
24,30
28,32
30,33
32,34
4,6
4,16
0,9
0,17
1,22
1,26
11,12
5,15
24,25
2,28
33,35
3,34
7,10
18,23
20,27
8,10
10,13
10,14
19,23
23,29
23,30
21,27
27,31
27,32
36,40
39,40
40,41
40,45
36,37
37,39
36,38
39,43
38,41
43,45
41,44
44,45
5,36
2,39
41,42
45,46
37,40
38,40
40,43
40,44
47,51
50,51
51,52
51,56
47,48
48,50
47,49
50,54
49,52
54,56
52,55
55,56
35,47
3,50
52,53
46,56
48,51
49,51
51,54
51,55
57,61
60,61
61,62
61,65
57,58
58,60
57,59
60,63
59,62
63,65
62,64
64,65
12,57
25,60
42,62
53,65
58,61
59,61
61,63
61,64