-0.261699,-0.182346,-0.49557
-0.137904,0.175596,-0.48332
-0.218601,0.431616,-0.49557
-0.148438,-0.147169,-0.40222
-0.148438,0.396439,-0.34778
-0.0221963,-0.424866,-0.48332
-0.0116617,-0.102101,-0.40222
-0.0116617,0.351371,-0.34778
0.0585005,0.316194,-0.49557
0.101599,-0.066924,-0.49557
0.171762,-0.102101,-0.34778
0.171762,0.351371,-0.40222
0.182296,-0.322944,-0.48332
0.308538,-0.147169,-0.34778
0.308538,0.396439,-0.40222
0.298004,0.0736742,-0.48332
-0.308538,-0.396439,0.40222
-0.308538,-0.351371,-0.15222
-0.308538,0.102101,-0.09778
-0.308538,0.147169,0.34778
-0.298004,-0.175596,0.26668
-0.298004,0.322944,-0.23332
-0.298004,0.424866,-0.01668
-0.261699,-0.066924,0.24557
-0.261699,0.316194,0.00443
-0.261699,0.431616,-0.25443
-0.182296,-0.175596,-0.01668
-0.182296,-0.0736742,-0.23332
-0.182296,0.322944,0.48332
-0.171762,-0.396439,-0.15222
-0.171762,-0.351371,0.40222
-0.171762,0.102101,0.34778
-0.171762,0.147169,-0.09778
-0.148438,-0.102101,0.15222
-0.148438,0.351371,0.09778
-0.137904,-0.424866,0.23332
-0.137904,-0.322944,0.01668
-0.137904,0.0736742,-0.26668
-0.101599,-0.431616,-0.00443
-0.101599,-0.316194,0.25443
-0.101599,0.182346,-0.24557
-0.0116617,-0.147169,0.15222
-0.0116617,0.396439,0.09778
-0.182296,0.424866,0.26668
-0.0585005,-0.431616,-0.24557
0.0116617,-0.396439,-0.09778
0.0116617,-0.351371,0.34778
0.148438,-0.396439,0.34778
0.148438,-0.351371,-0.09778
0.218601,-0.431616,0.49557
0.261699,-0.431616,0.25443
0.298004,-0.424866,0.01668
-0.298004,-0.0736742,0.48332
-0.218601,-0.182346,-0.25443
-0.218601,-0.066924,0.00443
-0.218601,0.316194,0.24557
-0.101599,0.066924,0.49557
-0.0585005,-0.316194,0.49557
-0.0585005,0.066924,0.25443
-0.0585005,0.182346,-0.00443
-0.0221963,-0.322944,-0.26668
-0.0221963,0.0736742,0.01668
-0.0221963,0.175596,0.23332
0.0116617,0.102101,0.40222
0.0116617,0.147169,-0.15222
0.0221963,-0.175596,-0.23332
0.0221963,-0.0736742,-0.01668
0.0221963,0.322944,0.26668
0.0221963,0.424866,0.48332
0.0585005,-0.182346,0.00443
0.0585005,-0.066924,-0.25443
0.0585005,0.431616,0.24557
0.101599,-0.182346,0.24557
0.101599,0.316194,-0.25443
0.101599,0.431616,0.00443
0.137904,-0.175596,0.48332
0.137904,-0.0736742,0.26668
0.137904,0.322944,-0.01668
0.137904,0.424866,-0.23332
0.148438,0.102101,-0.15222
0.148438,0.147169,0.40222
0.171762,-0.147169,0.09778
0.171762,0.396439,0.15222
0.182296,-0.424866,-0.26668
0.182296,0.0736742,0.23332
0.182296,0.175596,0.01668
0.218601,-0.316194,-0.24557
0.218601,0.066924,-0.00443
0.218601,0.182346,0.25443
0.261699,-0.316194,-0.00443
0.261699,0.066924,-0.24557
0.261699,0.182346,0.49557
0.298004,-0.322944,0.23332
0.298004,0.175596,-0.26668
0.308538,-0.102101,0.09778
0.308538,0.351371,0.15222
-0.312233,-0.18093,-0.5
-0.3202,0.180711,-0.4993
-0.26373,-0.191629,-0.5
-0.0564705,-0.306911,-0.5
-0.10363,0.0576412,-0.5
0.0564705,0.306911,-0.5
0.21657,-0.440899,-0.5
0.203961,-0.49854,-0.47248
0.10363,-0.0576412,-0.5
0.26373,0.191629,-0.5
0.165447,-0.325756,-0.5
-0.154753,0.172784,-0.5
-0.314853,-0.076486,-0.5
-0.3202,-0.0773734,-0.49471
-0.00534734,-0.422054,-0.5
0.154753,-0.172784,-0.5
-0.165447,0.325756,-0.5
0.00534734,0.422054,-0.5
-0.1601,-0.24927,-0.5
1.66533e-16,-2.22045e-16,-0.5
0.1601,0.24927,-0.5
-0.317658,-0.298945,-0.5
-0.3202,-0.271804,-0.47278
-0.162642,-0.448865,-0.5
-0.157993,-0.49854,-0.45018
-0.00254239,-0.199595,-0.5
-0.157558,-0.0496745,-0.5
0.00254239,0.199595,-0.5
0.157558,0.0496745,-0.5
-0.00796658,-0.31761,-0.5
-0.152133,0.0683399,-0.5
-0.3202,0.0730561,-0.48527
0.00796658,0.31761,-0.5
0.168067,-0.4302,-0.5
-0.168067,0.4302,-0.5
0.312233,0.18093,-0.5
0.3202,0.180711,-0.4993
-0.21657,0.440899,-0.5
0.203961,0.49854,-0.47248
-0.157993,0.49854,-0.45018
0.162642,0.448865,-0.5
0.314853,0.076486,-0.5
0.3202,-0.0773734,-0.49471
0.3202,-0.271804,-0.47278
0.317658,0.298945,-0.5
0.152133,-0.0683399,-0.5
0.3202,0.0730561,-0.48527
0.3202,0.49854,-0.5
-0.3202,-0.476006,-0.27722
-0.318093,-0.49854,0.29982
-0.3202,-0.353016,-0.15024
-0.3202,-0.37555,-0.12698
-0.3202,-0.12299,-0.37302
-0.3202,0.103746,-0.09976
-0.3202,-0.394794,0.40024
-0.3202,0.12628,-0.12302
-0.3202,-0.12628,0.12302
-0.3202,-0.145524,-0.34976
-0.3202,-0.37226,0.37698
-0.3202,0.37226,-0.37698
-0.3202,0.145524,0.34976
-0.3202,-0.103746,0.09976
-0.3202,0.12299,0.37302
-0.3202,0.394794,-0.40024
-0.3202,0.37555,0.12698
-0.3202,0.353016,0.15024
-0.3202,-0.171897,0.24471
-0.3202,-0.421167,-0.00529
-0.3202,0.326643,-0.25529
-0.3202,0.171897,-0.24471
-0.3202,-0.326643,0.25529
-0.3202,0.421167,0.00529
-0.3202,-0.351371,-0.14876
-0.3202,0.102101,-0.10124
-0.3202,-0.147169,-0.35124
-0.3202,-0.396439,0.39876
-0.3202,-0.102101,0.10124
-0.3202,0.147169,0.35124
-0.3202,0.396439,-0.39876
-0.3202,0.351371,0.14876
-0.3202,-0.24927,-0.25
-0.3202,-1.66533e-16,-1.11022e-16
-0.3202,0.24927,0.25
-0.3202,-0.022534,-0.22278
-0.3202,-0.226736,-0.02722
-0.3202,0.022534,0.22278
-0.3202,0.226736,0.02722
-0.318093,0.49854,0.29982
-0.3202,0.476006,0.27722
-0.3202,-0.224223,-0.49192
-0.3202,-0.274317,-0.00808
-0.3202,0.0250466,-0.24192
-0.3202,0.274317,0.00808
-0.285215,-0.49854,0.26026
-0.3202,-0.473493,0.25808
-0.3202,-0.0250466,0.24192
-0.3202,0.224223,0.49192
-0.3202,-0.176214,0.26473
-0.3202,-0.317829,0.0007
-0.3202,0.322326,-0.23527
-0.3202,-0.425484,0.01473
-0.3202,0.0685592,-0.2507
-0.3202,-0.0685592,0.2507
-0.3202,-0.429981,0.2493
-0.3202,0.317829,-0.0007
-0.3202,0.429981,-0.2493
-0.3202,0.176214,-0.26473
-0.3202,-0.322326,0.23527
-0.3202,0.425484,-0.01473
-0.312233,-0.18093,0.5
-0.3202,-0.180711,0.4993
-0.3202,0.473493,-0.25808
-0.285215,0.49854,0.26026
-0.276339,-0.49854,-0.22248
-0.043861,-0.49854,-0.27752
-0.116239,-0.49854,0.02752
0.116239,-0.49854,-0.02752
0.043861,-0.49854,0.27752
0.276339,-0.49854,0.22248
-0.1601,-0.49854,-0.25
1.66533e-16,-0.49854,-1.11022e-16
0.1601,-0.49854,0.25
0.00210692,-0.49854,-0.20018
-0.162207,-0.49854,-0.04982
-0.00210692,-0.49854,0.20018
0.318093,-0.49854,-0.29982
0.3202,-0.476006,-0.27722
0.162207,-0.49854,0.04982
-0.125115,-0.49854,-0.48974
-0.195085,-0.49854,-0.01026
0.0349851,-0.49854,-0.23974
0.195085,-0.49854,0.01026
-0.0349851,-0.49854,0.23974
0.125115,-0.49854,0.48974
0.3202,-0.353016,-0.15024
0.3202,-0.37555,-0.12698
0.3202,-0.12299,-0.37302
0.3202,0.103746,-0.09976
0.3202,-0.394794,0.40024
0.3202,0.12628,-0.12302
0.3202,-0.12628,0.12302
0.3202,-0.145524,-0.34976
0.3202,-0.37226,0.37698
0.3202,0.37226,-0.37698
0.3202,0.145524,0.34976
0.3202,-0.103746,0.09976
0.3202,0.12299,0.37302
0.3202,0.394794,-0.40024
0.3202,0.37555,0.12698
0.3202,0.353016,0.15024
-0.26373,-0.191629,0.5
-0.203961,-0.49854,0.47248
-0.276339,0.49854,-0.22248
-0.043861,0.49854,-0.27752
-0.116239,0.49854,0.02752
-0.0564705,-0.306911,0.5
-0.10363,0.0576412,0.5
0.0564705,0.306911,0.5
0.116239,0.49854,-0.02752
0.21657,-0.440899,0.5
0.10363,-0.0576412,0.5
0.043861,0.49854,0.27752
0.276339,0.49854,0.22248
0.26373,0.191629,0.5
0.165447,-0.325756,0.5
0.3202,-0.171897,0.24471
-0.3202,0.0773734,0.49471
-0.154753,0.172784,0.5
-0.314853,-0.076486,0.5
0.3202,-0.421167,-0.00529
-0.00534734,-0.422054,0.5
0.3202,0.326643,-0.25529
0.3202,0.171897,-0.24471
0.3202,-0.326643,0.25529
0.154753,-0.172784,0.5
-0.165447,0.325756,0.5
0.3202,0.421167,0.00529
0.00534734,0.422054,0.5
0.3202,-0.351371,-0.14876
0.3202,0.102101,-0.10124
0.3202,-0.147169,-0.35124
0.3202,-0.396439,0.39876
0.3202,-0.102101,0.10124
0.3202,0.147169,0.35124
0.3202,0.396439,-0.39876
0.3202,0.351371,0.14876
-0.3202,-0.49854,0.5
-0.1601,-0.24927,0.5
-0.1601,0.49854,-0.25
0.3202,-0.24927,-0.25
2.22045e-16,0.49854,-1.11022e-16
2.22045e-16,-1.66533e-16,0.5
0.3202,-1.66533e-16,-1.11022e-16
0.1601,0.24927,0.5
0.1601,0.49854,0.25
0.3202,0.24927,0.25
-0.317658,-0.298945,0.5
-0.162642,-0.448865,0.5
0.00210692,0.49854,-0.20018
-0.00254239,-0.199595,0.5
0.3202,-0.022534,-0.22278
-0.157558,-0.0496745,0.5
-0.3202,0.271804,0.47278
-0.162207,0.49854,-0.04982
0.157993,-0.49854,0.45018
-0.00210692,0.49854,0.20018
0.00254239,0.199595,0.5
0.3202,-0.226736,-0.02722
0.3202,0.022534,0.22278
0.157558,0.0496745,0.5
0.318093,0.49854,-0.29982
0.162207,0.49854,0.04982
0.3202,0.226736,0.02722
0.3202,0.476006,0.27722
0.3202,-0.224223,-0.49192
0.285215,-0.49854,-0.26026
-0.125115,0.49854,-0.48974
-0.195085,0.49854,-0.01026
0.3202,-0.274317,-0.00808
0.3202,0.0250466,-0.24192
0.3202,0.274317,0.00808
0.3202,-0.473493,0.25808
0.0349851,0.49854,-0.23974
0.3202,-0.0250466,0.24192
0.195085,0.49854,0.01026
-0.0349851,0.49854,0.23974
0.125115,0.49854,0.48974
0.3202,0.224223,0.49192
0.3202,-0.176214,0.26473
0.3202,-0.317829,0.0007
-0.3202,-0.0730561,0.48527
0.3202,0.322326,-0.23527
-0.00796658,-0.31761,0.5
0.3202,-0.425484,0.01473
0.3202,0.0685592,-0.2507
0.3202,-0.0685592,0.2507
0.3202,-0.429981,0.2493
0.3202,0.317829,-0.0007
-0.152133,0.0683399,0.5
0.3202,0.429981,-0.2493
0.3202,0.176214,-0.26473
0.3202,-0.322326,0.23527
0.3202,0.425484,-0.01473
0.3202,-0.180711,0.4993
0.00796658,0.31761,0.5
0.168067,-0.4302,0.5
-0.168067,0.4302,0.5
0.312233,0.18093,0.5
-0.21657,0.440899,0.5
-0.203961,0.49854,0.47248
0.162642,0.448865,0.5
0.157993,0.49854,0.45018
0.285215,0.49854,-0.26026
0.3202,0.473493,-0.25808
0.314853,0.076486,0.5
0.3202,0.0773734,0.49471
0.317658,0.298945,0.5
0.3202,0.271804,0.47278
0.152133,-0.0683399,0.5
0.3202,-0.0730561,0.48527
connectivity
17,45
29,48
3,10
6,13
18,64
32,79
33,81
41,94
16,46
30,47
4,11
7,14
31,80
19,63
34,82
42,95
29,53
45,69
32,54
18,24
64,70
4,40
33,39
19,23
10,86
41,58
42,59
73,79
81,87
47,72
89,94
13,90
31,55
82,88
17,36
3,65
6,27
48,60
26,41
45,83
18,37
16,35
33,66
64,85
61,79
34,67
62,80
76,94
42,43
77,95
14,78
63,84
29,45
6,10
32,64
41,81
30,46
7,11
31,63
42,82
32,34
31,33
48,81
10,79
41,46
7,64
3,29
6,64
41,45
32,33
4,32
30,33
10,48
41,63
42,64
79,81
11,79
47,81
31,34
80,82
53,60
36,69
65,86
37,70
54,61
1,8
9,15
21,40
20,39
66,87
59,77
58,76
72,92
52,56
73,93
57,75
55,62
67,88
53,65
44,83
27,70
60,86
26,69
54,66
61,87
59,85
58,84
62,88
55,67
43,71
0,96
1,97
0,98
6,99
3,100
8,101
102,103
9,104
14,105
12,106
1,107
108,109
5,110
13,111
7,112
4,113
3,114
6,115
11,116
117,118
119,120
6,121
3,122
7,123
10,124
12,125
126,127
8,128
5,129
2,130
131,132
2,133
11,134
4,135
11,136
15,137
10,138
13,139
14,140
9,141
15,142
14,143
17,144
16,145
17,146
29,147
3,148
18,149
16,150
32,151
33,152
6,153
30,154
4,155
19,156
41,157
31,158
7,159
34,160
42,161
20,162
29,163
21,164
32,165
30,166
22,167
17,168
18,169
3,170
16,171
33,172
19,173
4,174
34,175
17,176
18,177
19,178
18,179
17,180
19,181
18,182
183,184
0,185
26,186
27,187
24,188
189,190
23,191
28,192
20,193
36,194
21,195
38,196
37,197
23,198
35,199
24,200
25,201
40,202
39,203
22,204
205,206
25,207
43,208
17,209
44,210
38,211
48,212
46,213
50,214
29,215
45,216
47,217
45,218
29,219
46,220
221,222
48,223
5,224
38,225
44,226
51,227
35,228
49,229
45,230
48,231
10,232
64,233
46,234
79,235
81,236
13,237
47,238
11,239
63,240
94,241
80,242
14,243
82,244
95,245
16,246
30,247
25,248
7,249
34,250
57,251
56,252
63,253
74,254
49,255
80,256
71,257
95,258
91,259
46,260
81,261
31,262
19,263
52,264
51,265
47,266
11,267
93,268
92,269
75,270
28,271
82,272
68,273
48,274
79,275
13,276
47,277
94,278
80,279
14,280
95,281
16,282
30,283
4,284
13,285
42,286
63,287
94,288
80,289
82,290
95,291
16,292
30,293
7,294
46,295
13,296
31,297
19,298
34,299
47,300
42,301
63,302
94,303
94,304
80,305
14,306
82,307
95,308
95,309
12,310
83,311
2,312
22,313
89,314
90,315
85,316
50,317
78,318
84,319
74,320
71,321
68,322
91,323
72,324
89,325
52,326
73,327
57,328
51,329
90,330
76,331
50,332
77,333
56,334
78,335
93,336
92,337
74,338
75,339
28,340
49,341
68,342
91,343
344,345
346,347
348,349
350,351
352,353
354,355