-0.157884,-0.20118,-0.375
-1.11022e-16,-0.26824,-0.5
0.118881,-0.20118,-0.47161
-0.356644,0.06706,-0.47161
-0.237763,0.13412,-0.5
-0.157893,-0.111507,-0.43075
-0.157893,0.245627,-0.31925
-0.0798787,0.06706,-0.375
-0.0798692,-0.0226126,-0.43075
-0.0798692,0.156733,-0.31925
-5.55112e-17,0.26824,-0.5
0.237762,-0.13412,-0.5
0.317632,-0.0226126,-0.31925
0.317632,0.156733,-0.43075
0.317641,0.06706,-0.375
0.395646,-0.20118,-0.375
0.395656,-0.111507,-0.31925
0.475525,1.66533e-16,-0.5
0.395656,0.245627,-0.43075
-0.475525,-0.26824,-1.11022e-16
-0.475525,-0.13412,0.25
-0.475525,0.13412,-0.25
-0.475525,0.26824,-1.11022e-16
-0.395656,-0.156733,-0.18075
-0.395656,0.0226126,-0.06925
-0.395656,0.111507,0.31925
-0.356644,-0.20118,0.02839
-0.356644,-0.20118,0.22161
-0.317632,-0.245627,-0.18075
-0.237763,-0.26824,0.25
-0.237763,-0.13412,-1.11022e-16
-0.0798787,-0.20118,0.125
-5.55112e-17,-0.26824,0.5
-1.11022e-16,-0.13412,-0.25
0.0798692,-0.245627,-0.06925
0.118881,-0.20118,-0.27839
0.157893,-0.245627,0.31925
0.237762,-0.26824,-0.25
0.317641,-0.20118,0.125
0.475525,-0.26824,-1.11022e-16
0.475525,-0.13412,0.25
-0.475525,2.22045e-16,0.5
-0.395656,-0.245627,0.43075
-0.395646,-0.06706,-0.125
-0.395646,0.20118,0.375
-0.356644,0.06706,-0.27839
-0.317641,-0.06706,0.375
-0.317641,0.20118,-0.125
-0.317632,-0.156733,0.43075
-0.317632,0.0226126,0.31925
-0.317632,0.111507,-0.06925
-0.237763,1.66533e-16,-0.25
-0.237763,0.13412,0.5
-0.237763,0.26824,0.25
-0.157893,-0.0226126,0.18075
-0.157893,0.156733,0.06925
-0.157884,0.06706,0.125
-0.118881,-0.06706,-0.22161
-0.118881,-0.06706,-0.02839
-0.118881,0.20118,0.27839
-0.118881,0.20118,0.47161
-0.0798692,-0.111507,0.18075
-0.0798692,0.245627,0.06925
-5.55112e-17,2.22045e-16,-1.11022e-16
-5.55112e-17,0.13412,0.25
0,0.26824,0.5
0.0798692,-0.156733,0.31925
0.0798692,0.0226126,0.43075
0.0798692,0.111507,-0.18075
0.0798787,-0.06706,0.375
0.0798787,0.20118,-0.125
0.118881,0.06706,0.02839
0.118881,0.06706,0.22161
0.157884,-0.06706,-0.125
0.157884,0.20118,0.375
0.157893,-0.156733,-0.06925
0.157893,0.0226126,-0.18075
0.157893,0.111507,0.43075
0.237762,-0.13412,0.5
0.237762,2.22045e-16,0.25
0.237762,0.13412,-1.11022e-16
0.237762,0.26824,-0.25
0.317632,-0.111507,0.06925
0.317632,0.245627,0.18075
0.356644,-0.06706,0.27839
0.356644,-0.06706,0.47161
0.356644,0.20118,-0.22161
0.356644,0.20118,-0.02839
0.395646,0.06706,0.125
0.395656,-0.0226126,0.06925
0.395656,0.156733,0.18075
0.475525,0.13412,-0.25
0.475525,0.26824,-1.11022e-16
-0.138378,-0.26824,-0.45169
0.1261,-0.226003,-0.5
-0.351346,0.0610246,-0.5
0.113584,-0.195145,-0.5
0.124179,-0.207215,-0.5
-0.361941,0.0730954,-0.5
-0.113584,0.195145,-0.5
-0.124179,0.207215,-0.5
0.351346,-0.0610246,-0.5
0.361941,-0.0730954,-0.5
-0.237763,-0.13412,-0.5
-1.11022e-16,1.66533e-16,-0.5
0.237762,0.13412,-0.5
-0.349425,0.0422371,-0.5
0.111663,-0.176357,-0.5
-0.363862,0.0918829,-0.5
-0.111663,0.176357,-0.5
-0.1261,0.226003,-0.5
-0.138378,0.26824,-0.45169
0.363862,-0.0918829,-0.5
0.349425,-0.0422371,-0.5
0.475525,0.26824,-0.5
-0.475525,-0.13412,-0.25
-0.475525,2.22045e-16,-1.11022e-16
-0.475525,0.13412,0.25
-0.340409,-0.26824,-0.19074
-0.135116,-0.26824,-0.30926
0.135116,-0.26824,0.30926
0.102647,-0.26824,-0.05926
-0.102647,-0.26824,0.05926
0.372878,-0.26824,-0.44074
0.340409,-0.26824,0.19074
-0.237763,-0.26824,-0.25
-5.55112e-17,-0.26824,-1.11022e-16
0.237762,-0.26824,0.25
-0.337147,-0.26824,-0.04831
0.0993847,-0.26824,-0.20169
-0.0993847,-0.26824,0.20169
-0.37614,-0.26824,0.29831
0.37614,-0.26824,-0.29831
0.337147,-0.26824,0.04831
0.1261,-0.226003,0.5
0.138378,-0.26824,0.45169
-0.340409,0.26824,-0.19074
-0.372878,-0.26824,0.44074
-0.135116,0.26824,-0.30926
0.135116,0.26824,0.30926
0.102647,0.26824,-0.05926
-0.102647,0.26824,0.05926
0.372878,0.26824,-0.44074
0.340409,0.26824,0.19074
-0.351346,0.0610246,0.5
0.113584,-0.195145,0.5
0.124179,-0.207215,0.5
-0.361941,0.0730954,0.5
-0.113584,0.195145,0.5
-0.124179,0.207215,0.5
0.351346,-0.0610246,0.5
0.361941,-0.0730954,0.5
-0.475525,-0.26824,0.5
-0.237763,-0.13412,0.5
0.475525,-0.13412,-0.25
-0.237763,0.26824,-0.25
0.475525,2.22045e-16,-1.11022e-16
0,0.26824,-1.11022e-16
-5.55112e-17,2.22045e-16,0.5
0.237762,0.13412,0.5
0.475525,0.13412,0.25
0.237762,0.26824,0.25
-0.349425,0.0422371,0.5
-0.337147,0.26824,-0.04831
0.111663,-0.176357,0.5
0.0993847,0.26824,-0.20169
-0.0993847,0.26824,0.20169
-0.363862,0.0918829,0.5
-0.37614,0.26824,0.29831
0.37614,0.26824,-0.29831
0.337147,0.26824,0.04831
-0.111663,0.176357,0.5
-0.1261,0.226003,0.5
0.363862,-0.0918829,0.5
0.349425,-0.0422371,0.5
0.138378,0.26824,0.45169
-0.372878,0.26824,0.44074
connectivity
1,5
20,49
29,61
4,8
16,37
23,51
24,30
9,51
33,76
63,75
22,50
55,63
54,64
41,48
12,91
68,81
66,79
39,82
25,53
13,17
80,89
79,90
67,78
65,77
19,23
20,42
21,24
29,48
4,6
37,75
11,12
28,30
5,51
30,54
50,51
8,33
33,34
61,63
63,68
9,10
76,80
16,17
49,52
32,66
53,55
79,82
36,78
25,41
13,81
40,89
62,64
64,67
77,79
80,83
18,91
90,92
0,1
20,46
21,47
29,31
4,7
15,37
11,15
0,33
30,43
43,51
30,31
7,51
33,73
63,73
56,63
56,64
41,46
22,47
38,39
38,40
14,17
14,91
69,79
69,78
70,80
70,81
64,74
79,88
80,88
44,52
44,53
65,74
26,28
23,26
5,57
8,57
24,45
45,50
34,35
35,75
58,61
54,58
27,42
27,48
71,76
68,71
55,59
82,84
67,72
72,77
13,86
84,89
59,62
18,86
87,90
83,87
75,82
50,55
61,66
49,54
9,68
12,76
0,57
26,43
43,45
7,57
45,47
35,73
31,58
56,58
27,46
71,73
56,59
70,71
38,84
14,86
69,72
72,74
84,88
87,88
0,93
2,94
3,95
2,96
2,97
3,98
9,99
6,100
12,101
16,102
5,103
8,104
13,105
3,106
2,107
3,108
7,109
110,111
15,112
14,113
18,114
23,115
24,116
25,117
28,118
33,119
36,120
34,121
30,122
11,123
40,124
28,125
34,126
36,127
26,128
35,129
31,130
27,131
15,132
38,133
134,135
21,136
42,137
6,138
64,139
80,140
62,141
18,142
83,143
49,144
66,145
36,146
25,147
60,148
60,149
85,150
85,151
42,152
48,153
16,154
6,155
89,156
62,157
67,158
77,159
90,160
83,161
46,162
47,163
69,164
70,165
59,166
44,167
44,168
86,169
87,170
60,171
60,172
85,173
85,174
74,175
52,176