-0.488655,-1.66533e-16,-0.5
-0.451117,0.390203,-0.47236
-3.33067e-16,-0.465325,-0.5
-0.281866,-0.15754,-0.47236
-0.244328,0.232662,-0.5
-0.15591,-0.0347412,-0.45608
-0.0884172,-0.197921,-0.45608
-2.77556e-16,0.465325,-0.5
0.0375385,-0.0751221,-0.47236
0.206789,0.307785,-0.47236
0.244327,-0.232663,-0.5
0.400238,0.267404,-0.45608
0.488655,-1.66533e-16,-0.5
0.332745,0.430584,-0.45608
-0.488655,-0.232663,0.25
-0.488655,-1.11022e-16,0.5
-0.488655,0.232662,-0.25
-0.451117,-0.15754,-0.27764
-0.451117,-0.0751221,0.02764
-0.451117,0.307785,0.22236
-0.400238,-0.430584,-0.20608
-0.400238,-0.267404,0.45608
-0.400238,0.0347412,0.29392
-0.400238,0.197921,-0.04392
-0.488655,0.465325,-1.11022e-16
-0.332745,-0.430584,0.45608
-0.244328,-0.465325,0.25
-0.206789,-0.390203,-0.22236
-0.198716,-0.348994,0.125
-0.0456111,-0.348994,-0.375
-0.0375385,-0.390203,-0.02764
-2.77556e-16,-0.465325,0.5
0.0884172,-0.430584,0.29392
0.15591,-0.430584,-0.04392
0.244327,-0.465325,-0.25
0.281866,-0.390203,0.27764
0.289939,-0.348994,-0.375
0.443044,-0.348994,0.125
-0.443044,-0.116331,0.375
-0.443044,0.348994,-0.125
-0.366491,-0.196181,0.125
-0.366491,-0.0364815,-0.375
-0.366491,0.269144,-0.375
-0.366491,0.428844,0.125
-0.332745,-0.267404,-0.20608
-0.332745,0.0347412,-0.04392
-0.332745,0.197921,0.29392
-0.289939,-0.116331,-0.125
-0.289939,0.348994,0.375
-0.281866,-0.0751221,0.22236
-0.281866,0.307785,0.02764
-0.281866,0.390203,-0.27764
-0.244328,-0.232663,-1.11022e-16
-0.244328,-1.66533e-16,-0.25
-0.244328,0.232662,0.5
-0.244328,0.465325,0.25
-0.206789,-0.307785,0.47236
-0.206789,0.0751221,0.27764
-0.206789,0.15754,-0.02764
-0.198716,0.116331,-0.375
-0.15591,-0.197921,0.20608
-0.15591,0.267404,-0.29392
-0.15591,0.430584,0.04392
-0.122164,-0.428844,0.375
-0.122164,-0.269144,-0.125
-0.122164,0.0364815,-0.125
-0.122164,0.196181,0.375
-0.0884172,-0.0347412,0.20608
-0.0884172,0.267404,0.04392
-0.0884172,0.430584,-0.29392
-0.0456111,0.116331,0.125
-0.0375385,-0.307785,0.27764
-0.0375385,0.0751221,0.47236
-0.0375385,0.15754,-0.22236
-3.33067e-16,-0.232663,-0.25
-2.22045e-16,-1.11022e-16,-1.11022e-16
-2.22045e-16,0.232662,0.25
-2.22045e-16,0.465325,0.5
0.0375385,-0.15754,0.22236
0.0375385,0.307785,-0.27764
0.0375385,0.390203,0.02764
0.0456111,-0.116331,-0.125
0.0456111,0.348994,0.375
0.0884172,-0.267404,-0.04392
0.0884172,0.0347412,-0.20608
0.0884172,0.197921,0.45608
0.122164,-0.196181,-0.375
0.122164,-0.0364815,0.125
0.122164,0.269144,0.125
0.122164,0.428844,-0.375
0.15591,-0.267404,0.29392
0.15591,0.0347412,0.45608
0.15591,0.197921,-0.20608
0.198716,-0.116331,0.375
0.198716,0.348994,-0.125
0.206789,-0.15754,0.02764
0.206789,-0.0751221,-0.27764
0.206789,0.390203,0.22236
0.244327,-0.232663,0.5
0.244327,-1.11022e-16,0.25
0.244327,0.232662,-1.11022e-16
0.244327,0.465325,-0.25
0.281866,-0.307785,-0.02764
0.281866,0.0751221,-0.22236
0.281866,0.15754,0.47236
0.289939,0.116331,0.125
0.332745,-0.197921,-0.29392
0.332745,-0.0347412,0.04392
0.332745,0.267404,0.20608
0.366491,-0.428844,-0.125
0.366491,-0.269144,0.375
0.366491,0.0364815,0.375
0.366491,0.196181,-0.125
0.400238,-0.197921,0.04392
0.400238,-0.0347412,-0.29392
0.400238,0.430584,0.20608
0.443044,0.116331,-0.375
0.451117,-0.390203,0.47236
0.451117,-0.307785,-0.22236
0.451117,0.0751221,-0.02764
0.451117,0.15754,0.27764
0.488655,-0.465325,-1.11022e-16
0.488655,-0.232663,0.25
0.488655,-1.11022e-16,0.5
0.488655,0.232662,-0.25
-0.488655,0.465325,-0.5
-0.244328,-0.232663,-0.5
-2.77556e-16,-1.66533e-16,-0.5
0.244327,0.232662,-0.5
-0.327585,-0.199978,-0.5
-0.16107,-0.265347,-0.5
-0.083257,0.0326844,-0.5
0.083257,-0.0326844,-0.5
0.16107,0.265347,-0.5
0.405398,-0.432641,-0.5
0.370176,-0.465325,-0.47871
0.327585,0.199978,-0.5
-0.405398,0.432641,-0.5
0.370176,0.465325,-0.47871
-0.488655,-0.232663,-0.25
-0.488655,-1.11022e-16,-1.11022e-16
-0.488655,0.232662,0.25
-0.488655,-0.344378,-0.21751
-0.488655,-0.120947,-0.28249
-0.488655,-0.111715,0.03249
-0.488655,0.35361,-0.46751
-0.488655,0.111715,-0.03249
-0.488655,-0.35361,0.46751
-0.488655,0.120947,0.28249
-0.488655,0.344378,0.21751
-0.244328,-0.465325,-0.25
-2.77556e-16,-0.465325,-1.11022e-16
0.244327,-0.465325,0.25
-0.362807,-0.465325,-0.22871
-0.125848,-0.465325,-0.27129
-0.118479,-0.465325,0.02129
0.118479,-0.465325,-0.02129
0.125848,-0.465325,0.27129
0.362807,-0.465325,0.22871
-0.410079,-0.465325,-0.18743
-0.0785757,-0.465325,-0.31257
-0.165752,-0.465325,0.06257
0.165752,-0.465325,-0.06257
-0.322903,-0.465325,0.43743
0.322903,-0.465325,-0.43743
0.0785757,-0.465325,0.31257
0.410079,-0.465325,0.18743
-0.244328,0.465325,-0.25
0.488655,-0.232663,-0.25
-0.244328,-0.232663,0.5
-2.22045e-16,0.465325,-1.11022e-16
0.488655,-1.11022e-16,-1.11022e-16
-2.22045e-16,-1.11022e-16,0.5
0.244327,0.465325,0.25
0.488655,-0.465325,0.5
0.488655,0.232662,0.25
0.244327,0.232662,0.5
-0.362807,0.465325,-0.22871
-0.370176,-0.465325,0.47871
-0.327585,-0.199978,0.5
-0.16107,-0.265347,0.5
-0.125848,0.465325,-0.27129
-0.118479,0.465325,0.02129
0.118479,0.465325,-0.02129
-0.083257,0.0326844,0.5
0.083257,-0.0326844,0.5
0.16107,0.265347,0.5
0.125848,0.465325,0.27129
0.405398,-0.432641,0.5
0.327585,0.199978,0.5
0.362807,0.465325,0.22871
0.488655,-0.344378,-0.21751
0.488655,-0.120947,-0.28249
0.488655,-0.111715,0.03249
0.488655,0.35361,-0.46751
0.488655,0.111715,-0.03249
0.488655,-0.35361,0.46751
0.488655,0.120947,0.28249
0.488655,0.344378,0.21751
-0.410079,0.465325,-0.18743
-0.0785757,0.465325,-0.31257
-0.165752,0.465325,0.06257
0.165752,0.465325,-0.06257
-0.322903,0.465325,0.43743
0.322903,0.465325,-0.43743
0.0785757,0.465325,0.31257
0.410079,0.465325,0.18743
-0.405398,0.432641,0.5
-0.370176,0.465325,0.47871
connectivity
96,103
73,79
49,57
50,58
71,78
95,102
17,44
18,45
83,95
60,71
84,96
23,50
61,73
22,49
58,68
106,118
102,113
57,67
78,90
79,92
103,114
19,46
107,119
108,120
3,5
27,44
6,8
30,83
45,58
33,102
49,60
73,84
96,106
51,61
32,71
67,78
95,107
25,56
50,62
46,57
92,103
69,79
68,80
35,90
9,13
72,85
91,104
97,108
3,41
17,41
27,64
30,64
18,40
8,86
40,49
86,96
65,73
58,65
1,42
42,51
63,71
102,109
87,95
56,63
109,118
78,87
43,50
57,66
79,89
103,112
9,89
19,43
35,110
80,88
88,97
66,72
112,119
110,117
111,120
104,111
20,44
5,6
23,45
33,83
60,67
84,92
61,69
106,114
22,46
21,25
32,90
62,68
107,113
11,13
85,91
108,115
2,29
14,38
16,39
26,28
4,59
34,36
10,36
29,74
47,52
47,53
28,52
53,59
74,81
75,81
70,75
15,38
24,39
70,76
37,121
37,122
12,116
116,124
76,82
93,99
99,105
94,100
100,105
93,98
94,101
48,54
48,55
77,82
44,47
6,29
45,47
5,59
28,60
59,61
81,83
81,84
36,106
23,39
67,70
22,38
21,38
68,70
92,94
114,116
90,93
46,48
37,113
105,107
11,116
91,93
105,108
82,85
0,41
14,40
16,42
26,63
4,42
34,109
10,86
41,53
52,64
64,74
40,52
53,65
74,86
65,75
75,87
31,63
109,121
87,99
24,43
43,55
7,89
89,101
76,88
66,76
99,111
88,100
100,112
54,66
112,124
98,110
110,122
111,123
1,125
3,126
8,127
9,128
3,129
6,130
5,131
8,132
9,133
134,135
11,136
1,137
13,138
17,139
18,140
19,141
20,142
17,143
18,144
1,145
23,146
21,147
22,148
19,149
27,150
30,151
35,152
20,153
27,154
30,155
33,156
32,157
35,158
20,159
29,160
28,161
33,162
25,163
36,164
32,165
37,166
51,167
118,168
56,169
80,170
119,171
72,172
97,173
117,174
120,175
104,176
51,177
25,178
21,179
56,180
69,181
62,182
80,183
72,184
91,185
85,186
97,187
117,188
104,189
115,190
118,191
114,192
113,193
11,194
119,195
117,196
120,197
115,198
39,199
69,200
62,201
94,202
48,203
13,204
82,205
115,206
207,208