-0.513059,0.306631,-0.505549
0.306631,-0.505549,-0.513059
-0.334409,-0.0222289,-0.513059
-0.317609,-0.0117689,-0.407289
-0.264719,0.244451,-0.443369
-0.261769,-0.0676089,-0.370489
-0.250729,0.130101,-0.410639
-0.160639,0.0921211,-0.500729
-0.120489,0.289831,-0.511769
-0.119899,-0.000728889,-0.367139
0.0927111,0.182391,-0.511769
0.132861,0.380101,-0.500729
0.222951,0.342121,-0.410639
0.233991,-0.460169,-0.370489
0.236941,0.227771,-0.443369
0.289831,0.483991,-0.407289
0.0921211,0.472951,-0.367139
0.485281,0.165591,-0.505549
-0.505549,-0.513059,0.306631
-0.513059,-0.334409,-0.0222289
-0.511769,-0.120489,0.289831
-0.511769,0.0927111,0.182391
-0.500729,-0.160639,0.0921211
-0.500729,0.132861,0.380101
-0.443369,-0.264719,0.244451
-0.443369,0.236941,0.227771
-0.410639,-0.250729,0.130101
-0.410639,0.222951,0.342121
-0.407289,-0.317609,-0.0117689
-0.407289,0.289831,0.483991
-0.370489,-0.261769,-0.0676089
-0.370489,0.233991,-0.460169
-0.367139,-0.119899,-0.000728889
-0.505549,0.485281,0.165591
-0.460169,-0.370489,0.233991
-0.0676089,-0.370489,-0.261769
-0.0222289,-0.513059,-0.334409
-0.0117689,-0.407289,-0.317609
-0.000728889,-0.367139,-0.119899
0.0921211,-0.500729,-0.160639
0.130101,-0.410639,-0.250729
0.182391,-0.511769,0.0927111
0.227771,-0.443369,0.236941
0.244451,-0.443369,-0.264719
0.289831,-0.511769,-0.120489
0.342121,-0.410639,0.222951
0.380101,-0.500729,0.132861
0.483991,-0.407289,0.289831
-0.460169,0.342711,0.238231
-0.407879,-0.0270489,0.132861
-0.407879,-0.000728889,0.339361
-0.369899,-0.117139,0.222951
-0.369899,0.0893611,0.249271
-0.367139,0.0921211,0.472951
-0.334409,-0.00554889,-0.0147189
-0.317609,-0.0160089,-0.120489
-0.277049,-0.157879,0.0893611
-0.277049,0.130101,0.382861
-0.272229,-0.0844089,-0.264719
-0.272229,0.0566311,-0.263059
-0.266009,-0.0676089,0.342711
-0.266009,0.0398311,0.129511
-0.264719,-0.272229,-0.0844089
-0.263059,-0.272229,0.0566311
-0.263059,0.244451,0.415591
-0.261769,0.0398311,-0.157289
-0.255549,-0.0844089,0.236941
-0.255549,0.0566311,0.235281
-0.250729,-0.157879,-0.117139
-0.210169,-0.0160089,0.0927111
-0.210169,-0.0117689,0.379511
-0.193369,-0.0222289,0.485281
-0.193369,-0.00554889,-0.0130589
-0.160639,-0.119899,-0.0270489
-0.157879,-0.117139,-0.250729
-0.157879,0.0893611,-0.277049
-0.157289,-0.261769,0.0398311
-0.157289,0.233991,0.432391
-0.120489,-0.317609,-0.0160089
-0.119899,-0.0270489,-0.160639
-0.117139,-0.250729,-0.157879
-0.117139,0.222951,-0.369899
-0.0844089,-0.264719,-0.272229
-0.0844089,0.236941,-0.255549
-0.0676089,0.342711,-0.266009
-0.0270489,-0.160639,-0.119899
-0.0270489,0.132861,-0.407879
-0.0222289,0.485281,-0.193369
-0.0160089,-0.120489,-0.317609
-0.0160089,0.0927111,-0.210169
-0.0147189,-0.334409,-0.00554889
-0.0147189,0.306631,0.477771
-0.0130589,-0.193369,-0.00554889
-0.0130589,0.165591,0.477771
-0.0117689,0.379511,-0.210169
-0.00554889,-0.0147189,-0.334409
-0.00554889,-0.0130589,-0.193369
-0.000728889,0.339361,-0.407879
0.0398311,-0.157289,-0.261769
0.0398311,0.129511,-0.266009
0.0566311,-0.263059,-0.272229
0.0566311,0.235281,-0.255549
0.0893611,-0.277049,-0.157879
0.0893611,0.249271,-0.369899
0.0927111,-0.210169,-0.0160089
0.129511,-0.266009,0.0398311
0.129511,0.238231,0.432391
0.130101,0.382861,-0.277049
0.132861,-0.407879,-0.0270489
0.165591,-0.505549,0.485281
0.165591,0.477771,-0.0130589
0.182391,0.483991,0.379511
0.222951,-0.369899,-0.117139
0.227771,0.415591,0.235281
0.233991,0.432391,-0.157289
0.235281,-0.255549,0.0566311
0.235281,0.227771,0.415591
0.236941,-0.255549,-0.0844089
0.238231,-0.460169,0.342711
0.238231,0.432391,0.129511
0.244451,0.415591,-0.263059
0.249271,-0.369899,0.0893611
0.249271,0.342121,0.382861
0.306631,0.477771,-0.0147189
0.339361,-0.407879,-0.000728889
0.339361,0.380101,0.472951
0.342121,0.382861,0.249271
0.342711,-0.266009,-0.0676089
0.342711,0.238231,-0.460169
0.379511,-0.210169,-0.0117689
0.379511,0.182391,0.483991
0.380101,0.472951,0.339361
0.382861,-0.277049,0.130101
0.382861,0.249271,0.342121
0.415591,-0.263059,0.244451
0.415591,0.235281,0.227771
0.432391,-0.157289,0.233991
0.432391,0.129511,0.238231
0.472951,-0.367139,0.0921211
0.472951,0.339361,0.380101
0.477771,-0.0147189,0.306631
0.477771,-0.0130589,0.165591
0.483991,0.379511,0.182391
0.485281,-0.193369,-0.0222289
-0.513889,0.307041,-0.505669
0.307041,-0.505669,-0.513889
-0.334019,-0.0224889,-0.513889
0.306241,-0.505289,-0.513889
-0.193759,-0.0224889,-0.513889
0.165981,-0.505289,-0.513889
-0.166079,0.0807011,-0.513889
-0.361699,0.0807011,-0.513889
0.138301,0.391521,-0.513889
0.333921,0.391521,-0.513889
-0.334819,-0.0221089,-0.513889
-0.192959,-0.0221089,-0.513889
-0.457469,0.137091,-0.513889
-0.513889,0.165181,-0.505669
0.165181,-0.505669,-0.513889
0.137091,-0.513889,-0.457469
-0.0703089,0.137091,-0.513889
0.0425311,0.335131,-0.513889
0.429691,0.335131,-0.513889
0.486111,0.307041,-0.505669
-0.124649,0.288511,-0.513889
-0.403129,0.288511,-0.513889
0.0968711,0.183711,-0.513889
0.375351,0.183711,-0.513889
-0.173799,0.0964111,-0.513889
-0.353979,0.0964111,-0.513889
0.146021,0.375811,-0.513889
0.326201,0.375811,-0.513889
0.137091,0.486111,-0.457469
0.486111,0.165181,-0.505669
-0.505669,-0.513889,0.307041
-0.513889,-0.334019,-0.0224889
-0.513889,0.306241,-0.505289
-0.513889,-0.193759,-0.0224889
-0.513889,0.165981,-0.505289
-0.513889,-0.166079,0.0807011
-0.513889,-0.361699,0.0807011
-0.513889,0.138301,0.391521
-0.513889,0.333921,0.391521
-0.513889,-0.334819,-0.0221089
-0.513889,-0.192959,-0.0221089
-0.505669,-0.513889,0.165181
-0.513889,-0.457469,0.137091
-0.513889,-0.0703089,0.137091
-0.513889,0.0425311,0.335131
-0.505669,0.486111,0.307041
-0.513889,0.429691,0.335131
-0.513889,-0.124649,0.288511
-0.513889,-0.403129,0.288511
-0.513889,0.0968711,0.183711
-0.513889,0.375351,0.183711
-0.513889,-0.173799,0.0964111
-0.513889,-0.353979,0.0964111
-0.513889,0.146021,0.375811
-0.513889,0.326201,0.375811
-0.505669,0.486111,0.165181
-0.0224889,-0.513889,-0.334019
-0.505289,-0.513889,0.306241
-0.0224889,-0.513889,-0.193759
-0.505289,-0.513889,0.165981
0.0807011,-0.513889,-0.166079
0.0807011,-0.513889,-0.361699
0.391521,-0.513889,0.138301
0.391521,-0.513889,0.333921
-0.0221089,-0.513889,-0.334819
-0.0221089,-0.513889,-0.192959
0.137091,-0.513889,-0.0703089
0.335131,-0.513889,0.0425311
0.307041,-0.505669,0.486111
0.335131,-0.513889,0.429691
0.288511,-0.513889,-0.124649
0.288511,-0.513889,-0.403129
0.183711,-0.513889,0.0968711
0.183711,-0.513889,0.375351
0.0964111,-0.513889,-0.173799
0.0964111,-0.513889,-0.353979
0.375811,-0.513889,0.146021
0.375811,-0.513889,0.326201
-0.334019,-0.0224889,0.486111
-0.0224889,0.486111,-0.334019
0.486111,-0.334019,-0.0224889
-0.505289,0.486111,0.306241
0.306241,-0.505289,0.486111
0.486111,0.306241,-0.505289
-0.193759,-0.0224889,0.486111
-0.0224889,0.486111,-0.193759
0.486111,-0.193759,-0.0224889
-0.505289,0.486111,0.165981
0.165981,-0.505289,0.486111
0.486111,0.165981,-0.505289
-0.166079,0.0807011,0.486111
0.0807011,0.486111,-0.166079
0.486111,-0.166079,0.0807011
-0.361699,0.0807011,0.486111
0.0807011,0.486111,-0.361699
0.486111,-0.361699,0.0807011
0.138301,0.391521,0.486111
0.486111,0.138301,0.391521
0.391521,0.486111,0.138301
0.333921,0.391521,0.486111
0.391521,0.486111,0.333921
0.486111,0.333921,0.391521
-0.334819,-0.0221089,0.486111
-0.0221089,0.486111,-0.334819
0.486111,-0.334819,-0.0221089
-0.192959,-0.0221089,0.486111
-0.0221089,0.486111,-0.192959
0.486111,-0.192959,-0.0221089
-0.457469,0.137091,0.486111
0.486111,-0.457469,0.137091
0.165181,-0.505669,0.486111
-0.0703089,0.137091,0.486111
0.137091,0.486111,-0.0703089
0.486111,-0.0703089,0.137091
0.0425311,0.335131,0.486111
0.335131,0.486111,0.0425311
0.486111,0.0425311,0.335131
0.429691,0.335131,0.486111
0.335131,0.486111,0.429691
0.486111,0.429691,0.335131
-0.124649,0.288511,0.486111
0.288511,0.486111,-0.124649
0.486111,-0.124649,0.288511
-0.403129,0.288511,0.486111
0.288511,0.486111,-0.403129
0.486111,-0.403129,0.288511
0.183711,0.486111,0.0968711
0.0968711,0.183711,0.486111
0.486111,0.0968711,0.183711
0.183711,0.486111,0.375351
0.375351,0.183711,0.486111
0.486111,0.375351,0.183711
-0.173799,0.0964111,0.486111
0.0964111,0.486111,-0.173799
0.486111,-0.173799,0.0964111
-0.353979,0.0964111,0.486111
0.0964111,0.486111,-0.353979
0.486111,-0.353979,0.0964111
0.146021,0.375811,0.486111
0.375811,0.486111,0.146021
0.486111,0.146021,0.375811
0.326201,0.375811,0.486111
0.375811,0.486111,0.326201
0.486111,0.326201,0.375811
connectivity
28,63
3,59
37,100
55,58
62,78
82,88
65,72
76,92
96,98
54,61
90,105
95,99
20,24
4,8
43,44
66,69
83,89
104,117
21,25
10,14
41,42
67,70
94,101
115,129
29,64
15,120
47,134
77,93
110,114
136,141
91,106
119,123
137,140
111,113
116,130
135,142
30,68
5,74
35,80
32,55
9,88
38,78
26,34
6,31
13,40
65,75
56,76
98,102
69,73
79,89
85,104
21,49
10,86
41,108
51,60
81,84
112,127
52,61
99,103
105,121
20,50
8,97
44,124
57,77
107,114
132,136
27,48
12,128
45,118
106,122
119,126
133,137
68,74
68,80
74,80
22,32
32,49
7,9
9,86
38,39
38,108
22,49
7,86
39,108
26,56
26,51
6,75
6,81
40,102
40,112
73,79
73,85
79,85
51,56
75,81
102,112
52,57
27,52
103,107
12,103
121,132
45,121
23,50
50,53
11,97
16,97
46,124
124,138
23,53
11,16
46,138
27,57
12,107
45,132
122,126
122,133
126,133
125,131
125,139
131,139
58,68
62,80
74,82
6,59
26,63
40,100
73,92
72,79
85,96
49,54
90,108
86,95
56,66
75,83
102,117
24,51
4,81
43,112
57,67
101,107
115,132
25,52
14,103
42,121
27,64
12,120
45,134
113,122
116,133
126,135
19,30
2,5
35,36
28,62
3,58
37,82
55,59
63,78
88,100
54,65
76,90
95,98
18,34
0,31
1,13
61,72
92,105
96,99
67,69
89,101
104,115
66,70
83,94
117,129
60,71
84,87
127,143
33,48
109,118
17,128
77,91
114,123
136,140
93,106
110,119
137,141
32,68
9,74
38,80
56,73
75,79
85,102
49,52
86,103
108,121
50,51
81,97
112,124
0,144
1,145
2,146
1,147
5,148
13,149
7,150
3,151
11,152
15,153
2,154
9,155
156,157
158,159
7,160
11,161
162,163
8,164
4,165
10,166
14,167
7,168
6,169
11,170
12,171
16,172
17,173
18,174
19,175
0,176
30,177
31,178
22,179
28,180
23,181
29,182
19,183
32,184
185,186
22,187
23,188
189,190
20,191
24,192
21,193
25,194
22,195
26,196
23,197
27,198
33,199
36,200
18,201
35,202
34,203
39,204
37,205
46,206
47,207
36,208
38,209
39,210
46,211
212,213
44,214
43,215
41,216
42,217
39,218
40,219
46,220
45,221
60,222
84,223
127,224
48,225
118,226
128,227
71,228
87,229
143,230
33,231
109,232
17,233
70,234
94,235
129,236
53,237
16,238
138,239
111,240
130,241
142,242
125,243
131,244
139,245
50,246
97,247
124,248
71,249
87,250
143,251
53,252
138,253
109,254
93,255
110,256
141,257
91,258
123,259
140,260
125,261
131,262
139,263
64,264
120,265
134,266
29,267
15,268
47,269
113,270
116,271
135,272
111,273
130,274
142,275
57,276
107,277
132,278
53,279
16,280
138,281
122,282
126,283
133,284
125,285
131,286
139,287