-0.463105,-0.463105,-0.463105
-0.347615,-0.0889546,-0.463975
-0.215385,-0.0903846,-0.465385
-0.213975,-0.0918146,-0.333155
-0.0889546,-0.463975,-0.347615
0.158185,0.0332054,-0.347615
0.283205,-0.338955,-0.333155
0.284615,-0.340385,-0.465385
0.416845,-0.341815,-0.463975
0.532335,0.0323354,-0.463105
-0.465385,-0.215385,-0.0903846
-0.465385,0.284615,-0.340385
-0.463975,-0.347615,-0.0889546
-0.463975,0.416845,-0.341815
-0.463105,0.532335,0.0323354
-0.347615,0.158185,0.0332054
-0.333155,-0.213975,-0.0918146
-0.333155,0.283205,-0.338955
-0.341815,-0.463975,0.416845
-0.340385,-0.465385,0.284615
-0.338955,-0.333155,0.283205
-0.0918146,-0.333155,-0.213975
-0.0903846,-0.465385,-0.215385
0.0323354,-0.463105,0.532335
0.0332054,-0.347615,0.158185
-0.341815,0.533205,0.152385
-0.340385,0.534615,0.284615
-0.338955,0.402385,0.286025
-0.217665,-0.213105,0.282335
-0.217665,0.282335,0.286895
-0.216795,-0.0918146,0.402385
-0.216795,0.161045,0.166845
-0.215385,-0.0903846,0.534615
-0.215385,0.159615,0.0346154
-0.213975,0.161045,-0.0976146
-0.213105,-0.213105,-0.213105
-0.213105,0.282335,-0.217665
-0.0976146,-0.213975,0.161045
-0.0976146,0.283205,0.408185
-0.0918146,0.402385,-0.216795
-0.0903846,0.534615,-0.215385
-0.0889546,0.533205,-0.0831546
-0.0831546,-0.0889546,0.533205
-0.0831546,0.158185,0.0360254
0.0323354,0.532335,0.0368954
0.0332054,0.416845,0.411045
0.0346154,-0.215385,0.159615
0.0346154,0.284615,0.409615
0.0360254,-0.0831546,0.158185
0.0360254,0.152385,0.411045
0.0368954,0.0323354,0.532335
0.0368954,0.0368954,0.0368954
0.152385,-0.341815,0.533205
0.152385,0.411045,0.0360254
0.158185,0.0360254,-0.0831546
0.159615,0.0346154,-0.215385
0.161045,-0.0976146,-0.213975
0.161045,0.166845,-0.216795
0.166845,-0.216795,0.161045
0.166845,0.286025,0.408185
0.282335,-0.217665,-0.213105
0.282335,0.286895,-0.217665
0.283205,0.408185,-0.0976146
0.284615,-0.340385,0.534615
0.284615,0.409615,0.0346154
0.286025,-0.338955,0.402385
0.286025,0.408185,0.166845
0.286895,-0.217665,0.282335
0.286895,0.286895,0.286895
0.402385,-0.216795,-0.0918146
0.402385,0.286025,-0.338955
0.408185,-0.0976146,0.283205
0.408185,0.166845,0.286025
0.409615,0.0346154,0.284615
0.411045,0.0332054,0.416845
0.411045,0.0360254,0.152385
0.416845,0.411045,0.0332054
0.532335,0.0368954,0.0323354
0.533205,-0.0831546,-0.0889546
0.533205,0.152385,-0.341815
0.534615,-0.215385,-0.0903846
0.534615,0.284615,-0.340385
-0.346235,-0.0889846,-0.465385
-0.0845346,-0.0889846,-0.465385
0.415465,-0.341785,-0.465385
0.153765,-0.341785,-0.465385
-0.460805,-0.463125,-0.465385
0.0300354,-0.463125,-0.465385
0.0391954,0.0323554,-0.465385
0.530035,0.0323554,-0.465385
-0.465385,-0.346235,-0.0889846
-0.465385,-0.0845346,-0.0889846
-0.465385,0.415465,-0.341785
-0.465385,0.153765,-0.341785
-0.465385,-0.460805,-0.463125
-0.465385,0.0300354,-0.463125
-0.465385,0.0391954,0.0323554
-0.465385,0.530035,0.0323554
-0.0889846,-0.465385,-0.346235
-0.0889846,-0.465385,-0.0845346
-0.341785,-0.465385,0.415465
-0.341785,-0.465385,0.153765
-0.463125,-0.465385,-0.460805
-0.463125,-0.465385,0.0300354
0.0323554,-0.465385,0.0391954
0.0323554,-0.465385,0.530035
-0.346235,-0.0889846,0.534615
-0.0889846,0.534615,-0.346235
0.534615,-0.346235,-0.0889846
-0.0889846,0.534615,-0.0845346
-0.0845346,-0.0889846,0.534615
0.534615,-0.0845346,-0.0889846
-0.341785,0.534615,0.415465
0.415465,-0.341785,0.534615
0.534615,0.415465,-0.341785
-0.341785,0.534615,0.153765
0.153765,-0.341785,0.534615
0.534615,0.153765,-0.341785
-0.463125,0.534615,-0.460805
-0.460805,-0.463125,0.534615
0.534615,-0.460805,-0.463125
-0.463125,0.534615,0.0300354
0.0300354,-0.463125,0.534615
0.534615,0.0300354,-0.463125
0.0323554,0.534615,0.0391954
0.0391954,0.0323554,0.534615
0.534615,0.0391954,0.0323554
0.0323554,0.534615,0.530035
0.530035,0.0323554,0.534615
0.534615,0.530035,0.0323554
connectivity
10,12
10,16
11,13
11,17
1,2
2,3
4,22
21,22
19,20
18,19
6,7
7,8
33,34
37,46
55,56
15,33
24,46
5,55
33,43
31,33
46,48
46,58
54,55
55,57
30,32
39,40
69,80
78,80
40,41
32,42
26,27
63,65
70,81
25,26
52,63
79,81
47,49
53,64
73,75
38,47
62,64
71,73
47,59
45,47
64,66
64,76
72,73
73,74
12,16
1,3
4,21
15,34
34,43
24,37
37,48
5,56
54,56
18,20
13,17
6,8
15,31
24,58
5,57
31,43
48,58
54,57
30,42
39,41
69,78
25,27
52,65
70,79
38,49
49,59
53,62
53,66
71,75
72,75
38,45
62,76
71,74
45,59
66,76
72,74
16,35
3,35
21,35
34,36
28,37
56,60
20,28
17,36
6,60
28,30
36,39
60,69
43,51
48,51
51,54
29,31
57,61
58,67
27,29
29,38
61,70
61,62
65,67
67,71
14,25
23,52
9,79
41,44
42,50
77,78
49,50
44,53
75,77
59,68
66,68
68,72
1,82
3,83
8,84
6,85
0,86
4,87
5,88
9,89
12,90
16,91
13,92
17,93
0,94
1,95
15,96
14,97
4,98
21,99
18,100
20,101
0,102
12,103
24,104
23,105
30,106
39,107
69,108
41,109
42,110
78,111
27,112
65,113
70,114
25,115
52,116
79,117
13,118
18,119
8,120
14,121
23,122
9,123
44,124
50,125
77,126
45,127
74,128
76,129