-0.10134,0.05067,-0.375
-0.0954562,-0.0042502,-0.475
-0.05067,-0.0359595,-0.5
-0.05067,0.0653805,-0.5
-0.0058838,0.0970898,-0.475
-6.93889e-17,-0.05067,-0.375
0.0058838,0.0042502,-0.475
0.05067,-0.0653805,-0.5
0.05067,0.0359595,-0.5
0.10134,0.05067,-0.375
0.0954562,-0.0970898,-0.475
-0.10134,-0.05067,-0.125
-0.0954562,-0.0970898,0.025
-0.10134,-0.05067,0.375
-0.10134,0.05067,0.125
-0.0954562,0.0042502,-0.025
-0.0866295,-0.10134,0.25
-0.071919,-0.080091,0.125
-0.0147105,-0.10134,-0.25
-0.0058838,-0.0970898,-0.025
-4.16334e-17,-0.05067,0.125
0.0058838,-0.0970898,0.475
0.0147105,-0.10134,0.25
0.029421,-0.080091,0.375
0.0866295,-0.10134,-0.25
0.10134,-0.05067,-0.125
-0.0954562,0.0970898,0.475
-0.0866295,-1.249e-16,-0.25
-0.0866295,0.10134,0.25
-0.071919,-0.021249,-0.375
-0.071919,0.021249,-0.125
-0.071919,0.080091,0.375
-0.0549202,-0.0565538,0.225
-0.0549202,-0.0447862,-0.275
-0.0549202,0.0447862,-0.225
-0.0549202,0.0565538,0.275
-0.05067,-0.0653805,0
-0.05067,-0.0359595,0.5
-0.05067,0.0359595,0
-0.05067,0.0653805,0.5
-0.0464198,-0.0565538,-0.225
-0.0464198,-0.0447862,0.275
-0.0464198,0.0447862,0.225
-0.0464198,0.0565538,-0.275
-0.029421,-0.080091,-0.125
-0.029421,-0.021249,0.375
-0.029421,0.021249,0.125
-0.029421,0.080091,-0.375
-0.0147105,-9.71445e-17,0.25
-0.0147105,0.10134,-0.25
-0.0058838,-0.0042502,0.475
-0.0058838,0.0042502,0.025
-4.16334e-17,0.05067,-0.125
-1.38778e-17,0.05067,0.375
0.0058838,-0.0042502,-0.025
0.0058838,0.0970898,0.025
0.0147105,-1.249e-16,-0.25
0.0147105,0.10134,0.25
0.029421,-0.021249,-0.125
0.029421,0.021249,-0.375
0.029421,0.080091,0.125
0.0464198,-0.0565538,0.275
0.0464198,-0.0447862,-0.225
0.0464198,0.0447862,-0.275
0.0464198,0.0565538,0.225
0.05067,-0.0653805,0.5
0.05067,-0.0359595,0
0.05067,0.0359595,0.5
0.05067,0.0653805,0
0.0549202,-0.0565538,-0.275
0.0549202,-0.0447862,0.225
0.0549202,0.0447862,0.275
0.0549202,0.0565538,-0.225
0.071919,-0.080091,-0.375
0.071919,-0.021249,0.125
0.071919,0.021249,0.375
0.071919,0.080091,-0.125
0.0866295,-9.71445e-17,0.25
0.0866295,0.10134,-0.25
0.0954562,-0.0042502,0.025
0.0954562,0.0042502,0.475
0.0954562,0.0970898,-0.025
0.10134,-0.05067,0.375
0.10134,0.05067,0.125
-0.10134,-1.38778e-16,-0.5
-0.0964372,-0.0119865,-0.5
0.00490283,-0.0893535,-0.5
-0.00490283,-0.0119865,-0.5
0.00490283,0.0119865,-0.5
-0.00490283,0.0893535,-0.5
-0.0964372,0.0893535,-0.5
0.0964372,0.0119865,-0.5
-8.32667e-17,-1.38778e-16,-0.5
-6.93889e-17,0.10134,-0.5
0.10134,-0.10134,-0.5
0.0964372,-0.0893535,-0.5
-0.10134,-0.10134,0
-0.10134,-1.11022e-16,0
-0.0959122,-0.10134,0.03274
-0.00542777,-0.10134,-0.03274
-0.00542777,-0.10134,-0.46726
0.00542777,-0.10134,0.03274
0.00542777,-0.10134,0.46726
-0.0959122,-0.10134,0.46726
0.0959122,-0.10134,-0.03274
-5.55112e-17,-0.10134,0
-0.0959122,0.10134,0.03274
0.0959122,-0.10134,-0.46726
-0.00542777,0.10134,-0.03274
-0.00542777,0.10134,-0.46726
0.00542777,0.10134,0.03274
0.00542777,0.10134,0.46726
-0.0959122,0.10134,0.46726
0.0959122,0.10134,-0.03274
-0.0964372,-0.0119865,0.5
0.00490283,-0.0893535,0.5
-0.00490283,-0.0119865,0.5
0.00490283,0.0119865,0.5
-0.00490283,0.0893535,0.5
-0.0964372,0.0893535,0.5
0.0964372,0.0119865,0.5
-2.77556e-17,-0.10134,0.5
-2.77556e-17,-8.32667e-17,0.5
0.10134,-1.11022e-16,0
-4.16334e-17,0.10134,0
-0.10134,0.10134,0.5
0.10134,0.10134,0
0.10134,-8.32667e-17,0.5
0.0959122,0.10134,-0.46726
0.0964372,-0.0893535,0.5
connectivity
16,17
22,23
13,16
20,22
29,33
1,29
40,44
12,17
19,44
17,32
15,30
30,34
6,59
58,62
69,73
54,58
43,47
41,45
10,73
46,51
59,63
42,46
4,47
45,50
23,61
21,23
70,74
31,35
72,76
74,79
55,60
26,31
60,64
76,81
71,75
75,80
2,29
18,44
7,73
3,47
24,73
8,59
27,29
36,44
27,30
17,36
30,38
56,58
56,59
58,66
38,46
46,48
66,74
47,49
45,48
37,45
23,65
74,77
60,68
68,76
28,31
31,39
57,60
75,77
76,78
67,75
11,40
11,15
0,1
0,43
13,41
14,42
5,33
5,6
5,69
20,32
34,52
25,62
20,51
20,70
52,54
52,72
9,63
61,82
35,53
50,53
79,83
53,71
64,83
80,82
2,5
11,27
11,36
5,18
0,3
0,27
5,7
13,37
24,25
14,38
14,28
8,9
5,56
20,36
52,56
20,66
20,48
38,52
25,66
49,52
52,68
48,53
68,83
39,53
53,57
53,67
77,82
77,83
11,33
11,12
0,34
13,32
14,15
14,35
5,40
5,62
19,20
25,69
20,54
20,41
20,61
43,52
51,52
52,63
52,55
42,53
70,82
9,72
25,79
53,64
71,83
81,83
33,40
32,41
34,43
62,69
51,54
63,72
35,42
61,70
64,71
9,78
65,82
1,84
1,85
5,86
5,87
6,88
4,89
0,90
9,91
6,92
4,93
10,94
10,95
12,96
15,97
12,98
19,99
5,100
20,101
21,102
13,103
25,104
19,105
14,106
10,107
52,108
4,109
55,110
53,111
26,112
81,113
13,114
21,115
50,116
53,117
53,118
26,119
80,120
21,121
50,122
79,123
55,124
26,125
81,126
80,127
9,128
82,129