-0.45628,0.46824,-0.38431
-0.04372,-0.03176,-0.38431
0.03176,0.11569,-0.45628
0.11569,-0.04372,-0.46824
0.46824,-0.38431,-0.45628
0.05215,0.44785,-0.44785
0.38431,0.45628,-0.46824
0.44785,-0.05215,-0.44785
-0.46824,0.11569,-0.04372
-0.45628,0.03176,0.11569
-0.38431,-0.45628,0.46824
-0.38431,-0.04372,-0.03176
-0.46824,0.38431,0.45628
-0.44785,0.44785,-0.05215
-0.04372,-0.46824,0.11569
-0.03176,-0.38431,-0.04372
0.11569,-0.45628,0.03176
-0.44785,0.05215,0.44785
-0.40809,0.22229,0.40266
-0.40809,0.27771,-0.09734
-0.40266,0.09191,0.27771
-0.40266,0.40809,-0.22229
-0.27771,0.09734,0.40809
-0.27771,0.40266,-0.09191
-0.22229,-0.40266,0.40809
-0.22229,-0.09734,-0.09191
-0.11569,0.04372,0.46824
-0.11569,0.45628,-0.03176
-0.09734,-0.40809,0.27771
-0.09734,-0.09191,-0.22229
-0.09191,-0.27771,0.40266
-0.09191,-0.22229,-0.09734
-0.05215,-0.44785,0.44785
-0.05215,-0.05215,-0.05215
-0.03176,-0.11569,0.45628
0.03176,0.38431,0.04372
0.04372,0.03176,0.38431
0.04372,0.46824,-0.11569
0.05215,0.05215,0.05215
0.09191,0.22229,0.09734
0.09191,0.27771,-0.40266
0.09734,0.09191,0.22229
0.09734,0.40809,-0.27771
0.22229,0.09734,0.09191
0.22229,0.40266,-0.40809
0.27771,-0.40266,0.09191
0.27771,-0.09734,-0.40809
0.38431,0.04372,0.03176
0.40266,-0.40809,0.22229
0.40266,-0.09191,-0.27771
0.40809,-0.27771,0.09734
0.40809,-0.22229,-0.40266
0.44785,-0.44785,0.05215
0.45628,-0.46824,0.38431
0.45628,-0.03176,-0.11569
0.46824,-0.11569,0.04372
-0.39981,-0.47254,-0.5
-0.426,-0.5,-0.44635
-0.44635,-0.426,-0.5
-0.5,-0.39981,-0.47254
0.05365,-0.074,-0.5
0.10019,-0.02746,-0.5
-0.10019,0.02746,-0.5
-0.05365,0.074,-0.5
-0.03504,-0.09267,-0.5
0.03504,0.09267,-0.5
-0.46496,0.40733,-0.5
0.46496,-0.40733,-0.5
1.11022e-16,0.5,-0.5
-0.426,0.5,-0.44635
0.39981,0.47254,-0.5
0.5,-1.11022e-16,-0.5
0.5,-0.39981,-0.47254
0.44635,0.426,-0.5
-0.47254,-0.5,-0.39981
-0.5,-0.44635,-0.426
-0.5,0.05365,-0.074
-0.5,0.10019,-0.02746
-0.5,-0.10019,0.02746
-0.5,-0.05365,0.074
-0.5,-0.03504,-0.09267
-0.5,0.03504,0.09267
-0.5,0.46496,-0.40733
-0.5,-0.46496,0.40733
-0.5,0.5,0
-0.47254,0.5,-0.39981
-0.5,0.44635,0.426
-0.074,-0.5,0.05365
-0.02746,-0.5,0.10019
0.02746,-0.5,-0.10019
0.074,-0.5,-0.05365
-0.09267,-0.5,-0.03504
0.09267,-0.5,0.03504
-0.40733,-0.5,0.46496
0.40733,-0.5,-0.46496
1.11022e-16,-0.5,0.5
-0.5,0,0.5
0.5,-0.5,0
-0.39981,-0.47254,0.5
-0.44635,-0.426,0.5
0.5,-0.44635,-0.426
-0.074,0.5,0.05365
0.05365,-0.074,0.5
0.5,0.05365,-0.074
-0.02746,0.5,0.10019
0.10019,-0.02746,0.5
0.5,0.10019,-0.02746
-0.10019,0.02746,0.5
-0.05365,0.074,0.5
0.02746,0.5,-0.10019
0.074,0.5,-0.05365
0.5,-0.10019,0.02746
0.5,-0.05365,0.074
-0.5,0.39981,0.47254
0.426,-0.5,0.44635
0.47254,-0.5,0.39981
-0.09267,0.5,-0.03504
-0.03504,-0.09267,0.5
0.5,-0.03504,-0.09267
0.09267,0.5,0.03504
0.03504,0.09267,0.5
0.5,0.03504,0.09267
-0.40733,0.5,0.46496
-0.46496,0.40733,0.5
0.5,0.46496,-0.40733
0.40733,0.5,-0.46496
0.46496,-0.40733,0.5
0.5,-0.46496,0.40733
0.39981,0.47254,0.5
0.426,0.5,0.44635
0.47254,0.5,0.39981
0.5,0.44635,0.426
0.44635,0.426,0.5
0.5,0.39981,0.47254
connectivity
33,38
9,11
1,2
15,16
27,35
34,36
47,54
25,33
29,33
31,33
13,19
28,32
7,46
13,21
24,32
7,51
38,39
38,41
38,43
17,20
5,40
45,52
13,23
30,32
7,49
17,22
17,18
5,42
5,44
50,52
48,52
25,29
25,31
29,31
19,21
19,23
24,28
28,30
46,51
46,49
21,23
24,30
49,51
20,22
18,20
40,42
40,44
45,50
45,48
39,41
39,43
41,43
18,22
42,44
48,50
11,25
1,29
15,31
8,19
14,28
3,46
9,20
2,40
16,45
0,21
10,24
4,51
23,27
30,34
49,54
35,39
36,41
43,47
22,26
37,42
50,55
12,18
6,44
48,53
8,11
1,3
14,15
8,9
14,16
2,3
27,37
26,34
54,55
35,37
26,36
47,55
56,57
58,59
3,60
3,61
1,62
2,63
1,64
2,65
0,66
4,67
5,68
0,69
6,70
7,71
4,72
6,73
74,75
8,76
8,77
11,78
9,79
11,80
9,81
0,82
10,83
13,84
0,85
12,86
14,87
14,88
15,89
16,90
15,91
16,92
10,93
4,94
32,95
17,96
52,97
10,98
10,99
4,100
27,101
34,102
54,103
35,104
36,105
47,106
26,107
26,108
37,109
37,110
55,111
55,112
12,113
53,114
53,115
27,116
34,117
54,118
35,119
36,120
47,121
12,122
12,123
6,124
6,125
53,126
53,127
128,129
130,131
132,133