-0.069775,-0.069775,-0.43155
-0.069775,0.069775,-0.43155
0.069775,-0.069775,-0.43155
0.069775,0.069775,-0.43155
-0.069775,-0.069775,0.43155
-0.069775,1.38778e-17,-0.18262
-0.069775,4.16334e-17,0.18262
2.77556e-17,2.77556e-17,-0.06845
4.16334e-17,4.16334e-17,0.06845
-0.069775,0.069775,0.43155
1.38778e-17,-0.069775,-0.18262
4.16334e-17,-0.069775,0.18262
-0.069775,1.38778e-17,-0.31738
-0.069775,5.55112e-17,0.31738
1.38778e-17,-0.069775,-0.31738
5.55112e-17,-0.069775,0.31738
2.77556e-17,0.069775,-0.18262
5.55112e-17,0.069775,0.18262
0.069775,-0.069775,0.43155
0.069775,1.38778e-17,-0.18262
0.069775,4.16334e-17,0.18262
2.77556e-17,0.069775,-0.31738
6.93889e-17,0.069775,0.31738
0.069775,0.069775,0.43155
0.069775,1.38778e-17,-0.31738
0.069775,5.55112e-17,0.31738
-0.069775,-0.069775,-0.5
-0.069775,0.069775,-0.5
0.069775,-0.069775,-0.5
0.069775,0.069775,-0.5
-0.069775,2.77556e-17,-0.06845
-0.069775,4.16334e-17,0.06845
2.77556e-17,-0.069775,-0.06845
4.16334e-17,-0.069775,0.06845
4.16334e-17,0.069775,-0.06845
0.069775,2.77556e-17,-0.06845
5.55112e-17,0.069775,0.06845
0.069775,4.16334e-17,0.06845
-0.069775,-0.069775,0.5
-0.069775,0.069775,0.5
0.069775,-0.069775,0.5
0.069775,0.069775,0.5
connectivity
0,1
0,2
4,9
4,18
5,12
10,14
6,13
11,15
0,12
0,14
4,13
4,15
1,12
2,14
5,7
7,10
6,8
8,11
9,13
15,18
7,16
7,19
8,17
8,20
7,8
1,3
9,23
16,21
17,22
1,21
9,22
3,21
22,23
2,3
18,23
19,24
20,25
2,24
18,25
3,24
23,25
0,26
1,27
2,28
3,29
7,30
8,31
7,32
8,33
7,34
7,35
8,36
8,37
4,38
9,39
18,40
23,41