-0.181947,-0.291545,-0.5
2.77556e-16,-0.291545,-0.5
0.181947,-0.291545,-0.5
-0.291545,0.145773,-0.375
-0.181947,3.33067e-16,-0.5
-0.181947,0.291545,-0.5
2.77556e-16,3.33067e-16,-0.5
3.33067e-16,0.291545,-0.5
0.181947,3.33067e-16,-0.5
0.181947,0.291545,-0.5
0.291545,0.145773,-0.375
-0.291545,-0.145772,0.375
-0.109598,-0.291545,0
-0.291545,-0.291545,0
-0.291545,-0.145772,-0.125
-0.291545,3.88578e-16,0
-0.291545,0.145773,0.125
-0.210105,-0.227213,-0.125
-0.210105,-0.0643323,-0.125
-0.210105,0.0643323,0.125
-0.109598,3.88578e-16,0
-0.109598,0.291545,0
-0.291545,0.291545,0
-0.210105,0.227213,0.125
-0.181947,-0.291545,0.5
-0.145772,-0.25537,0.25
-0.145772,-0.145772,-0.25
-0.0814402,-0.227213,-0.375
-0.0814402,-0.0643323,-0.375
3.33067e-16,-0.291545,0.5
3.33067e-16,-0.145772,0.125
0.0814402,-0.0643323,-0.375
0.145773,-0.25537,0.25
0.145773,-0.145772,-0.25
0.181947,-0.291545,0.5
0.210105,-0.227213,-0.125
0.210105,-0.0643323,-0.125
0.291545,-0.145772,0.375
-0.181947,3.88578e-16,0.5
-0.181947,0.291545,0.5
-0.145772,-0.0361749,0.25
-0.145772,0.0361749,-0.25
-0.145772,0.145773,0.25
-0.145772,0.25537,-0.25
-0.0814402,0.0643323,0.375
-0.0814402,0.227213,0.375
2.77556e-16,-0.145772,-0.375
3.33067e-16,3.88578e-16,0.5
2.77556e-16,0.145773,-0.125
3.33067e-16,0.145773,0.375
3.88578e-16,0.291545,0.5
0.0814402,-0.227213,-0.375
0.0814402,0.0643323,0.375
0.0814402,0.227213,0.375
0.109598,-0.291545,0
0.109598,3.88578e-16,0
0.145773,-0.0361749,0.25
0.145773,0.0361749,-0.25
0.145773,0.145773,0.25
0.145773,0.25537,-0.25
0.181947,3.88578e-16,0.5
0.181947,0.291545,0.5
0.210105,0.0643323,0.125
0.210105,0.227213,0.125
0.291545,-0.291545,0
0.291545,-0.145772,-0.125
0.291545,3.88578e-16,0
0.291545,0.145773,0.125
0.109598,0.291545,0
0.291545,0.291545,0
-0.291545,3.33067e-16,-0.5
-0.291545,0.291545,-0.5
0.291545,3.33067e-16,-0.5
0.291545,0.291545,-0.5
-0.291545,-0.247102,-0.08635
-0.291545,-0.0444431,-0.08635
-0.291545,0.0444431,0.08635
-0.291545,0.247102,0.08635
3.33067e-16,-0.291545,0
-0.154606,-0.291545,0.23283
-0.136939,-0.291545,-0.26717
-0.154606,-0.291545,-0.23283
-0.136939,-0.291545,0.26717
0.154606,-0.291545,0.23283
0.136939,-0.291545,-0.26717
0.154606,-0.291545,-0.23283
0.136939,-0.291545,0.26717
-0.145772,-0.291545,-0.375
-0.145772,-0.291545,-0.125
0.145773,-0.291545,-0.125
-0.145772,-0.291545,0.125
-0.145772,-0.291545,0.375
0.145773,-0.291545,0.125
0.145773,-0.291545,0.375
-0.145772,-0.291545,-0.25
-0.145772,-0.291545,0.25
0.145773,-0.291545,-0.25
0.145773,-0.291545,0.25
-0.291545,3.88578e-16,0.5
-0.291545,-0.291545,0.5
3.88578e-16,0.291545,0
0.291545,-0.247102,-0.08635
-0.154606,0.291545,0.23283
0.291545,-0.0444431,-0.08635
0.291545,0.0444431,0.08635
-0.136939,0.291545,-0.26717
-0.154606,0.291545,-0.23283
-0.136939,0.291545,0.26717
0.154606,0.291545,0.23283
0.136939,0.291545,-0.26717
0.154606,0.291545,-0.23283
0.136939,0.291545,0.26717
0.291545,0.247102,0.08635
-0.145772,0.291545,-0.375
0.145773,-0.291545,-0.375
-0.145772,0.291545,-0.125
0.145773,0.291545,-0.125
-0.145772,0.291545,0.125
-0.145772,0.291545,0.375
0.145773,0.291545,0.125
0.145773,0.291545,0.375
-0.145772,0.291545,-0.25
-0.145772,0.291545,0.25
0.145773,0.291545,-0.25
0.145773,0.291545,0.25
0.145773,0.291545,-0.375
0.291545,3.88578e-16,0.5
0.291545,-0.291545,0.5
connectivity
3,48
11,30
30,48
30,37
10,48
13,14
1,46
14,15
14,26
15,16
6,46
16,22
16,42
26,46
33,46
33,65
42,49
47,49
49,58
49,50
58,67
0,51
2,27
4,31
8,28
27,41
17,41
51,57
23,40
40,45
35,57
44,60
56,63
53,56
38,52
45,61
39,53
3,28
11,44
18,48
10,31
19,30
30,62
36,48
37,52
0,1
12,13
1,2
4,6
15,20
6,8
54,64
26,41
33,57
40,42
55,66
56,58
5,7
21,22
7,9
68,69
64,65
65,66
66,67
67,69
24,29
29,34
38,47
47,60
39,50
50,61
3,70
3,71
10,72
10,73
17,74
12,74
18,75
19,76
20,75
20,76
21,77
23,77
30,78
25,79
28,80
18,81
25,82
32,83
31,84
36,85
32,86
27,87
17,88
35,89
30,90
11,91
30,92
37,93
26,94
25,95
33,96
32,97
11,98
11,99
48,100
54,101
19,102
35,101
55,103
55,104
43,105
43,106
36,103
44,107
62,104
62,108
59,109
59,110
52,111
63,112
3,113
51,114
48,115
48,116
23,117
45,118
63,119
53,120
43,121
42,122
59,123
58,124
68,112
10,125
37,126
37,127