-0.37876,-1.11022e-16,-0.5
0,-0.5,-0.37876
-0.5,0.12124,-1.11022e-16
-0.12124,-1.11022e-16,-0.5
1.11022e-16,0.5,-0.37876
0.10169,-0.39831,-0.25
0.12124,-1.11022e-16,-0.5
0.25,-0.10169,-0.39831
-0.10169,0.39831,-0.25
0.37876,-1.11022e-16,-0.5
0.5,0.12124,-1.11022e-16
-0.5,-0.37876,-1.11022e-16
-0.5,-0.12124,-1.11022e-16
-0.37876,0,0.5
-0.25,0.10169,-0.39831
-0.5,0.37876,-1.11022e-16
-0.39831,-0.25,0.10169
0,-0.5,-0.12124
0,-0.5,0.12124
0.5,-0.37876,-1.11022e-16
-0.39831,0.25,-0.10169
-0.25,-0.10169,0.39831
-0.12124,0,0.5
-0.10169,-0.39831,0.25
0,-0.5,0.37876
1.11022e-16,0.5,-0.12124
1.11022e-16,0.5,0.12124
0.10169,0.39831,0.25
0.12124,0,0.5
0.25,0.10169,0.39831
0.39831,-0.25,-0.10169
0.39831,0.25,0.10169
0.5,-0.12124,-1.11022e-16
1.11022e-16,0.5,0.37876
0.5,0.37876,-1.11022e-16
0.37876,0,0.5
0.03321,-0.46679,-0.5
-0.03321,-0.46679,-0.5
-0.5,-0.03321,-0.46679
0.03321,0.46679,-0.5
0,-0.5,-0.5
-0.5,-1.11022e-16,-0.5
-0.03321,0.46679,-0.5
1.11022e-16,0.5,-0.5
0.5,-0.03321,-0.46679
0.5,-1.11022e-16,-0.5
-0.5,0.03321,-0.46679
-0.5,0.03321,0.46679
-0.46679,-0.5,0.03321
-0.46679,-0.5,-0.03321
0.46679,-0.5,0.03321
-0.5,-0.5,-1.11022e-16
-0.46679,0.5,0.03321
0.03321,-0.46679,0.5
0.5,0.03321,-0.46679
-0.46679,0.5,-0.03321
-0.03321,-0.46679,0.5
-0.5,-0.03321,0.46679
0.46679,-0.5,-0.03321
0.03321,0.46679,0.5
0.5,0.03321,0.46679
0.46679,0.5,0.03321
-0.5,0.5,-1.11022e-16
1.11022e-16,-0.5,0.5
-0.5,0,0.5
-0.03321,0.46679,0.5
0.46679,0.5,-0.03321
2.22045e-16,0.5,0.5
0.5,-0.5,-1.11022e-16
0.5,-0.03321,0.46679
0.5,0.5,-1.11022e-16
0.5,0,0.5
connectivity
3,7
3,6
0,2
3,4
16,23
16,21
14,20
8,14
5,7
5,30
8,20
21,23
7,30
27,29
27,31
29,31
12,20
17,23
2,16
5,18
6,14
21,28
8,26
10,30
22,29
25,27
31,32
2,12
17,18
22,28
11,18
1,6
12,13
17,19
15,25
22,24
9,32
25,26
26,34
28,33
10,32
10,35
5,36
1,37
0,38
4,39
1,40
0,41
8,42
4,43
7,44
9,45
14,46
13,47
16,48
11,49
19,50
11,51
15,52
24,53
9,54
20,55
23,56
21,57
30,58
27,59
29,60
31,61
15,62
24,63
13,64
33,65
34,66
33,67
19,68
35,69
34,70
35,71