-0.23375,1.11022e-16,-0.40275
-1.11022e-16,-0.23375,-0.40275
-1.11022e-16,0.23375,-0.40275
0.23375,1.11022e-16,-0.40275
-0.40275,-0.23375,0
-0.40275,1.11022e-16,-0.23375
-0.40275,1.11022e-16,0.23375
-0.40275,0.23375,0
-0.23375,-0.40275,0
-1.11022e-16,-0.40275,-0.23375
-1.11022e-16,-0.40275,0.23375
0.23375,-0.40275,0
-0.23451,-0.23451,-0.0971
-0.23451,-0.23451,0.0971
-0.23451,-0.0971,-0.23451
-0.23451,-0.0971,0.23451
-0.23451,0.0971,-0.23451
-0.23451,0.0971,0.23451
-0.23451,0.23451,-0.0971
-0.23451,0.23451,0.0971
-0.23375,1.11022e-16,0.40275
-0.23375,0.40275,0
-0.0971,-0.23451,-0.23451
-0.0971,-0.23451,0.23451
-0.0971,0.23451,-0.23451
-0.0971,0.23451,0.23451
-1.11022e-16,-0.23375,0.40275
-1.11022e-16,0.23375,0.40275
-1.11022e-16,0.40275,-0.23375
-1.11022e-16,0.40275,0.23375
0.0971,-0.23451,-0.23451
0.0971,-0.23451,0.23451
0.0971,0.23451,-0.23451
0.0971,0.23451,0.23451
0.23375,1.11022e-16,0.40275
0.23375,0.40275,0
0.23451,-0.23451,-0.0971
0.23451,-0.23451,0.0971
0.23451,-0.0971,-0.23451
0.23451,-0.0971,0.23451
0.23451,0.0971,-0.23451
0.23451,0.0971,0.23451
0.23451,0.23451,-0.0971
0.23451,0.23451,0.0971
0.40275,-0.23375,0
0.40275,1.11022e-16,-0.23375
0.40275,1.11022e-16,0.23375
0.40275,0.23375,0
-0.23375,1.11022e-16,-0.5
-1.11022e-16,-0.23375,-0.5
-1.11022e-16,0.23375,-0.5
0.23375,1.11022e-16,-0.5
-0.5,-0.23375,0
-0.5,1.11022e-16,-0.23375
-0.5,1.11022e-16,0.23375
-0.5,0.23375,0
-0.23375,-0.5,0
-1.11022e-16,-0.5,-0.23375
-1.11022e-16,-0.5,0.23375
0.23375,-0.5,0
-0.23375,2.22045e-16,0.5
-0.23375,0.5,0
0,-0.23375,0.5
0,0.5,-0.23375
0.5,-0.23375,0
0.5,1.11022e-16,-0.23375
0,0.23375,0.5
0,0.5,0.23375
0.23375,2.22045e-16,0.5
0.23375,0.5,0
0.5,1.11022e-16,0.23375
0.5,0.23375,0
connectivity
12,14
12,22
14,22
13,15
13,23
16,18
16,24
30,36
30,38
15,23
18,24
36,38
17,19
17,25
19,25
31,37
31,39
32,40
32,42
37,39
40,42
33,41
33,43
41,43
12,13
14,16
22,30
15,17
18,19
23,31
24,32
36,37
38,40
25,33
39,41
42,43
4,12
8,12
5,14
0,14
9,22
1,22
4,13
5,16
8,13
0,16
9,30
1,30
6,15
15,20
7,18
18,21
10,23
23,26
2,24
24,28
11,36
36,44
3,38
38,45
6,17
7,19
10,31
2,32
11,37
3,40
17,20
19,21
26,31
28,32
37,44
40,45
25,27
25,29
34,39
39,46
35,42
42,47
27,33
29,33
34,41
41,46
35,43
43,47
0,48
1,49
2,50
3,51
4,52
5,53
6,54
7,55
8,56
9,57
10,58
11,59
20,60
21,61
26,62
28,63
44,64
45,65
27,66
29,67
34,68
35,69
46,70
47,71