-0.47817,-0.47817,-0.25
-0.173882,0.152766,-0.35826
0.173882,-0.152766,-0.35826
-0.47817,0.47817,-0.25
0.47817,-0.47817,-0.25
0.47817,0.47817,-0.25
-0.47817,-0.47817,0.25
-0.47817,0.47817,0.25
0.47817,-0.47817,0.25
-0.173882,-0.152766,0.35826
-0.152766,-0.173882,0.14174
-0.152766,0.173882,-0.14174
0.152766,-0.173882,-0.14174
0.152766,0.173882,0.14174
0.173882,0.152766,0.35826
0.47817,0.47817,0.25
-0.47817,-0.47817,-0.5
-0.173882,-1.66533e-16,-0.5
0.173882,-1.66533e-16,-0.5
-0.47817,0.47817,-0.5
0.47817,-0.47817,-0.5
0.47817,0.47817,-0.5
-0.47817,-0.47817,0.5
-0.173882,-1.11022e-16,0.5
0.173882,-1.11022e-16,0.5
-0.47817,0.47817,0.5
0.47817,-0.47817,0.5
0.47817,0.47817,0.5
connectivity
6,10
6,9
1,3
2,4
4,12
3,11
13,15
14,15
0,6
10,12
11,13
1,2
10,13
11,12
9,14
3,7
4,8
5,15
0,16
1,17
2,18
3,19
4,20
5,21
6,22
9,23
14,24
7,25
8,26
15,27