-0.286516,-0.484845,-0.45163
-0.286516,5.55112e-17,-0.45163
0.213484,5.55112e-17,-0.45163
-0.286516,0.484845,-0.45163
0.213484,-0.484845,-0.45163
0.213484,0.484845,-0.45163
0.713484,5.55112e-17,-0.45163
-0.5,-0.484845,-5.55112e-17
0,-0.484845,-5.55112e-17
-0.5,1.11022e-16,-5.55112e-17
-0.713484,1.66533e-16,0.45163
-0.5,0.484845,-5.55112e-17
-0.610552,-0.285331,0.344919
-0.397068,0.199514,-0.106711
-0.213484,1.66533e-16,0.45163
1.11022e-16,0.484845,-5.55112e-17
-0.213484,-0.484845,0.45163
0.5,-0.484845,-5.55112e-17
-0.102932,-0.285331,0.106711
0.110552,0.199514,-0.344919
0,1.11022e-16,-5.55112e-17
-0.213484,0.484845,0.45163
-0.110552,-0.199514,0.344919
0.102932,0.285331,-0.106711
0.397068,-0.199514,0.106711
0.610552,0.285331,-0.344919
0.286516,-0.484845,0.45163
0.5,1.11022e-16,-5.55112e-17
0.286516,1.66533e-16,0.45163
0.5,0.484845,-5.55112e-17
0.286516,0.484845,0.45163
-0.647552,-0.304289,0.312149
-0.434067,0.180556,-0.139481
-0.565933,-0.180556,0.139481
-0.352448,0.304289,-0.312149
0.352448,-0.304289,0.312149
0.565933,0.180556,-0.139481
0.434067,-0.180556,0.139481
0.647552,0.304289,-0.312149
connectivity
1,7
4,20
20,21
9,22
18,26
19,27
3,23
9,12
8,22
2,23
14,18
3,13
15,19
24,26
25,27
0,8
9,14
8,26
2,27
7,12
1,13
16,18
19,20
20,22
5,23
24,28
25,29
12,18
13,19
23,25
22,24
10,11
3,15
15,30
6,17
28,29
12,31
13,32
14,33
15,34
8,35
2,36
24,37
25,38