-4.16334e-17,-0.09464,-0.5
-2.77556e-17,0.09464,-0.5
-0.0530438,-0.0201526,0.16671
-0.0201526,-0.0530438,0.33329
-0.09464,-1.38778e-17,0
-0.0530438,0.0201526,-0.16671
-0.0201526,0.0530438,-0.33329
1.38778e-17,-0.09464,0.5
2.77556e-17,0.09464,0.5
0.0201526,-0.0530438,-0.33329
0.0201526,0.0530438,0.33329
0.0530438,-0.0201526,-0.16671
0.0530438,0.0201526,0.16671
0.09464,-1.38778e-17,0
-0.09464,-0.09464,0.16671
-0.09464,-0.09464,0.33329
-0.09464,0.09464,-0.33329
-0.09464,0.09464,-0.16671
0.09464,-0.09464,-0.33329
0.09464,-0.09464,-0.16671
0.09464,0.09464,0.16671
0.09464,0.09464,0.33329
connectivity
0,1
4,13
0,9
4,5
2,4
1,6
11,13
3,7
12,13
8,10
9,11
5,6
2,3
10,12
7,8
2,14
3,15
6,16
5,17
9,18
11,19
12,20
10,21