-0.211223,-0.18674,-0.18255
-0.124465,0.13427,-0.351126
-0.0752324,-0.31326,-0.168575
0.112757,0.18674,-0.18255
0.199515,-0.13427,-0.351126
0.248748,0.31326,-0.168575
-0.16199,0.36573,1.11022e-16
-0.248748,-0.31326,0.168575
0.16199,-0.36573,1.11022e-16
-0.199515,0.13427,0.351126
-0.112757,-0.18674,0.18255
0.0752324,0.31326,0.168575
0.124465,-0.13427,0.351126
0.211223,0.18674,0.18255
-0.124465,-0.31326,-0.351126
0.199515,0.31326,-0.351126
-0.193208,-0.24748,-0.351126
-0.0557234,-0.24748,-0.351126
0.130772,0.24748,-0.351126
0.268257,0.24748,-0.351126
-0.311598,-0.25213,-0.115857
-0.298837,0.24787,-0.235268
-0.336362,0.25213,0.115857
-0.286455,0,-0.351126
-0.32398,0.5,1.11022e-16
-0.125704,-0.5,-0.070513
-0.198276,-0.5,0.070513
0.198276,-0.5,-0.070513
0.125704,-0.5,0.070513
5.55112e-17,-0.5,1.11022e-16
-0.125704,0.5,-0.070513
-0.198276,0.5,0.070513
0.198276,0.5,-0.070513
0.125704,0.5,0.070513
-0.199515,-0.31326,0.351126
0.124465,0.31326,0.351126
-0.349123,-0.24787,0.235268
0.336362,-0.25213,-0.115857
0.349123,0.24787,-0.235268
0.311598,0.25213,0.115857
-0.268257,-0.24748,0.351126
-0.130772,-0.24748,0.351126
0.0557234,0.24748,0.351126
0.193208,0.24748,0.351126
0.361505,0,-0.351126
0.32398,-0.5,1.11022e-16
1.11022e-16,0.5,1.11022e-16
0.298837,-0.24787,0.235268
-0.361505,0,0.351126
0.286455,0,0.351126
connectivity
0,1
3,4
9,10
12,13
0,10
3,13
2,4
8,10
3,6
9,11
0,7
2,10
3,11
5,13
1,4
1,6
4,8
8,12
6,9
9,12
2,14
5,15
0,16
2,17
3,18
5,19
0,20
1,21
6,22
1,23
6,24
2,25
7,26
8,27
8,28
8,29
6,30
6,31
5,32
11,33
7,34
11,35
7,36
8,37
5,38
13,39
7,40
10,41
11,42
13,43
4,44
8,45
6,46
12,47
9,48
12,49