-0.5,-0.32266,-0.13207
-0.5,-5.55112e-17,-0.13207
-0.5,0.32266,-0.13207
0,-0.32266,-0.13207
0,-5.55112e-17,-0.13207
0,0.32266,-0.13207
0.5,-0.32266,-0.13207
0.5,-5.55112e-17,-0.13207
0.5,0.32266,-0.13207
-0.5,-0.32266,0.13207
-0.5,-5.55112e-17,0.13207
-0.5,0.32266,0.13207
-0.25,-0.32266,-0.13207
-0.25,-0.260406,2.77556e-17
0,-0.32266,0.13207
0.25,-0.32266,-0.13207
0.25,-0.260406,2.77556e-17
-0.25,-0.062254,2.77556e-17
-0.25,-5.55112e-17,-0.13207
-0.25,0.062254,2.77556e-17
-0.25,0.260406,2.77556e-17
-0.25,0.32266,-0.13207
0,-5.55112e-17,0.13207
0,0.32266,0.13207
0.25,-0.062254,2.77556e-17
0.25,-5.55112e-17,-0.13207
0.25,0.062254,2.77556e-17
0.25,0.260406,2.77556e-17
0.25,0.32266,-0.13207
0.5,-0.32266,0.13207
0.5,-5.55112e-17,0.13207
0.5,0.32266,0.13207
-0.25,-0.32266,0.13207
0.25,-0.32266,0.13207
-0.25,-5.55112e-17,0.13207
-0.25,0.32266,0.13207
0.25,-5.55112e-17,0.13207
0.25,0.32266,0.13207
-0.25,-0.32266,2.77556e-17
0.25,-0.32266,2.77556e-17
-0.25,0.32266,2.77556e-17
0.25,0.32266,2.77556e-17
connectivity
13,17
19,20
16,24
26,27
0,12
3,12
1,18
3,15
6,15
4,18
4,25
7,25
17,19
24,26
12,18
15,25
18,21
25,28
1,19
3,13
3,16
4,17
4,24
9,13
10,17
19,22
16,29
24,30
2,20
20,23
7,26
22,26
8,27
23,27
2,21
5,21
5,28
8,28
9,32
14,32
10,34
14,33
29,33
22,34
22,36
30,36
32,34
33,36
34,35
36,37
11,35
23,35
23,37
31,37
13,38
16,39
20,40
27,41