-0.31512,0.177262,-0.4096
0,-0.354525,-0.47035
0,0,-0.47035
0.31512,0.177262,-0.4096
0,0.354525,-0.47035
-0.5,-0.354525,5.55112e-17
-0.5,5.55112e-17,5.55112e-17
-0.5,0.354525,5.55112e-17
-0.31512,-0.177262,0.4096
-0.18488,-0.177262,0.0607504
0.18488,-0.177262,0.0607504
0.5,-0.354525,5.55112e-17
-0.18488,0.177262,-0.0607504
1.11022e-16,-0.354525,0.47035
1.11022e-16,5.55112e-17,0.47035
0.18488,0.177262,-0.0607504
0.31512,-0.177262,0.4096
0.5,5.55112e-17,5.55112e-17
0.5,0.354525,5.55112e-17
1.11022e-16,0.354525,0.47035
-0.31512,0,-0.47035
0.31512,0,-0.47035
-0.31512,0.354525,-0.47035
0.31512,0.354525,-0.47035
-0.5,0.177262,-0.4096
-0.5,-0.177262,0.4096
-0.18488,-0.354525,5.55112e-17
0.18488,-0.354525,5.55112e-17
0.5,0.177262,-0.4096
0.5,-0.177262,0.4096
-0.18488,0.354525,5.55112e-17
-0.31512,-0.354525,0.47035
-0.31512,5.55112e-17,0.47035
0.18488,0.354525,5.55112e-17
0.31512,-0.354525,0.47035
0.31512,5.55112e-17,0.47035
connectivity
9,10
12,15
5,6
1,2
6,7
2,4
5,9
6,9
6,12
0,2
2,3
0,4
10,11
10,17
7,12
8,13
8,14
15,17
15,18
3,4
13,16
14,16
9,12
10,15
8,9
0,12
10,16
3,15
11,17
17,18
13,14
14,19
0,20
3,21
0,22
3,23
0,24
8,25
9,26
10,27
3,28
16,29
12,30
8,31
8,32
15,33
16,34
16,35