-0.5,-0.5,-0.34411
-0.5,0.5,-0.34411
-0.5,0,-0.34411
0,-0.5,-0.34411
0.5,-0.5,-0.34411
1.11022e-16,0.5,-0.34411
0.5,0.5,-0.34411
0.5,0,-0.34411
-0.5,-0.5,0.34411
-0.5,0.5,0.34411
-0.5,0,0
-0.5,0,0.34411
0,-0.5,0
0,-0.5,0.34411
0.5,-0.5,0.34411
1.11022e-16,0.5,0
1.11022e-16,0.5,0.34411
0.5,0.5,0.34411
0.5,0,0
0.5,0,0.34411
connectivity
0,8
2,10
3,12
10,11
12,13
0,10
0,12
8,10
1,10
9,10
8,12
4,12
12,14
0,2
0,3
1,2
3,4
1,9
5,15
15,16
1,15
9,15
6,15
15,17
1,5
5,6
4,14
7,18
18,19
4,18
14,18
6,18
17,18
4,7
6,7
6,17
8,11
8,13
9,11
13,14
9,16
16,17
14,19
17,19