-0.113922,-0.5,-0.321318
-0.113922,0,-0.321318
0.113923,-0.5,-0.321318
0.113923,0,-0.321318
-0.113922,0.5,-0.321318
0.113923,0.5,-0.321318
-0.227845,-0.5,1.11022e-16
-0.227845,-0.36352,0.18105
-0.227845,-0.13648,0.18105
-0.227845,0,1.11022e-16
-0.227845,0.13648,-0.18105
-0.227845,0.36352,-0.18105
-0.227845,0.5,1.11022e-16
-0.113922,-0.5,0.321318
1.94289e-16,-0.5,1.11022e-16
0.113923,-0.5,0.321318
-0.113922,0,0.321318
-0.113922,0.5,0.321318
1.94289e-16,-0.36352,-0.18105
2.22045e-16,-0.13648,-0.18105
2.22045e-16,0,1.11022e-16
2.22045e-16,0.13648,0.18105
2.498e-16,0.36352,0.18105
2.498e-16,0.5,1.11022e-16
0.113923,0,0.321318
0.113923,0.5,0.321318
0.227845,-0.5,1.11022e-16
0.227845,-0.36352,0.18105
0.227845,-0.13648,0.18105
0.227845,0,1.11022e-16
0.227845,0.13648,-0.18105
0.227845,0.36352,-0.18105
0.227845,0.5,1.11022e-16
-0.113922,-0.5,-0.43459
0.113923,-0.5,-0.43459
-0.113922,0,-0.43459
0.113923,0,-0.43459
-0.113922,0.5,-0.43459
0.113923,0.5,-0.43459
-0.113922,-0.5,0.43459
0.113923,-0.5,0.43459
-0.113922,0,0.43459
0.113923,0,0.43459
-0.113922,0.5,0.43459
0.113923,0.5,0.43459
connectivity
0,18
1,10
7,13
2,18
8,16
4,11
15,27
1,19
3,19
3,30
16,21
21,24
17,22
22,25
24,28
10,11
7,8
18,19
21,22
6,7
9,10
8,9
14,18
11,12
19,20
20,21
22,23
6,14
9,20
14,26
20,29
5,31
12,23
23,32
30,31
27,28
26,27
29,30
28,29
31,32
0,33
2,34
1,35
3,36
4,37
5,38
13,39
15,40
16,41
24,42
17,43
25,44