-0.0967657,0.08663,-0.4554
0.0967657,0.08663,-0.4554
-0.17326,-0.163124,0.2946
-0.17326,-0.0101357,0.2946
-0.17326,0.0101357,-0.2946
-0.17326,0.163124,-0.2946
-0.0764943,-0.08663,0.0446
-0.0764943,0.08663,-0.0446
8.32667e-17,-0.163124,0.2054
5.55112e-17,0.0101357,-0.2054
0.0764943,-0.08663,0.0446
-0.0967657,-0.08663,0.4554
8.32667e-17,-0.0101357,0.2054
8.32667e-17,0.163124,-0.2054
0.0764943,0.08663,-0.0446
0.0967657,-0.08663,0.4554
0.17326,-0.163124,0.2946
0.17326,-0.0101357,0.2946
0.17326,0.0101357,-0.2946
0.17326,0.163124,-0.2946
-0.0967657,-5.55112e-17,-0.5
0.0967657,-5.55112e-17,-0.5
-0.0967657,0.17326,-0.5
0.0967657,0.17326,-0.5
-0.17326,-0.08663,0.0446
-0.17326,0.08663,-0.0446
-0.0764943,-0.17326,1.66533e-16
0.0764943,-0.17326,1.66533e-16
-0.17326,-0.17326,0.2946
-0.17326,-0.17326,-0.2946
8.32667e-17,-0.17326,0.2054
5.55112e-17,-0.17326,-0.2054
-0.0764943,0.17326,1.66533e-16
-0.0967657,-0.17326,0.5
-0.0967657,0,0.5
0.0764943,0.17326,1.66533e-16
0.0967657,-0.17326,0.5
0.0967657,0,0.5
-0.17326,0.17326,0.2946
-0.17326,0.17326,-0.2946
0.17326,-0.08663,0.0446
1.11022e-16,0.17326,0.2054
8.32667e-17,0.17326,-0.2054
0.17326,0.08663,-0.0446
0.17326,-0.17326,0.2946
0.17326,-0.17326,-0.2946
0.17326,0.17326,0.2946
0.17326,0.17326,-0.2946
connectivity
4,9
2,8
3,12
5,13
6,7
9,18
8,16
10,14
12,17
13,19
0,1
11,15
0,4
2,11
3,11
0,5
6,8
6,12
7,9
9,14
8,10
7,13
10,12
1,18
1,19
13,14
15,16
15,17
0,20
1,21
0,22
1,23
6,24
7,25
6,26
10,27
2,28
4,29
8,30
9,31
7,32
11,33
11,34
14,35
15,36
15,37
3,38
5,39
10,40
12,41
13,42
14,43
16,44
18,45
17,46
19,47