-0.222102,-0.365465,-0.45748
-0.118231,0.0373944,-0.221649
-0.222102,0.365465,-0.45748
0.201773,-1.66533e-16,-0.45748
0.625648,-0.365465,-0.45748
0.305644,0.328071,-0.221649
0.625648,0.365465,-0.45748
-0.320004,-0.328071,0.235831
-0.625648,-0.365465,0.45748
-0.423875,-1.11022e-16,5.55112e-17
-0.305644,-0.328071,0.221649
-0.103871,0.0373944,-0.235831
-0.625648,0.365465,0.45748
2.77556e-17,-0.365465,5.55112e-17
-0.201773,-5.55112e-17,0.45748
8.32667e-17,0.365465,5.55112e-17
0.103871,-0.0373944,0.235831
0.118231,-0.0373944,0.221649
0.320004,0.328071,-0.235831
0.222102,-0.365465,0.45748
0.423875,-1.11022e-16,5.55112e-17
0.222102,0.365465,0.45748
-0.222102,-1.66533e-16,-0.45748
0.201773,0.365465,-0.45748
-0.423875,-0.365465,5.55112e-17
-0.524761,-0.182733,0.22874
-0.322989,0.182732,-0.22874
0.322989,-0.182733,0.22874
0.524761,0.182732,-0.22874
-0.201773,-0.365465,0.45748
0.222102,-5.55112e-17,0.45748
0.423875,0.365465,5.55112e-17
connectivity
1,18
7,17
0,9
9,12
3,13
0,13
9,14
13,19
3,20
11,16
0,3
9,13
9,15
13,20
2,3
3,4
3,6
9,11
7,13
1,3
8,10
14,17
16,20
5,6
15,18
7,9
13,16
3,5
11,15
1,2
10,14
17,19
18,20
14,15
2,15
15,21
15,20
4,20
20,21
8,14
12,14
14,19
14,21
1,22
5,23
7,24
10,25
11,26
16,27
5,28
10,29
17,30
18,31