-0.5,1.11022e-16,-0.225655
0.02651,-0.377258,-0.1065
0.25,-0.433013,-0.225655
0.436545,-0.355928,-0.19437
-0.249995,-0.14434,-0.0752198
-0.499995,0.288672,-0.0752198
-0.026515,-0.200095,-0.19437
5.55112e-17,1.11022e-16,-0.225655
-0.25,0.433013,-0.225655
5e-06,0.288672,-0.0752198
0.16003,0.165671,-0.1065
0.33997,0.12301,-0.19437
0.5,1.11022e-16,-0.225655
0.56346,-0.221425,-0.1065
-0.5,1.66533e-16,0.225655
-0.526515,0.0885857,-0.043935
-0.56346,0.221425,0.1065
-0.33997,-0.12301,0.19437
0.160025,-0.411682,0.043935
0.25,-0.433013,0.225655
0.499995,-0.288672,0.0752198
-0.16003,-0.165671,0.1065
-0.436545,0.355928,0.19437
-5e-06,-0.288672,0.0752198
-0.06346,-0.0672555,-0.043935
5.55112e-17,1.66533e-16,0.225655
-0.25,0.433013,0.225655
-0.160025,0.411682,-0.043935
0.06346,0.0672555,0.043935
0.026515,0.200095,0.19437
-0.02651,0.377258,0.1065
0.249995,0.14434,0.0752198
0.526515,-0.0885857,0.043935
0.5,1.66533e-16,0.225655
0.04202,-0.433013,-0.169643
0.444225,-0.383554,-0.225655
-0.05428,-0.192933,-0.225655
-0.360055,-0.143474,-0.225655
-0.39601,-0.180116,-0.169643
-0.444225,0.383554,-0.225655
-0.45798,0.433013,-0.169643
0.05428,0.192933,-0.225655
-0.02195,-0.215346,-0.225655
-0.32448,-0.126682,-0.225655
0.44747,-0.344349,-0.225655
0.32448,0.126682,-0.225655
-0.44747,0.344349,-0.225655
0.02195,0.215346,-0.225655
0.60399,-0.180116,-0.169643
0.360055,0.143474,-0.225655
-0.38456,-0.199948,-0.0977853
-0.61544,0.199948,0.0977853
-0.555455,0.0960509,-0.0765377
-0.444545,-0.0960509,0.0765377
-0.5,1.11022e-16,1.66533e-16
0.01912,-0.433013,-0.0977853
0.48088,-0.433013,0.0977853
0.36091,-0.433013,-0.0765377
0.13909,-0.433013,0.0765377
0.444225,-0.383554,0.225655
0.45798,-0.433013,0.169643
0.25,-0.433013,1.66533e-16
-0.48088,0.433013,-0.0977853
0.61544,-0.199948,-0.0977853
0.38456,0.199948,0.0977853
-0.01912,0.433013,0.0977853
-0.05428,-0.192933,0.225655
-0.360055,-0.143474,0.225655
-0.60399,0.180116,0.169643
0.444545,0.0960509,-0.0765377
-0.13909,0.433013,-0.0765377
0.555455,-0.0960509,0.0765377
-0.36091,0.433013,0.0765377
-0.444225,0.383554,0.225655
0.05428,0.192933,0.225655
-0.04202,0.433013,0.169643
-0.25,0.433013,1.66533e-16
0.5,1.11022e-16,1.66533e-16
-0.02195,-0.215346,0.225655
-0.32448,-0.126682,0.225655
0.44747,-0.344349,0.225655
0.32448,0.126682,0.225655
-0.44747,0.344349,0.225655
0.02195,0.215346,0.225655
0.360055,0.143474,0.225655
0.39601,0.180116,0.169643
connectivity
2,3
6,7
4,24
5,15
18,23
21,23
14,17
28,31
9,10
20,32
11,12
9,27
22,26
25,29
1,18
6,24
21,24
15,16
13,32
10,28
28,29
27,30
1,6
24,28
3,13
17,21
16,22
10,11
29,30
0,15
7,24
1,23
4,21
18,19
5,16
13,20
25,28
10,31
9,30
8,27
32,33
1,34
3,35
6,36
37,38
39,40
10,41
6,42
4,43
3,44
11,45
5,46
9,47
13,48
11,49
4,50
16,51
15,52
17,53
15,54
1,55
20,56
3,57
18,58
59,60
18,61
5,62
13,63
31,64
30,65
21,66
17,67
16,68
11,69
27,70
32,71
22,72
22,73
29,74
30,75
27,76
32,77
23,78
17,79
20,80
31,81
22,82
29,83
84,85