1.38778e-17,-0.26357,-0.5
2.77556e-17,1.66533e-16,-0.5
4.16334e-17,0.26357,-0.5
-0.07829,-0.26357,0
-0.07829,-0.244377,0.1529
-0.07829,-0.131785,-0.18398
-0.07829,-0.0191932,0.1529
-0.07829,2.22045e-16,0
-0.07829,0.0191932,-0.1529
-0.07829,0.131785,0.18398
-0.07829,0.244377,-0.1529
-0.07829,0.26357,0
6.93889e-17,-0.244377,0.3471
4.16334e-17,-0.131785,-0.31602
-0.039145,-0.131785,0.25
-0.039145,0.131785,-0.25
6.93889e-17,-0.26357,0.5
8.32667e-17,-0.0191932,0.3471
8.32667e-17,2.22045e-16,0.5
4.16334e-17,0.0191932,-0.3471
9.71445e-17,0.131785,0.31602
5.55112e-17,0.244377,-0.3471
0.039145,-0.131785,0.25
0.039145,0.131785,-0.25
0.07829,-0.26357,0
0.07829,-0.244377,0.1529
0.07829,-0.131785,-0.18398
0.07829,-0.0191932,0.1529
0.07829,2.22045e-16,0
0.07829,0.0191932,-0.1529
0.07829,0.131785,0.18398
0.07829,0.244377,-0.1529
9.71445e-17,0.26357,0.5
0.07829,0.26357,0
-0.07829,-0.26357,-0.5
-0.07829,1.66533e-16,-0.5
-0.07829,0.26357,-0.5
-0.07829,-0.26357,0.15685
-0.07829,-0.26357,-0.15685
2.77556e-17,-0.26357,-0.34315
6.93889e-17,-0.26357,0.34315
0.07829,-0.26357,-0.5
0.07829,1.66533e-16,-0.5
-0.07829,0.26357,0.15685
-0.07829,0.26357,-0.15685
5.55112e-17,0.26357,-0.34315
9.71445e-17,0.26357,0.34315
0.07829,0.26357,-0.5
0.07829,-0.26357,0.15685
0.07829,-0.26357,-0.15685
0.07829,0.26357,0.15685
0.07829,0.26357,-0.15685
-0.07829,-0.26357,0.5
-0.07829,2.22045e-16,0.5
-0.07829,0.26357,0.5
0.07829,-0.26357,0.5
0.07829,2.22045e-16,0.5
0.07829,0.26357,0.5
connectivity
5,13
9,20
13,26
20,30
3,24
7,28
5,8
6,9
13,19
17,20
3,4
7,8
6,7
1,19
10,11
12,16
17,18
2,21
8,15
4,14
6,14
10,15
15,19
19,23
12,14
14,17
15,21
12,22
17,22
22,25
22,27
21,23
23,29
23,31
11,33
26,29
27,30
24,25
28,29
27,28
31,33
0,34
1,35
2,36
4,37
5,38
13,39
12,40
0,41
1,42
9,43
10,44
21,45
20,46
2,47
25,48
26,49
30,50
31,51
16,52
18,53
32,54
16,55
18,56
32,57