5.55112e-17,0,-0.5
5.55112e-17,0.46287,-0.5
-0.291345,-0.46287,0
-0.291345,-0.231435,0.19687
-0.291345,5.55112e-17,0
-0.291345,0.231435,-0.19687
-0.291345,0.46287,0
-0.145672,-0.231435,-0.25
-0.145672,0.231435,0.25
-0.145672,-0.398142,0.25
0.145673,-0.398142,0.25
0.145673,-0.231435,-0.25
0.291345,-0.46287,0
-0.145672,-0.0647277,0.25
-0.145672,0.0647277,-0.25
-0.145672,0.398142,-0.25
5.55112e-17,-0.46287,0.5
5.55112e-17,-0.231435,0.30313
1.11022e-16,5.55112e-17,0.5
5.55112e-17,0.231435,-0.30313
0.145673,-0.0647277,0.25
0.145673,0.0647277,-0.25
0.145673,0.231435,0.25
0.145673,0.398142,-0.25
0.291345,-0.231435,0.19687
0.291345,5.55112e-17,0
0.291345,0.231435,-0.19687
0.291345,0.46287,0
-0.291345,-0.231435,-0.25
-0.291345,0.231435,0.25
-0.145672,-0.46287,-0.25
-0.145672,-0.46287,0.25
0.145673,-0.46287,-0.25
0.145673,-0.46287,0.25
-0.145672,0.46287,-0.25
-0.145672,0.46287,0.25
0.145673,0.46287,-0.25
0.145673,0.46287,0.25
0.291345,-0.231435,-0.25
0.291345,0.231435,0.25
connectivity
3,17
5,19
19,26
17,24
7,14
11,21
8,13
20,22
7,11
8,22
2,3
3,4
4,5
0,19
5,6
1,19
16,17
17,18
2,9
4,14
4,13
0,14
0,21
9,16
13,18
21,25
6,15
1,15
10,16
10,12
18,20
20,25
1,23
23,27
12,24
24,25
25,26
26,27
7,28
8,29
7,30
9,31
11,32
10,33
15,34
8,35
23,36
22,37
11,38
22,39