-0.498271,1.66533e-16,-0.495437
-0.248271,0.0958079,-0.495437
0.00172941,1.66533e-16,-0.495437
0.251729,-0.0958079,-0.495437
-0.498271,0.49729,-0.495437
0.00172941,-0.49729,-0.495437
0.00172941,0.49729,-0.495437
0.501729,-0.49729,-0.495437
0.501729,0.49729,-0.495437
-0.5,2.22045e-16,2.22045e-16
-0.5,0.49729,2.22045e-16
1.11022e-16,-0.49729,2.22045e-16
-0.501729,-0.49729,0.495437
-0.399912,0.229688,-0.0709565
-0.401642,0.267602,0.42448
-0.251729,0.0958079,0.495437
-0.25,0.401482,2.22045e-16
-0.100088,0.229688,0.0709565
-0.0983583,0.267602,-0.42448
1.11022e-16,2.22045e-16,2.22045e-16
-0.00172941,2.22045e-16,0.495437
2.22045e-16,0.49729,2.22045e-16
0.0983583,-0.267602,0.42448
0.100088,-0.229688,-0.0709565
0.25,-0.401482,2.22045e-16
0.248271,-0.0958079,0.495437
0.401642,-0.267602,-0.42448
0.399912,-0.229688,0.0709565
0.5,-0.49729,2.22045e-16
0.5,2.22045e-16,2.22045e-16
0.498271,2.22045e-16,0.495437
-0.501729,0.49729,0.495437
-0.00172941,-0.49729,0.495437
-0.00172941,0.49729,0.495437
0.498271,-0.49729,0.495437
connectivity
3,5
1,4
1,6
9,16
3,7
19,24
16,19
24,29
0,21
11,30
2,28
5,9
12,19
8,19
1,13
3,23
16,18
24,26
22,24
15,17
14,16
25,27
0,13
11,22
2,23
18,21
26,28
17,20
27,30
10,14
0,18
11,27
2,26
23,28
13,21
10,17
22,30
14,20
10,20
29,33
25,32
15,31
15,33
25,34