-0.25,-0.433013,-0.23187
0.25,-0.433013,-0.23187
0.75,-0.433013,-0.23187
-0.249995,-0.14434,-0.0772915
-0.499995,0.288672,-0.0772915
-0.10401,-0.270304,-0.190166
0,1.11022e-16,-0.23187
5e-06,0.288672,-0.0772915
0.536095,-0.387936,-0.190166
0.317915,0.225227,-0.190166
0.25,0.433013,-0.23187
0.5,1.11022e-16,-0.23187
-0.25,-0.433013,0.23187
-0.75,0.433013,0.23187
-0.317915,-0.225227,0.190166
-0.395985,-0.0183684,0.0355874
-5e-06,-0.288672,0.0772915
0.317905,-0.352117,-0.0355874
-0.5,1.66533e-16,0.23187
-0.4639,0.189417,0.118996
-0.536095,0.387936,0.190166
-0.18209,-0.063445,0.118996
-0.250005,0.14434,0.0772915
-0.317905,0.352117,0.0355874
0.10401,-0.307041,-0.118996
0.036095,-0.0992552,-0.0355874
5.55112e-17,1.66533e-16,0.23187
-0.25,0.433013,0.23187
-0.036095,0.0992552,0.0355874
-0.10401,0.307041,0.118996
0.250005,-0.14434,-0.0772915
0.18209,0.063445,-0.118996
0.10401,0.270304,0.190166
0.499995,-0.288672,0.0772915
0.249995,0.14434,0.0772915
0.4639,-0.189417,-0.118996
0.395985,0.0183684,-0.0355874
0.25,0.433013,0.23187
-0.081915,-0.27421,-0.23187
-0.303485,-0.208045,-0.23187
0.52843,-0.366848,-0.23187
0.303485,0.208045,-0.23187
-0.52843,0.366848,-0.23187
0.081915,0.27421,-0.23187
-0.5,1.11022e-16,5.55112e-17
-0.36125,-0.240322,0.163306
-0.63875,0.240322,-0.163306
0.25,-0.433013,5.55112e-17
0.52751,-0.433013,-0.163306
-0.02751,-0.433013,0.163306
0.5,1.11022e-16,5.55112e-17
-0.25,0.433013,5.55112e-17
-0.081915,-0.27421,0.23187
-0.303485,-0.208045,0.23187
0.52843,-0.366848,0.23187
0.303485,0.208045,0.23187
-0.52843,0.366848,0.23187
0.081915,0.27421,0.23187
0.63875,-0.240322,0.163306
0.02751,0.433013,-0.163306
0.36125,0.240322,-0.163306
-0.52751,0.433013,0.163306
connectivity
0,5
24,30
25,30
17,30
15,22
30,35
30,31
30,36
2,8
21,22
12,14
22,28
19,22
22,23
22,29
9,10
13,20
32,37
5,24
25,28
8,35
14,21
9,31
19,20
29,32
1,17
6,25
3,21
16,24
15,18
4,19
33,35
31,34
26,28
7,29
11,36
23,27
1,24
6,31
3,5
3,15
16,25
17,33
4,23
21,26
11,35
7,28
18,19
34,36
32,34
27,29
5,38
3,39
8,40
9,41
4,42
7,43
15,44
14,45
4,46
17,47
8,48
16,49
36,50
23,51
16,52
14,53
33,54
34,55
20,56
32,57
33,58
7,59
9,60
20,61