-0.41682,-0.41682,-0.5
-0.41682,0.41682,-0.5
-0.41682,-1.11022e-16,-0.5
-1.66533e-16,-0.41682,-0.5
-1.66533e-16,-1.11022e-16,-0.5
0.41682,-0.41682,-0.5
-1.11022e-16,0.41682,-0.5
0.41682,0.41682,-0.5
0.41682,-1.11022e-16,-0.5
-0.41682,-0.41682,0
-0.41682,-0.41682,0.5
-0.41682,0.41682,0
-0.41682,0.41682,0.5
-1.11022e-16,-0.41682,0
0.41682,-0.41682,0
-0.41682,-5.55112e-17,0
-0.41682,-5.55112e-17,0.5
-1.11022e-16,-0.41682,0.5
-1.11022e-16,-5.55112e-17,0
-1.11022e-16,-5.55112e-17,0.5
-5.55112e-17,0.41682,0
0.41682,-0.41682,0.5
0.41682,0.41682,0
-5.55112e-17,0.41682,0.5
0.41682,0.41682,0.5
0.41682,-5.55112e-17,0
0.41682,-5.55112e-17,0.5
connectivity
0,9
9,10
2,15
3,13
15,16
13,17
4,18
18,19
0,13
10,15
1,15
4,15
13,21
13,19
4,20
9,18
2,3
18,22
1,11
11,12
6,20
20,23
1,20
20,24
6,8
5,14
14,21
8,25
25,26
21,25
7,25
19,25
7,22
22,24
16,17
23,26