-0.134863,0.0670275,-0.38534
0.134863,0.0670275,-0.38534
-0.26977,-0.0670275,-0.28964
-0.26977,0.0670275,0.28964
-0.134907,-0.0670275,0.11466
-0.134907,0.0670275,-0.11466
-0.134863,-0.0670275,0.38534
0,-0.0670275,-0.21036
0.134863,-0.0670275,0.38534
0.134907,-0.0670275,0.11466
0.134907,0.0670275,-0.11466
0.26977,-0.0670275,-0.28964
5.55112e-17,0.0670275,0.21036
0.26977,0.0670275,0.28964
-0.134863,-2.77556e-17,-0.5
0.134863,-2.77556e-17,-0.5
-0.134863,0.134055,-0.5
0.134863,0.134055,-0.5
-0.26977,-0.0670275,0.11466
-0.26977,0.0670275,-0.11466
-0.26977,0.0670275,-0.38534
-0.26977,-0.0670275,0.38534
-0.134907,-0.134055,0.11466
-0.134863,-0.134055,-0.38534
-0.134907,-0.134055,-0.11466
-0.134863,-0.134055,0.38534
0.134907,-0.134055,0.11466
0.134863,-0.134055,-0.38534
0.134907,-0.134055,-0.11466
0.134863,-0.134055,0.38534
-0.202338,-0.134055,0.20215
-0.0674317,-0.134055,-0.29785
-0.202338,-0.134055,-0.20215
0.0674317,-0.134055,-0.29785
0.202338,-0.134055,-0.20215
-0.0674317,-0.134055,0.29785
0.0674317,-0.134055,0.29785
-0.134907,-0.134055,0
0.134907,-0.134055,0
-0.134907,0.134055,0.11466
-0.134863,0.134055,-0.38534
-0.134907,0.134055,-0.11466
-0.134863,0.134055,0.38534
0.134907,0.134055,0.11466
0.134863,0.134055,-0.38534
0.134907,0.134055,-0.11466
0.134863,0.134055,0.38534
-0.202338,0.134055,0.20215
-0.0674317,0.134055,-0.29785
-0.202338,0.134055,-0.20215
0.202338,-0.134055,0.20215
0.0674317,0.134055,-0.29785
0.202338,0.134055,-0.20215
-0.0674317,0.134055,0.29785
0.0674317,0.134055,0.29785
-0.134907,0.134055,0
-0.134863,-0.134055,0.5
-0.134863,2.77556e-17,0.5
0.134907,0.134055,0
0.134863,-0.134055,0.5
0.134863,2.77556e-17,0.5
0.26977,-0.0670275,0.11466
0.26977,0.0670275,-0.11466
0.26977,0.0670275,-0.38534
0.26977,-0.0670275,0.38534
0.202338,0.134055,0.20215
connectivity
2,5
3,4
0,7
1,7
6,12
9,13
10,11
8,12
4,5
9,10
4,6
0,5
8,9
1,10
0,1
6,8
4,9
5,10
0,14
1,15
0,16
1,17
4,18
5,19
0,20
6,21
4,22
0,23
5,24
6,25
9,26
1,27
10,28
8,29
4,30
7,31
2,32
7,33
11,34
6,35
8,36
4,37
9,38
4,39
0,40
5,41
6,42
9,43
1,44
10,45
8,46
3,47
0,48
5,49
9,50
1,51
10,52
12,53
12,54
5,55
6,56
6,57
10,58
8,59
8,60
9,61
10,62
1,63
8,64
13,65