-0.41774,-0.41774,-0.5
-0.41774,0.41774,-0.5
-1.66533e-16,-1.11022e-16,-0.5
0.41774,-0.41774,-0.5
0.41774,0.41774,-0.5
-0.41774,-0.41774,0
-0.41774,-0.41774,0.5
-0.41774,-1.11022e-16,-0.25
-0.41774,-5.55112e-17,0.25
-0.41774,0.41774,0
-0.41774,0.41774,0.5
-1.66533e-16,-0.41774,-0.25
-1.11022e-16,-0.41774,0.25
0.41774,-0.41774,0
-0.269142,-0.148598,-0.25
-0.269142,0.148598,-0.25
-0.148598,-0.269142,0.25
-0.148598,0.269142,0.25
-1.11022e-16,-5.55112e-17,0
-1.11022e-16,-5.55112e-17,0.5
-1.11022e-16,0.41774,-0.25
-5.55112e-17,0.41774,0.25
0.148598,-0.269142,0.25
0.148598,0.269142,0.25
0.269142,-0.148598,-0.25
0.269142,0.148598,-0.25
0.41774,-0.41774,0.5
0.41774,-1.11022e-16,-0.25
0.41774,-5.55112e-17,0.25
0.41774,0.41774,0
0.41774,0.41774,0.5
connectivity
11,14
11,24
8,16
8,17
15,20
22,28
20,25
23,28
0,7
1,7
7,18
6,12
12,26
12,18
18,27
18,21
5,7
5,12
2,7
7,9
2,27
12,13
12,19
5,14
5,16
2,14
2,15
2,24
2,25
9,15
16,19
13,24
13,22
19,22
25,29
9,17
17,19
19,23
23,29
5,11
5,8
2,11
11,13
2,20
8,9
8,19
10,21
21,30
9,21
21,29
19,21
9,20
20,29
3,27
4,27
13,27
27,29
13,28
28,29
19,28