-0.405535,-0.405535,-0.5
-5.55112e-17,-0.405535,-0.25
-0.405535,0.405535,-0.5
-0.347203,0.202767,-0.375
-5.55112e-17,-5.55112e-17,-0.5
0,0.405535,-0.25
0.405535,-0.405535,-0.5
0.347203,-0.202768,-0.375
0.405535,0.405535,-0.5
-0.405535,-0.405535,0
-0.405535,-5.55112e-17,-0.25
-0.405535,0,0.25
-0.405535,0.405535,0
-0.405535,-0.405535,0.5
0.405535,-0.405535,0
-0.405535,0.405535,0.5
-0.202767,-0.347203,0.375
-0.202767,-0.0583322,-0.125
-0.0583322,0.202767,0.125
0,-0.405535,0.25
0,0,0
0,0,0.5
0.0583322,-0.202768,0.125
0.202767,0.0583322,-0.125
0.202767,0.347203,0.375
0.405535,-5.55112e-17,-0.25
0.405535,0,0.25
0.405535,0.405535,0
5.55112e-17,0.405535,0.25
0.405535,-0.405535,0.5
0.405535,0.405535,0.5
-0.366644,0.135181,-0.5
-0.135181,-0.366644,-0.5
0.135181,0.366644,-0.5
0.366644,-0.135181,-0.5
-0.366644,0.135181,0.5
-0.135181,-0.366644,0.5
0.135181,0.366644,0.5
0.366644,-0.135181,0.5
connectivity
0,1
9,10
9,19
4,10
10,12
1,6
1,20
4,25
11,13
11,15
11,20
14,19
19,21
5,20
20,26
9,16
1,22
4,17
4,23
11,17
3,12
21,22
7,14
23,26
5,18
18,21
24,27
9,17
1,17
1,7
3,4
4,7
11,16
11,18
3,5
14,22
22,26
16,21
5,23
23,27
12,18
21,24
24,26
2,5
12,28
5,8
27,28
21,28
14,25
25,27
26,29
26,30
3,31
1,32
5,33
7,34
11,35
16,36
24,37
26,38