-0.37554,0.1254,-0.125623
-0.1254,0.37554,-0.125623
0.1254,-0.37554,-0.125623
0.37554,-0.1254,-0.125623
-0.5,-0.17367,1.11022e-16
-0.5,0.17367,1.11022e-16
-0.37554,-0.1254,0.125623
-0.17367,-0.5,1.11022e-16
-0.1254,-0.37554,0.125623
0.17367,-0.5,1.11022e-16
-0.17367,0.5,1.11022e-16
0.1254,0.37554,0.125623
0.17367,0.5,1.11022e-16
0.37554,0.1254,0.125623
0.5,-0.17367,1.11022e-16
0.5,0.17367,1.11022e-16
-0.37554,0,-0.250315
-1.11022e-16,-0.37554,-0.250315
-1.11022e-16,0.37554,-0.250315
0.37554,0,-0.250315
-0.5,-0.1254,1.11022e-16
-0.5,0.1254,1.11022e-16
-0.1254,-0.5,1.11022e-16
0.1254,-0.5,1.11022e-16
-0.1254,0.5,1.11022e-16
0.5,-0.1254,1.11022e-16
0.1254,0.5,1.11022e-16
0.5,0.1254,1.11022e-16
-0.37554,0,0.250315
-1.11022e-16,-0.37554,0.250315
-1.11022e-16,0.37554,0.250315
0.37554,0,0.250315
connectivity
0,1
2,3
6,8
11,13
0,4
2,7
5,6
8,9
1,12
3,15
10,11
13,14
4,5
7,9
10,12
14,15
0,16
2,17
1,18
3,19
6,20
0,21
8,22
2,23
1,24
3,25
11,26
13,27
6,28
8,29
11,30
13,31