-0.5,-0.16667,-0.16652
-0.5,0.16667,-0.16652
-0.16667,-0.5,-0.16652
0.16667,-0.5,-0.16652
-0.16667,0.5,-0.16652
0.16667,0.5,-0.16652
0.5,-0.16667,-0.16652
0.5,0.16667,-0.16652
-0.5,-0.5,-0.16652
-0.5,0.5,-0.16652
-0.5,-0.16667,0.16652
-0.5,0.16667,0.16652
-0.16667,-0.5,0.16652
0.16667,-0.5,0.16652
0.5,-0.5,-0.16652
-0.16667,0.5,0.16652
0.16667,0.5,0.16652
0.5,0.5,-0.16652
0.5,-0.16667,0.16652
0.5,0.16667,0.16652
-0.5,-0.5,0.16652
-0.5,0.5,0.16652
0.5,-0.5,0.16652
0.5,0.5,0.16652
connectivity
0,10
2,12
1,11
3,13
0,1
2,3
0,8
2,8
1,9
3,14
4,15
5,16
4,5
4,9
5,17
6,18
7,19
6,7
6,14
7,17
10,11
12,13
10,20
12,20
11,21
13,22
15,16
15,21
16,23
18,19
18,22
19,23