-0.5,-0.5,-0.287915
-0.5,0.29086,-0.287915
-0.5,0.5,-0.287915
0.29086,-0.5,-0.287915
-0.5,-0.29086,-0.287915
-0.5,0,-0.287915
-0.29086,-0.5,-0.287915
0,-0.5,-0.287915
0.29086,0.5,-0.287915
0.5,-0.5,-0.287915
0.5,0.29086,-0.287915
-0.29086,0.5,-0.287915
1.11022e-16,0.5,-0.287915
0.5,0.5,-0.287915
0.5,-0.29086,-0.287915
0.5,0,-0.287915
-0.5,-0.5,0.287915
-0.5,0.29086,0.287915
-0.5,0.5,0.287915
0.29086,-0.5,0.287915
-0.5,-0.29086,0.287915
-0.5,0,0.287915
-0.29086,-0.5,0.287915
0,-0.5,0.287915
0,0,0
0.29086,0.5,0.287915
0.5,-0.5,0.287915
0.5,0.29086,0.287915
-0.29086,0.5,0.287915
1.11022e-16,0.5,0.287915
0.5,0.5,0.287915
0.5,-0.29086,0.287915
0.5,0,0.287915
connectivity
4,5
6,7
1,5
3,7
0,24
18,24
24,26
13,24
5,21
7,23
0,1
0,3
2,4
6,9
1,24
3,24
20,24
22,24
11,24
14,24
24,25
24,27
11,12
8,12
12,29
2,8
11,13
14,15
10,15
15,32
9,10
13,14
20,21
22,23
17,21
19,23
16,17
16,19
18,20
22,26
28,29
25,29
18,25
28,30
31,32
27,32
26,27
30,31