-0.32885,-0.32885,-0.5
-5.55112e-17,-5.55112e-17,-0.5
-0.32885,0.32885,-0.5
0.32885,-0.32885,-0.5
0.32885,0.32885,-0.5
-0.32885,-0.32885,0
-0.32885,0.32885,0
0.32885,-0.32885,0
-0.32885,-0.32885,0.5
-0.152981,-5.55112e-17,-0.13939
0,-0.152981,0.13939
0,0,0
0,0,0.5
5.55112e-17,0.152981,0.13939
0.152981,-5.55112e-17,-0.13939
0.32885,0.32885,0
-0.32885,0.32885,0.5
0.32885,-0.32885,0.5
0.32885,0.32885,0.5
connectivity
0,1
1,2
1,3
1,4
0,5
5,8
5,11
6,11
7,11
11,15
1,9
1,14
10,12
12,13
5,9
5,10
6,9
7,10
7,14
14,15
6,13
13,15
2,6
6,16
3,7
7,17
4,15
15,18
8,12
12,16
12,17
12,18