0,0.11716,-0.29471
2.77556e-17,0.38284,-0.29471
-0.12916,-0.38284,0.0706995
-0.12916,-0.37239,-0.0750479
-0.12916,-0.12761,-0.0750479
-0.12916,-0.11716,0.0706995
-0.12916,0.11716,-0.0706995
-0.12916,0.12761,0.0750479
-0.12916,0.37239,0.0750479
-0.12916,0.38284,-0.0706995
0,-0.38284,0.29471
2.77556e-17,-0.11716,0.29471
-2.77556e-17,-0.37239,-0.290362
0,-0.12761,-0.290362
2.77556e-17,0.12761,0.290362
5.55112e-17,0.37239,0.290362
0.12916,-0.38284,0.0706995
0.12916,-0.37239,-0.0750479
0.12916,-0.12761,-0.0750479
0.12916,-0.11716,0.0706995
0.12916,0.11716,-0.0706995
0.12916,0.12761,0.0750479
0.12916,0.37239,0.0750479
0.12916,0.38284,-0.0706995
0,0,-0.36541
2.77556e-17,0.5,-0.36541
-0.12916,0.11716,-0.29471
-0.12916,0.38284,-0.29471
-0.12916,-0.38284,0.29471
-0.12916,-0.11716,0.29471
-0.12916,-0.5,1.11022e-16
-0.12916,-0.5,-0.0727824
-0.12916,-0.5,0.0727824
-2.77556e-17,-0.5,-0.292628
0,-0.5,0.292628
0.12916,0.11716,-0.29471
0.12916,0.38284,-0.29471
0.12916,-0.38284,0.29471
0.12916,-0.11716,0.29471
-0.12916,0.5,1.11022e-16
2.77556e-17,-0.5,0.36541
5.55112e-17,0,0.36541
-0.12916,0.5,-0.0727824
-0.12916,0.5,0.0727824
2.77556e-17,0.5,-0.292628
5.55112e-17,0.5,0.292628
0.12916,-0.5,1.11022e-16
0.12916,-0.5,-0.0727824
0.12916,-0.5,0.0727824
0.12916,0.5,1.11022e-16
0.12916,0.5,-0.0727824
0.12916,0.5,0.0727824
connectivity
3,4
7,8
12,13
14,15
2,16
5,19
6,20
9,23
5,6
3,12
4,13
7,14
8,15
12,17
13,18
14,21
15,22
2,5
6,9
0,1
10,11
2,10
5,11
0,6
1,9
0,20
1,23
10,16
11,19
4,6
5,7
0,13
11,14
17,18
21,22
19,20
16,19
20,23
18,20
19,21
0,24
1,25
0,26
1,27
10,28
11,29
2,30
3,31
2,32
12,33
10,34
0,35
1,36
10,37
11,38
9,39
10,40
11,41
9,42
8,43
1,44
15,45
16,46
17,47
16,48
23,49
23,50
22,51