-0.0439846,-0.06222,-0.5
-0.0439846,0.06222,-0.5
-0.06222,-0.06222,-0.25
-0.06222,4.85723e-17,0
-0.06222,0.06222,-0.25
-0.0439846,-0.06222,0.5
0.06222,-0.06222,-0.41706
-0.06222,-0.06222,0.25
-0.0439846,0.06222,0.5
0.06222,0.06222,-0.41706
-0.06222,-0.0439846,0
-0.06222,0.06222,-0.08294
-0.06222,0.06222,0.08294
2.08167e-17,-0.06222,-0.5
0.06222,-0.06222,-0.25
-0.06222,-0.06222,-0.41706
-0.06222,-0.06222,-0.08294
-0.06222,-0.06222,0.08294
-0.06222,-0.06222,0.41706
-0.06222,0.0439846,0
2.77556e-17,0.06222,-0.5
0.0439846,-0.06222,-0.5
0.06222,4.85723e-17,0
0.06222,0.06222,-0.25
-0.06222,0.06222,-0.41706
-0.06222,0.06222,0.25
-0.06222,0.06222,0.41706
0.0439846,0.06222,-0.5
0.06222,-0.06222,0.25
0.06222,-0.0439846,0
0.06222,0.06222,-0.08294
0.06222,0.06222,0.08294
0.06222,-0.06222,-0.08294
0.06222,-0.06222,0.08294
0.06222,-0.06222,0.41706
0.06222,0.0439846,0
0.06222,0.06222,0.25
0.06222,0.06222,0.41706
8.32667e-17,-0.06222,0.5
9.02056e-17,0.06222,0.5
0.0439846,-0.06222,0.5
0.0439846,0.06222,0.5
-0.06222,-0.06222,-0.5
0.06222,-0.06222,-0.5
-0.06222,-0.06222,-0.4894
-0.06222,-0.06222,0.4894
-0.06222,0.06222,-0.5
0.06222,0.06222,-0.5
-0.06222,0.06222,-0.4894
-0.06222,0.06222,0.4894
-0.06222,-0.06222,0
-0.06222,0.06222,0
-0.06222,-0.06222,-0.0106
-0.06222,-0.06222,0.0106
0.06222,-0.06222,-0.4894
-0.06222,0.06222,-0.0106
-0.06222,0.06222,0.0106
0.06222,-0.06222,0.4894
0.06222,0.06222,-0.4894
0.06222,0.06222,0.4894
0.06222,-0.06222,0
0.06222,0.06222,0
0.06222,-0.06222,-0.0106
0.06222,-0.06222,0.0106
0.06222,0.06222,-0.0106
0.06222,0.06222,0.0106
-0.06222,-0.06222,0.5
0.06222,-0.06222,0.5
-0.06222,0.06222,0.5
0.06222,0.06222,0.5
connectivity
13,20
3,22
2,15
2,16
7,17
7,18
2,23
4,24
4,11
12,25
25,26
25,28
6,14
14,32
28,33
28,34
9,23
23,30
31,36
36,37
38,39
42,43
0,44
6,44
5,45
46,47
1,48
9,48
8,49
50,51
10,52
10,53
11,52
12,53
0,42
21,43
10,50
19,51
15,54
16,55
17,56
21,54
18,57
19,55
19,56
13,43
13,42
3,51
3,50
1,46
27,47
24,58
27,58
26,59
20,47
20,46
60,61
29,62
29,63
30,62
31,63
29,60
35,61
32,64
33,65
34,45
35,64
35,65
22,61
22,60
37,49
66,67
68,69
5,66
40,67
40,57
38,67
38,66
8,68
41,69
41,59
39,69
39,68