-0.511628,-0.0116279,-0.511628
-0.261628,0.238372,-0.511628
-0.0116279,-0.511628,-0.511628
-0.0116279,-0.0116279,-0.511628
-0.511628,0.488372,-0.511628
-0.0116279,0.488372,-0.511628
0.238372,0.238372,-0.511628
0.488372,-0.511628,-0.511628
0.488372,-0.0116279,-0.511628
0.488372,0.488372,-0.511628
-0.511628,-0.511628,-0.0116279
-0.511628,-0.261628,0.238372
-0.511628,-0.0116279,-0.0116279
-0.511628,0.238372,0.238372
-0.511628,0.488372,-0.0116279
-0.0116279,-0.511628,-0.0116279
0.238372,-0.511628,-0.261628
-0.511628,-0.511628,0.488372
-0.511628,-0.0116279,0.488372
-0.261628,-0.261628,-0.0116279
-0.261628,-0.0116279,-0.261628
-0.261628,-0.0116279,0.238372
-0.261628,0.238372,0.488372
-0.0116279,-0.511628,0.488372
-0.0116279,-0.261628,-0.261628
-0.0116279,-0.0116279,-0.0116279
-0.0116279,-0.0116279,0.488372
-0.0116279,0.238372,-0.261628
-0.0116279,0.488372,-0.0116279
0.238372,-0.511628,0.238372
0.238372,-0.261628,-0.0116279
0.238372,0.488372,-0.261628
0.488372,-0.511628,-0.0116279
0.488372,-0.261628,0.238372
0.488372,-0.0116279,-0.0116279
-0.511628,0.488372,0.488372
-0.0116279,0.488372,0.488372
0.238372,0.238372,0.488372
0.238372,0.488372,0.238372
0.488372,0.238372,0.238372
0.488372,0.488372,-0.0116279
0.488372,-0.511628,0.488372
0.488372,-0.0116279,0.488372
connectivity
10,19
0,20
2,24
12,13
12,20
15,29
15,19
3,6
3,24
11,17
11,18
1,4
1,5
7,16
16,32
13,14
23,29
6,8
21,25
25,27
25,30
21,26
27,28
30,34
11,19
11,21
1,20
1,27
16,24
16,30
13,21
13,22
29,30
29,33
6,27
6,31
19,20
19,24
19,21
20,24
20,27
24,30
21,22
27,31
30,33
28,38
9,31
31,40
36,38
37,38
38,39
34,39
33,41
33,42
39,40
37,39
26,37
22,35
22,36
37,42