-0.467265,0.49529,-0.17737
-0.392236,-0.25299,-0.286999
0.0290455,-0.00471,-0.17737
0.104074,0.24701,-0.286999
0.337822,-0.01721,-0.294193
0.525355,0.49529,-0.17737
-0.158488,0.48279,-0.294193
-0.525355,-0.49529,0.17737
-0.450327,0.25299,0.0677412
-0.279732,-0.01721,-0.060547
-0.337822,0.01721,0.294193
-0.216578,-0.48279,0.060547
0.0459826,-0.24701,0.0677412
0.158488,-0.48279,0.294193
0.450327,-0.25299,-0.0677412
0.467265,-0.49529,0.17737
-0.104074,-0.24701,0.286999
-0.0459826,0.24701,-0.0677412
-0.0290455,0.00471,0.17737
0.216578,0.48279,-0.060547
0.279732,0.01721,0.060547
0.392236,0.25299,0.286999
0.0580909,0,-0.35474
-0.0779774,-0.38969,-0.35474
-0.14762,-0.5,-0.302366
-0.302151,-0.11031,-0.35474
0.418333,0.11031,-0.35474
-0.396916,-0.31995,-0.35474
0.0993938,0.18005,-0.35474
0.016788,-0.18005,-0.35474
0.513098,0.31995,-0.35474
0.274025,-0.01163,-0.35474
-0.157844,0.01163,-0.35474
0.338466,-0.48837,-0.35474
0.47149,-0.5,-0.228495
-0.438219,0.5,-0.35474
-0.14762,0.5,-0.302366
0.194159,0.38969,-0.35474
-0.222285,0.48837,-0.35474
0.47149,0.5,-0.228495
0.554401,0.5,-0.35474
-0.449058,-0.20196,-0.288553
-0.485471,-0.20196,-0.0661874
-0.507149,0.20196,0.0661874
-0.543562,0.20196,0.288553
-0.49631,-0.5,1.11022e-16
-0.205711,-0.5,0.0523738
0.205711,-0.5,-0.0523738
-0.413399,-0.5,-0.126245
0.413399,-0.5,0.126245
-0.231803,-0.5,0.0610153
-0.173712,-0.5,-0.293725
0.231803,-0.5,-0.0610153
0.173712,-0.5,0.293725
-0.554401,-0.5,0.35474
-0.49631,0.5,1.11022e-16
-0.0580909,0,0.35474
-0.205711,0.5,0.0523738
-0.194159,-0.38969,0.35474
-0.418333,-0.11031,0.35474
0.14762,-0.5,0.302366
0.205711,0.5,-0.0523738
0.302151,0.11031,0.35474
-0.513098,-0.31995,0.35474
-0.016788,0.18005,0.35474
-0.0993938,-0.18005,0.35474
0.396916,0.31995,0.35474
-0.47149,-0.5,0.228495
-0.413399,0.5,-0.126245
0.157844,-0.01163,0.35474
-0.274025,0.01163,0.35474
0.222285,-0.48837,0.35474
0.413399,0.5,0.126245
-0.231803,0.5,0.0610153
-0.173712,0.5,-0.293725
0.231803,0.5,-0.0610153
0.173712,0.5,0.293725
0.543562,-0.20196,-0.288553
0.507149,-0.20196,-0.0661874
0.485471,0.20196,0.0661874
0.449058,0.20196,0.288553
0.0779774,0.38969,0.35474
0.14762,0.5,0.302366
-0.338466,0.48837,0.35474
-0.47149,0.5,0.228495
0.49631,-0.5,1.11022e-16
0.438219,-0.5,0.35474
0.49631,0.5,1.11022e-16
connectivity
2,18
8,9
14,20
0,8
2,12
17,18
14,15
9,18
2,20
9,17
12,20
3,4
10,16
11,12
3,6
17,19
13,16
1,9
11,16
12,13
4,14
3,19
6,17
8,10
20,21
2,22
23,24
1,25
4,26
1,27
3,28
2,29
5,30
4,31
2,32
33,34
0,35
6,36
3,37
6,38
5,39
5,40
1,41
9,42
8,43
10,44
7,45
11,46
12,47
11,48
15,49
11,50
1,51
14,52
13,53
7,54
0,55
18,56
17,57
16,58
10,59
13,60
19,61
21,62
7,63
18,64
16,65
21,66
7,67
0,68
18,69
10,70
13,71
19,72
8,73
6,74
19,75
21,76
4,77
14,78
20,79
21,80
81,82
83,84
15,85
15,86
5,87