-0.37403,0,-0.128765
-0.18557,-0.18557,-0.128765
-0.18557,0.18557,-0.128765
0,-0.37403,-0.128765
0,0.37403,-0.128765
0.18557,-0.18557,-0.128765
0.18557,0.18557,-0.128765
0.37403,0,-0.128765
-0.5,0,0.115139
0,-0.5,0.115139
-0.5,0,-0.115139
-0.37403,0,0.128765
-0.18557,-0.18557,0.128765
-0.18557,0.18557,0.128765
0,-0.5,-0.115139
0,-0.37403,0.128765
0,0.37403,0.128765
1.11022e-16,0.5,0.115139
0.18557,-0.18557,0.128765
0.18557,0.18557,0.128765
0.37403,0,0.128765
0.5,0,0.115139
1.11022e-16,0.5,-0.115139
0.5,0,-0.115139
connectivity
10,11
14,15
0,8
3,9
4,17
7,21
0,1
1,3
0,2
3,5
2,4
5,7
4,6
6,7
1,12
2,13
5,18
6,19
0,11
3,15
4,16
7,20
8,10
9,14
16,22
17,22
20,23
21,23
11,12
12,15
11,13
15,18
13,16
18,20
16,19
19,20