-0.24981,0,-0.342198
0.24981,0,-0.342198
-0.5,-0.25019,-0.110972
-0.5,0.25019,-0.110972
-0.30979,-0.45355,0.28537
-0.30979,0.45355,0.28537
-0.45355,-0.30979,-0.28537
-0.25019,-0.5,0.110972
0.25019,-0.5,0.110972
0.45355,-0.30979,-0.28537
-0.45355,0.30979,-0.28537
-0.25019,0.5,0.110972
-0.19021,-0.04645,-0.1678
-0.19021,0.04645,-0.1678
-0.04645,-0.19021,0.1678
-0.04645,0.19021,0.1678
0,-0.24981,0.342198
0,0.24981,0.342198
0.04645,-0.19021,0.1678
0.04645,0.19021,0.1678
0.19021,-0.04645,-0.1678
0.19021,0.04645,-0.1678
0.25019,0.5,0.110972
0.30979,-0.45355,0.28537
0.30979,0.45355,0.28537
0.45355,0.30979,-0.28537
0.5,-0.25019,-0.110972
0.5,0.25019,-0.110972
-0.12491,-0.12491,-0.45317
0.12491,-0.12491,-0.45317
-0.12491,0.12491,-0.45317
0.12491,0.12491,-0.45317
-0.5,-0.45355,0.28537
-0.5,0.45355,0.28537
-0.45355,-0.5,-0.28537
0.45355,-0.5,-0.28537
-0.45355,0.5,-0.28537
0.5,-0.45355,0.28537
0.45355,0.5,-0.28537
0.5,0.45355,0.28537
-0.12491,-0.12491,0.45317
0.12491,-0.12491,0.45317
-0.12491,0.12491,0.45317
0.12491,0.12491,0.45317
connectivity
6,12
10,13
4,14
9,20
18,23
21,25
5,15
19,24
0,2
7,16
0,3
8,16
1,26
1,27
11,17
17,22
12,20
13,21
14,15
18,19
2,12
7,14
3,13
8,18
0,6
0,10
4,16
20,26
1,9
1,25
21,27
16,23
11,15
19,22
5,17
17,24
2,7
3,11
8,26
22,27
0,28
1,29
0,30
1,31
4,32
5,33
6,34
9,35
10,36
23,37
25,38
24,39
16,40
16,41
17,42
17,43