-0.491202,-0.195652,-0.328926
-0.253357,-0.313832,-0.428978
-0.253357,0.0216978,-0.428978
0.222333,-0.413002,-0.428978
-0.0620246,0.0543478,-0.237396
-0.0389441,-0.283442,-0.19488
0.00792086,-0.107862,-0.19488
0.0310013,-0.445652,-0.237396
0.222333,-0.0774722,-0.428978
0.460178,-0.195652,-0.328926
0.0310013,0.554348,-0.237396
-0.467769,-0.283442,0.103253
-0.491202,0.304348,-0.145865
-0.467769,0.392138,0.188285
-0.444689,0.0543478,0.145769
-0.253357,-0.313832,0.337352
-0.253357,0.0216978,0.337352
-0.253357,0.0869978,-0.0458132
-0.253357,0.422528,-0.0458132
0.222333,-0.413002,0.337352
-0.0389441,0.392138,-0.279912
-0.0155116,-0.195652,0.2373
-0.0155116,0.304348,0.0542388
0.00792086,0.216558,-0.279912
0.222333,-0.0774722,0.337352
0.222333,0.186168,-0.0458132
0.222333,0.521698,-0.0458132
0.413665,-0.445652,0.145769
0.436746,-0.107862,0.103253
0.436746,0.216558,0.188285
0.460178,0.304348,-0.145865
0.413665,0.554348,0.145769
-0.48419,-0.221942,-0.428978
-0.0225233,-0.221942,-0.428978
-0.00849996,-0.169362,-0.428978
0.453167,-0.169362,-0.428978
0.444224,-0.281422,-0.428978
-0.475247,-0.109882,-0.428978
0.000443012,-0.281422,-0.428978
-0.0314663,-0.109882,-0.428978
-0.491202,-0.300922,0.0898808
-0.491202,-0.0903822,0.0898808
-0.491202,0.199078,0.201658
-0.491202,0.373668,0.167288
-0.491202,-0.126332,0.124251
-0.491202,0.235028,0.167288
-0.491202,-0.424092,0.177105
-0.491202,0.0759078,0.114434
-0.491202,0.532788,0.114434
-0.157229,-0.445652,-0.362147
-0.157229,-0.445652,-0.112645
-0.349484,-0.445652,0.0210184
-0.349484,-0.445652,0.27052
0.178551,-0.445652,-0.404004
0.178551,-0.445652,-0.0707879
0.266116,-0.445652,-0.0208385
0.460178,-0.300922,0.0898808
0.222333,-0.445652,-0.237396
0.222333,-0.445652,0.145769
-0.157229,0.554348,-0.362147
-0.157229,0.554348,-0.112645
-0.349484,0.554348,0.0210184
-0.349484,0.554348,0.27052
0.178551,0.554348,-0.404004
-0.491202,0.409618,0.201658
0.460178,-0.0903822,0.0898808
0.178551,0.554348,-0.0707879
0.266116,0.554348,-0.0208385
0.460178,0.199078,0.201658
-0.491202,-0.264972,0.124251
0.460178,0.373668,0.167288
0.460178,-0.126332,0.124251
0.460178,0.235028,0.167288
-0.48419,-0.221942,0.337352
-0.0225233,-0.221942,0.337352
-0.00849996,-0.169362,0.337352
0.453167,-0.169362,0.337352
0.444224,-0.281422,0.337352
-0.475247,-0.109882,0.337352
0.000443012,-0.281422,0.337352
-0.0314663,-0.109882,0.337352
0.460178,-0.424092,0.177105
-0.491202,0.0327878,0.177105
0.460178,0.0759078,0.114434
0.222333,0.554348,-0.237396
0.222333,0.554348,0.145769
0.460178,0.532788,0.114434
0.266116,-0.445652,0.312377
0.266116,0.554348,0.312377
0.460178,0.409618,0.201658
0.460178,-0.264972,0.124251
0.460178,0.0327878,0.177105
connectivity
1,7
8,23
6,25
25,28
24,29
2,23
6,17
1,6
5,8
18,23
20,25
12,13
22,23
20,22
29,30
12,14
4,22
10,22
4,8
4,25
10,18
2,17
16,17
30,31
0,32
5,33
6,34
9,35
9,36
0,37
7,38
4,39
11,40
17,41
16,42
13,43
15,44
18,45
15,46
14,47
18,48
1,49
5,50
11,51
15,52
3,53
5,54
55,56
3,57
19,58
20,59
18,60
18,61
13,62
20,63
13,64
28,65
26,66
26,67
29,68
11,69
25,70
28,71
29,72
11,73
21,74
21,75
28,76
27,77
14,78
21,79
21,80
27,81
14,82
25,83
26,84
26,85
31,86
19,87
88,89
24,90
24,91