-0.198323,-0.077595,-0.42271
-0.198322,0.077595,-0.42271
0.198323,-0.077595,-0.42271
0.198323,0.077595,-0.42271
-0.319529,-0.0784144,-0.32704
-0.319529,-0.0784144,0.32704
-0.319529,-0.0767756,-0.17296
-0.319529,-0.0767756,0.17296
-0.319529,0.0767756,-0.17296
-0.319529,0.0767756,0.17296
-0.319529,0.0784144,-0.32704
-0.319529,0.0784144,0.32704
-0.198322,-0.077595,-0.07729
-0.198322,-0.077595,0.07729
-0.198322,-0.077595,0.42271
-0.0771157,-0.0784144,-0.17296
-0.0771157,-0.0784144,0.17296
0.0771157,-0.0784144,-0.17296
0.0771157,-0.0784144,0.17296
0.198323,-0.077595,-0.07729
0.198323,-0.077595,0.07729
0.198323,-0.077595,0.42271
0.319529,-0.0784144,-0.32704
0.319529,-0.0784144,0.32704
-0.198322,0.077595,-0.07729
-0.198322,0.077595,0.07729
-0.198322,0.077595,0.42271
-0.0771157,-0.0767756,-0.32704
-0.0771157,-0.0767756,0.32704
-0.0771157,0.0767756,-0.32704
-0.0771157,0.0767756,0.32704
-0.0771157,0.0784144,-0.17296
-0.0771157,0.0784144,0.17296
0.0771157,-0.0767756,-0.32704
0.0771157,-0.0767756,0.32704
0.0771157,0.0767756,-0.32704
0.0771157,0.0767756,0.32704
0.0771157,0.0784144,-0.17296
0.0771157,0.0784144,0.17296
0.198323,0.077595,-0.07729
0.198323,0.077595,0.07729
0.198323,0.077595,0.42271
0.319529,-0.0767756,-0.17296
0.319529,-0.0767756,0.17296
0.319529,0.0767756,-0.17296
0.319529,0.0767756,0.17296
0.319529,0.0784144,-0.32704
0.319529,0.0784144,0.32704
-0.198323,-0.077595,-0.5
-0.198322,0.077595,-0.5
0.198323,-0.077595,-0.5
0.198323,0.077595,-0.5
-0.396645,-0.0784144,-0.32704
-0.396645,-0.0767756,-0.17296
-0.396645,-0.0767756,0.17296
-0.396645,0.0784144,-0.32704
-0.396645,0.0767756,-0.17296
-0.396645,-0.0784144,0.32704
-0.396645,0.0767756,0.17296
-0.396645,0.0784144,0.32704
-0.198323,-0.15519,-0.42271
-0.198322,-0.15519,-0.07729
-0.198322,-0.15519,0.07729
0.198323,-0.15519,-0.42271
0.198323,-0.15519,-0.07729
0.198323,-0.15519,0.07729
-0.198322,-0.15519,0.42271
0.198323,-0.15519,0.42271
-0.319529,-0.15519,-0.32704
-0.0771157,-0.15519,-0.17296
0.0771157,-0.15519,-0.17296
-0.0771157,-0.15519,0.17296
-0.319529,-0.15519,0.32704
0.0771157,-0.15519,0.17296
0.319529,-0.15519,-0.32704
0.319529,-0.15519,0.32704
-0.198322,-0.077595,0.5
-0.198322,0.077595,0.5
0.198323,-0.077595,0.5
0.198323,0.077595,0.5
0.396645,-0.0784144,-0.32704
0.396645,-0.0767756,-0.17296
0.396645,-0.0767756,0.17296
0.396645,0.0784144,-0.32704
0.396645,0.0767756,-0.17296
0.396645,-0.0784144,0.32704
0.396645,0.0767756,0.17296
0.396645,0.0784144,0.32704
-0.198322,0.15519,-0.42271
-0.198322,0.15519,-0.07729
-0.198322,0.15519,0.07729
0.198323,0.15519,-0.42271
0.198323,0.15519,-0.07729
0.198323,0.15519,0.07729
-0.198322,0.15519,0.42271
0.198323,0.15519,0.42271
-0.319529,0.15519,-0.32704
-0.0771157,0.15519,-0.17296
0.0771157,0.15519,-0.17296
-0.0771157,0.15519,0.17296
-0.319529,0.15519,0.32704
0.0771157,0.15519,0.17296
0.319529,0.15519,-0.32704
0.319529,0.15519,0.32704
connectivity
12,13
24,25
19,20
39,40
27,33
15,17
16,18
29,35
31,37
28,34
32,38
30,36
4,6
15,27
17,33
5,7
8,10
16,28
29,31
18,34
22,42
35,37
9,11
30,32
23,43
36,38
44,46
45,47
0,4
0,27
6,12
12,15
2,33
7,13
13,16
17,19
1,10
1,29
2,22
8,24
5,14
24,31
19,42
18,20
14,28
3,35
9,25
25,32
20,43
37,39
21,34
3,46
11,26
39,44
38,40
26,30
40,45
21,23
36,41
41,47
0,1
12,24
13,25
2,3
19,39
20,40
14,26
21,41
6,8
27,29
33,35
7,9
28,30
42,44
34,36
43,45
0,48
1,49
2,50
3,51
4,52
6,53
7,54
10,55
8,56
5,57
9,58
11,59
0,60
12,61
13,62
2,63
19,64
20,65
14,66
21,67
4,68
15,69
17,70
16,71
5,72
18,73
22,74
23,75
14,76
26,77
21,78
41,79
22,80
42,81
43,82
46,83
44,84
23,85
45,86
47,87
1,88
24,89
25,90
3,91
39,92
40,93
26,94
41,95
10,96
31,97
37,98
32,99
11,100
38,101
46,102
47,103