-0.26121,-0.26121,-0.5
-0.26121,0.26121,-0.5
0.26121,-0.26121,-0.5
-5.55112e-17,-5.55112e-17,-0.5
0.26121,0.26121,-0.5
-0.26121,-0.26121,0
-0.26121,-0.26121,0.5
-0.26121,0,0
-0.26121,0.26121,0
-0.26121,0.26121,0.5
-5.55112e-17,-0.26121,-0.5
0.26121,-0.26121,0
0.26121,-0.26121,0.5
-0.189477,-0.189477,0.25
-0.189477,0.189477,-0.25
-5.55112e-17,-5.55112e-17,-0.25
0,0,0
0,0,0.25
0,0,0.5
0,0.26121,-0.5
0.189477,-0.189477,-0.25
0.189477,0.189477,0.25
0.26121,0,0
0.26121,0.26121,0
0.26121,0.26121,0.5
0,-0.26121,0.5
5.55112e-17,0.26121,0.5
connectivity
3,15
15,16
16,17
17,18
5,13
6,13
1,14
8,14
2,20
11,20
21,23
21,24
0,10
5,7
2,10
7,8
14,15
15,20
13,17
17,21
3,10
7,16
3,19
16,22
1,19
4,19
11,22
22,23
6,25
12,25
18,25
18,26
9,26
24,26