-0.299294,-0.104472,-0.5
-0.299294,0.104472,-0.5
-0.104841,-0.299738,-0.5
-0.104841,0.299738,-0.5
0.104841,-0.299738,-0.5
0.104841,0.299738,-0.5
0.299294,-0.104472,-0.5
0.299294,0.104472,-0.5
-0.299125,-0.29918,-0.20981
-0.299125,-0.29918,0.20981
-0.299125,-0.10503,-0.29019
-0.299125,-0.10503,0.29019
-0.299125,0.10503,-0.29019
-0.299125,0.10503,0.29019
-0.299125,0.29918,-0.20981
-0.299125,0.29918,0.20981
-0.299294,-0.299738,0
-0.10501,-0.29918,-0.29019
-0.10501,-0.29918,0.29019
0.10501,-0.29918,-0.29019
0.10501,-0.29918,0.29019
0.299125,-0.29918,-0.20981
0.299125,-0.29918,0.20981
0.299294,-0.299738,0
-0.299294,-0.104472,0.5
-0.299294,0.104472,0.5
-0.299294,0.299738,0
-0.10501,-0.10503,-0.20981
-0.10501,-0.10503,0.20981
-0.10501,0.10503,-0.20981
-0.10501,0.10503,0.20981
-0.10501,0.29918,-0.29019
-0.10501,0.29918,0.29019
-0.104841,-0.299738,0.5
-0.104841,-0.104472,0
-0.104841,0.104472,0
-0.104841,0.299738,0.5
0.104841,-0.299738,0.5
0.104841,-0.104472,0
0.104841,0.104472,0
0.104841,0.299738,0.5
0.10501,-0.10503,-0.20981
0.10501,-0.10503,0.20981
0.10501,0.10503,-0.20981
0.10501,0.10503,0.20981
0.10501,0.29918,-0.29019
0.10501,0.29918,0.29019
0.299125,-0.10503,-0.29019
0.299125,-0.10503,0.29019
0.299125,0.10503,-0.29019
0.299125,0.10503,0.29019
0.299125,0.29918,-0.20981
0.299125,0.29918,0.20981
0.299294,-0.104472,0.5
0.299294,0.104472,0.5
0.299294,0.299738,0
-0.404135,-0.29918,-0.20981
-0.404135,-0.10503,-0.29019
-0.404135,0.10503,-0.29019
-0.404135,-0.29918,0.20981
-0.404135,-0.10503,0.29019
-0.404135,0.29918,-0.20981
-0.404135,0.10503,0.29019
-0.404135,0.29918,0.20981
-0.299125,-0.40421,-0.20981
-0.10501,-0.40421,-0.29019
0.10501,-0.40421,-0.29019
-0.299125,-0.40421,0.20981
-0.10501,-0.40421,0.29019
0.299125,-0.40421,-0.20981
0.10501,-0.40421,0.29019
0.299125,-0.40421,0.20981
-0.104841,-0.40421,-0.5
0.104841,-0.40421,-0.5
-0.299294,-0.40421,0
0.299294,-0.40421,0
0.404135,-0.29918,-0.20981
0.404135,-0.10503,-0.29019
0.404135,0.10503,-0.29019
0.404135,-0.29918,0.20981
0.404135,-0.10503,0.29019
0.404135,0.29918,-0.20981
0.404135,0.10503,0.29019
0.404135,0.29918,0.20981
-0.299125,0.40421,-0.20981
-0.10501,0.40421,-0.29019
0.10501,0.40421,-0.29019
-0.299125,0.40421,0.20981
-0.10501,0.40421,0.29019
0.299125,0.40421,-0.20981
0.10501,0.40421,0.29019
0.299125,0.40421,0.20981
-0.104841,0.40421,-0.5
0.104841,0.40421,-0.5
-0.299294,0.40421,0
0.299294,0.40421,0
-0.104841,-0.40421,0.5
0.104841,-0.40421,0.5
-0.104841,0.40421,0.5
0.104841,0.40421,0.5
connectivity
17,19
27,41
29,43
28,42
18,20
31,45
30,44
32,46
8,10
17,27
12,14
19,41
9,11
29,31
18,28
21,47
43,45
30,32
20,42
13,15
49,51
22,48
44,46
50,52
2,17
0,10
1,12
4,19
6,47
3,31
7,49
5,45
8,16
9,16
27,34
28,34
29,35
38,41
11,24
18,33
30,35
38,42
21,23
14,26
39,43
22,23
15,26
13,25
20,37
39,44
32,36
48,53
51,55
52,55
50,54
40,46
10,12
27,29
41,43
28,30
11,13
47,49
42,44
48,50
8,17
10,27
12,29
19,21
9,18
41,47
11,28
14,31
43,49
13,30
42,48
20,22
45,51
15,32
44,50
46,52
0,1
6,7
34,35
38,39
24,25
53,54
8,56
10,57
12,58
9,59
11,60
14,61
13,62
15,63
8,64
17,65
19,66
9,67
18,68
21,69
20,70
22,71
2,72
4,73
16,74
23,75
21,76
47,77
49,78
22,79
48,80
51,81
50,82
52,83
14,84
31,85
45,86
15,87
32,88
51,89
46,90
52,91
3,92
5,93
26,94
55,95
33,96
37,97
36,98
40,99