-0.226341,-0.0754535,-0.38139
-0.0291581,0.464712,-0.25
0.0291581,-0.464712,-0.25
0.0291581,-0.0291581,-0.5
-0.0291581,0.0291581,-0.5
0.226341,0.0754535,-0.38139
-0.464712,0.0291581,0.25
-0.464712,0.464712,-2.22045e-16
-0.226341,-0.418417,-0.36861
-0.0754535,-0.267529,-0.13139
-0.0754535,-0.226341,0.38139
-0.418417,-0.226341,0.36861
-0.267529,-0.0754535,0.13139
0.0291581,-0.0291581,0.5
0.464712,-0.464712,-2.22045e-16
-0.418417,-0.267529,-0.11861
-0.267529,-0.418417,0.11861
-0.0291581,0.0291581,0.5
0.0754535,0.226341,0.38139
0.0754535,0.267529,-0.13139
0.226341,0.418417,-0.36861
0.267529,0.0754535,0.13139
0.267529,0.418417,0.11861
0.418417,0.226341,0.36861
0.418417,0.267529,-0.11861
0.464712,-0.0291581,0.25
-0.276093,-0.276093,-0.5
-0.0583162,-0.49387,-0.27952
-0.321806,-0.0605583,-0.5
-0.0583162,0.49387,-0.27952
0.0337116,-0.49387,-0.28623
-0.0605583,-0.321806,-0.5
-0.0337116,-0.49387,-0.28623
0.0605583,0.321806,-0.5
0.0337116,0.49387,-0.28623
-0.0337116,0.49387,-0.28623
0.0583162,-0.49387,-0.27952
0.276093,0.276093,-0.5
0.0583162,0.49387,-0.27952
0.321806,0.0605583,-0.5
-0.49387,0.435554,-0.02952
-0.49387,-0.435554,-0.02952
-0.276093,-0.276093,0.5
-0.49387,-0.0583162,0.27952
-0.49387,0.451861,-0.00856
-0.49387,-0.451861,-0.00856
-0.49387,0.0420086,0.25856
-0.49387,-0.0420086,0.25856
-0.49387,-0.460158,-0.03623
-0.49387,0.460158,-0.03623
-0.321806,-0.0605583,0.5
-0.49387,-0.0337116,0.28623
-0.435554,-0.49387,0.02952
0.0420086,-0.49387,-0.25856
-0.451861,-0.49387,0.00856
-0.0420086,-0.49387,-0.25856
0.451861,-0.49387,0.00856
-0.460158,-0.49387,0.03623
0.460158,-0.49387,0.03623
0.49387,0.435554,-0.02952
-0.49387,0.0583162,0.27952
-0.435554,0.49387,0.02952
0.49387,-0.435554,-0.02952
0.435554,-0.49387,0.02952
0.49387,-0.0583162,0.27952
0.0420086,0.49387,-0.25856
0.49387,0.451861,-0.00856
-0.451861,0.49387,0.00856
0.49387,-0.451861,-0.00856
-0.0420086,0.49387,-0.25856
0.451861,0.49387,0.00856
0.49387,0.0420086,0.25856
0.49387,-0.0420086,0.25856
-0.49387,0.0337116,0.28623
-0.0605583,-0.321806,0.5
-0.460158,0.49387,0.03623
0.49387,-0.460158,-0.03623
0.49387,0.460158,-0.03623
0.0605583,0.321806,0.5
0.49387,-0.0337116,0.28623
0.460158,0.49387,0.03623
0.435554,0.49387,0.02952
0.276093,0.276093,0.5
0.49387,0.0583162,0.27952
0.321806,0.0605583,0.5
0.49387,0.0337116,0.28623
connectivity
2,6
1,25
0,8
9,15
12,16
10,11
5,20
19,24
21,22
18,23
4,8
3,20
2,15
6,16
11,13
1,24
22,25
17,23
1,4
2,3
2,14
6,7
6,17
1,7
14,25
13,25
4,9
3,19
6,15
2,16
12,13
1,22
17,21
24,25
26,27
0,28
1,29
2,30
31,32
33,34
1,35
2,36
37,38
5,39
7,40
4,41
42,43
7,44
9,45
6,46
10,47
8,48
7,49
50,51
13,52
2,53
12,54
0,55
14,56
11,57
14,58
3,59
6,60
7,61
14,62
14,63
25,64
5,65
19,66
7,67
14,68
1,69
21,70
18,71
25,72
6,73
10,74
7,75
14,76
20,77
18,78
25,79
23,80
17,81
82,83
84,85