-0.381235,-0.381235,-0.5
-0.381235,-1.66533e-16,-0.25
-0.381235,0.381235,-0.5
0,-0.381235,-0.25
0.381235,-0.381235,-0.5
-0.158167,0.113814,-0.46377
0,-1.66533e-16,-0.5
5.55112e-17,0.381235,-0.25
0.158167,-0.113814,-0.46377
0.381235,-1.66533e-16,-0.25
0.381235,0.381235,-0.5
-0.381235,-0.381235,0.5
-0.381235,-0.381235,0
-0.381235,-1.11022e-16,0.25
-0.381235,0.381235,0.5
-0.381235,0.381235,0
5.55112e-17,-0.381235,0.25
0.381235,-0.381235,0.5
-0.267421,-0.223068,-0.03623
-0.223068,0.267421,0.03623
-0.113814,-0.158167,0.46377
5.55112e-17,-1.11022e-16,0
5.55112e-17,-1.11022e-16,0.5
1.11022e-16,0.381235,0.25
0.113814,0.158167,0.46377
0.223068,-0.267421,0.03623
0.267421,0.223068,-0.03623
0.381235,-0.381235,0
0.381235,-1.11022e-16,0.25
0.381235,0.381235,0.5
0.381235,0.381235,0
0.138144,-0.14766,-0.5
-0.14766,-0.138144,-0.5
0.14766,0.138144,-0.5
-0.186401,0.0994108,-0.5
-0.0994108,-0.186401,-0.5
0.0994108,0.186401,-0.5
-0.138144,0.14766,-0.5
0.186401,-0.0994108,-0.5
0.138144,-0.14766,0.5
-0.14766,-0.138144,0.5
0.14766,0.138144,0.5
-0.186401,0.0994108,0.5
-0.0994108,-0.186401,0.5
0.0994108,0.186401,0.5
-0.138144,0.14766,0.5
0.186401,-0.0994108,0.5
connectivity
3,12
12,13
3,6
3,27
6,7
13,15
13,22
0,3
3,4
3,21
11,13
13,14
13,21
7,21
21,28
1,19
16,18
9,25
23,26
18,21
2,5
4,8
21,25
19,21
21,26
11,20
24,29
3,18
3,8
13,19
13,20
5,7
25,28
7,26
24,28
1,12
12,16
1,6
1,15
6,9
16,27
16,22
3,25
13,18
7,19
26,28
7,15
7,30
2,7
7,10
15,23
23,30
22,23
27,28
28,30
22,28
17,28
28,29
9,27
9,30
8,31
1,32
9,33
5,34
3,35
7,36
5,37
8,38
16,39
20,40
24,41
13,42
20,43
24,44
23,45
28,46