-0.3332,-0.0924,-0.287312
-0.3332,0.0924,-0.287312
-0.32434,-0.17566,-0.147828
-0.32434,0.17566,-0.147828
-0.1668,-0.4076,0.00834338
-0.1668,0.4076,0.00834338
0.1668,-0.4076,0.00834338
0.1668,0.4076,0.00834338
0.32434,-0.17566,-0.147828
0.32434,0.17566,-0.147828
0.3332,-0.0924,-0.287312
0.3332,0.0924,-0.287312
-0.17566,-0.32434,0.147828
-0.0924,-0.3332,0.287312
0.0924,-0.3332,0.287312
0.17566,-0.32434,0.147828
-0.4076,-0.1668,-0.00834338
-0.4076,0.1668,-0.00834338
-0.17566,0.32434,0.147828
-0.0924,0.3332,0.287312
0.0924,0.3332,0.287312
0.17566,0.32434,0.147828
0.4076,-0.1668,-0.00834338
0.4076,0.1668,-0.00834338
-0.2128,-0.2128,-0.295655
0.2128,-0.2128,-0.295655
-0.2128,0.2128,-0.295655
0.2128,0.2128,-0.295655
-0.25,-0.25,-0.295655
0.25,-0.25,-0.295655
-0.25,0.25,-0.295655
0.25,0.25,-0.295655
-0.33519,-0.09439,-0.295655
-0.33519,0.09439,-0.295655
-0.09439,-0.33519,-0.295655
0.33519,-0.09439,-0.295655
0.09439,-0.33519,-0.295655
0.33519,0.09439,-0.295655
-0.09439,0.33519,-0.295655
0.09439,0.33519,-0.295655
-0.32478,-0.10479,-0.295655
0.32478,-0.10479,-0.295655
-0.10479,-0.32478,-0.295655
-0.32478,0.10479,-0.295655
0.10479,-0.32478,-0.295655
0.32478,0.10479,-0.295655
-0.10479,0.32478,-0.295655
0.10479,0.32478,-0.295655
-0.5,-0.0924,-0.287312
-0.5,0.0924,-0.287312
-0.5,-0.17566,-0.147828
-0.5,0.17566,-0.147828
-0.0924,-0.5,0.287312
0.0924,-0.5,0.287312
-0.17566,-0.5,0.147828
0.17566,-0.5,0.147828
-0.2128,-0.2128,0.295655
0.2128,-0.2128,0.295655
-0.2128,0.2128,0.295655
0.2128,0.2128,0.295655
0.5,-0.0924,-0.287312
0.5,0.0924,-0.287312
-0.0924,0.5,0.287312
0.0924,0.5,0.287312
-0.25,-0.25,0.295655
0.25,-0.25,0.295655
-0.25,0.25,0.295655
0.25,0.25,0.295655
-0.33519,-0.09439,0.295655
-0.33519,0.09439,0.295655
-0.09439,-0.33519,0.295655
0.33519,-0.09439,0.295655
0.09439,-0.33519,0.295655
0.33519,0.09439,0.295655
-0.09439,0.33519,0.295655
0.09439,0.33519,0.295655
-0.32478,-0.10479,0.295655
0.32478,-0.10479,0.295655
-0.10479,-0.32478,0.295655
-0.32478,0.10479,0.295655
0.10479,-0.32478,0.295655
0.32478,0.10479,0.295655
-0.10479,0.32478,0.295655
0.10479,0.32478,0.295655
0.5,-0.17566,-0.147828
0.5,0.17566,-0.147828
-0.17566,0.5,0.147828
0.17566,0.5,0.147828
connectivity
4,16
5,17
6,22
7,23
16,17
4,6
22,23
5,7
2,12
3,18
8,15
9,21
2,4
12,16
3,5
17,18
6,8
15,22
7,9
21,23
2,3
12,15
8,9
18,21
0,24
10,25
1,26
11,27
2,28
8,29
3,30
9,31
0,32
1,33
4,34
10,35
6,36
11,37
5,38
7,39
0,40
10,41
2,42
1,43
8,44
11,45
3,46
9,47
0,48
1,49
2,50
3,51
13,52
14,53
12,54
15,55
13,56
14,57
19,58
20,59
10,60
11,61
19,62
20,63
12,64
15,65
18,66
21,67
16,68
17,69
13,70
22,71
14,72
23,73
19,74
20,75
12,76
15,77
13,78
18,79
14,80
21,81
19,82
20,83
8,84
9,85
18,86
21,87