-0.5,-0.188145,-0.283395
-0.25,-0.0940725,-0.285041
-0.25,0.0940725,-0.285041
0,8.32667e-17,-0.283395
0.25,-0.0940725,-0.285041
0.25,0.0940725,-0.285041
-0.5,0.188145,-0.283395
0.5,-0.188145,-0.283395
0.5,0.188145,-0.283395
-0.5,-0.0940725,-0.177353
-0.5,-0.0940725,0.177352
-0.5,0.0940725,-0.177353
-0.5,0.0940725,0.177352
-0.5,-0.188145,0.283395
0,-0.188145,-0.0713099
0,-0.188145,0.0713099
-0.5,1.11022e-16,-0.0713099
-0.5,1.11022e-16,0.0713099
-0.5,0.188145,0.283395
-0.35951,-0.0940725,-0.177353
-0.35951,-0.0940725,0.177352
-0.35951,0.0940725,-0.177353
-0.35951,0.0940725,0.177352
-0.25,-0.0940725,-0.177353
-0.25,-0.0940725,-0.0696641
-0.25,-0.0940725,0.0696641
-0.25,-0.0940725,0.177352
-0.25,-0.0940725,0.285041
-0.25,0.0940725,-0.177353
-0.25,0.0940725,-0.0696641
-0.25,0.0940725,0.0696641
-0.25,0.0940725,0.177352
-0.25,0.0940725,0.285041
-0.14049,-0.0940725,-0.177353
-0.14049,-0.0940725,0.177352
-0.14049,0.0940725,-0.177353
-0.14049,0.0940725,0.177352
0,-0.0940725,-0.177353
0,-0.0940725,0.177352
0,1.11022e-16,0.283395
0,0.0940725,-0.177353
0,0.0940725,0.177352
0,0.188145,-0.0713099
0,0.188145,0.0713099
0.14049,-0.0940725,-0.177353
0.14049,-0.0940725,0.177352
0.14049,0.0940725,-0.177353
0.14049,0.0940725,0.177352
0.25,-0.0940725,-0.177353
0.25,-0.0940725,-0.0696641
0.25,-0.0940725,0.0696641
0.25,-0.0940725,0.177352
0.25,-0.0940725,0.285041
0.25,0.0940725,-0.177353
0.25,0.0940725,-0.0696641
0.25,0.0940725,0.0696641
0.25,0.0940725,0.177352
0.25,0.0940725,0.285041
0.35951,-0.0940725,-0.177353
0.35951,-0.0940725,0.177352
0.35951,0.0940725,-0.177353
0.35951,0.0940725,0.177352
0.5,-0.0940725,-0.177353
0.5,-0.0940725,0.177352
0.5,0.0940725,-0.177353
0.5,0.0940725,0.177352
0.5,-0.188145,0.283395
0.5,1.11022e-16,-0.0713099
0.5,1.11022e-16,0.0713099
0.5,0.188145,0.283395
-0.25,-0.0940725,-0.354705
-0.25,0.0940725,-0.354705
0.25,-0.0940725,-0.354705
0.25,0.0940725,-0.354705
-0.5,-0.188145,-0.354705
0,8.32667e-17,-0.354705
-0.5,0.188145,-0.354705
0.5,-0.188145,-0.354705
0.5,0.188145,-0.354705
-0.25,-0.0940725,0.354705
-0.25,0.0940725,0.354705
0.25,-0.0940725,0.354705
0.25,0.0940725,0.354705
-0.5,-0.188145,0.354705
0,1.38778e-16,0.354705
-0.5,0.188145,0.354705
0.5,-0.188145,0.354705
0.5,0.188145,0.354705
connectivity
1,23
23,24
25,26
2,28
4,48
26,27
28,29
48,49
30,31
50,51
5,53
31,32
51,52
53,54
55,56
56,57
24,25
29,30
49,50
54,55
0,9
10,13
9,16
11,16
14,37
10,17
12,17
15,38
6,11
12,18
3,37
3,40
38,39
40,42
39,41
41,43
16,17
14,15
9,19
10,20
11,21
12,22
33,37
37,44
34,38
35,40
58,62
38,45
40,46
36,41
59,63
60,64
41,47
61,65
19,23
23,33
44,48
20,26
21,28
26,34
28,35
48,58
45,51
46,53
22,31
31,36
51,59
53,60
47,56
56,61
1,19
1,33
19,24
24,33
20,25
25,34
4,44
44,49
2,21
2,35
4,58
20,27
21,29
27,34
29,35
49,58
22,30
30,36
45,50
50,59
45,52
5,46
46,54
5,60
22,32
32,36
54,60
52,59
47,55
55,61
47,57
57,61
42,43
7,62
63,66
62,67
64,67
63,68
65,68
8,64
65,69
67,68
1,70
2,71
4,72
5,73
0,74
3,75
6,76
7,77
8,78
27,79
32,80
52,81
57,82
13,83
39,84
18,85
66,86
69,87