-0.5,-0.37336,-0.251625
-0.5,0.37336,-0.251625
-0.37336,-0.5,5.55112e-17
-0.28146,-0.15484,-0.251625
-0.28146,0.15484,-0.251625
0.28146,-0.15484,-0.251625
0.28146,0.15484,-0.251625
0.5,-0.37336,-0.251625
-0.37336,0.5,5.55112e-17
0.5,0.37336,-0.251625
0.37336,-0.5,5.55112e-17
0.37336,0.5,5.55112e-17
-0.5,-0.37336,0.251625
-0.5,0.37336,0.251625
-0.28146,-0.15484,0.251625
-0.28146,0.15484,0.251625
-0.15484,-0.28146,5.55112e-17
-0.15484,0.28146,5.55112e-17
0.15484,-0.28146,5.55112e-17
0.15484,0.28146,5.55112e-17
0.28146,-0.15484,0.251625
0.28146,0.15484,0.251625
0.5,-0.37336,0.251625
0.5,0.37336,0.251625
connectivity
0,2
0,3
7,10
5,7
3,4
5,6
16,18
17,19
1,8
2,12
10,22
3,16
4,17
5,18
6,19
14,16
18,20
15,17
19,21
1,4
2,16
10,18
12,14
6,9
8,17
11,19
8,13
9,11
11,23
20,22
14,15
20,21
13,15
21,23