-0.20405,-0.353425,-0.5
-0.61215,0.353425,-0.5
0.61215,-0.353425,-0.5
-0.356051,-0.0684231,-0.41883
-0.441332,0.156334,-0.24783
-0.118773,-0.106946,-0.24783
-0.289322,0.342561,-0.41883
0.166109,-0.305182,-0.43923
0.0607498,0.00873667,-0.43923
0.0332357,0.0792803,-0.41883
-0.052045,0.304037,-0.24783
0.385291,-0.0569792,-0.43923
0.20405,0.353425,-0.5
-0.20405,-0.353425,0.5
-0.289331,-0.128668,-0.0855
-0.0228046,-0.292593,0.22744
-0.61215,0.353425,0.5
-0.468846,0.226878,-0.22744
-0.0520409,-0.167198,0.0855
-0.204054,0.117811,0.16667
-0.166109,-0.166046,-0.22744
0.052045,-0.304037,0.24783
0.204054,-0.117811,-0.16667
0.374872,-0.314902,0.0855
0.61215,-0.353425,0.5
-0.385291,0.0569792,0.43923
-0.241995,-0.0695682,-0.10589
-0.34735,0.244358,-0.10589
-0.374872,0.314902,-0.0855
0.0228046,-0.178635,0.10589
-0.0332357,-0.0792803,0.41883
-0.0607498,-0.00873667,0.43923
-0.166109,0.305182,0.43923
-0.0228046,0.178635,-0.10589
0.289322,-0.342561,0.41883
0.0520409,0.167198,-0.0855
0.118773,0.106946,0.24783
0.0228046,0.292593,-0.22744
0.34735,-0.244358,0.10589
0.166109,0.166046,0.22744
0.241995,0.0695682,0.10589
0.468846,-0.226878,0.22744
0.441332,-0.156334,0.24783
0.289331,0.128668,0.0855
0.356051,0.0684231,0.41883
0.20405,0.353425,0.5
0.080763,-0.208464,-0.5
0.344204,-0.17925,-0.5
-0.344204,0.17925,-0.5
-0.187183,-0.0342893,-0.5
-0.080763,0.208464,-0.5
0.187183,0.0342893,-0.5
0.143961,-0.304963,-0.5
-0.396179,0.0762762,-0.5
-0.0720215,-0.0278075,-0.5
0.396179,-0.0762762,-0.5
0.0720215,0.0278075,-0.5
-0.143961,0.304963,-0.5
-0.305695,-0.17737,-0.10971
-0.0432423,-0.353425,0.19721
-0.4081,1.11022e-16,0
-0.53175,0.214168,-0.19721
-0.28445,-0.214168,0.19721
-0.451342,0.353425,0.19721
-0.510505,0.17737,0.10971
-0.311829,-0.166746,0.03584
-0.504371,0.166746,-0.03584
-0.334695,-0.127141,-0.09691
-0.470931,0.108827,-0.23377
-0.345269,-0.108827,0.23377
-0.481505,0.127141,0.09691
0.20405,-0.353425,0
-0.000767228,-0.353425,-0.10971
0.451342,-0.353425,-0.19721
0.510505,-0.17737,-0.10971
0.408867,-0.353425,0.10971
0.0115003,-0.353425,0.03584
0.3966,-0.353425,-0.03584
0.0783878,-0.353425,0.23377
0.350868,-0.353425,0.09691
0.0572319,-0.353425,-0.09691
0.329712,-0.353425,-0.23377
0.4081,1.11022e-16,0
-0.20405,0.353425,0
-0.408867,0.353425,-0.10971
0.080763,-0.208464,0.5
0.28445,0.214168,-0.19721
0.344204,-0.17925,0.5
-0.344204,0.17925,0.5
-0.187183,-0.0342893,0.5
0.53175,-0.214168,0.19721
0.0432423,0.353425,-0.19721
0.305695,0.17737,0.10971
0.000767228,0.353425,0.10971
-0.080763,0.208464,0.5
0.187183,0.0342893,0.5
0.143961,-0.304963,0.5
-0.3966,0.353425,0.03584
-0.396179,0.0762762,0.5
-0.0720215,-0.0278075,0.5
0.504371,-0.166746,0.03584
-0.0115003,0.353425,-0.03584
0.396179,-0.0762762,0.5
0.0720215,0.0278075,0.5
0.311829,0.166746,-0.03584
-0.143961,0.304963,0.5
0.481505,-0.127141,-0.09691
0.345269,0.108827,-0.23377
-0.329712,0.353425,0.23377
-0.0572319,0.353425,0.09691
-0.350868,0.353425,-0.09691
-0.0783878,0.353425,-0.23377
0.470931,-0.108827,0.23377
0.334695,0.127141,0.09691
connectivity
0,22
2,22
12,22
19,22
13,19
16,19
19,45
0,20
7,22
19,26
22,29
8,22
13,15
22,38
11,22
22,40
1,17
19,27
19,33
19,25
19,31
19,32
24,41
12,37
39,45
5,33
4,26
29,36
21,38
10,27
40,42
3,26
18,20
29,30
9,33
6,27
34,38
35,39
40,44
0,3
5,22
18,19
22,35
9,12
19,36
1,6
13,30
24,34
44,45
7,46
11,47
6,48
3,49
9,50
8,51
7,52
4,53
5,54
11,55
8,56
10,57
14,58
15,59
19,60
17,61
18,62
63,64
14,65
17,66
14,67
4,68
19,69
19,70
22,71
20,72
73,74
23,75
15,76
23,77
21,78
23,79
22,80
22,81
22,82
19,83
28,84
30,85
35,86
34,87
25,88
31,89
41,90
37,91
43,92
39,93
32,94
44,95
21,96
28,97
25,98
31,99
41,100
37,101
42,102
36,103
43,104
32,105
22,106
22,107
19,108
19,109
28,110
10,111
42,112
43,113