-0.09632,-0.09632,-0.5
-0.09632,0.09632,-0.5
0,0,-0.5
0.09632,-0.09632,-0.5
0.09632,0.09632,-0.5
-0.09632,-0.09632,5.55112e-17
-0.09632,-0.0481523,-0.12499
-0.0481523,-0.09632,0.12499
2.77556e-17,-0.0806776,-0.06574
-0.09632,-0.0156424,0.43426
-0.09632,1.38778e-17,-0.25
-0.09632,4.16334e-17,0.25
-0.09632,0.0156424,0.43426
-0.09632,0.0481523,-0.12499
-0.09632,0.09632,5.55112e-17
-0.0806776,2.77556e-17,0.06574
-0.0481523,0.09632,0.12499
2.77556e-17,2.77556e-17,5.55112e-17
4.16334e-17,0.0806776,-0.06574
-0.09632,-0.09632,0.5
-0.0156424,-0.09632,-0.43426
1.38778e-17,-0.09632,-0.25
4.16334e-17,-0.09632,0.25
0.0156424,-0.09632,-0.43426
0.09632,-0.09632,5.55112e-17
0.09632,-0.0481523,-0.12499
-0.09632,0.09632,0.5
-0.0481677,1.38778e-17,-0.37501
-0.0156424,0.09632,-0.43426
5.55112e-17,-0.0481677,0.37501
5.55112e-17,5.55112e-17,0.5
6.93889e-17,0.0481677,0.37501
2.77556e-17,0.09632,-0.25
5.55112e-17,0.09632,0.25
0.0156424,0.09632,-0.43426
0.0481523,-0.09632,0.12499
0.0481677,1.38778e-17,-0.37501
0.0806776,2.77556e-17,0.06574
0.09632,-0.0156424,0.43426
0.09632,1.38778e-17,-0.25
0.09632,4.16334e-17,0.25
0.09632,0.0156424,0.43426
0.09632,0.0481523,-0.12499
0.09632,0.09632,5.55112e-17
0.0481523,0.09632,0.12499
0.09632,-0.09632,0.5
0.09632,0.09632,0.5
-0.0236119,-0.09632,-0.08026
-0.09632,2.77556e-17,0.05656
-0.09632,-0.0236119,0.08026
-0.09632,0.0236119,0.08026
-0.0236119,0.09632,-0.08026
2.77556e-17,-0.09632,-0.05656
0.0236119,-0.09632,-0.08026
4.16334e-17,0.09632,-0.05656
0.09632,2.77556e-17,0.05656
0.09632,-0.0236119,0.08026
0.0236119,0.09632,-0.08026
0.09632,0.0236119,0.08026
connectivity
6,10
10,13
5,6
13,14
0,2
5,17
1,2
2,3
2,4
14,17
17,24
17,43
10,27
7,22
22,35
22,29
36,39
25,39
31,33
39,42
0,23
3,20
9,26
12,19
10,21
10,32
21,39
11,22
11,33
22,40
5,7
2,27
2,36
24,35
29,30
24,25
30,31
42,43
20,36
23,27
9,31
12,29
27,34
28,36
29,41
31,38
16,33
33,44
1,34
4,28
32,39
33,40
14,16
43,44
38,46
41,45
19,30
26,30
30,45
30,46
8,47
15,48
17,48
15,49
6,47
7,49
16,50
13,51
15,50
18,51
8,52
17,52
25,53
8,53
17,54
17,55
18,54
37,55
35,56
18,57
37,56
37,58
42,57
44,58