-0.49993,-0.25,-0.37488
-0.21453,-0.46442,-0.325286
-0.21453,-0.03558,-0.424474
-0.03558,0.28547,-0.174554
0.03558,-0.28547,-0.174554
0.21453,0.03558,-0.424474
0.21453,0.46442,-0.325286
0.49993,0.25,-0.37488
-0.46442,0.21453,0.325286
-0.46442,0.28547,-0.0753659
-0.28547,-0.46442,0.0753659
-0.28547,-0.03558,0.174554
-0.25,7e-05,-0.12496
-0.25,0.49993,0.37488
-7e-05,-0.25,0.12496
0.03558,-0.21453,0.424474
0.25,-0.49993,0.37488
0.46442,-0.28547,-0.0753659
-0.03558,0.21453,0.424474
7e-05,0.25,0.12496
0.25,-7e-05,-0.12496
0.28547,0.03558,0.174554
0.28547,0.46442,0.0753659
0.46442,-0.21453,0.325286
-0.5,-0.25007,-0.37495
-0.37496,-0.37504,-0.49984
-0.28989,0.03984,-0.49984
-0.03984,-0.28989,-0.49984
0.03984,0.28989,-0.49984
0.28989,-0.03984,-0.49984
-0.22787,-0.03558,-0.49984
0.03558,-0.22787,-0.49984
0.22787,0.03558,-0.49984
-0.03558,0.22787,-0.49984
0.37504,-0.37496,-0.49984
0.5,-0.25007,-0.37495
-0.37504,0.37496,-0.49984
-0.5,0.25007,-0.37495
0.37496,0.37504,-0.49984
0.5,0.25007,-0.37495
-0.5,-0.25007,-0.37487
-0.25011,-0.5,-0.331464
-0.5,-0.24992,-0.0398173
-0.5,0.24992,-0.0398173
-0.5,-0.25008,0.289737
-0.5,0.25008,0.289737
-0.5,-0.24993,-0.37489
-0.5,0.24989,-0.0815439
-0.5,-0.24989,-0.0815439
-0.5,0.24993,-0.37489
-0.25011,0.5,-0.331464
-0.5,0.25007,-0.37487
-0.25007,-0.5,0.37487
-0.5,-0.25011,0.331464
-0.5,-0.24993,-0.37481
-0.5,0.24993,-0.37481
-0.5,0.25011,0.331464
-0.25007,0.5,0.37487
-0.25008,-0.5,-0.289737
-0.24992,-0.5,0.0398173
0.25008,-0.5,-0.289737
0.24992,-0.5,0.0398173
-0.24989,-0.5,0.0815439
0.25011,-0.5,-0.331464
0.5,-0.25007,-0.37487
0.24993,-0.5,0.37489
-0.24993,-0.5,0.37489
0.24989,-0.5,0.0815439
0.24993,-0.5,0.37481
-0.24993,-0.5,0.37481
-0.37496,-0.37504,0.49984
-0.25007,-0.5,0.37495
-0.25008,0.5,-0.289737
-0.24992,0.5,0.0398173
0.5,-0.24992,-0.0398173
-0.28989,0.03984,0.49984
-0.03984,-0.28989,0.49984
0.5,0.24992,-0.0398173
0.25008,0.5,-0.289737
0.03984,0.28989,0.49984
0.5,-0.25008,0.289737
0.28989,-0.03984,0.49984
0.24992,0.5,0.0398173
0.5,0.25008,0.289737
-0.22787,-0.03558,0.49984
0.03558,-0.22787,0.49984
0.22787,0.03558,0.49984
-0.03558,0.22787,0.49984
0.5,-0.24993,-0.37489
0.5,0.24989,-0.0815439
0.5,-0.24989,-0.0815439
-0.24989,0.5,0.0815439
0.25007,-0.5,0.37487
0.25011,0.5,-0.331464
0.5,0.24993,-0.37489
0.5,0.25007,-0.37487
0.24993,0.5,0.37489
0.5,-0.25011,0.331464
-0.24993,0.5,0.37489
0.24989,0.5,0.0815439
0.5,-0.24993,-0.37481
0.24993,0.5,0.37481
0.25007,-0.5,0.37495
0.37504,-0.37496,0.49984
0.5,0.24993,-0.37481
-0.24993,0.5,0.37481
-0.25007,0.5,0.37495
-0.37504,0.37496,0.49984
0.25007,0.5,0.37487
0.5,0.25011,0.331464
0.37496,0.37504,0.49984
0.25007,0.5,0.37495
connectivity
2,4
11,18
3,5
15,21
1,10
8,9
17,23
6,22
4,12
14,21
11,19
3,20
0,12
12,14
12,19
14,20
14,16
19,20
7,20
13,19
0,24
0,25
2,26
1,27
6,28
5,29
2,30
4,31
5,32
3,33
34,35
36,37
7,38
7,39
0,40
1,41
11,42
9,43
10,44
8,45
0,46
9,47
12,48
2,49
50,51
52,53
0,54
12,55
8,56
13,57
1,58
10,59
17,60
4,61
10,62
63,64
16,65
15,66
14,67
16,68
14,69
70,71
9,72
3,73
17,74
8,75
15,76
21,77
6,78
18,79
23,80
23,81
22,82
22,83
11,84
15,85
21,86
18,87
5,88
20,89
17,90
19,91
16,92
6,93
7,94
7,95
18,96
23,97
13,98
22,99
20,100
19,101
16,102
16,103
7,104
13,105
13,106
13,107
108,109
110,111