-0.359397,-0.48049,-0.26352
-0.305973,-0.48049,-0.396225
-0.44358,0,-0.43983
-0.44358,0.25,-0.219915
2.22045e-16,-0.5,-0.43983
0.22179,-0.5,-0.219915
0.22179,-0.25,-0.43983
-0.359397,-0.26951,-0.396225
-0.305973,-0.26951,-0.26352
-0.22179,0,-0.219915
-0.22179,0.25,-0.43983
2.22045e-16,-0.25,-0.219915
2.77556e-16,0.5,-0.43983
0.0841826,0.01951,-0.26352
0.0841826,0.23049,-0.396225
0.137607,0.01951,-0.396225
0.137607,0.23049,-0.26352
0.22179,0.5,-0.219915
0.44358,0,-0.43983
0.44358,0.25,-0.219915
-0.44358,-0.5,-1.66533e-16
-0.44358,-0.25,0.219915
-0.44358,0,0.43983
-0.44358,0.5,-1.66533e-16
-0.359397,0.01951,0.17631
-0.359397,0.23049,0.0436047
-0.305973,0.01951,0.0436047
-0.305973,0.23049,0.17631
-0.22179,-0.5,0.219915
-0.22179,-0.25,-1.66533e-16
2.77556e-16,-0.5,0.43983
0.0841826,-0.48049,0.17631
0.137607,-0.48049,0.0436047
0.22179,-0.25,0.43983
0.44358,-0.5,-1.66533e-16
0.44358,-0.25,0.219915
-0.22179,0.25,0.43983
-0.22179,0.5,0.219915
-0.137607,-0.23049,0.26352
-0.137607,-0.01951,0.396225
-0.137607,0.26951,-0.17631
-0.137607,0.48049,-0.0436047
-0.0841826,-0.23049,0.396225
-0.0841826,-0.01951,0.26352
-0.0841826,0.26951,-0.0436047
-0.0841826,0.48049,-0.17631
2.77556e-16,0,-1.66533e-16
3.33067e-16,0.25,0.219915
3.33067e-16,0.5,0.43983
0.0841826,-0.26951,0.0436047
0.137607,-0.26951,0.17631
0.22179,0,0.219915
0.22179,0.25,-1.66533e-16
0.305973,-0.23049,-0.17631
0.305973,-0.01951,-0.0436047
0.305973,0.26951,0.26352
0.305973,0.48049,0.396225
0.359397,-0.23049,-0.0436047
0.359397,-0.01951,-0.17631
0.359397,0.26951,0.396225
0.359397,0.48049,0.26352
0.44358,0,0.43983
0.44358,0.5,-1.66533e-16
-0.349949,-0.48823,-0.43983
-0.44358,-0.4953,-0.346991
-0.44358,-0.5,-0.43983
0.416868,-0.5,-0.373477
0.44358,-0.4953,-0.346991
-0.315421,-0.26177,-0.43983
0.0936309,0.01177,-0.43983
-0.128159,-0.23823,-0.43983
-0.0936309,-0.01177,-0.43983
0.128159,0.23823,-0.43983
0.315421,0.26177,-0.43983
0.349949,0.48823,-0.43983
0.416868,0.5,-0.373477
-0.373326,-0.26628,-0.43983
-0.292044,-0.48372,-0.43983
-0.0702542,-0.23372,-0.43983
-0.151536,-0.01628,-0.43983
0.0702542,0.23372,-0.43983
0.151536,0.01628,-0.43983
0.373326,0.26628,-0.43983
0.292044,0.48372,-0.43983
-0.22179,-0.25,-0.43983
2.77556e-16,0,-0.43983
0.22179,0.25,-0.43983
-0.349949,-0.48823,0.43983
-0.416868,-0.5,0.373477
-0.44358,-0.2547,-0.312754
-0.44358,-0.2453,-0.127076
-0.44358,-0.0047,-0.0928393
-0.44358,0.0047,0.0928393
-0.44358,0.2453,0.127076
-0.44358,0.2547,0.312754
-0.416868,0.5,0.373477
-0.44358,0.4953,0.346991
-0.44358,-0.25,-0.219915
-0.44358,0,-1.66533e-16
-0.44358,0.25,0.219915
-0.195078,-0.5,-0.286268
0.0267124,-0.5,-0.0663528
-0.248502,-0.5,-0.153562
-0.0267124,-0.5,0.0663528
0.248502,-0.5,0.153562
0.195078,-0.5,0.286268
-0.365492,-0.5,-0.260362
-0.299878,-0.5,-0.399383
-0.0780878,-0.5,-0.179468
-0.143702,-0.5,-0.0404468
0.0780878,-0.5,0.179468
0.143702,-0.5,0.0404468
0.365492,-0.5,0.260362
0.299878,-0.5,0.399383
-0.22179,-0.5,-0.219915
2.22045e-16,-0.5,-1.66533e-16
0.22179,-0.5,0.219915
-0.315421,-0.26177,0.43983
0.44358,-0.2547,-0.312754
0.0936309,0.01177,0.43983
0.44358,-0.2453,-0.127076
0.44358,-0.0047,-0.0928393
-0.128159,-0.23823,0.43983
0.44358,0.0047,0.0928393
-0.195078,0.5,-0.286268
0.0267124,0.5,-0.0663528
-0.0936309,-0.01177,0.43983
-0.248502,0.5,-0.153562
-0.0267124,0.5,0.0663528
0.128159,0.23823,0.43983
0.44358,0.2453,0.127076
0.44358,0.2547,0.312754
0.315421,0.26177,0.43983
0.248502,0.5,0.153562
0.44358,0.4953,0.346991
0.195078,0.5,0.286268
0.349949,0.48823,0.43983
-0.373326,-0.26628,0.43983
-0.292044,-0.48372,0.43983
-0.0702542,-0.23372,0.43983
-0.151536,-0.01628,0.43983
0.0702542,0.23372,0.43983
0.151536,0.01628,0.43983
0.373326,0.26628,0.43983
0.292044,0.48372,0.43983
-0.365492,0.5,-0.260362
-0.299878,0.5,-0.399383
-0.0780878,0.5,-0.179468
-0.143702,0.5,-0.0404468
0.0780878,0.5,0.179468
0.143702,0.5,0.0404468
0.365492,0.5,0.260362
0.299878,0.5,0.399383
0.44358,-0.25,-0.219915
-0.22179,-0.25,0.43983
0.44358,0,-1.66533e-16
-0.22179,0.5,-0.219915
3.33067e-16,0,0.43983
2.77556e-16,0.5,-1.66533e-16
0.44358,0.25,0.219915
0.22179,0.25,0.43983
0.22179,0.5,0.219915
0.44358,0.5,0.43983
connectivity
26,43
13,54
15,58
38,49
49,53
24,39
25,40
14,40
16,44
27,44
50,57
42,50
0,20
3,25
10,40
5,32
6,53
8,29
29,38
9,26
11,49
13,46
43,46
22,24
30,31
44,47
33,50
16,52
27,36
35,57
18,58
51,54
12,45
37,41
52,55
60,62
2,7
21,24
28,38
5,53
6,15
8,9
26,29
9,40
11,13
46,49
44,46
23,25
12,14
50,51
16,17
43,47
27,37
34,57
19,58
30,42
52,54
36,39
51,55
59,61
13,58
49,57
24,43
16,40
38,50
25,44
20,21
2,3
4,11
21,22
3,23
28,29
9,10
5,6
9,29
11,46
46,47
47,48
51,52
33,51
17,52
36,37
34,35
18,19
35,61
19,62
1,63
0,64
1,65
66,67
7,68
15,69
8,70
13,71
14,72
16,73
74,75
7,76
1,77
11,78
9,79
14,80
15,81
19,82
17,83
7,84
15,85
14,86
87,88
7,89
8,90
26,91
24,92
25,93
27,94
95,96
8,97
26,98
27,99
1,100
32,101
0,102
31,103
32,104
31,105
0,106
1,107
11,108
29,109
31,110
32,111
35,112
33,113
0,114
32,115
31,116
38,117
53,118
43,119
57,120
58,121
42,122
54,123
45,124
45,125
39,126
41,127
41,128
55,129
55,130
59,131
59,132
60,133
60,134
56,135
56,136
21,137
28,138
42,139
39,140
47,141
51,142
59,143
56,144
3,145
10,146
45,147
41,148
47,149
52,150
60,151
56,152
53,153
42,154
54,155
45,156
39,157
41,158
55,159
59,160
60,161
56,162