-0.371154,0.164525,-0.208079
-0.133143,-0.22172,-0.222154
-0.0184802,0.0829233,-0.444309
-0.266285,0.44344,-0.444309
0.229325,-0.44344,-0.444309
-0.0184802,-0.061381,-0.444309
-0.133143,0.22172,-0.222154
0.104869,0.278915,-0.23623
0.229325,0.44344,-0.444309
0.124456,-0.164525,-0.208079
0.362467,-0.22172,-0.222154
0.47713,-0.0829233,-0.444309
0.47713,0.061381,-0.444309
0.362467,0.22172,-0.222154
0.724935,-0.44344,-0.444309
0.600479,-0.278915,-0.23623
-0.362467,-0.22172,0.222154
-0.49561,1.66533e-16,-1.66533e-16
-0.600479,0.278915,0.23623
-0.247805,-0.382059,-1.66533e-16
-0.47713,0.0829233,0.444309
-0.724935,0.44344,0.444309
-0.362467,0.22172,0.222154
-0.247805,0.360517,-1.66533e-16
-0.229325,-0.44344,0.444309
-0.104869,-0.278915,0.23623
0.247805,-0.360517,-1.66533e-16
0.133143,-0.22172,0.222154
-0.47713,-0.061381,0.444309
-0.124456,0.164525,0.208079
0,1.66533e-16,-1.66533e-16
-0.229325,0.44344,0.444309
0.0184802,-0.0829233,0.444309
0.0184802,0.061381,0.444309
0.133143,0.22172,0.222154
0.247805,0.382059,-1.66533e-16
0.371154,-0.164525,0.208079
0.266285,-0.44344,0.444309
0.49561,1.66533e-16,-1.66533e-16
-0.380361,0.148588,-0.223292
-0.266285,1.11022e-16,-0.444309
-0.366766,-0.264902,-0.24963
0.610859,0.148588,-0.223292
0.229325,1.11022e-16,-0.444309
0.624454,-0.264902,-0.24963
-0.49561,-0.44344,-1.66533e-16
-0.596091,-0.178538,0.194678
-0.395129,0.178538,-0.194678
-0.624454,0.264902,0.24963
-0.295708,-0.44344,-0.0791669
-0.381535,-0.294852,-0.221017
-0.610859,-0.148588,0.223292
-0.609685,0.294852,0.221017
-0.295708,0.44344,-0.0791669
0.199902,-0.44344,-0.0791669
-0.199902,-0.44344,0.0791669
-0.151982,-0.44344,-0.0641848
-0.343628,-0.44344,0.0641848
0.151982,-0.44344,0.0641848
0.343628,-0.44344,-0.0641848
-0.222946,-0.44344,-0.0481631
-0.272664,-0.44344,0.0481631
0.272664,-0.44344,-0.0481631
0.222946,-0.44344,0.0481631
0,-0.44344,-1.66533e-16
-0.216594,-0.44344,-0.0604704
-0.279016,-0.44344,0.0604704
0.279016,-0.44344,-0.0604704
0.216594,-0.44344,0.0604704
0.395129,-0.178538,0.194678
0.596091,0.178538,-0.194678
0.366766,0.264902,0.24963
0.295708,-0.44344,0.0791669
0.199902,0.44344,-0.0791669
0.609685,-0.294852,-0.221017
-0.199902,0.44344,0.0791669
0.380361,-0.148588,0.223292
-0.151982,0.44344,-0.0641848
-0.343628,0.44344,0.0641848
0.151982,0.44344,0.0641848
0.343628,0.44344,-0.0641848
-0.222946,0.44344,-0.0481631
-0.272664,0.44344,0.0481631
0.272664,0.44344,-0.0481631
0.222946,0.44344,0.0481631
-0.229325,2.22045e-16,0.444309
0.49561,0.44344,-1.66533e-16
0,0.44344,-1.66533e-16
0.266285,2.22045e-16,0.444309
-0.216594,0.44344,-0.0604704
-0.279016,0.44344,0.0604704
0.279016,0.44344,-0.0604704
0.216594,0.44344,0.0604704
0.295708,0.44344,0.0791669
0.381535,0.294852,0.221017
connectivity
0,3
7,12
0,5
9,12
4,9
10,14
5,6
10,12
11,13
6,8
21,22
9,19
25,28
29,35
2,9
29,32
28,29
33,36
17,18
36,37
25,30
7,30
15,38
29,31
6,17
24,27
10,30
22,30
27,38
22,28
27,33
1,2
16,20
32,34
0,39
1,40
5,41
11,42
13,43
15,44
16,45
19,46
0,47
18,48
49,50
20,51
18,52
23,53
26,54
25,55
19,56
19,57
25,58
15,59
19,60
19,61
10,62
27,63
1,64
1,65
16,66
26,67
26,68
36,69
35,70
33,71
26,72
7,73
15,74
23,75
36,76
7,77
18,78
35,79
35,80
6,81
22,82
35,83
35,84
16,85
13,86
34,87
34,88
23,89
23,90
13,91
34,92
93,94