-0.407135,-0.407135,-0.40049
-0.407135,-1.66533e-16,-0.34951
-0.407135,0.407135,-0.40049
-0.0699784,-0.337157,-0.25
-0.0699784,-0.0699784,-0.5
-1.11022e-16,-1.66533e-16,-0.09951
0.0699784,0.0699784,-0.5
0.0699784,0.337157,-0.25
0.407135,-0.407135,-0.40049
0.407135,-1.66533e-16,-0.34951
0.407135,0.407135,-0.40049
-0.407135,-0.407135,0.40049
-0.407135,-1.66533e-16,-0.15049
-0.407135,0.407135,0.40049
-5.55112e-17,-0.407135,0.15049
-5.55112e-17,-0.407135,0.34951
0.407135,-0.407135,0.40049
-0.337157,-0.337157,0
-0.337157,-0.0699784,0.25
-0.0699784,-0.0699784,0.5
-5.55112e-17,-1.11022e-16,0.09951
0,0.407135,0.15049
0,0.407135,0.34951
0.0699784,0.0699784,0.5
0.337157,0.0699784,0.25
0.337157,0.337157,0
0.407135,-1.66533e-16,-0.15049
0.407135,0.407135,0.40049
-0.407135,-0.245079,-0.5
-0.245079,-0.407135,-0.5
0.245079,-0.407135,-0.5
-0.0262928,-0.380842,-0.5
-0.380842,-0.0262928,-0.5
0.380842,0.0262928,-0.5
-0.407135,0.245079,-0.5
-0.245079,0.407135,-0.5
0.245079,0.407135,-0.5
0.0262928,0.380842,-0.5
0.407135,-0.245079,-0.5
0.407135,0.245079,-0.5
-0.407135,-0.245079,0.5
-0.245079,-0.407135,0.5
0.245079,-0.407135,0.5
-0.0262928,-0.380842,0.5
-0.380842,-0.0262928,0.5
0.380842,0.0262928,0.5
-0.407135,0.245079,0.5
-0.245079,0.407135,0.5
0.245079,0.407135,0.5
0.0262928,0.380842,0.5
0.407135,-0.245079,0.5
0.407135,0.245079,0.5
connectivity
3,4
6,7
1,4
6,9
4,5
5,6
3,17
17,18
18,19
7,25
23,24
24,25
0,12
11,14
1,5
2,12
12,20
14,16
5,14
15,20
5,9
5,21
20,26
20,22
0,3
11,18
12,17
14,17
15,19
3,5
5,7
18,20
20,24
7,10
22,23
24,27
25,26
21,25
0,17
11,17
12,18
3,14
19,20
20,23
7,21
24,26
10,25
25,27
0,1
11,15
1,2
5,12
14,20
15,16
5,26
20,21
13,21
21,27
13,22
22,27
8,26
10,26
8,9
9,10
1,28
0,29
8,30
3,31
1,32
9,33
1,34
2,35
10,36
7,37
9,38
9,39
11,40
15,41
15,42
15,43
18,44
24,45
13,46
22,47
22,48
22,49
16,50
27,51