-0.25,0.00731,-0.0735242
-0.25,0.25,-0.16682
-0.25,0.49269,-0.0735242
0.00731,-0.25,-0.0735242
0.25,-0.25,-0.16682
0.49269,-0.25,-0.0735242
-0.49269,0.25,0.0735242
0.25,-0.49269,0.0735242
-0.25,0.25,0.16682
-0.00731,0.25,0.0735242
0.25,-0.25,0.16682
0.25,-0.00731,0.0735242
-0.37135,0.12865,-0.16682
-0.37135,0.37135,-0.16682
0.12865,-0.37135,-0.16682
0.37135,-0.37135,-0.16682
-0.12865,0.12865,-0.16682
-0.12865,0.37135,-0.16682
0.12865,-0.12865,-0.16682
0.37135,-0.12865,-0.16682
-0.25731,-0.5,-0.0735242
-0.5,-0.25731,-0.0735242
-0.5,-0.24269,-0.0735242
-0.5,0.24269,0.0735242
-0.5,0.25731,0.0735242
-0.25731,0.5,-0.0735242
-0.24269,-0.5,-0.0735242
0.24269,-0.5,0.0735242
-0.37135,0.12865,0.16682
-0.37135,0.37135,0.16682
0.12865,-0.37135,0.16682
0.37135,-0.37135,0.16682
-0.12865,0.12865,0.16682
-0.12865,0.37135,0.16682
0.12865,-0.12865,0.16682
0.37135,-0.12865,0.16682
0.25731,-0.5,0.0735242
-0.24269,0.5,-0.0735242
0.5,-0.25731,-0.0735242
0.5,-0.24269,-0.0735242
0.24269,0.5,0.0735242
0.5,0.24269,0.0735242
0.25731,0.5,0.0735242
0.5,0.25731,0.0735242
connectivity
0,6
0,9
3,7
3,11
2,6
5,7
2,9
5,11
0,1
1,2
3,4
4,5
6,8
7,10
8,9
10,11
0,3
9,11
0,12
2,13
3,14
5,15
0,16
2,17
3,18
5,19
20,21
0,22
6,23
6,24
2,25
3,26
7,27
6,28
6,29
7,30
7,31
9,32
9,33
11,34
11,35
7,36
2,37
5,38
5,39
9,40
11,41
42,43