-0.267515,-0.267515,-0.5
-0.267515,0.267515,-0.5
-1.66533e-16,-1.11022e-16,-0.5
0.267515,-0.267515,-0.5
0.267515,0.267515,-0.5
-0.267515,-0.267515,0
-0.267515,-0.180011,0.30595
-0.180011,-0.267515,-0.30595
-0.267515,-0.267515,0.5
-0.267515,-1.11022e-16,-0.25
-0.267515,-5.55112e-17,0.25
-0.267515,0.267515,0
-0.180011,0.267515,-0.30595
-0.100441,-0.167074,-0.25
-1.66533e-16,-0.267515,-0.25
-0.267515,0.180011,0.30595
-0.267515,0.267515,0.5
-0.100441,0.167074,-0.25
-1.11022e-16,0.267515,-0.25
-0.167074,-0.100441,0.25
-1.11022e-16,-0.267515,0.25
0.267515,-0.267515,0
0.267515,-0.180011,0.30595
-0.167074,0.100441,0.25
-0.0875042,-5.55112e-17,0.19405
-1.66533e-16,-0.0875042,-0.19405
-1.11022e-16,-5.55112e-17,0
-1.11022e-16,-5.55112e-17,0.5
-1.66533e-16,0.0875042,-0.19405
-5.55112e-17,0.267515,0.25
0.0875042,-5.55112e-17,0.19405
0.100441,-0.167074,-0.25
0.100441,0.167074,-0.25
0.167074,-0.100441,0.25
0.167074,0.100441,0.25
0.180011,-0.267515,-0.30595
0.267515,-0.267515,0.5
0.267515,-1.11022e-16,-0.25
0.267515,-5.55112e-17,0.25
0.267515,0.267515,0
0.180011,0.267515,-0.30595
0.267515,0.180011,0.30595
0.267515,0.267515,0.5
-0.267515,-0.23299,-0.28672
-0.267515,0.23299,-0.28672
-0.267515,-0.267515,-0.29216
-0.267515,0.267515,-0.29216
-0.23299,-0.267515,0.28672
0.23299,-0.267515,0.28672
-0.267515,-0.267515,0.29216
0.267515,-0.23299,-0.28672
-0.23299,0.267515,0.28672
0.267515,0.23299,-0.28672
0.23299,0.267515,0.28672
0.267515,-0.267515,-0.29216
-0.267515,0.267515,0.29216
0.267515,0.267515,-0.29216
0.267515,-0.267515,0.29216
0.267515,0.267515,0.29216
connectivity
13,28
17,25
25,32
28,31
19,30
24,33
24,34
23,30
0,9
1,9
9,26
8,20
20,36
20,26
26,37
26,29
0,2
5,26
1,2
2,3
2,4
11,26
21,26
26,39
13,14
14,31
10,19
10,23
17,18
18,32
33,38
34,38
9,13
9,17
19,20
20,33
31,37
23,29
32,37
29,34
14,28
10,30
18,25
24,38
5,7
5,6
2,25
2,28
21,35
11,15
24,27
27,30
16,29
29,42
11,12
39,40
3,37
4,37
21,22
39,41
8,27
16,27
27,36
27,42
13,43
7,43
12,44
7,45
14,45
17,44
12,46
18,46
19,47
6,47
22,48
6,49
10,49
35,50
15,51
31,50
23,51
32,52
33,48
34,53
14,54
35,54
10,55
15,55
40,52
41,53
18,56
40,56
22,57
38,57
38,58
41,58