-0.44439,-0.1846,-0.31656
-0.44439,0.1846,-0.31656
-0.1846,-0.44439,-0.31656
0.1846,-0.44439,-0.31656
-0.1846,0.44439,-0.31656
0.1846,0.44439,-0.31656
0.44439,-0.1846,-0.31656
0.44439,0.1846,-0.31656
-0.44439,-0.1846,0.31656
-0.44439,0.1846,0.31656
-0.1846,-0.44439,0.31656
0.1846,-0.44439,0.31656
-0.314673,-0.314673,0
-0.314673,0.314673,0
-0.1846,0.44439,0.31656
0.1846,0.44439,0.31656
0.314673,-0.314673,0
0.314673,0.314673,0
0.44439,-0.1846,0.31656
0.44439,0.1846,0.31656
-0.44439,-0.1846,-0.5
-0.1846,-0.44439,-0.5
-0.44439,0.1846,-0.5
0.1846,-0.44439,-0.5
-0.1846,0.44439,-0.5
0.1846,0.44439,-0.5
0.44439,-0.1846,-0.5
0.44439,0.1846,-0.5
-0.44439,-0.1846,0.5
-0.1846,-0.44439,0.5
-0.44439,0.1846,0.5
0.1846,-0.44439,0.5
-0.1846,0.44439,0.5
0.1846,0.44439,0.5
0.44439,-0.1846,0.5
0.44439,0.1846,0.5
connectivity
0,2
1,4
3,6
8,10
9,14
11,18
0,12
2,12
1,13
3,16
8,12
10,12
9,13
11,16
4,13
13,14
6,16
16,18
5,17
7,17
15,17
17,19
0,1
2,3
8,9
10,11
5,7
15,19
4,5
14,15
6,7
18,19
0,20
2,21
1,22
3,23
4,24
5,25
6,26
7,27
8,28
10,29
9,30
11,31
14,32
15,33
18,34
19,35