-0.374793,-0.374793,-0.5
-0.240572,-0.240572,-0.25
-0.106352,-0.106352,-0.5
0.106352,0.106352,-0.5
0.240573,0.240573,-0.25
0.374793,0.374793,-0.5
-0.374793,-0.374793,0.5
-0.374793,-0.106352,0
-0.240572,-0.240572,0.25
-0.240572,0.240573,-0.25
-0.106352,-0.374793,0
0.240573,-0.240572,0.25
-0.106352,-0.106352,0.5
0.106352,0.106352,0.5
0.106352,0.374793,0
0.240573,0.240573,0.25
0.374793,0.106352,0
0.374793,0.374793,0.5
-0.240572,-0.240572,-0.5
0.240573,0.240573,-0.5
-0.481145,-0.481145,-0.42336
-0.481145,-0.481145,0.42336
-0.481145,-0.481145,-0.5
-0.481145,5.55112e-17,-0.07664
-0.481145,1.11022e-16,0.07664
-0.481145,-0.240572,0.25
-0.481145,0.240573,-0.25
-0.481145,1.11022e-16,0
5.55112e-17,-0.481145,-0.07664
1.11022e-16,-0.481145,0.07664
-0.240572,-0.481145,-0.25
0.240573,-0.481145,0.25
1.11022e-16,-0.481145,0
0.481145,0.481145,-0.42336
1.11022e-16,0.481145,-0.07664
0.481145,5.55112e-17,-0.07664
1.66533e-16,0.481145,0.07664
0.481145,1.11022e-16,0.07664
0.481145,0.481145,0.42336
-0.240572,0.481145,-0.25
0.481145,-0.240572,0.25
0.481145,0.240573,-0.25
0.240573,0.481145,0.25
-0.240572,-0.240572,0.5
0.240573,0.240573,0.5
0.481145,0.481145,-0.5
1.66533e-16,0.481145,0
0.481145,1.11022e-16,0
-0.481145,-0.481145,0.5
0.481145,0.481145,0.5
connectivity
2,4
1,3
8,13
12,15
1,9
8,11
4,9
11,15
1,8
4,15
2,3
12,13
1,18
4,19
1,20
0,20
6,21
0,22
7,23
1,23
8,24
7,24
8,25
9,26
7,27
10,28
1,28
8,29
10,29
1,30
11,31
10,32
5,33
8,21
4,33
4,34
4,35
14,34
14,36
16,35
16,37
15,36
15,37
15,38
9,39
11,40
4,41
15,42
8,43
15,44
5,45
14,46
16,47
17,38
6,48
17,49