-0.375,-0.30318,-0.451266
-0.48325,0.135348,-0.224666
-0.26675,0.0667724,-0.224666
-0.23325,-0.0667724,-0.258819
-0.23325,0.268892,-0.466408
-0.01675,-0.135348,-0.258819
-0.01675,0.337468,-0.466408
0.01675,-0.268892,-0.224666
0.125,0.10106,-0.451266
0.23325,-0.337468,-0.224666
0.26675,-0.135348,-0.466408
0.26675,0.337468,-0.258819
0.48325,-0.0667724,-0.466408
0.48325,0.268892,-0.258819
-0.48325,-0.337468,-0.0170767
-0.48325,-0.268892,0.258819
-0.375,-0.30318,-0.273962
-0.48325,0.0667724,0.466408
-0.375,0.10106,0.0322194
-0.375,0.10106,0.209523
-0.26675,-0.268892,-0.0170767
0.01675,-0.337468,0.466408
0.125,-0.30318,0.0322194
0.125,-0.30318,0.209523
0.23325,-0.268892,0.466408
-0.26675,-0.337468,0.258819
-0.26675,0.135348,0.466408
-0.23325,-0.135348,0.0170767
-0.23325,0.337468,0.224666
-0.125,-0.10106,0.273962
-0.125,-0.10106,0.451266
-0.125,0.30318,-0.209523
-0.125,0.30318,-0.0322194
-0.01675,-0.0667724,0.0170767
-0.01675,0.268892,0.224666
0.01675,0.0667724,-0.0170767
0.01675,0.135348,0.258819
0.125,0.10106,-0.273962
0.23325,0.0667724,0.258819
0.23325,0.135348,-0.0170767
0.26675,-0.0667724,0.224666
0.26675,0.268892,0.0170767
0.375,-0.10106,-0.209523
0.375,-0.10106,-0.0322194
0.375,0.30318,0.273962
0.375,0.30318,0.451266
0.48325,-0.135348,0.224666
0.48325,0.337468,0.0170767
-0.5,-0.40424,-0.483485
-0.25,-0.20212,-0.483485
0,-1.66533e-16,-0.483485
0.25,0.20212,-0.483485
-0.38858,-0.298879,-0.483485
-0.36142,-0.307481,-0.483485
-0.13858,-0.0967589,-0.483485
-0.11142,-0.105361,-0.483485
0.11142,0.105361,-0.483485
0.13858,0.0967589,-0.483485
0.36142,0.307481,-0.483485
0.38858,0.298879,-0.483485
0.01675,-0.333223,-0.483485
0.26675,-0.131103,-0.483485
-0.48325,0.0710169,-0.483485
-0.23325,0.273137,-0.483485
-0.01675,0.333223,-0.483485
-0.26675,0.131103,-0.483485
0.23325,-0.273137,-0.483485
0.48325,-0.0710169,-0.483485
0.01438,-0.32319,-0.483485
-0.01438,0.32319,-0.483485
-0.48562,0.0810501,-0.483485
-0.5,0.167832,-0.37969
-0.26438,0.12107,-0.483485
0.26438,-0.12107,-0.483485
0.23562,-0.28317,-0.483485
0.25568,-0.40424,-0.338681
-0.23562,0.28317,-0.483485
0.25568,0.40424,-0.338681
0.48562,-0.0810501,-0.483485
0.5,0.167832,-0.37969
-0.4356,-0.40424,-0.267493
-0.5,-0.296825,0.260608
-0.49432,-0.40424,-0.0969387
-0.5,-0.369952,0.137948
-0.5,-0.20212,-0.241743
-0.5,-1.11022e-16,-5.55112e-16
-0.5,0.20212,0.241742
-0.5,0.107415,-0.222877
-0.5,-0.309535,-0.0188656
-0.5,-0.0947053,-0.464619
-0.5,-0.107415,0.222877
-0.4356,0.40424,-0.267493
-0.5,0.296825,-0.260608
-0.5,0.309535,0.0188656
-0.5,0.0947053,0.464619
-0.5,0.0342876,-0.345537
-0.5,-0.236408,0.103795
-0.5,-0.0342876,0.345537
-0.49432,0.40424,-0.0969387
-0.5,0.369952,-0.137948
-0.5,0.236408,-0.103795
-0.25,-0.40424,-0.241743
0,-0.40424,-5.55112e-16
0.25,-0.40424,0.241742
-0.3144,-0.40424,-0.457735
-0.0644,-0.40424,-0.215992
-0.1856,-0.40424,-0.0257504
0.0644,-0.40424,0.215992
0.1856,-0.40424,0.0257504
0.4356,-0.40424,0.267493
0.5,-0.296825,0.260608
0.3144,-0.40424,0.457735
-0.00568,-0.40424,-0.386546
-0.24432,-0.40424,0.144804
0.00568,-0.40424,0.386546
0.24432,-0.40424,-0.144804
0.49432,-0.40424,0.0969387
0.5,-0.369952,0.137948
-0.25,0.40424,-0.241743
0.5,-0.20212,-0.241743
0,0.40424,-5.55112e-16
0.5,-1.11022e-16,-5.55112e-16
-0.25,-0.20212,0.483485
1.11022e-16,-1.11022e-16,0.483485
0.25,0.40424,0.241742
0.5,0.20212,0.241742
0.25,0.20212,0.483485
0.5,0.40424,0.483485
-0.38858,-0.298879,0.483485
-0.36142,-0.307481,0.483485
-0.13858,-0.0967589,0.483485
-0.11142,-0.105361,0.483485
0.11142,0.105361,0.483485
0.13858,0.0967589,0.483485
0.36142,0.307481,0.483485
0.38858,0.298879,0.483485
-0.3144,0.40424,-0.457735
-0.0644,0.40424,-0.215992
0.5,0.107415,-0.222877
-0.1856,0.40424,-0.0257504
0.5,-0.309535,-0.0188656
0.5,-0.0947053,-0.464619
0.0644,0.40424,0.215992
0.1856,0.40424,0.0257504
0.5,-0.107415,0.222877
0.5,0.296825,-0.260608
0.5,0.309535,0.0188656
0.4356,0.40424,0.267493
0.5,0.0947053,0.464619
0.3144,0.40424,0.457735
0.01675,-0.333223,0.483485
0.26675,-0.131103,0.483485
-0.48325,0.0710169,0.483485
-0.23325,0.273137,0.483485
-0.01675,0.333223,0.483485
-0.26675,0.131103,0.483485
0.23325,-0.273137,0.483485
0.48325,-0.0710169,0.483485
-0.5,-0.167832,0.37969
-0.25568,-0.40424,0.338681
-0.00568,0.40424,-0.386546
0.5,0.0342876,-0.345537
0.01438,-0.32319,0.483485
-0.01438,0.32319,0.483485
-0.48562,0.0810501,0.483485
-0.24432,0.40424,0.144804
0.00568,0.40424,0.386546
-0.26438,0.12107,0.483485
0.26438,-0.12107,0.483485
0.23562,-0.28317,0.483485
0.24432,0.40424,-0.144804
0.5,-0.236408,0.103795
0.5,-0.0342876,0.345537
0.5,0.369952,-0.137948
0.5,0.236408,-0.103795
0.49432,0.40424,0.0969387
-0.23562,0.28317,0.483485
-0.25568,0.40424,0.338681
0.48562,-0.0810501,0.483485
0.5,-0.167832,0.37969
connectivity
18,32
22,43
31,37
37,42
19,29
23,29
14,16
16,20
7,22
27,29
2,18
1,18
9,22
29,33
10,42
4,31
35,37
37,39
17,19
19,26
21,23
23,24
6,31
12,42
28,32
32,34
40,43
43,46
41,44
44,47
3,16
5,37
18,27
2,31
9,42
25,29
22,33
8,10
6,8
11,37
32,35
29,36
19,28
23,40
39,43
21,30
26,30
38,44
14,15
3,27
20,25
5,33
35,36
38,39
11,41
13,47
3,20
7,33
5,35
2,27
25,27
2,4
9,10
33,36
34,35
39,40
11,39
24,40
26,28
38,41
0,48
0,49
8,50
8,51
0,52
0,53
3,54
5,55
8,56
8,57
11,58
13,59
7,60
10,61
1,62
4,63
6,64
2,65
9,66
12,67
5,68
6,69
70,71
3,72
10,73
74,75
4,76
11,77
12,78
13,79
16,80
15,81
14,82
15,83
16,84
18,85
19,86
1,87
14,88
0,89
19,90
91,92
18,93
17,94
1,95
14,96
17,97
98,99
1,100
16,101
22,102
23,103
0,104
7,105
20,106
23,107
22,108
109,110
24,111
7,112
20,113
21,114
9,115
116,117
31,118
42,119
32,120
43,121
30,122
30,123
44,124
44,125
45,126
45,127
15,128
25,129
30,130
30,131
36,132
38,133
45,134
45,135
4,136
31,137
42,138
32,139
43,140
12,141
34,142
41,143
46,144
13,145
47,146
44,147
45,148
45,149
21,150
40,151
17,152
28,153
34,154
26,155
24,156
46,157
15,158
25,159
6,160
12,161
21,162
36,163
17,164
28,165
34,166
26,167
38,168
24,169
41,170
46,171
46,172
13,173
47,174
47,175
176,177
178,179