-0.5,-0.383615,-0.48535
-0.5,0.383615,-0.48535
-0.25,-0.191808,-0.48535
-0.2498,-0.0887301,-0.357839
-0.2498,0.280538,-0.370186
-0.0002,-0.103077,-0.357839
-0.0002,0.294885,-0.370186
0,-5.55112e-17,-0.48535
0.25,0.191807,-0.48535
0.2502,-0.103077,-0.370186
0.2502,0.294885,-0.357839
0.5,0.383615,-0.48535
0.4998,-0.0887301,-0.370186
0.4998,0.280538,-0.357839
-0.4998,-0.294885,-0.115164
-0.4998,-0.280538,0.357839
-0.25,-0.383615,-0.242675
-0.5,-0.383615,0.48535
-0.5,-0.191808,-0.242675
-0.5,0,-5.55112e-17
-0.5,0.191807,0.242675
-0.4998,0.0887301,0.370186
-0.4998,0.103077,-0.127511
-0.25,0,0.242675
-0.25,0.191807,-5.55112e-17
-0.25,0.383615,-0.242675
-0.2502,-0.294885,0.357839
-0.2502,-0.280538,-0.115164
0,-0.383615,-5.55112e-17
0.0002,-0.294885,0.370186
0.0002,-0.280538,-0.127511
0.2498,-0.294885,-0.127511
0.25,-0.383615,0.242675
-0.2502,0.0887301,-0.127511
-0.2502,0.103077,0.370186
-0.25,-0.191807,0.48535
-0.2498,-0.103077,0.115164
-0.2498,0.294885,0.127511
-0.0002,-0.0887301,0.115164
-0.0002,0.280538,0.127511
0,-0.191807,0.242675
1.11022e-16,0,0.48535
0,0.191807,-0.242675
0,0.383615,-5.55112e-17
0.0002,0.0887301,-0.115164
0.0002,0.103077,0.357839
0.2498,-0.280538,0.370186
0.2498,0.0887301,0.357839
0.2498,0.103077,-0.115164
0.25,-0.191808,-5.55112e-17
0.25,-5.55112e-17,-0.242675
0.25,0.191808,0.48535
0.25,0.383615,0.242675
0.2502,-0.0887301,0.127511
0.2502,0.280538,0.115164
0.4998,-0.103077,0.127511
0.4998,0.294885,0.115164
0.5,-0.383615,0.48535
0.5,-0.191808,-0.242675
0.5,0,-5.55112e-17
0.5,0.191807,0.242675
0.5,0.383615,0.48535
-0.25,0.191807,-0.48535
0.25,-0.191808,-0.48535
1e-05,-0.203861,-0.48535
-0.49999,0.179754,-0.48535
-0.5,0.184634,-0.479176
-0.25001,0.0120532,-0.48535
0.24999,-0.371562,-0.48535
0.25001,-0.383615,-0.4701
-1e-05,0.203861,-0.48535
0.25001,-0.0120532,-0.48535
0,0.383615,-0.48535
-0.24999,0.371562,-0.48535
0.25001,0.383615,-0.4701
0.5,-5.55112e-17,-0.48535
0.49999,-0.179754,-0.48535
0.5,0.184634,-0.479176
-0.5,-0.383615,-5.55112e-17
-0.49999,-0.383615,-0.227425
-0.5,-0.376441,0.236501
-0.5,-0.280622,0.357751
-0.5,-0.2948,-0.115076
-0.5,0.102993,-0.127599
-0.5,-0.0888145,-0.370274
-0.5,-0.102993,0.127599
-0.5,0.280622,-0.357751
-0.5,0.2948,0.115076
-0.5,-0.191807,0.242675
-0.5,0.191807,-0.242675
-0.5,0.0071736,-0.248849
-0.5,-0.198981,0.00617365
-0.5,-0.0071736,0.248849
-0.49999,0.383615,-0.227425
-0.5,0.376441,-0.236501
-0.5,0.198981,-0.00617365
-0.25,-0.383615,0.242675
0.25,-0.383615,-0.242675
-1e-05,-0.383615,-0.257925
-0.24999,-0.383615,0.0152497
1e-05,-0.383615,0.257925
0.24999,-0.383615,-0.0152497
0.49999,-0.383615,0.227425
0.5,-0.376441,0.236501
0.5,-0.280622,0.357751
0.5,-0.2948,-0.115076
0.5,0.102993,-0.127599
-0.5,0.0888145,0.370274
0.5,-0.0888145,-0.370274
0.5,-0.102993,0.127599
0.5,0.280622,-0.357751
0.5,0.2948,0.115076
1.11022e-16,-0.383615,0.48535
-0.5,0,0.48535
-0.25,0.191808,0.48535
-0.25,0.383615,0.242675
0.25,-0.191807,0.48535
0.25,0.383615,-0.242675
0.5,-0.191807,0.242675
0.5,0.191807,-0.242675
0.5,0.383615,-5.55112e-17
-0.5,-0.184634,0.479176
-0.25001,-0.383615,0.4701
1e-05,-0.203861,0.48535
-1e-05,0.383615,-0.257925
-0.49999,0.179754,0.48535
0.5,0.0071736,-0.248849
-0.25001,0.0120532,0.48535
-0.24999,0.383615,0.0152497
0.24999,-0.371562,0.48535
1e-05,0.383615,0.257925
-1e-05,0.203861,0.48535
0.5,-0.198981,0.00617365
0.5,-0.0071736,0.248849
0.24999,0.383615,-0.0152497
0.25001,-0.0120532,0.48535
0.5,0.376441,-0.236501
0.5,0.198981,-0.00617365
0.49999,0.383615,0.227425
-0.24999,0.371562,0.48535
-0.25001,0.383615,0.4701
0.5,0.0888145,0.370274
0.49999,-0.179754,0.48535
0.5,-0.184634,0.479176
connectivity
3,18
16,30
19,36
27,28
7,9
20,37
6,8
5,50
33,42
31,58
24,44
38,49
1,4
26,40
23,45
40,53
10,42
29,35
48,59
34,41
46,57
39,52
43,54
47,60
27,36
3,33
5,30
38,44
47,53
48,54
39,45
18,27
14,16
2,5
19,33
28,31
3,7
20,34
29,32
8,13
30,49
22,24
36,40
9,58
15,35
44,50
23,38
4,42
17,26
21,23
24,39
40,46
42,48
49,55
12,50
6,25
53,59
37,43
10,11
45,51
54,60
41,47
52,56
3,27
5,44
30,38
33,36
4,33
26,36
9,31
39,44
38,45
48,53
46,53
10,48
34,37
47,54
0,2
16,18
2,7
19,24
28,49
7,8
20,23
32,40
8,11
23,40
24,43
42,50
25,42
49,59
50,58
52,60
17,35
35,41
41,51
51,61
4,62
9,63
5,64
65,66
3,67
68,69
6,70
9,71
6,72
4,73
10,74
12,75
12,76
13,77
14,78
14,79
15,80
15,81
14,82
22,83
2,84
23,85
25,86
24,87
15,88
22,89
22,90
14,91
21,92
93,94
22,95
26,96
31,97
30,98
27,99
29,100
31,101
102,103
32,104
49,105
50,106
21,107
12,108
55,109
13,110
56,111
29,112
21,113
34,114
37,115
46,116
10,117
55,118
13,119
56,120
15,121
26,122
29,123
6,124
21,125
12,126
34,127
37,128
46,129
39,130
45,131
55,132
55,133
54,134
47,135
13,136
56,137
56,138
139,140
51,141
142,143