-0.279668,0.339895,-0.38544
0.225972,-0.225972,-0.5
-0.225972,0.136058,-0.25
-0.225972,0.225972,-0.5
0.225972,-0.136058,-0.25
0.279668,-0.339895,-0.38544
-0.339895,0.0823618,-0.13544
-0.279668,0.0221345,-0.36456
-0.136058,0.136058,-1.11022e-16
-0.0221345,0.0823618,-0.11456
-0.339895,0.279668,0.38544
-0.136058,0.225972,0.25
-0.0221345,0.279668,0.36456
0.0221345,-0.279668,0.36456
0.0823618,-0.339895,0.13544
0.0823618,-0.0221345,0.11456
0.136058,-0.136058,-1.11022e-16
0.225972,-0.225972,0.5
0.339895,-0.279668,0.38544
-0.225972,0.225972,0.5
-0.0823618,0.0221345,0.11456
-0.0823618,0.339895,0.13544
0.0221345,-0.0823618,-0.11456
0.136058,-0.225972,0.25
0.279668,-0.0221345,-0.36456
0.339895,-0.0823618,-0.13544
-0.331916,-0.331916,-0.5
-0.301803,-0.36203,-0.43397
-0.301803,0.36203,-0.43397
0.234538,-0.304098,-0.5
-0.234538,0.304098,-0.5
-0.304098,0.234538,-0.5
0.304098,-0.234538,-0.5
0.301803,-0.36203,-0.43397
0.331916,0.331916,-0.5
0.301803,0.36203,-0.43397
-0.36203,-0.0714213,-0.41563
-0.299153,-0.36203,-0.37336
-0.36203,-0.290609,-0.33437
-0.36203,0.0628774,-0.12336
-0.36203,0.0714213,-0.41563
-0.36203,-0.0628774,-0.12336
-0.290609,-0.36203,0.33437
-0.36203,-0.299153,0.37336
-0.36203,0.0722902,-0.13416
-0.36203,-0.15888,-0.375
-0.28974,-0.36203,-0.38416
-0.36203,-0.20315,-0.375
-0.36203,0.15888,-0.375
-0.36203,-0.0722902,-0.13416
-0.20315,-0.36203,0.375
-0.36203,-0.28974,0.38416
-0.36203,0.0602273,-0.18397
-0.36203,-0.0602273,-0.18397
-0.331916,-0.331916,0.5
-0.36203,-0.301803,0.43397
-0.36203,0.290609,-0.33437
-0.299153,0.36203,-0.37336
-0.36203,0.299153,0.37336
-0.290609,0.36203,0.33437
-0.36203,0.20315,-0.375
-0.28974,0.36203,-0.38416
-0.36203,0.28974,0.38416
-0.20315,0.36203,0.375
0.0628774,-0.36203,0.12336
-0.0628774,-0.36203,0.12336
0.0714213,-0.36203,0.41563
0.0722902,-0.36203,0.13416
-0.0722902,-0.36203,0.13416
-0.15888,-0.36203,0.375
0.15888,-0.36203,0.375
-0.0602273,-0.36203,0.18397
0.0602273,-0.36203,0.18397
0.234538,-0.304098,0.5
-0.234538,0.304098,0.5
-0.304098,0.234538,0.5
0.304098,-0.234538,0.5
0.36203,-0.0714213,-0.41563
0.299153,-0.36203,-0.37336
0.36203,-0.290609,-0.33437
0.0628774,0.36203,0.12336
0.36203,0.0628774,-0.12336
0.36203,0.0714213,-0.41563
-0.0714213,-0.36203,0.41563
0.290609,-0.36203,0.33437
0.36203,-0.0628774,-0.12336
-0.0628774,0.36203,0.12336
0.36203,-0.299153,0.37336
0.0714213,0.36203,0.41563
0.36203,0.0722902,-0.13416
0.28974,-0.36203,-0.38416
0.36203,-0.15888,-0.375
0.0722902,0.36203,0.13416
0.36203,-0.20315,-0.375
0.36203,0.15888,-0.375
0.20315,-0.36203,0.375
0.36203,-0.0722902,-0.13416
-0.0722902,0.36203,0.13416
-0.15888,0.36203,0.375
0.36203,-0.28974,0.38416
0.15888,0.36203,0.375
0.36203,0.0602273,-0.18397
0.36203,-0.0602273,-0.18397
-0.0602273,0.36203,0.18397
-0.36203,0.301803,0.43397
0.36203,-0.301803,0.43397
0.0602273,0.36203,0.18397
0.299153,0.36203,-0.37336
0.36203,0.290609,-0.33437
-0.0714213,0.36203,0.41563
0.290609,0.36203,0.33437
0.36203,0.299153,0.37336
0.28974,0.36203,-0.38416
0.36203,0.20315,-0.375
0.20315,0.36203,0.375
0.36203,0.28974,0.38416
0.331916,0.331916,0.5
0.36203,0.301803,0.43397
connectivity
3,6
1,25
7,8
2,20
22,23
9,11
14,17
4,15
8,12
16,24
13,16
19,21
2,3
1,4
2,8
4,16
8,11
16,23
17,23
11,19
2,22
4,9
20,23
11,15
6,22
9,25
14,20
15,21
20,22
9,15
0,7
6,9
22,25
14,15
5,24
20,21
13,18
10,12
26,27
0,28
5,29
0,30
2,31
4,32
5,33
34,35
7,36
37,38
6,39
3,40
8,41
42,43
6,44
7,45
46,47
0,48
9,49
50,51
6,52
7,53
54,55
2,56
0,57
10,58
11,59
7,60
0,61
10,62
12,63
14,64
16,65
17,66
14,67
15,68
13,69
18,70
13,71
14,72
23,73
11,74
10,75
18,76
1,77
5,78
4,79
8,80
16,81
24,82
13,83
23,84
25,85
21,86
18,87
12,88
22,89
5,90
5,91
20,92
24,93
24,94
13,95
25,96
21,97
10,98
18,99
12,100
24,101
25,102
21,103
10,104
18,105
12,106
107,108
19,109
110,111
112,113
114,115
116,117