-2.77556e-16,-0.184463,-0.375
-0.208133,0.104465,-0.38977
-0.208133,0.26446,-0.38977
0.208133,0.104465,-0.38977
0.208133,0.26446,-0.38977
-0.368925,-0.184463,-0.125
-0.368925,0.184462,0.125
-0.208133,-0.26446,0.38977
-0.208133,-0.104465,0.38977
-0.288927,-0.345255,0.36023
-0.160792,-0.26446,0.11023
-0.0799977,-0.345255,0.13977
0.0799977,-0.345255,0.13977
0.160792,-0.26446,0.11023
0.368925,-0.184463,-0.125
-0.288927,-0.0236702,0.36023
-0.288927,0.0236702,-0.36023
-0.288927,0.345255,-0.36023
-0.160792,-0.104465,0.11023
-0.160792,0.104465,-0.11023
-0.160792,0.26446,-0.11023
-0.0799977,-0.0236702,0.13977
-0.0799977,0.0236702,-0.13977
-0.0799977,0.345255,-0.13977
-1.66533e-16,0.184462,0.375
0.0799977,-0.0236702,0.13977
0.0799977,0.0236702,-0.13977
0.0799977,0.345255,-0.13977
0.160792,-0.104465,0.11023
0.160792,0.104465,-0.11023
0.160792,0.26446,-0.11023
0.208133,-0.26446,0.38977
0.208133,-0.104465,0.38977
0.288927,-0.345255,0.36023
0.288927,-0.0236702,0.36023
0.288927,0.0236702,-0.36023
0.288927,0.345255,-0.36023
0.368925,0.184462,0.125
-2.77556e-16,-0.368925,-0.5
-2.77556e-16,-1.66533e-16,-0.5
-0.110604,-0.22697,-0.5
-0.110604,-0.141955,-0.5
0.110604,-0.22697,-0.5
0.110604,-0.141955,-0.5
-0.110604,0.141955,-0.5
-0.110604,0.22697,-0.5
0.110604,0.141955,-0.5
0.110604,0.22697,-0.5
-0.208133,-1.66533e-16,-0.5
0.208133,-1.66533e-16,-0.5
-0.208133,0.368925,-0.5
0.208133,0.368925,-0.5
-0.368925,0.104465,-0.38977
-0.368925,0.26446,-0.38977
-0.368925,-0.26446,0.38977
-0.368925,-0.104465,0.38977
-0.368925,-0.368925,0
-0.298025,-0.368925,0.33348
-0.298025,-0.368925,-0.33348
-0.0709,-0.368925,-0.16652
0.0709,-0.368925,-0.16652
-0.0709,-0.368925,0.16652
0.0709,-0.368925,0.16652
0.298025,-0.368925,-0.33348
-0.160792,-0.368925,0
0.160792,-0.368925,0
-0.368925,0.368925,0
-2.22045e-16,-1.11022e-16,0.5
-1.66533e-16,0.368925,0.5
0.368925,0.104465,-0.38977
0.368925,0.26446,-0.38977
0.368925,-0.26446,0.38977
0.368925,-0.104465,0.38977
-0.298025,0.368925,0.33348
-0.110604,-0.22697,0.5
-0.110604,-0.141955,0.5
-0.298025,0.368925,-0.33348
-0.0709,0.368925,-0.16652
0.110604,-0.22697,0.5
0.0709,0.368925,-0.16652
0.110604,-0.141955,0.5
0.298025,-0.368925,0.33348
-0.0709,0.368925,0.16652
-0.110604,0.141955,0.5
0.0709,0.368925,0.16652
-0.110604,0.22697,0.5
0.110604,0.141955,0.5
0.110604,0.22697,0.5
0.298025,0.368925,-0.33348
-0.208133,-0.368925,0.5
-0.208133,-1.11022e-16,0.5
-0.160792,0.368925,0
0.160792,0.368925,0
0.208133,-0.368925,0.5
0.208133,-1.11022e-16,0.5
0.298025,0.368925,0.33348
0.368925,-0.368925,0
0.368925,0.368925,0
connectivity
5,6
0,5
6,24
0,14
24,37
16,17
10,13
11,21
22,23
18,28
19,29
9,15
12,25
26,27
20,30
35,36
33,34
5,16
5,10
5,18
6,19
6,20
6,15
0,22
0,26
21,24
13,14
24,25
14,28
29,37
14,35
30,37
34,37
16,22
9,11
18,19
12,33
15,21
26,35
17,23
25,34
28,29
27,36
14,37
0,38
0,39
0,40
0,41
0,42
0,43
1,44
2,45
3,46
4,47
1,48
3,49
2,50
4,51
1,52
2,53
7,54
8,55
5,56
9,57
5,58
0,59
0,60
11,61
12,62
14,63
10,64
13,65
6,66
24,67
24,68
3,69
4,70
31,71
32,72
6,73
7,74
8,75
17,76
23,77
31,78
27,79
32,80
33,81
24,82
24,83
24,84
24,85
24,86
24,87
36,88
7,89
8,90
20,91
30,92
31,93
32,94
37,95
14,96
37,97