-0.13611,-0.13611,-0.5
-0.13611,0.13611,-0.5
0.13611,-0.13611,-0.5
0.13611,0.13611,-0.5
-0.13611,-0.13611,0
-0.13611,-0.13611,0.5
-0.13611,0.13611,0
-0.13611,0.13611,0.5
0.13611,-0.13611,0
0.13611,-0.13611,0.5
-0.0907527,-0.0907527,0.25
-0.0907527,0.0907527,-0.25
0.0907527,-0.0907527,-0.25
0.0907527,0.0907527,0.25
0.13611,0.13611,0
0.13611,0.13611,0.5
connectivity
0,2
4,6
4,10
5,10
1,11
6,11
2,12
8,12
13,14
13,15
10,13
11,12
1,3
8,14
5,9
7,15