-0.5,-0.5,-0.431455
-0.5,0.5,-0.431455
-1.11022e-16,-0.5,-0.215727
0.5,-0.5,-0.431455
-0.26036,0.25,-0.323591
-1.11022e-16,0,-0.431455
0,0.5,-0.215727
0.5,0.5,-0.431455
0.26036,-0.25,-0.323591
-0.5,-0.5,1.11022e-16
-0.5,-0.5,0.431455
-0.5,0,-0.215727
-0.5,0,0.215728
-0.5,0.5,1.11022e-16
-0.5,0.5,0.431455
-1.11022e-16,-0.5,0.215728
0.5,-0.5,1.11022e-16
0.5,-0.5,0.431455
-0.25,-0.26036,0.323591
-0.25,-0.23964,-0.107864
-0.23964,0.25,0.107864
-1.11022e-16,0,1.11022e-16
-1.11022e-16,0,0.431455
0,0.5,0.215728
0.23964,-0.25,0.107864
0.25,0.23964,-0.107864
0.25,0.26036,0.323591
0.5,0,-0.215727
0.5,0,0.215728
0.5,0.5,1.11022e-16
0.5,0.5,0.431455
-0.34024,0.16667,-0.431455
-0.16667,-0.34024,-0.431455
0.16667,0.34024,-0.431455
0.34024,-0.16667,-0.431455
-0.34024,0.16667,0.431455
-0.16667,-0.34024,0.431455
0.16667,0.34024,0.431455
0.34024,-0.16667,0.431455
connectivity
0,2
9,11
9,15
5,11
11,13
2,3
2,21
5,27
10,12
12,14
12,21
15,16
15,22
6,21
21,28
2,9
9,12
2,5
2,16
5,6
12,13
12,22
11,19
4,11
15,18
15,24
19,21
1,4
3,8
8,27
21,24
20,21
21,25
10,18
20,23
25,27
23,26
26,30
9,18
2,24
5,19
5,25
12,19
4,13
8,16
22,24
6,20
20,22
25,28
26,29
9,19
2,19
2,8
4,5
5,8
12,18
12,20
4,6
18,22
16,24
24,28
13,20
6,25
25,29
22,26
26,28
1,6
13,23
6,7
23,29
22,23
6,13
6,29
16,27
27,29
17,28
28,30
16,28
28,29
22,28
4,31
2,32
6,33
8,34
12,35
18,36
26,37
28,38