-0.27152,2.77556e-17,-0.47668
0,-0.11617,-0.47668
0.27152,2.77556e-17,-0.47668
0,0.11617,-0.47668
-0.5,-0.0872007,5.55112e-17
-0.5,5.55112e-17,-0.0711588
-0.5,5.55112e-17,0.0711588
-0.5,0.0872007,5.55112e-17
-0.22403,-0.187795,5.55112e-17
0,-0.187795,-0.189166
0.22403,-0.187795,5.55112e-17
-0.35182,5.55112e-17,-0.188384
-0.35182,5.55112e-17,0.188384
-0.27152,8.32667e-17,0.47668
-0.22403,0.187795,5.55112e-17
0,-0.187795,0.189166
1.11022e-16,-0.11617,0.47668
0,0.187795,-0.189166
0.22403,0.187795,5.55112e-17
0.27152,8.32667e-17,0.47668
0.35182,5.55112e-17,-0.188384
0.35182,5.55112e-17,0.188384
0.5,-0.0872007,5.55112e-17
0.5,5.55112e-17,-0.0711588
0.5,5.55112e-17,0.0711588
1.11022e-16,0.11617,0.47668
0,0.187795,0.189166
0.5,0.0872007,5.55112e-17
-0.5,-0.187795,-0.0248255
-0.5,-0.187795,0.0248255
-0.5,0.187795,-0.0248255
-0.5,0.187795,0.0248255
0.5,-0.187795,-0.0248255
0.5,-0.187795,0.0248255
0.5,0.187795,-0.0248255
0.5,0.187795,0.0248255
connectivity
8,11
8,12
10,20
10,21
11,14
12,14
18,20
18,21
1,9
15,16
3,17
0,1
1,2
0,3
2,3
0,11
2,20
12,13
19,21
8,9
8,15
9,10
10,15
5,12
6,11
20,24
21,23
4,8
10,22
7,14
25,26
14,17
14,26
17,18
18,26
18,27
13,16
16,19
13,25
19,25
4,28
4,29
5,28
6,29
5,30
6,31
7,30
7,31
22,32
22,33
23,32
24,33
23,34
24,35
27,34
27,35