-0.2153,-0.210525,-0.5
-0.2153,0.210525,-0.5
0.2153,-0.210525,-0.5
0.2153,0.210525,-0.5
-0.2153,-0.210525,0.5
-0.2153,-2.77556e-17,0
-0.2153,0.210525,0.5
0.2153,-0.210525,0.5
0.2153,-2.77556e-17,0
0.2153,0.210525,0.5
-0.2153,-0.210525,0
-0.2153,0.210525,0
0.2153,-0.210525,0
0.2153,0.210525,0
connectivity
0,3
0,5
4,5
1,5
5,6
0,2
1,2
1,3
2,8
7,8
3,8
8,9
4,9
4,7
6,7
6,9
5,10
5,11
8,12
8,13