-0.5,0,-0.36396
0,-0.36396,-0.5
0,-0.13604,-0.5
0,0.13604,-0.5
0,0.36396,-0.5
0.5,0,-0.36396
-0.5,0,-0.13604
-0.5,0,0.13604
-0.5,0,0.36396
-0.36396,-0.5,0
-0.36396,0.5,0
-0.13604,-0.5,0
0.13604,-0.5,0
0.36396,-0.5,0
-0.25,-0.25,0.25
-0.25,0.25,-0.25
-0.13604,0.5,0
1.11022e-16,-0.36396,0.5
1.11022e-16,-0.13604,0.5
1.11022e-16,0.13604,0.5
1.11022e-16,0.36396,0.5
0.13604,0.5,0
0.25,-0.25,-0.25
0.25,0.25,0.25
0.36396,0.5,0
0.5,0,-0.13604
0.5,0,0.13604
0.5,0,0.36396
-0.5,0,-0.5
0.5,0,-0.5
-0.5,-0.5,0
-0.5,0.5,0
0,-0.5,-0.5
-0.5,1.11022e-16,0.5
1.11022e-16,0.5,-0.5
0.5,-0.5,0
0.5,0.5,0
0.5,1.11022e-16,0.5
1.11022e-16,-0.5,0.5
2.22045e-16,0.5,0.5
connectivity
0,15
9,14
1,22
6,15
11,14
2,22
7,14
3,15
12,22
8,14
4,15
13,22
14,17
14,18
10,15
15,16
5,22
22,25
19,23
21,23
23,26
20,23
23,24
23,27
6,7
11,12
2,3
0,6
9,11
1,2
7,8
3,4
12,13
16,21
10,16
21,24
25,26
5,25
26,27
18,19
17,18
19,20
0,28
5,29
9,30
10,31
1,32
8,33
4,34
13,35
24,36
27,37
17,38
20,39