-0.15085,-0.112635,-0.5
-0.15085,0.112635,-0.5
0.15085,-0.112635,-0.5
0.15085,0.112635,-0.5
-0.15085,-0.112635,0.5
-0.15085,-1.38778e-17,-0.17493
-0.15085,1.38778e-17,0.17493
-0.15085,0.112635,0.5
0.15085,-0.112635,0.5
0.15085,-1.38778e-17,-0.17493
0.15085,1.38778e-17,0.17493
0.15085,0.112635,0.5
connectivity
0,3
0,5
1,5
4,6
6,7
0,2
5,6
1,2
1,3
2,9
3,9
8,10
10,11
9,10
4,11
4,8
7,8
7,11