-0.5,-0.5,-0.490735
-0.5,0.5,-0.490735
0.25,-0.25,-0.245368
-0.5,-1.11022e-16,-0.490735
-0.25,-0.25,-0.245368
-0.04901,0.37886,-0.319449
0,0.25,-0.368051
0.04901,0.12114,-0.319449
0.5,-0.5,-0.490735
0.5,-1.11022e-16,-0.490735
-0.5,-0.25,0.122684
-0.45099,-0.37886,0.171286
-0.5,-0.25,-0.368051
-0.5,0.25,-0.122684
-0.5,0.25,0.368051
-0.45099,0.12114,-0.171286
-0.25,0.25,0.245367
-0.5,0.5,0.490735
0,-0.5,-3.88578e-16
0.04901,-0.37886,0.319449
0.5,-0.25,0.122684
-0.5,0,0.490735
-0.37114,-0.20099,0.0740814
-0.37114,0.29901,-0.0740814
-0.12886,-0.29901,0.416654
-0.12886,0.20099,-0.416654
-0.04901,-0.12114,0.319449
0,-0.25,-0.122684
0,-0.25,0.368051
0,-1.11022e-16,-3.88578e-16
0,0.25,0.122684
1.11022e-16,0.5,-3.88578e-16
0.12886,-0.20099,0.416654
0.12886,0.29901,-0.416654
0.25,0.25,0.245367
0.37114,-0.29901,0.0740814
0.37114,0.20099,-0.0740814
0.45099,-0.12114,0.171286
0.45099,0.37886,-0.171286
0.5,-0.5,0.490735
0.5,-0.25,-0.368051
0.5,0.25,-0.122684
0.5,0.25,0.368051
0.5,0.5,0.490735
0.5,0,0.490735
0,-0.5,-0.490735
0,-1.11022e-16,-0.490735
0.13164,-0.32589,-0.490735
-0.13164,-0.17411,-0.490735
-0.13164,0.32589,-0.490735
0.13164,0.17411,-0.490735
-0.02045,0.09511,-0.490735
-0.02045,-0.40489,-0.490735
-0.03301,-0.5,-0.415397
0.02045,-0.09511,-0.490735
0.02045,0.40489,-0.490735
-0.03301,0.5,-0.415397
-0.5,-0.5,-3.88578e-16
-0.5,-0.43969,0.183427
-0.45141,-0.5,-0.19547
-0.5,-1.11022e-16,-3.88578e-16
-0.5,0.06031,-0.183427
-0.5,-0.06031,0.183427
-0.45141,0.5,-0.19547
-0.5,0.43969,-0.183427
0.04859,-0.5,-0.295265
-0.04859,-0.5,0.295265
0.45141,-0.5,0.19547
0.5,-0.43969,0.183427
-0.46699,-0.5,0.0753376
0.46699,-0.5,-0.0753376
0.5,-1.11022e-16,-3.88578e-16
2.22045e-16,0.5,0.490735
1.11022e-16,0,0.490735
0.5,0.5,-3.88578e-16
0.13164,-0.32589,0.490735
-0.13164,-0.17411,0.490735
-0.13164,0.32589,0.490735
0.13164,0.17411,0.490735
0.5,0.06031,-0.183427
0.04859,0.5,-0.295265
-0.04859,0.5,0.295265
0.5,-0.06031,0.183427
0.45141,0.5,0.19547
0.5,0.43969,-0.183427
-0.46699,0.5,0.0753376
0.03301,-0.5,0.415397
-0.02045,0.09511,0.490735
-0.02045,-0.40489,0.490735
0.02045,-0.09511,0.490735
0.46699,0.5,-0.0753376
0.02045,0.40489,0.490735
0.03301,0.5,0.415397
connectivity
18,21
1,29
29,39
0,12
3,12
4,12
18,27
14,21
14,17
14,16
4,27
2,27
27,29
2,40
29,30
16,30
30,31
30,34
34,42
18,24
4,11
21,22
15,16
25,29
2,37
29,32
1,23
31,33
35,39
9,36
34,38
18,22
4,7
1,25
23,29
29,35
26,34
21,24
9,33
32,39
31,36
10,15
10,24
13,25
22,28
6,23
6,36
33,41
28,35
20,32
37,41
9,31
8,40
9,40
42,44
42,43
2,45
4,46
2,47
4,48
5,49
7,50
6,51
52,53
7,54
6,55
5,56
4,57
11,58
4,59
16,60
15,61
16,62
63,64
2,65
19,66
67,68
11,69
20,70
2,71
16,72
34,73
34,74
19,75
26,76
16,77
34,78
2,79
5,80
16,81
37,82
34,83
38,84
13,85
19,86
26,87
28,88
28,89
38,90
91,92