-0.10339,-0.5,-0.496545
0.10339,-0.5,-0.496545
-0.10339,0.5,-0.496545
0.10339,0.5,-0.496545
-0.5,-0.5,-0.248273
-0.5,-0.5,0.248273
-0.5,-0.24947,-0.146143
-0.5,-0.24947,0.146143
-0.5,0.24947,-0.146143
-0.5,0.24947,0.146143
-0.5,0.5,-0.248273
-0.5,0.5,0.248273
-0.24947,-0.5,-0.350402
-0.24947,-0.5,0.350402
0.24947,-0.5,-0.350402
0.24947,-0.5,0.350402
0.5,-0.5,-0.248273
0.5,-0.5,0.248273
-0.5,-0.10339,0
-0.5,0.10339,0
-0.35413,-0.35413,-0.248273
-0.35413,-0.35413,0.248273
-0.35413,0.35413,-0.248273
-0.35413,0.35413,0.248273
-0.24947,0.5,-0.350402
-0.24947,0.5,0.350402
-0.10339,-0.5,0.496545
0.10339,-0.5,0.496545
0.24947,0.5,-0.350402
0.24947,0.5,0.350402
0.35413,-0.35413,-0.248273
0.35413,-0.35413,0.248273
0.35413,0.35413,-0.248273
0.35413,0.35413,0.248273
0.5,-0.24947,-0.146143
0.5,-0.24947,0.146143
0.5,0.24947,-0.146143
0.5,0.24947,0.146143
0.5,0.5,-0.248273
0.5,0.5,0.248273
-0.10339,0.5,0.496545
0.10339,0.5,0.496545
0.5,-0.10339,0
0.5,0.10339,0
connectivity
4,20
5,21
10,22
16,30
11,23
17,31
32,38
33,39
0,1
18,19
12,20
6,20
7,21
14,30
8,22
13,21
9,23
15,31
22,24
30,34
23,25
31,35
28,32
32,36
33,37
29,33
0,12
1,14
6,18
7,18
8,19
9,19
13,26
15,27
2,3
2,24
3,28
25,40
29,41
42,43
34,42
35,42
36,43
37,43
26,27
40,41