-0.109278,-0.0218537,-0.5
-0.109278,0.0218537,-0.5
-0.0218537,-0.109278,-0.5
-0.0218537,0.109278,-0.5
0.0218537,-0.109278,-0.5
0.0218537,0.109278,-0.5
0.109278,-0.0218537,-0.5
0.109278,0.0218537,-0.5
-0.240415,-0.0874245,-0.08333
-0.240415,-0.0874245,0.08333
-0.240415,2.77556e-17,-0.25
-0.240415,5.55112e-17,0.25
-0.240415,0.0874245,-0.08333
-0.240415,0.0874245,0.08333
-0.218561,-0.131137,0
-0.218561,0.131137,0
-0.131137,-0.218561,0
-0.0874245,-0.240415,-0.08333
-0.0874245,-0.240415,0.08333
1.38778e-16,-0.240415,-0.25
1.66533e-16,-0.240415,0.25
0.0874245,-0.240415,-0.08333
0.0874245,-0.240415,0.08333
0.131137,-0.218561,0
-0.15299,0,-0.41667
-0.15299,5.55112e-17,0.41667
-0.131137,0.218561,0
-0.109278,-0.0218537,0.5
-0.109278,0.0218537,0.5
-0.0874245,0.240415,-0.08333
-0.0874245,0.240415,0.08333
-0.0218537,-0.109278,0.5
-0.0218537,0.109278,0.5
1.11022e-16,-0.15299,-0.41667
1.66533e-16,-0.15299,0.41667
1.38778e-16,0.15299,-0.41667
1.94289e-16,0.15299,0.41667
1.66533e-16,0.240415,-0.25
1.94289e-16,0.240415,0.25
0.0218537,-0.109278,0.5
0.0218537,0.109278,0.5
0.0874245,0.240415,-0.08333
0.0874245,0.240415,0.08333
0.109278,-0.0218537,0.5
0.109278,0.0218537,0.5
0.131137,0.218561,0
0.15299,0,-0.41667
0.15299,5.55112e-17,0.41667
0.218561,-0.131137,0
0.218561,0.131137,0
0.240415,-0.0874245,-0.08333
0.240415,-0.0874245,0.08333
0.240415,2.77556e-17,-0.25
0.240415,5.55112e-17,0.25
0.240415,0.0874245,-0.08333
0.240415,0.0874245,0.08333
-0.240415,-0.131137,0
-0.240415,0.131137,0
-0.131137,-0.240415,0
0.131137,-0.240415,0
-0.131137,0.240415,0
0.240415,-0.131137,0
0.131137,0.240415,0
0.240415,0.131137,0
connectivity
10,19
10,37
19,52
11,20
11,38
20,53
0,2
1,3
4,6
5,7
14,16
15,26
23,48
45,49
8,10
17,19
10,12
10,24
19,21
19,33
9,11
18,20
11,13
20,22
11,25
20,34
35,37
46,52
36,38
47,53
0,1
2,4
3,5
6,7
8,14
16,17
0,24
2,33
1,24
4,33
9,14
16,18
12,15
21,23
3,35
6,46
13,15
22,23
5,35
7,46
25,27
25,28
31,34
34,39
26,29
26,30
48,50
48,51
41,45
42,45
49,54
49,55
32,36
36,40
43,47
44,47
37,52
38,53
29,37
37,41
30,38
38,42
50,52
52,54
51,53
53,55
27,31
28,32
39,43
40,44
27,28
31,39
32,40
43,44
14,56
15,57
16,58
23,59
26,60
48,61
45,62
49,63