-0.25,-0.433013,-0.258985
-0.25,-0.433013,3.88578e-16
-0.5,1.66533e-16,-0.258985
-0.75,0.433013,-0.258985
-0.75,0.433013,3.88578e-16
0.25,-0.433013,-0.258985
0.75,-0.433013,3.88578e-16
-0.249995,-0.204702,-0.21575
-0.55227,0.318853,-0.21575
-5e-06,-0.288672,-0.172655
-0.250005,0.14434,-0.172655
0.05228,-0.258491,-0.0430951
5.55112e-17,1.66533e-16,-0.258985
-0.25,0.433013,-0.258985
0.05228,0.318853,-0.21575
0.44772,-0.258491,-0.0430951
0.25,0.0839698,-0.0430951
0.499995,-0.288672,-0.172655
0.249995,0.14434,-0.172655
0.5,1.66533e-16,-0.258985
0.25,0.433013,-0.258985
0.25,0.433013,3.88578e-16
-0.25,-0.433013,0.258985
-0.5,1.66533e-16,3.88578e-16
-0.5,2.22045e-16,0.258985
-0.447725,0.030181,0.12956
0.25,-0.433013,3.88578e-16
0.25,-0.433013,0.258985
0.25,-0.372651,-0.12956
0.250005,-0.14434,-0.0863301
0.250005,-0.14434,0.172655
0.75,-0.433013,0.258985
-0.249995,-0.14434,-0.0863301
-0.249995,-0.14434,0.172655
-0.499995,0.288672,-0.0863301
-0.499995,0.288672,0.172655
-0.25,-0.0839698,0.0430951
-0.44772,0.258491,0.0430951
-0.05228,-0.318853,0.21575
-5e-06,-0.288672,0.0863301
-0.250005,0.14434,0.0863301
-0.052275,0.030181,0.12956
-0.25,0.372651,0.12956
5.55112e-17,1.66533e-16,3.88578e-16
1.11022e-16,2.22045e-16,0.258985
-0.25,0.433013,3.88578e-16
-0.25,0.433013,0.258985
0.052275,-0.030181,-0.12956
-0.05228,0.258491,0.0430951
5e-06,0.288672,-0.0863301
5e-06,0.288672,0.172655
0.499995,-0.288672,0.0863301
0.249995,0.14434,0.0863301
0.55227,-0.318853,0.21575
0.249995,0.204702,0.21575
0.447725,-0.030181,-0.12956
0.5,1.66533e-16,3.88578e-16
0.5,2.22045e-16,0.258985
0.25,0.433013,0.258985
-0.249995,-0.184559,-0.258985
-0.034835,-0.308781,-0.258985
-0.534825,0.308781,-0.258985
0.534825,-0.308781,-0.258985
0.034835,0.308781,-0.258985
0.249995,0.184559,-0.258985
-0.25,-0.23736,-0.258985
-0.25,0.0791201,-0.258985
-0.08056,-0.335186,-0.258985
-0.30648,0.176946,-0.258985
0.19352,-0.176946,-0.258985
0.30648,-0.176946,-0.258985
0.25,-0.0791201,-0.258985
-0.19352,0.176946,-0.258985
0.58056,-0.335186,-0.258985
0.25,0.23736,-0.258985
-0.25,1.66533e-16,-0.258985
0.125,-0.216506,-0.258985
0.375,-0.216506,-0.258985
0.25,1.66533e-16,-0.258985
-0.375,0.216506,-0.258985
-0.125,0.216506,-0.258985
-0.58056,0.335186,-0.258985
0.08056,0.335186,-0.258985
-0.5,1.66533e-16,-0.137013
-0.5,2.22045e-16,0.137013
0.25,-0.433013,-0.137013
0.25,-0.433013,0.137013
-0.25,0.433013,-0.137013
0.5,1.66533e-16,-0.137013
0.5,2.22045e-16,0.137013
-0.25,0.433013,0.137013
-0.249995,-0.184559,0.258985
-0.034835,-0.308781,0.258985
-0.534825,0.308781,0.258985
0.534825,-0.308781,0.258985
0.034835,0.308781,0.258985
0.249995,0.184559,0.258985
-0.25,-0.23736,0.258985
-0.25,0.0791201,0.258985
-0.08056,-0.335186,0.258985
-0.30648,0.176946,0.258985
0.19352,-0.176946,0.258985
0.30648,-0.176946,0.258985
0.25,-0.0791201,0.258985
-0.19352,0.176946,0.258985
0.58056,-0.335186,0.258985
0.25,0.23736,0.258985
-0.25,2.22045e-16,0.258985
0.125,-0.216506,0.258985
0.375,-0.216506,0.258985
0.25,2.22045e-16,0.258985
-0.375,0.216506,0.258985
-0.125,0.216506,0.258985
-0.58056,0.335186,0.258985
0.08056,0.335186,0.258985
connectivity
26,28
26,30
5,29
1,11
1,36
7,10
10,47
8,10
10,14
6,15
30,38
4,37
30,41
16,21
30,53
30,54
21,48
23,25
9,11
33,36
43,47
41,43
15,17
35,37
55,56
16,18
48,50
42,45
28,30
30,47
10,25
10,41
10,42
30,55
1,9
1,33
10,23
10,43
10,45
30,43
6,17
18,21
30,56
4,35
21,50
0,7
28,29
11,29
36,40
29,47
15,29
29,55
16,29
3,8
25,40
22,38
37,40
40,41
40,48
40,42
14,20
31,53
54,58
1,32
1,39
2,10
10,12
10,13
10,32
30,39
10,34
10,49
4,34
6,51
30,51
27,30
30,44
30,52
30,57
21,49
21,52
0,32
12,29
32,40
22,39
29,39
19,29
29,51
29,52
3,34
34,40
24,40
40,49
40,44
40,46
31,51
20,49
52,58
7,59
9,60
8,61
17,62
14,63
18,64
7,65
10,66
1,67
10,68
11,69
15,70
16,71
10,72
6,73
21,74
10,75
9,76
17,77
18,78
10,79
10,80
8,81
14,82
10,83
25,84
28,85
30,86
10,87
55,88
30,89
42,90
33,91
38,92
35,93
53,94
50,95
54,96
1,97
36,98
38,99
37,100
30,101
30,102
30,103
48,104
53,105
54,106
33,107
30,108
30,109
30,110
35,111
50,112
4,113
21,114