-0.105593,0.105592,-0.5
0.105592,-0.105593,-0.5
-0.157612,-0.157612,0.09796
-0.157612,-0.0535734,0.09796
-0.105593,0.0436519,-0.24988
-0.105593,0.167533,-0.24988
-0.0535734,-0.157612,0.09796
0.0436519,-0.105593,-0.24988
0.167533,-0.105593,-0.24988
-0.167533,0.105592,0.24988
-0.105593,0.105592,5.55112e-17
-0.105593,0.105592,0.5
-0.0535734,-0.0535734,0.09796
-0.0436519,0.105592,0.24988
0.0535734,0.0535734,-0.09796
0.0535734,0.157612,-0.09796
0.105592,-0.167533,0.24988
0.105592,-0.105593,5.55112e-17
0.105592,-0.105593,0.5
0.105592,-0.0436519,0.24988
0.157612,0.0535734,-0.09796
0.157612,0.157612,-0.09796
-0.211185,-0.211185,5.55112e-17
-0.211185,-1.38778e-16,-0.5
-0.211185,-1.11022e-16,5.55112e-17
-0.211185,-0.0919288,0.14909
-0.211185,-0.119256,0.14909
-0.211185,0.0919288,-0.14909
-0.211185,0.119256,-0.14909
-0.211185,0.211185,-0.5
-1.38778e-16,-0.211185,-0.5
-1.11022e-16,-0.211185,5.55112e-17
-0.0919288,-0.211185,0.14909
-0.119256,-0.211185,0.14909
0.0919288,-0.211185,-0.14909
0.119256,-0.211185,-0.14909
-1.11022e-16,0.211185,-0.5
0.211185,-0.211185,-0.5
0.211185,-1.38778e-16,-0.5
-8.32667e-17,0.211185,5.55112e-17
0.211185,-1.11022e-16,5.55112e-17
0.211185,0.211185,5.55112e-17
-0.0919288,0.211185,0.14909
0.211185,-0.0919288,0.14909
-0.119256,0.211185,0.14909
0.211185,-0.119256,0.14909
0.0919288,0.211185,-0.14909
0.211185,0.0919288,-0.14909
0.119256,0.211185,-0.14909
0.211185,0.119256,-0.14909
-0.211185,-8.32667e-17,0.5
-0.211185,0.211185,0.5
-8.32667e-17,-0.211185,0.5
-5.55112e-17,0.211185,0.5
0.211185,-0.211185,0.5
0.211185,-8.32667e-17,0.5
connectivity
0,1
4,10
7,17
5,10
9,10
10,13
8,17
16,17
17,19
12,14
0,4
0,5
1,7
1,8
9,11
16,18
11,13
18,19
4,15
7,20
3,13
6,19
9,12
12,16
5,14
8,14
11,18
2,22
0,23
3,24
3,25
2,26
5,27
4,28
0,29
1,30
6,31
6,32
2,33
8,34
7,35
0,36
1,37
1,38
15,39
20,40
21,41
9,42
16,43
13,44
19,45
15,46
20,47
21,48
21,49
11,50
11,51
18,52
11,53
18,54
18,55