-0.5,-0.25,-0.320962
-0.5,-1.11022e-16,-0.42795
-0.5,0.5,-0.42795
0,-0.5,-0.42795
-0.25212,0.20188,-0.301696
-0.25,-0.25,-0.213975
0,-1.11022e-16,-0.42795
1.11022e-16,0.5,-0.42795
0.25,-0.25,-0.213975
0.25212,0.29812,-0.301696
0.5,-0.5,-0.42795
0.5,-0.25,-0.320962
0.5,-1.11022e-16,-0.42795
0.5,0.5,-0.42795
-0.5,-0.5,2.22045e-16
-0.5,-0.5,0.42795
-0.5,-0.25,0.106988
-0.5,-1.11022e-16,2.22045e-16
-0.5,-1.11022e-16,0.42795
-0.5,0.25,-0.106987
-0.5,0.25,0.320963
-0.5,0.5,2.22045e-16
-0.5,0.5,0.42795
0,-0.5,2.22045e-16
0,-0.5,0.42795
0.5,-0.5,2.22045e-16
-0.45188,-0.00212,-0.0877212
-0.45188,0.49788,0.0877212
-0.25212,-0.29812,0.301696
-0.25,-0.25,0.213975
-0.25,0.25,-0.213975
-0.25,0.25,0.213975
-0.24788,-0.20188,0.126254
-0.24788,0.29812,-0.126254
-0.04812,-0.49788,-0.340229
-0.04812,0.00212,0.340229
0,-0.25,-0.106987
0,-0.25,0.320963
0,-1.11022e-16,2.22045e-16
0,-1.11022e-16,0.42795
0,0.25,-0.320962
0,0.25,0.106988
1.11022e-16,0.5,2.22045e-16
1.11022e-16,0.5,0.42795
0.04812,-0.00212,-0.340229
0.04812,0.49788,0.340229
0.24788,-0.29812,0.126254
0.24788,0.20188,-0.126254
0.25,-0.25,0.213975
0.25,0.25,-0.213975
0.25,0.25,0.213975
0.25212,-0.20188,0.301696
0.45188,-0.49788,-0.0877212
0.45188,0.00212,0.0877212
0.5,-0.5,0.42795
0.5,-0.25,0.106988
0.5,-1.11022e-16,2.22045e-16
0.5,-1.11022e-16,0.42795
0.5,0.25,-0.106987
0.5,0.25,0.320963
0.5,0.5,2.22045e-16
-0.25133,-0.28026,-0.42795
-0.25133,0.21974,-0.42795
0.25133,-0.21974,-0.42795
0.25133,0.28026,-0.42795
-0.3863,0.22793,-0.42795
-0.3863,-0.27207,-0.42795
0.3863,-0.22793,-0.42795
0.3863,0.27207,-0.42795
-0.25133,-0.28026,0.42795
-0.25133,0.21974,0.42795
0.25133,-0.21974,0.42795
0.25133,0.28026,0.42795
-0.3863,0.22793,0.42795
-0.3863,-0.27207,0.42795
0.3863,-0.22793,0.42795
0.3863,0.27207,0.42795
connectivity
1,26
23,34
5,32
38,44
8,46
35,38
31,33
10,52
47,50
22,27
53,57
42,45
1,4
23,46
5,34
5,26
8,44
32,38
8,52
38,47
33,42
15,28
31,35
27,31
9,13
51,57
50,53
45,50
5,14
3,8
17,31
23,29
5,6
18,29
2,30
30,38
8,56
38,48
31,43
48,54
12,49
42,49
39,50
50,60
0,26
20,27
34,36
36,44
32,36
36,46
33,41
11,52
41,47
35,41
41,45
53,59
14,16
16,17
16,29
17,19
6,40
19,21
19,30
29,37
30,40
7,40
40,49
24,37
37,48
37,39
48,55
49,58
25,55
55,56
56,58
58,60
5,61
4,62
8,63
9,64
4,65
0,66
11,67
9,68
28,69
31,70
51,71
50,72
20,73
28,74
51,75
59,76