-0.41666,-0.41666,-0.236645
-0.36229,0.36229,-0.18339
-0.25,-0.25,-0.236645
-0.13771,0.13771,-0.18339
-0.08334,-0.08334,-0.236645
0.08334,0.08334,-0.236645
0.25,-0.25,-0.118322
0.25,0.25,-0.236645
0.41666,0.41666,-0.236645
-0.41666,-0.41666,0.236645
-0.41666,-0.08334,2.77556e-17
-0.36229,0.13771,-0.0532546
-0.08334,-0.41666,2.77556e-17
0.13771,-0.36229,0.0532546
-0.25,-0.25,2.77556e-17
-0.25,-0.25,0.236645
-0.25,0.25,0.118323
-0.13771,0.36229,-0.0532546
-0.08334,-0.08334,0.236645
0.08334,0.08334,0.236645
0.08334,0.41666,2.77556e-17
0.13771,-0.13771,0.18339
0.25,0.25,2.77556e-17
0.25,0.25,0.236645
0.36229,-0.36229,0.18339
0.36229,-0.13771,0.0532546
0.41666,0.08334,2.77556e-17
0.41666,0.41666,0.236645
-0.17256,0.17256,-0.236645
-0.32744,0.32744,-0.236645
0.17256,-0.17256,-0.236645
0.32744,-0.32744,-0.236645
-0.5,-0.5,-0.236645
-0.5,0.39616,-0.216568
-0.5,-0.10384,0.020077
-0.5,0.10384,-0.020077
-0.5,-0.39616,0.216568
-0.5,0,2.77556e-17
-0.39616,-0.5,-0.216568
-0.10384,-0.5,-0.020077
0.10384,-0.5,0.020077
-1.11022e-16,-0.5,2.77556e-17
-0.17256,0.17256,0.236645
-0.32744,0.32744,0.236645
0.17256,-0.17256,0.236645
0.32744,-0.32744,0.236645
0.5,0.39616,-0.216568
-0.39616,0.5,-0.216568
-0.10384,0.5,-0.020077
0.5,-0.10384,0.020077
0.10384,0.5,0.020077
0.5,0.10384,-0.020077
0.39616,-0.5,0.216568
0.5,-0.39616,0.216568
0.5,0.5,-0.236645
0,0.5,2.77556e-17
0.5,0,2.77556e-17
0.39616,0.5,0.216568
-0.5,-0.5,0.236645
0.5,0.5,0.236645
connectivity
11,16
6,13
6,25
16,17
3,4
3,5
10,11
12,13
17,20
25,26
18,21
19,21
2,14
7,22
14,15
22,23
4,5
0,2
2,4
5,7
7,8
10,14
12,14
20,22
22,26
18,19
9,15
15,18
19,23
23,27
3,28
1,29
6,30
6,31
0,32
1,33
10,34
11,35
9,36
10,37
0,38
12,39
13,40
12,41
16,42
16,43
21,44
24,45
8,46
1,47
17,48
25,49
20,50
26,51
24,52
24,53
8,54
20,55
26,56
27,57
9,58
27,59