-0.48394,1.66533e-16,-0.37486
-0.338874,-0.24197,-0.375
-0.183365,0.183365,-0.5
0.183365,-0.183365,-0.5
0.221528,-0.475113,-0.46055
0.338874,0.24197,-0.375
0.48394,1.66533e-16,-0.37486
-0.221528,0.475113,-0.46055
-0.48394,-0.48394,-0.37514
-0.48394,-0.48394,0.37514
-0.48394,1.66533e-16,-0.12514
-0.48394,0.48394,-0.37514
-0.48394,0.48394,0.37514
5.55112e-17,-0.48394,0.12514
5.55112e-17,-0.48394,0.37486
0.48394,-0.48394,-0.37514
0.48394,-0.48394,0.37514
-0.475113,0.221528,0.46055
-0.475113,0.262412,-0.21055
-0.300575,0.183365,0.25
-0.300575,0.300575,-1.11022e-16
-0.262412,0.00882707,0.03945
-0.262412,0.475113,0.21055
-0.24197,-0.338874,0.375
-0.24197,-0.145066,-0.125
-0.221528,0.00882707,-0.28945
-0.183365,0.183365,0.5
-0.183365,0.300575,-0.25
-0.145066,-0.24197,0.125
-0.00882707,0.221528,0.28945
-0.00882707,0.262412,-0.03945
5.55112e-17,1.66533e-16,-0.12486
1.11022e-16,2.22045e-16,0.12486
1.11022e-16,0.48394,0.12514
1.11022e-16,0.48394,0.37486
0.00882707,-0.262412,-0.03945
0.00882707,-0.221528,0.28945
0.145066,0.24197,0.125
0.183365,-0.300575,-0.25
0.183365,-0.183365,0.5
0.221528,-0.00882707,-0.28945
0.24197,0.145066,-0.125
0.24197,0.338874,0.375
0.262412,-0.475113,0.21055
0.262412,-0.00882707,0.03945
0.300575,-0.300575,-1.11022e-16
0.300575,-0.183365,0.25
0.475113,-0.262412,-0.21055
0.475113,-0.221528,0.46055
0.48394,1.66533e-16,-0.12514
0.48394,0.48394,-0.37514
0.48394,0.48394,0.37514
-0.290422,-0.290422,-0.5
0.290422,0.290422,-0.5
0.16843,-0.477233,-0.5
-0.477233,0.16843,-0.5
0.477233,-0.16843,-0.5
-0.16843,0.477233,-0.5
-0.290422,-0.290422,0.5
0.290422,0.290422,0.5
0.16843,-0.477233,0.5
-0.477233,0.16843,0.5
0.477233,-0.16843,0.5
-0.16843,0.477233,0.5
connectivity
1,8
9,23
0,1
10,24
13,28
14,23
24,31
28,32
31,41
32,37
41,49
5,6
5,50
33,37
34,42
42,51
0,25
10,18
13,43
14,36
31,35
4,15
21,32
30,31
6,40
32,44
7,11
47,49
29,34
12,17
22,33
16,48
1,24
24,28
23,28
5,41
37,41
37,42
10,21
13,35
25,31
31,40
11,18
32,36
29,32
30,33
16,43
15,47
44,49
12,22
2,27
3,38
38,45
20,27
19,20
45,46
19,26
39,46
2,25
3,40
35,38
4,38
19,21
18,20
27,30
7,27
20,22
43,45
45,47
36,39
17,19
44,46
46,48
26,29
1,52
5,53
4,54
0,55
6,56
7,57
23,58
42,59
14,60
17,61
48,62
34,63