-0.170063,-0.170063,-0.41751
-0.170063,0.170063,-0.41751
0.170063,-0.170063,-0.41751
0.170063,0.170063,-0.41751
-0.111481,-0.228285,0.27508
-0.228285,-0.111481,-0.27508
-0.228285,-0.111481,0.27508
-0.228285,0.111481,-0.27508
-0.228285,0.111481,0.27508
-0.170063,-0.170063,0.41751
-0.170063,0.170063,0.41751
-0.116804,-1.11022e-16,0.22492
-0.111481,0.228285,0.27508
-0.111481,-0.228285,-0.27508
0.111481,-0.228285,-0.27508
0.111481,-0.228285,0.27508
-0.116804,-1.38778e-16,-0.22492
-0.111481,0.228285,-0.27508
-0.0582218,-0.0582218,-0.08249
-0.0582218,-0.0582218,0.08249
-0.0582218,0.0582218,-0.08249
-0.0582218,0.0582218,0.08249
-5.55112e-17,-0.116804,-0.22492
-2.77556e-17,-0.116804,0.22492
-2.77556e-17,0.116804,-0.22492
0,0.116804,0.22492
0.0582218,-0.0582218,-0.08249
0.0582218,-0.0582218,0.08249
0.0582218,0.0582218,-0.08249
0.0582218,0.0582218,0.08249
0.111481,0.228285,-0.27508
0.111481,0.228285,0.27508
0.116804,-1.38778e-16,-0.22492
0.116804,-1.11022e-16,0.22492
0.170063,-0.170063,0.41751
0.170063,0.170063,0.41751
0.228285,-0.111481,-0.27508
0.228285,-0.111481,0.27508
0.228285,0.111481,-0.27508
0.228285,0.111481,0.27508
-0.170063,-0.170063,-0.5
-0.170063,0.170063,-0.5
0.170063,-0.170063,-0.5
0.170063,0.170063,-0.5
-0.170063,-0.170063,0.5
-0.170063,0.170063,0.5
0.170063,-0.170063,0.5
0.170063,0.170063,0.5
connectivity
6,9
8,10
6,11
8,11
4,6
8,12
0,5
0,13
1,7
2,14
4,9
15,34
16,18
16,20
18,22
22,26
11,19
19,23
20,24
26,32
1,17
2,36
11,21
23,27
21,25
27,33
24,28
28,32
25,29
29,33
3,30
3,38
10,12
34,37
35,39
31,35
5,16
13,22
7,16
14,22
4,23
15,23
17,24
24,30
32,36
32,38
12,25
25,31
33,37
33,39
5,13
7,17
14,36
15,37
16,22
16,24
22,32
11,23
11,25
23,33
24,32
25,33
31,39
18,19
20,21
26,27
28,29
30,38
0,40
1,41
2,42
3,43
9,44
10,45
34,46
35,47