-0.5,-0.10091,-0.3181
-0.5,0.10091,-0.3181
-0.36668,-0.23367,-0.3181
-0.36668,0.23367,-0.3181
-0.23367,-0.36668,-0.3181
-0.23367,0.36668,-0.3181
-0.10091,-0.5,-0.3181
0.10091,-0.5,-0.3181
0.23367,-0.36668,-0.3181
0.23367,0.36668,-0.3181
0.36668,-0.23367,-0.3181
0.36668,0.23367,-0.3181
-0.10091,0.5,-0.3181
0.10091,0.5,-0.3181
0.5,-0.10091,-0.3181
0.5,0.10091,-0.3181
-0.5,0,-0.15905
-0.5,0,0.15905
-1.11022e-16,-0.5,-0.15905
-1.11022e-16,-0.5,0.15905
-0.5,-0.10091,0.3181
-0.5,0.10091,0.3181
-0.39909,0,1.11022e-16
-0.36668,-0.23367,0.3181
-0.36668,0.23367,0.3181
-0.29493,-0.29493,-0.090245
-0.29493,-0.29493,0.090245
-0.29493,0.29493,-0.090245
-0.29493,0.29493,0.090245
-0.26633,-0.13332,1.11022e-16
-0.26633,0.13332,1.11022e-16
-0.23367,-0.36668,0.3181
-0.23367,0.36668,0.3181
-0.20507,-0.20507,-0.227855
-0.20507,-0.20507,0.227855
-0.20507,0.20507,-0.227855
-0.20507,0.20507,0.227855
-0.13332,-0.26633,1.11022e-16
-0.13332,0.26633,1.11022e-16
-0.10091,-0.5,0.3181
-1.11022e-16,-0.39909,1.11022e-16
-1.11022e-16,0.39909,1.11022e-16
0,0.5,-0.15905
0,0.5,0.15905
0.10091,-0.5,0.3181
0.13332,-0.26633,1.11022e-16
0.13332,0.26633,1.11022e-16
0.20507,-0.20507,-0.227855
0.20507,-0.20507,0.227855
0.20507,0.20507,-0.227855
0.20507,0.20507,0.227855
0.23367,-0.36668,0.3181
0.23367,0.36668,0.3181
0.26633,-0.13332,1.11022e-16
0.26633,0.13332,1.11022e-16
0.29493,-0.29493,-0.090245
0.29493,-0.29493,0.090245
0.29493,0.29493,-0.090245
0.29493,0.29493,0.090245
0.36668,-0.23367,0.3181
0.36668,0.23367,0.3181
0.39909,0,1.11022e-16
0.5,0,-0.15905
0.5,0,0.15905
-0.10091,0.5,0.3181
0.10091,0.5,0.3181
0.5,-0.10091,0.3181
0.5,0.10091,0.3181
connectivity
2,4
3,5
8,10
9,11
29,37
30,38
45,53
46,54
0,2
4,6
1,3
7,8
5,12
10,14
9,13
11,15
22,29
37,40
22,30
40,45
38,41
53,61
41,46
54,61
2,33
4,33
3,35
8,47
5,35
10,47
9,49
11,49
25,29
25,37
26,29
26,37
27,30
28,30
45,55
45,56
27,38
53,55
23,34
31,34
28,38
53,56
46,57
46,58
54,57
54,58
24,36
32,36
48,51
48,59
50,52
50,60
25,33
26,34
27,35
47,55
49,57
28,36
48,56
50,58
0,16
6,18
1,16
7,18
16,22
18,40
17,20
17,21
17,22
19,39
19,44
19,40
41,42
41,43
61,62
61,63
12,42
13,42
43,64
43,65
14,62
15,62
63,66
63,67
23,31
24,32
51,59
52,60
20,23
31,39
21,24
44,51
32,64
59,66
52,65
60,67