-0.5,0.251,-0.5
0.251,-0.5,-0.5
-0.249,0,-0.5
-1.11022e-16,-0.249,-0.5
-1.11022e-16,0.249,-0.5
0.249,0,-0.5
-0.251,0.5,-0.5
0.5,-0.251,-0.5
-0.5,-0.5,0.251
-0.5,-0.249,0
-0.5,0,-0.249
-0.5,0,0.249
-0.5,0.249,0
-0.5,0.5,-0.251
-0.249,-0.5,0
-1.11022e-16,-0.5,-0.249
-1.11022e-16,-0.5,0.249
0.249,-0.5,0
-0.5,-0.251,0.5
-0.49947,-0.25,0.25
-0.49947,0.25,-0.25
-0.33641,-0.33641,0.33641
-0.33641,-0.16359,0.16359
-0.33641,0.16359,-0.16359
-0.33641,0.33641,-0.33641
-0.251,-0.5,0.5
-0.251,0,0
-0.25,-0.49947,0.25
-0.25,-0.25,0.00053
-0.25,-0.25,0.49947
-0.25,-0.00053,0.25
-0.25,0.00053,-0.25
-0.25,0.25,-0.49947
-0.25,0.25,-0.00053
-0.25,0.49947,-0.25
-0.249,1.11022e-16,0.5
-0.249,0.5,0
-0.16359,-0.33641,0.16359
-0.16359,-0.16359,0.33641
-0.16359,0.16359,-0.33641
-0.16359,0.33641,-0.16359
-0.00053,-0.25,0.25
-0.00053,0.25,-0.25
-1.11022e-16,-0.251,0
0,-0.249,0.5
-1.11022e-16,0,-0.251
-1.11022e-16,0,0.251
0,0.249,0.5
-1.11022e-16,0.251,0
0,0.5,-0.249
0,0.5,0.249
0.00053,-0.25,-0.25
0.00053,0.25,0.25
0.16359,-0.33641,-0.16359
0.16359,-0.16359,-0.33641
0.16359,0.16359,0.33641
0.16359,0.33641,0.16359
0.249,1.11022e-16,0.5
0.249,0.5,0
0.25,-0.49947,-0.25
0.25,-0.25,-0.49947
0.25,-0.25,-0.00053
0.25,-0.00053,-0.25
0.25,0.00053,0.25
0.25,0.25,0.00053
0.25,0.25,0.49947
0.25,0.49947,0.25
0.251,0,0
0.251,0.5,0.5
0.33641,-0.33641,-0.33641
0.33641,-0.16359,-0.16359
0.33641,0.16359,0.16359
0.33641,0.33641,0.33641
0.49947,-0.25,-0.25
0.49947,0.25,0.25
0.5,-0.5,-0.251
0.5,-0.249,0
0.5,0,-0.249
0.5,0,0.249
0.5,0.249,0
0.5,0.251,0.5
0.5,0.5,0.251
connectivity
8,19
8,27
0,20
0,32
1,59
1,60
9,28
9,19
10,31
10,20
14,28
14,27
2,31
2,32
15,51
15,59
3,51
3,60
11,19
11,30
12,20
12,33
16,27
16,41
4,32
4,42
17,59
17,61
5,60
5,62
26,28
28,43
26,31
31,45
43,51
45,51
26,30
26,33
41,43
43,61
42,45
45,62
18,19
13,20
25,27
6,32
59,75
7,60
30,46
30,35
33,48
33,36
41,46
41,44
42,48
42,49
61,67
61,76
62,67
62,77
46,52
46,63
48,52
48,64
63,67
64,67
18,29
25,29
29,35
29,44
13,34
6,34
34,36
34,49
73,75
7,73
73,76
73,77
47,52
50,52
57,63
63,78
58,64
64,79
47,65
57,65
65,68
65,80
50,66
58,66
66,68
66,81
74,78
74,79
74,80
74,81
8,21
0,24
1,69
9,22
10,23
14,37
2,39
15,53
3,54
11,22
12,23
16,37
4,39
17,53
5,54
22,26
23,26
37,43
43,53
39,45
45,54
18,21
21,25
13,24
6,24
69,75
7,69
38,46
35,38
38,44
40,48
36,40
40,49
67,70
70,76
70,77
46,55
48,56
67,71
47,55
55,57
50,56
56,58
71,78
71,79
68,72
72,80
72,81