5.55112e-17,-0.485535,-0.3749
0.295778,-0.295778,-0.5
-0.447712,-0.167267,-0.40706
-0.145243,-0.242767,-0.375
1.11022e-16,0.485535,-0.3749
0.145243,0.242768,-0.375
-0.295778,0.295778,-0.5
0.447712,0.167267,-0.40706
-0.485535,-0.485535,-0.1249
-0.485535,-0.485535,0.1249
-0.485535,1.66533e-16,0.1251
-0.485535,1.66533e-16,0.3749
-0.447712,-0.318268,-0.34294
-0.295778,0.189757,-0.25
-0.340292,-0.242767,0.125
-0.318268,-0.447712,0.34294
-0.242767,-0.340292,-0.125
-0.167267,-0.447712,0.40706
-0.0378232,-0.318268,0.09294
5.55112e-17,-0.485535,-0.1251
0.189757,-0.295778,0.25
0.295778,-0.295778,0.5
-0.318268,-0.0378232,-0.09294
-0.242767,-0.145243,0.375
-0.189757,0.189757,-1.11022e-16
-0.189757,0.295778,0.25
-0.167267,-0.0378232,-0.15706
-0.0378232,-0.167267,0.15706
1.11022e-16,1.11022e-16,-0.3751
1.66533e-16,1.66533e-16,0.3751
1.11022e-16,0.485535,-0.1251
0.0378232,0.167267,0.15706
0.0378232,0.318268,0.09294
0.167267,0.0378232,-0.15706
0.167267,0.447712,0.40706
0.189757,-0.189757,-1.11022e-16
0.242768,0.145243,0.375
0.242768,0.340292,-0.125
0.295778,-0.189757,-0.25
0.318268,0.0378232,-0.09294
0.318268,0.447712,0.34294
0.340292,0.242768,0.125
0.447712,0.318268,-0.34294
0.485535,1.66533e-16,0.1251
0.485535,1.66533e-16,0.3749
0.485535,0.485535,-0.1249
0.485535,0.485535,0.1249
-0.295778,0.295778,0.5
-0.19401,-0.19401,-0.5
0.19401,0.19401,-0.5
-0.463832,-0.0959708,-0.5
-0.0959708,-0.463832,-0.5
0.0959708,0.463832,-0.5
0.463832,0.0959708,-0.5
-0.485535,-0.31453,-0.36904
-0.485535,-0.171005,-0.38096
-0.485535,0.171005,-0.38096
-0.485535,0.31453,-0.36904
-0.485535,-0.188621,-0.42251
-0.485535,-0.296914,-0.32749
-0.485535,0.188621,-0.42251
-0.485535,0.296914,-0.32749
-0.171005,-0.485535,0.38096
0.171005,-0.485535,0.38096
0.31453,-0.485535,0.36904
-0.296914,-0.485535,0.32749
0.188621,-0.485535,0.42251
0.296914,-0.485535,0.32749
0.485535,-0.31453,-0.36904
-0.31453,-0.485535,0.36904
0.485535,-0.171005,-0.38096
-0.171005,0.485535,0.38096
0.485535,0.171005,-0.38096
0.485535,0.31453,-0.36904
0.171005,0.485535,0.38096
0.31453,0.485535,0.36904
0.485535,-0.188621,-0.42251
0.485535,-0.296914,-0.32749
-0.188621,-0.485535,0.42251
-0.296914,0.485535,0.32749
0.485535,0.188621,-0.42251
0.485535,0.296914,-0.32749
0.188621,0.485535,0.42251
0.296914,0.485535,0.32749
-0.19401,-0.19401,0.5
0.19401,0.19401,0.5
-0.463832,-0.0959708,0.5
-0.0959708,-0.463832,0.5
0.0959708,0.463832,0.5
-0.31453,0.485535,0.36904
-0.188621,0.485535,0.42251
0.463832,0.0959708,0.5
connectivity
8,16
9,14
0,3
16,19
8,12
9,15
18,19
13,22
24,26
18,20
27,35
38,39
24,31
33,35
25,32
10,14
11,23
3,28
5,28
23,29
4,5
29,36
30,37
37,45
41,43
41,46
36,44
22,24
13,26
18,35
20,27
33,38
24,32
35,39
25,31
3,16
14,16
14,23
5,37
37,41
36,41
10,22
26,28
28,33
27,29
39,43
29,31
30,32
42,45
40,46
3,48
5,49
2,50
0,51
4,52
7,53
12,54
2,55
13,56
6,57
2,58
12,59
6,60
13,61
17,62
20,63
21,64
15,65
21,66
20,67
1,68
15,69
38,70
25,71
7,72
42,73
34,74
40,75
1,76
38,77
17,78
25,79
7,80
42,81
34,82
40,83
23,84
36,85
11,86
17,87
34,88
47,89
47,90
44,91