-0.25,0,-0.375
0,-0.25,-0.375
5.55112e-17,0.25,-0.375
0.25,0,-0.375
-0.25,-0.25,-0.125
-0.25,-0.25,0.125
-0.25,5.55112e-17,0.375
-0.25,0.25,-0.125
-0.25,0.25,0.125
5.55112e-17,-0.25,0.375
-0.25,0,-0.125
-0.25,5.55112e-17,0.125
0,-0.25,-0.125
5.55112e-17,-0.25,0.125
0,0,-0.375
5.55112e-17,5.55112e-17,0.375
1.11022e-16,0.25,0.375
0.25,-0.25,-0.125
0.25,-0.25,0.125
0.25,5.55112e-17,0.375
5.55112e-17,0.25,-0.125
1.11022e-16,0.25,0.125
0.25,0.25,-0.125
0.25,0.25,0.125
0.25,0,-0.125
0.25,5.55112e-17,0.125
-0.25,0,-0.5
0,-0.25,-0.5
5.55112e-17,0.25,-0.5
0.25,0,-0.5
-0.25,5.55112e-17,0.5
5.55112e-17,-0.25,0.5
1.11022e-16,0.25,0.5
0.25,5.55112e-17,0.5
connectivity
4,10
4,12
5,11
5,13
0,14
1,14
7,10
12,17
8,11
13,18
6,15
9,15
2,14
3,14
15,16
15,19
10,11
12,13
0,10
1,12
6,11
9,13
7,20
8,21
20,22
21,23
20,21
2,20
16,21
17,24
18,25
22,24
23,25
24,25
3,24
19,25
0,26
1,27
2,28
3,29
6,30
9,31
16,32
19,33