-0.237191,-0.237191,-0.5
-0.0988699,0.0988699,-0.5
0.0988699,-0.0988699,-0.5
0.237191,0.237191,-0.5
-0.296565,-0.275878,0.14655
-0.296565,-0.042482,0.10345
-0.275878,-0.296565,-0.14655
-0.042482,-0.296565,-0.10345
-0.275878,-0.0217949,0.39655
-0.262825,0.15918,0.125
-0.237191,-0.237191,0.5
-0.237191,-0.0811691,-0.25
-0.21949,0.21949,0
-0.15918,0.0555347,0.375
-0.15918,0.262825,-0.125
-0.0988699,0.0988699,0.5
-0.0988699,0.21949,-0.25
-0.042482,-0.0217949,0.35345
-0.0811691,-0.237191,0.25
-0.0217949,-0.275878,-0.39655
-0.0217949,-0.042482,-0.35345
0.0555347,-0.15918,-0.375
0.0988699,-0.21949,-0.25
0.15918,-0.262825,-0.125
0.21949,-0.21949,0
0.21949,-0.0988699,0.25
0.262825,-0.15918,0.125
-0.21949,0.0988699,0.25
-0.0811691,-0.0811691,0
-0.0555347,0.15918,-0.375
0.0217949,0.042482,-0.35345
0.0217949,0.275878,-0.39655
0.042482,0.0217949,0.35345
0.042482,0.296565,-0.10345
0.0811691,0.0811691,0
0.0811691,0.237191,0.25
0.0988699,-0.0988699,0.5
0.15918,-0.0555347,0.375
0.237191,0.0811691,-0.25
0.237191,0.237191,0.5
0.275878,0.0217949,0.39655
0.275878,0.296565,-0.14655
0.296565,0.042482,0.10345
0.296565,0.275878,0.14655
-0.31836,-0.302385,-0.1408
-0.302385,-0.31836,0.1408
-0.201662,-0.31836,-0.125
-0.31836,-0.201662,0.125
-0.31836,1.66533e-16,0.125
-0.31836,1.66533e-16,0.375
-0.31836,-0.143529,-0.13729
-0.31836,0.143529,-0.13729
-0.31836,-0.174831,0.38729
-0.31836,-0.289459,-0.14201
-0.31836,-0.0289007,0.39201
-0.31836,0.289459,-0.14201
-0.31836,0.0289007,0.39201
-0.31836,-0.284066,-0.16333
-0.31836,0.284066,-0.16333
-0.31836,0.0342937,0.41333
-0.31836,-0.0159753,0.3908
-0.31836,-0.116698,0.125
-0.302385,0.31836,0.1408
-0.31836,0.201662,0.125
-0.201662,0.31836,-0.125
-0.31836,0.302385,-0.1408
-0.31836,0.0159753,0.3908
-0.31836,0.116698,0.125
-0.31836,0.31836,-0.125
-0.31836,0.31836,0.125
1.66533e-16,-0.31836,-0.375
1.66533e-16,-0.31836,-0.125
0.174831,-0.31836,-0.38729
-0.174831,-0.31836,-0.38729
-0.143529,-0.31836,0.13729
0.143529,-0.31836,0.13729
-0.0289007,-0.31836,-0.39201
-0.289459,-0.31836,0.14201
0.0289007,-0.31836,-0.39201
0.289459,-0.31836,0.14201
-0.0342937,-0.31836,-0.41333
-0.284066,-0.31836,0.16333
0.0342937,-0.31836,-0.41333
0.284066,-0.31836,0.16333
-0.0159753,-0.31836,-0.3908
0.0159753,-0.31836,-0.3908
-0.116698,-0.31836,-0.125
0.201662,-0.31836,-0.125
0.31836,-0.302385,-0.1408
0.116698,-0.31836,-0.125
0.302385,-0.31836,0.1408
0.31836,-0.201662,0.125
0.31836,-0.31836,-0.125
2.22045e-16,0.31836,-0.375
2.22045e-16,0.31836,-0.125
0.31836,-0.31836,0.125
0.31836,1.66533e-16,0.125
0.31836,1.66533e-16,0.375
0.174831,0.31836,-0.38729
-0.174831,0.31836,-0.38729
-0.143529,0.31836,0.13729
0.31836,-0.143529,-0.13729
-0.31836,0.174831,0.38729
0.31836,0.143529,-0.13729
0.31836,-0.174831,0.38729
0.143529,0.31836,0.13729
0.31836,-0.289459,-0.14201
-0.0289007,0.31836,-0.39201
-0.289459,0.31836,0.14201
0.0289007,0.31836,-0.39201
0.31836,-0.0289007,0.39201
0.31836,0.289459,-0.14201
0.31836,0.0289007,0.39201
0.289459,0.31836,0.14201
-0.0342937,0.31836,-0.41333
0.31836,-0.284066,-0.16333
-0.284066,0.31836,0.16333
-0.31836,-0.0342937,0.41333
0.0342937,0.31836,-0.41333
0.31836,0.284066,-0.16333
0.31836,0.0342937,0.41333
0.284066,0.31836,0.16333
-0.0159753,0.31836,-0.3908
0.0159753,0.31836,-0.3908
0.31836,-0.0159753,0.3908
-0.116698,0.31836,-0.125
0.201662,0.31836,-0.125
0.31836,-0.116698,0.125
0.31836,0.201662,0.125
0.116698,0.31836,-0.125
0.31836,0.302385,-0.1408
0.31836,0.0159753,0.3908
0.31836,0.116698,0.125
0.302385,0.31836,0.1408
0.31836,0.174831,0.38729
0.31836,-0.0342937,0.41333
connectivity
21,29
13,37
1,11
2,38
22,28
27,28
18,36
16,34
25,34
15,35
7,23
21,30
20,29
5,9
14,33
17,37
13,32
26,42
7,24
16,20
22,30
5,12
12,33
24,42
27,32
17,25
19,30
20,31
8,32
17,40
0,11
3,38
11,28
18,28
10,18
34,38
34,35
35,39
6,44
4,45
7,46
5,47
9,48
13,49
11,50
12,51
10,52
6,53
8,54
14,55
13,56
6,57
16,58
15,59
8,60
4,61
62,63
64,65
17,66
5,67
14,68
9,69
21,70
23,71
22,72
0,73
18,74
24,75
19,76
4,77
21,78
26,79
19,80
4,81
2,82
25,83
19,84
20,85
6,86
87,88
7,89
90,91
23,92
29,93
14,94
26,95
26,96
37,97
3,98
16,99
12,100
24,101
27,102
38,103
25,104
35,105
23,106
29,107
9,108
31,109
37,110
41,111
40,112
43,113
1,114
22,115
27,116
8,117
31,118
41,119
40,120
43,121
30,122
31,123
32,124
33,125
33,126
42,127
42,128
41,129
41,130
40,131
43,132
43,133
39,134
36,135