-0.5,-0.23005,-0.29834
-0.5,0.23005,-0.29834
-0.31346,-8.32667e-17,-0.122111
-0.18654,-0.23005,-0.122111
0,-8.32667e-17,-0.29834
0.18654,-0.23005,-0.122111
0.31346,-8.32667e-17,-0.122111
0.5,-0.23005,-0.29834
-0.18654,0.23005,-0.122111
0.18654,0.23005,-0.122111
0.5,0.23005,-0.29834
-0.5,-0.23005,0.29834
-0.31346,-5.55112e-17,0.122111
-0.5,0.23005,0.29834
-0.18654,-0.23005,0.122111
0,-5.55112e-17,0.29834
0.18654,-0.23005,0.122111
0.31346,-5.55112e-17,0.122111
0.5,-0.23005,0.29834
-0.18654,0.23005,0.122111
0.18654,0.23005,0.122111
0.5,0.23005,0.29834
-0.18654,-0.23005,-0.29834
0.18654,-0.23005,-0.29834
-0.31346,-8.32667e-17,-0.29834
0.31346,-8.32667e-17,-0.29834
-0.18654,0.23005,-0.29834
0.18654,0.23005,-0.29834
-0.5,-8.32667e-17,-0.122111
-0.5,-5.55112e-17,0.122111
-0.18654,-0.23005,0.29834
0.18654,-0.23005,0.29834
-0.31346,-5.55112e-17,0.29834
0.31346,-5.55112e-17,0.29834
0.5,-8.32667e-17,-0.122111
0.5,-5.55112e-17,0.122111
-0.18654,0.23005,0.29834
0.18654,0.23005,0.29834
connectivity
0,4
1,4
4,7
4,10
0,3
2,4
4,6
5,7
11,14
16,18
12,15
15,17
0,11
4,15
3,14
5,16
2,12
6,17
3,5
14,16
1,8
9,10
13,19
20,21
1,13
8,19
9,20
8,9
19,20
7,18
10,21
11,15
13,15
15,18
15,21
3,22
5,23
2,24
6,25
8,26
9,27
2,28
12,29
14,30
16,31
12,32
17,33
6,34
17,35
19,36
20,37