-0.5,0,-0.45447
-0.5,0.5,-0.45447
0,-0.5,-0.45447
-0.35374,0.19216,-0.349387
-0.25,-0.25,-0.227235
0,0,-0.45447
1.11022e-16,0.5,-0.45447
0.25,-0.25,-0.227235
0.35374,0.30784,-0.349387
0.5,-0.5,-0.45447
0.5,0,-0.45447
-0.5,-0.5,-1.66533e-16
-0.5,-0.25,0.113617
-0.5,0,-1.66533e-16
-0.5,1.11022e-16,0.45447
-0.5,0.25,-0.113618
-0.5,0.5,-1.66533e-16
-0.44216,-0.10374,-0.122152
-0.44216,0.39626,0.122152
-0.25,0.25,0.227235
-0.5,0.5,0.45447
-0.05784,-0.39626,-0.332318
0,-0.5,-1.66533e-16
1.11022e-16,-0.5,0.45447
0,-0.25,0.340852
0.5,-0.5,-1.66533e-16
-0.35374,-0.30784,0.349387
-0.25,-0.25,0.227235
-0.25,0.25,-0.227235
-0.14626,-0.19216,0.105083
-0.14626,0.30784,-0.105083
-0.05784,0.10374,0.332318
0,0,-1.66533e-16
1.11022e-16,1.11022e-16,0.45447
0,0.25,-0.340853
1.11022e-16,0.5,-1.66533e-16
2.22045e-16,0.5,0.45447
0.05784,-0.10374,-0.332318
0.05784,0.39626,0.332318
0.14626,-0.30784,0.105083
0.14626,0.19216,-0.105083
0.25,-0.25,0.227235
0.25,0.25,-0.227235
0.25,0.25,0.227235
0.35374,-0.19216,0.349387
0.44216,-0.39626,-0.122152
0.44216,0.10374,0.122152
0.5,-0.5,0.45447
0.5,-0.25,0.113617
0.5,0,-1.66533e-16
0.5,1.11022e-16,0.45447
0.5,0.25,-0.113618
0.5,0.5,-1.66533e-16
-0.32094,-0.28955,-0.45447
-0.32094,0.21045,-0.45447
0.32094,-0.21045,-0.45447
0.32094,0.28955,-0.45447
-0.5,-0.13122,-0.141895
-0.5,-0.36878,-0.141895
-0.5,0.13122,0.141895
-0.5,0.36878,0.141895
-0.04088,-0.5,-0.334817
-0.45912,-0.5,0.119653
0.04088,-0.5,0.334817
0.5,-0.13122,-0.141895
0.5,-0.36878,-0.141895
0.5,0.13122,0.141895
0.5,0.36878,0.141895
-0.32094,-0.28955,0.45447
-0.32094,0.21045,0.45447
0.32094,-0.21045,0.45447
0.32094,0.28955,0.45447
-0.04088,0.5,-0.334817
0.45912,-0.5,-0.119653
-0.45912,0.5,0.119653
0.04088,0.5,0.334817
0.45912,0.5,-0.119653
connectivity
22,29
4,37
7,21
1,3
32,39
30,32
14,26
35,40
19,38
31,43
8,10
44,47
0,17
21,22
4,29
32,37
7,39
31,32
19,30
9,45
40,43
18,20
46,50
35,38
4,11
2,7
13,19
22,27
4,5
14,27
1,28
28,32
7,49
32,41
19,36
41,47
10,42
35,42
33,43
43,52
12,29
15,17
15,30
34,37
3,34
8,34
39,48
24,26
40,51
24,31
24,44
46,48
11,12
12,13
12,27
13,15
5,34
15,16
15,28
24,27
28,34
6,34
34,42
23,24
24,41
24,33
41,48
42,51
25,48
48,49
49,51
51,52
4,53
3,54
7,55
8,56
17,57
4,58
19,59
18,60
21,61
12,62
24,63
7,64
45,65
46,66
43,67
26,68
19,69
44,70
43,71
34,72
45,73
18,74
38,75
51,76