-0.174637,-0.207494,-0.36922
-0.174637,-0.0791158,-0.38078
-0.0507414,-0.0389274,-0.3909
0.0507414,0.0389274,-0.3909
0.174637,0.0791158,-0.38078
0.174637,0.207494,-0.36922
-0.247683,-0.235869,-0.1091
-0.235869,-0.247683,0.1091
-0.235869,-0.0389274,0.1409
-0.207494,-0.111973,-0.11922
-0.111973,-0.207494,0.11922
-0.0389274,-0.235869,-0.1409
-0.247683,-0.0507414,0.3591
-0.207494,-0.174637,0.36922
-0.111973,-0.0791158,0.13078
-0.0389274,-0.0507414,0.3909
-0.0791158,-0.111973,-0.13078
-0.0507414,-0.247683,-0.3591
-0.0791158,-0.174637,0.38078
0.0389274,0.0507414,0.3909
0.0389274,0.235869,-0.1409
0.0507414,0.247683,-0.3591
0.0791158,0.111973,-0.13078
0.0791158,0.174637,0.38078
0.111973,0.0791158,0.13078
0.111973,0.207494,0.11922
0.207494,0.111973,-0.11922
0.207494,0.174637,0.36922
0.235869,0.0389274,0.1409
0.235869,0.247683,0.1091
0.247683,0.0507414,0.3591
0.247683,0.235869,-0.1091
-0.0642981,-0.103776,-0.5
-0.103776,-0.0642981,-0.5
0.103776,0.0642981,-0.5
0.0642981,0.103776,-0.5
-0.191066,-0.191066,-0.5
0.191066,0.191066,-0.5
-0.190303,-0.12467,-0.5
-0.12467,-0.190303,-0.5
0.12467,0.190303,-0.5
0.190303,0.12467,-0.5
-0.28661,-0.249655,-0.11342
-0.249655,-0.28661,0.11342
-0.182232,-0.28661,-0.125
-0.28661,-0.182232,0.125
-0.274257,-0.28661,-0.11138
-0.28661,-0.274257,0.11138
-0.28661,-0.263028,-0.11244
-0.263028,-0.28661,0.11244
-0.28661,-0.0369555,0.36342
-0.28661,-0.104378,0.125
-0.249655,0.28661,0.11342
-0.28661,0.182232,0.125
-0.182232,0.28661,-0.125
-0.28661,0.249655,-0.11342
-0.28661,0.0369555,0.36342
-0.28661,0.104378,0.125
-0.28661,-0.0123529,0.13862
-0.274257,0.28661,-0.11138
-0.28661,0.263028,-0.11244
-0.28661,0.0123529,0.13862
-0.28661,-0.0235823,0.36244
-0.263028,0.28661,0.11244
-0.28661,0.274257,0.11138
-0.28661,0.0235823,0.36244
-0.0369555,-0.28661,-0.36342
0.0369555,-0.28661,-0.36342
-0.104378,-0.28661,-0.125
0.182232,-0.28661,-0.125
0.28661,-0.249655,-0.11342
0.104378,-0.28661,-0.125
0.249655,-0.28661,0.11342
0.28661,-0.182232,0.125
-0.0123529,-0.28661,-0.13862
-0.0235823,-0.28661,-0.36244
0.0123529,-0.28661,-0.13862
0.0235823,-0.28661,-0.36244
0.263028,-0.28661,0.11244
0.28661,-0.274257,0.11138
0.274257,-0.28661,-0.11138
0.28661,-0.263028,-0.11244
-0.0369555,0.28661,-0.36342
0.0369555,0.28661,-0.36342
-0.104378,0.28661,-0.125
0.182232,0.28661,-0.125
0.28661,-0.0369555,0.36342
0.28661,-0.104378,0.125
0.28661,0.182232,0.125
0.104378,0.28661,-0.125
0.28661,0.249655,-0.11342
0.28661,0.0369555,0.36342
0.28661,0.104378,0.125
0.249655,0.28661,0.11342
-0.0123529,0.28661,-0.13862
-0.0235823,0.28661,-0.36244
0.0123529,0.28661,-0.13862
0.28661,-0.0123529,0.13862
0.28661,0.263028,-0.11244
0.0235823,0.28661,-0.36244
0.28661,0.0123529,0.13862
0.263028,0.28661,0.11244
0.274257,0.28661,-0.11138
0.28661,-0.0235823,0.36244
0.28661,0.274257,0.11138
0.28661,0.0235823,0.36244
-0.0642981,-0.103776,0.5
-0.103776,-0.0642981,0.5
0.103776,0.0642981,0.5
0.0642981,0.103776,0.5
-0.191066,-0.191066,0.5
0.191066,0.191066,0.5
-0.190303,-0.12467,0.5
-0.12467,-0.190303,0.5
0.12467,0.190303,0.5
0.190303,0.12467,0.5
connectivity
3,17
2,21
12,19
15,30
6,11
2,17
7,8
3,21
12,15
20,31
19,30
28,29
1,3
2,4
18,19
15,23
0,11
6,10
16,17
7,9
8,13
12,14
21,22
5,20
24,30
26,29
27,28
25,31
1,9
14,16
10,18
22,24
4,26
23,25
0,9
1,16
9,14
10,16
10,13
14,18
4,22
22,25
24,26
23,24
5,26
25,27
2,32
1,33
4,34
3,35
0,36
5,37
1,38
0,39
5,40
4,41
6,42
7,43
11,44
8,45
6,46
7,47
9,48
10,49
12,50
7,51
52,53
54,55
15,56
8,57
8,58
59,60
14,61
13,62
63,64
12,65
17,66
2,67
6,68
69,70
11,71
72,73
11,74
0,75
16,76
17,77
78,79
80,81
3,82
21,83
20,84
20,85
19,86
28,87
28,88
31,89
31,90
30,91
29,92
29,93
22,94
21,95
20,96
24,97
26,98
5,99
28,100
25,101
31,102
30,103
29,104
27,105
18,106
15,107
19,108
23,109
13,110
27,111
13,112
18,113
23,114
27,115